%!PS-Adobe-2.0 EPSF-2.0
%%BoundingBox:  0 0 567 294
%%Title: plots/variables_id_c2.eps: Input variables (training sample)
%%Creator: ROOT Version 6.06/02
%%CreationDate: Tue Oct 16 01:05:23 2018
%%DocumentNeededResources: ProcSet (FontSetInit)
%%EndComments
%%BeginProlog
80 dict begin
/s {stroke} def /l {lineto} def /m {moveto} def /t {translate} def
/r {rotate} def /rl {roll}  def /R {repeat} def
/d {rlineto} def /rm {rmoveto} def /gr {grestore} def /f {eofill} def
/c {setrgbcolor} def /black {0 setgray} def /sd {setdash} def
/cl {closepath} def /sf {scalefont setfont} def /lw {setlinewidth} def
/box {m dup 0 exch d exch 0 d 0 exch neg d cl} def
/NC{systemdict begin initclip end}def/C{NC box clip newpath}def
/bl {box s} def /bf {gsave box gsave f grestore 1 lw [] 0 sd s grestore} def /Y { 0 exch d} def /X { 0 d} def 
/K {{pop pop 0 moveto} exch kshow} bind def
/ita {/ang 15 def gsave [1 0 ang dup sin exch cos div 1 0 0] concat} def 
/mp {newpath /y exch def /x exch def} def
/side {[w .77 mul w .23 mul] .385 w mul sd w 0 l currentpoint t -144 r} def
/mr {mp x y w2 0 360 arc} def /m24 {mr s} def /m20 {mr f} def
/mb {mp x y w2 add m w2 neg 0 d 0 w neg d w 0 d 0 w d cl} def
/mt {mp x y w2 add m w2 neg w neg d w 0 d cl} def
/m21 {mb f} def /m25 {mb s} def /m22 {mt f} def /m26{mt s} def
/m23 {mp x y w2 sub m w2 w d w neg 0 d cl f} def
/m27 {mp x y w2 add m w3 neg w2 neg d w3 w2 neg d w3 w2 d cl s} def
/m28 {mp x w2 sub y w2 sub w3 add m w3 0 d  0 w3 neg d w3 0 d 0 w3 d w3 0 d  0 w3 d w3 neg 0 d 0 w3 d w3 neg 0 d 0 w3 neg d w3 neg 0 d cl s } def
/m29 {mp gsave x w2 sub y w2 add w3 sub m currentpoint t 4 {side} repeat cl fill gr} def
/m30 {mp gsave x w2 sub y w2 add w3 sub m currentpoint t 4 {side} repeat cl s gr} def
/m31 {mp x y w2 sub m 0 w d x w2 sub y m w 0 d x w2 sub y w2 add m w w neg d x w2 sub y w2 sub m w w d s} def
/m32 {mp x y w2 sub m w2 w d w neg 0 d cl s} def
/m33 {mp x y w2 add m w3 neg w2 neg d w3 w2 neg d w3 w2 d cl f} def
/m34 {mp x w2 sub y w2 sub w3 add m w3 0 d  0 w3 neg d w3 0 d 0 w3 d w3 0 d  0 w3 d w3 neg 0 d 0 w3 d w3 neg 0 d 0 w3 neg d w3 neg 0 d cl f } def
/m2 {mp x y w2 sub m 0 w d x w2 sub y m w 0 d s} def
/m5 {mp x w2 sub y w2 sub m w w d x w2 sub y w2 add m w w neg d s} def
%%IncludeResource: ProcSet (FontSetInit)
%%IncludeResource: font Times-Roman
%%IncludeResource: font Times-Italic
%%IncludeResource: font Times-Bold
%%IncludeResource: font Times-BoldItalic
%%IncludeResource: font Helvetica
%%IncludeResource: font Helvetica-Oblique
%%IncludeResource: font Helvetica-Bold
%%IncludeResource: font Helvetica-BoldOblique
%%IncludeResource: font Courier
%%IncludeResource: font Courier-Oblique
%%IncludeResource: font Courier-Bold
%%IncludeResource: font Courier-BoldOblique
%%IncludeResource: font Symbol
%%IncludeResource: font ZapfDingbats
/reEncode {exch findfont dup length dict begin {1 index /FID eq  {pop pop} {def} ifelse } forall /Encoding exch def currentdict end dup /FontName get exch definefont pop } def [/Times-Bold /Times-Italic /Times-BoldItalic /Helvetica /Helvetica-Oblique
 /Helvetica-Bold /Helvetica-BoldOblique /Courier /Courier-Oblique /Courier-Bold /Courier-BoldOblique /Times-Roman /AvantGarde-Book /AvantGarde-BookOblique /AvantGarde-Demi /AvantGarde-DemiOblique /Bookman-Demi /Bookman-DemiItalic /Bookman-Light
 /Bookman-LightItalic /Helvetica-Narrow /Helvetica-Narrow-Bold /Helvetica-Narrow-BoldOblique /Helvetica-Narrow-Oblique /NewCenturySchlbk-Roman /NewCenturySchlbk-Bold /NewCenturySchlbk-BoldItalic /NewCenturySchlbk-Italic /Palatino-Bold
 /Palatino-BoldItalic /Palatino-Italic /Palatino-Roman ] {ISOLatin1Encoding reEncode } forall
%%EndProlog
%%BeginSetup
%%EndSetup
newpath  gsave  .25 .25 scale  gsave  0 0 t 0.48 0.56 0.6 c[  ] 0 sd 3 lw 1 1 1 c 2268 1176 0 0 bf 0.48 0.56 0.6 c 1 1 1 c 710 565 23 600 bf black 1 1 1 c 548 427 143 681 bf black 548 427 143 681 bl 1 1 1 c 548 427 143 681 bf black 548 427 143 681 bl
 0 0 0.933333 c 6 lw 0.49 0.6 0.82 c black 3 lw 0.49 0.6 0.82 c 143 681 m 29 Y 14 X 16 Y 14 X 53 Y 14 X 23 Y 13 X 17 Y 14 X 19 Y 14 X 47 Y 13 X 19 Y 14 X 11 Y 14 X 30 Y 13 X -8 Y 14 X -22 Y 14 X 25 Y 13 X 73 Y 14 X -39 Y 14 X -10 Y 13 X -50 Y 14 X 37
 Y 14 X -12 Y 13 X 23 Y 14 X -19 Y 14 X -50 Y 13 X -73 Y 14 X 20 Y 14 X -10 Y 13 X -46 Y 14 X -5 Y 14 X -44 Y 13 X 2 Y 14 X -27 Y 14 X -17 Y 13 X -1 Y 14 X 1 Y 14 X -11 Y 14 X -1 Y 13 X 1 Y 14 X -1 Y 55 X f 6 lw 0 0 0.933333 c 0.49 0.6 0.82 c 0 0
 0.933333 c 143 710 m 14 X 16 Y 14 X 53 Y 14 X 23 Y 13 X 17 Y 14 X 19 Y 14 X 47 Y 13 X 19 Y 14 X 11 Y 14 X 30 Y 13 X -8 Y 14 X -22 Y 14 X 25 Y 13 X 73 Y 14 X -39 Y 14 X -10 Y 13 X -50 Y 14 X 37 Y 14 X -12 Y 13 X 23 Y 14 X -19 Y 14 X -50 Y 13 X -73 Y
 14 X 20 Y 14 X -10 Y 13 X -46 Y 14 X -5 Y 14 X -44 Y 13 X 2 Y 14 X -27 Y 14 X -17 Y 13 X -1 Y 14 X 1 Y 14 X -11 Y 14 X -1 Y 13 X 1 Y 14 X -1 Y 55 X s black 3 lw 143 681 m 548 X s
 gsave  710 565 23 600 C 511.515 613.818 t 0 r /Helvetica findfont 28.5208 sf 0 0 m (log_XiccK_PT) show NC gr  189 694 m -13 Y s 205 688 m -7 Y s 220 688 m -7 Y s 236 688 m -7 Y s 252 688 m -7 Y s 268 694 m -13 Y s 284 688 m -7 Y s 300 688 m -7 Y s
 315 688 m -7 Y s 331 688 m -7 Y s 347 694 m -13 Y s 363 688 m -7 Y s 379 688 m -7 Y s 395 688 m -7 Y s 411 688 m -7 Y s 426 694 m -13 Y s 442 688 m -7 Y s 458 688 m -7 Y s 474 688 m -7 Y s 490 688 m -7 Y s 506 694 m -13 Y s 521 688 m -7 Y s 537 688
 m -7 Y s 553 688 m -7 Y s 569 688 m -7 Y s 585 694 m -13 Y s 601 688 m -7 Y s 617 688 m -7 Y s 632 688 m -7 Y s 648 688 m -7 Y s 664 694 m -13 Y s 189 694 m -13 Y s 173 688 m -7 Y s 157 688 m -7 Y s 664 694 m -13 Y s 680 688 m -7 Y s
 gsave  710 565 23 600 C 167.663 653.603 t 0 r /Helvetica findfont 25.6688 sf 0 0 m (6.5) show NC gr 
 gsave  710 565 23 600 C 258.599 653.603 t 0 r /Helvetica findfont 25.6688 sf 0 0 m (7) show NC gr 
 gsave  710 565 23 600 C 326.801 653.603 t 0 r /Helvetica findfont 25.6688 sf 0 0 m (7.5) show NC gr 
 gsave  710 565 23 600 C 417.737 653.603 t 0 r /Helvetica findfont 25.6688 sf 0 0 m (8) show NC gr 
 gsave  710 565 23 600 C 483.098 653.603 t 0 r /Helvetica findfont 25.6688 sf 0 0 m (8.5) show NC gr 
 gsave  710 565 23 600 C 574.034 653.603 t 0 r /Helvetica findfont 25.6688 sf 0 0 m (9) show NC gr 
 gsave  710 565 23 600 C 642.236 653.603 t 0 r /Helvetica findfont 25.6688 sf 0 0 m (9.5) show NC gr  143 1108 m 548 X s 189 1095 m 13 Y s 205 1102 m 6 Y s 220 1102 m 6 Y s 236 1102 m 6 Y s 252 1102 m 6 Y s 268 1095 m 13 Y s 284 1102 m 6 Y s 300 1102
 m 6 Y s 315 1102 m 6 Y s 331 1102 m 6 Y s 347 1095 m 13 Y s 363 1102 m 6 Y s 379 1102 m 6 Y s 395 1102 m 6 Y s 411 1102 m 6 Y s 426 1095 m 13 Y s 442 1102 m 6 Y s 458 1102 m 6 Y s 474 1102 m 6 Y s 490 1102 m 6 Y s 506 1095 m 13 Y s 521 1102 m 6 Y s
 537 1102 m 6 Y s 553 1102 m 6 Y s 569 1102 m 6 Y s 585 1095 m 13 Y s 601 1102 m 6 Y s 617 1102 m 6 Y s 632 1102 m 6 Y s 648 1102 m 6 Y s 664 1095 m 13 Y s 189 1095 m 13 Y s 173 1102 m 6 Y s 157 1102 m 6 Y s 664 1095 m 13 Y s 680 1102 m 6 Y s 143 681
 m 427 Y s
 gsave  710 565 23 600 C 45.468 1011.66 t 90 r /Helvetica findfont 28.5208 sf 0 0 m (0.0863 ) show NC gr 
 gsave  710 565 23 600 C 31.2593 1005.98 t 90 r /Helvetica findfont 19.9646 sf 0 0 m ( ) show NC gr 
 gsave  710 565 23 600 C 45.468 994.613 t 90 r /Helvetica findfont 28.5208 sf 0 0 m (/) show NC gr 
 gsave  710 565 23 600 C 53.9933 988.929 t 90 r /Helvetica findfont 19.9646 sf 0 0 m ( ) show NC gr 
 gsave  710 565 23 600 C 45.468 880.943 t 90 r /Helvetica findfont 28.5208 sf 0 0 m (\(1/N\) dN) show NC gr  160 681 m -17 X s 152 691 m -9 X s 152 700 m -9 X s 152 710 m -9 X s 152 719 m -9 X s 160 729 m -17 X s 152 738 m -9 X s 152 748 m -9 X s 152
 757 m -9 X s 152 767 m -9 X s 160 776 m -17 X s 152 786 m -9 X s 152 795 m -9 X s 152 805 m -9 X s 152 814 m -9 X s 160 824 m -17 X s 152 833 m -9 X s 152 843 m -9 X s 152 852 m -9 X s 152 862 m -9 X s 160 871 m -17 X s 152 881 m -9 X s 152 890 m -9
 X s 152 900 m -9 X s 152 909 m -9 X s 160 919 m -17 X s 152 928 m -9 X s 152 938 m -9 X s 152 947 m -9 X s 152 957 m -9 X s 160 966 m -17 X s 152 975 m -9 X s 152 985 m -9 X s 152 994 m -9 X s 152 1004 m -9 X s 160 1013 m -17 X s 152 1023 m -9 X s
 152 1032 m -9 X s 152 1042 m -9 X s 152 1051 m -9 X s 160 1061 m -17 X s 160 1061 m -17 X s 152 1070 m -9 X s 152 1080 m -9 X s 152 1089 m -9 X s 152 1099 m -9 X s
 gsave  710 565 23 600 C 119.354 670.653 t 0 r /Helvetica findfont 25.6688 sf 0 0 m (0) show NC gr 
 gsave  710 565 23 600 C 102.303 718.963 t 0 r /Helvetica findfont 25.6688 sf 0 0 m (0.1) show NC gr 
 gsave  710 565 23 600 C 96.6195 767.273 t 0 r /Helvetica findfont 25.6688 sf 0 0 m (0.2) show NC gr 
 gsave  710 565 23 600 C 96.6195 812.741 t 0 r /Helvetica findfont 25.6688 sf 0 0 m (0.3) show NC gr 
 gsave  710 565 23 600 C 96.6195 861.05 t 0 r /Helvetica findfont 25.6688 sf 0 0 m (0.4) show NC gr 
 gsave  710 565 23 600 C 96.6195 909.36 t 0 r /Helvetica findfont 25.6688 sf 0 0 m (0.5) show NC gr 
 gsave  710 565 23 600 C 96.6195 954.828 t 0 r /Helvetica findfont 25.6688 sf 0 0 m (0.6) show NC gr 
 gsave  710 565 23 600 C 96.6195 1003.14 t 0 r /Helvetica findfont 25.6688 sf 0 0 m (0.7) show NC gr 
 gsave  710 565 23 600 C 96.6195 1051.45 t 0 r /Helvetica findfont 25.6688 sf 0 0 m (0.8) show NC gr  691 681 m 427 Y s 674 681 m 17 X s 683 691 m 8 X s 683 700 m 8 X s 683 710 m 8 X s 683 719 m 8 X s 674 729 m 17 X s 683 738 m 8 X s 683 748 m 8 X s
 683 757 m 8 X s 683 767 m 8 X s 674 776 m 17 X s 683 786 m 8 X s 683 795 m 8 X s 683 805 m 8 X s 683 814 m 8 X s 674 824 m 17 X s 683 833 m 8 X s 683 843 m 8 X s 683 852 m 8 X s 683 862 m 8 X s 674 871 m 17 X s 683 881 m 8 X s 683 890 m 8 X s 683
 900 m 8 X s 683 909 m 8 X s 674 919 m 17 X s 683 928 m 8 X s 683 938 m 8 X s 683 947 m 8 X s 683 957 m 8 X s 674 966 m 17 X s 683 975 m 8 X s 683 985 m 8 X s 683 994 m 8 X s 683 1004 m 8 X s 674 1013 m 17 X s 683 1023 m 8 X s 683 1032 m 8 X s 683
 1042 m 8 X s 683 1051 m 8 X s 674 1061 m 17 X s 674 1061 m 17 X s 683 1070 m 8 X s 683 1080 m 8 X s 683 1089 m 8 X s 683 1099 m 8 X s 1 0 0 c 6 lw black 3 lw 1 0 0 c 676 681 m s 661 681 m s 646 681 m s 631 682 m -1 Y s 616 682 m -1 Y s 601 682 m -1
 Y s 586 682 m -1 Y s 571 682 m -1 Y s 557 682 m -1 -1 d s 543 684 m -2 -3 d s 529 685 m -4 -4 d s 515 686 m -5 -5 d s 502 688 m -7 -7 d s 491 692 m -11 -11 d s 482 698 m -17 -17 d s 472 703 m -22 -22 d s 458 705 m -23 -24 d s 449 710 m -29 -29 d s
 442 719 m -37 -38 d s 431 723 m -41 -42 d s 424 731 m -49 -50 d s 417 739 m -57 -58 d s 408 745 m -63 -64 d s 403 756 m -74 -75 d s 400 767 m -86 -86 d s 390 772 m -91 -91 d s 387 785 m -103 -104 d s 376 789 m -107 -108 d s 376 804 m -122 -123 d s
 368 812 m -129 -131 d s 362 821 m -138 -140 d s 362 836 m -153 -155 d s 352 841 m -158 -160 d s 349 852 m -170 -171 d s 349 868 m -185 -187 d s 339 873 m -190 -192 d s 335 884 m -192 -193 d s 335 899 m -192 -192 d s 321 901 m -178 -179 d s 321 916 m
 -178 -179 d s 319 929 m -176 -177 d s 308 933 m -165 -166 d s 308 948 m -165 -166 d s 301 957 m -158 -159 d s 294 964 m -151 -151 d s 294 980 m -151 -152 d s 289 990 m -146 -147 d s 280 996 m -137 -138 d s 280 1011 m -137 -137 d s 267 1013 m -124
 -124 d s 267 1028 m -124 -124 d s 257 1034 m -114 -115 d s 253 1045 m -110 -111 d s 247 1054 m -104 -105 d s 239 1061 m -96 -96 d s 226 1063 m -55 -56 d s 160 997 m -3 -3 d s 154 990 m -11 -10 d s 217 1069 m -5 -5 d s 192 1044 m -7 -8 d s 174 1026 m
 -3 -3 d s 6 lw 143 990 m 14 X 7 Y 14 X 29 Y 14 X 18 Y 13 X 6 Y 14 X 19 Y 14 X -8 Y 13 X -7 Y 14 X -20 Y 14 X -21 Y 13 X -23 Y 14 X -33 Y 14 X -28 Y 13 X -29 Y 14 X -27 Y 14 X -32 Y 13 X -29 Y 14 X -27 Y 14 X -18 Y 13 X -22 Y 14 X -14 Y 14 X -12 Y 13
 X -9 Y 14 X -7 Y 14 X -5 Y 13 X -6 Y 14 X -4 Y 14 X -2 Y 13 X -1 Y 14 X -1 Y 14 X -2 Y 82 X -1 Y 55 X s black 3 lw 143 681 m 548 X s 189 694 m -13 Y s 205 688 m -7 Y s 220 688 m -7 Y s 236 688 m -7 Y s 252 688 m -7 Y s 268 694 m -13 Y s 284 688 m -7
 Y s 300 688 m -7 Y s 315 688 m -7 Y s 331 688 m -7 Y s 347 694 m -13 Y s 363 688 m -7 Y s 379 688 m -7 Y s 395 688 m -7 Y s 411 688 m -7 Y s 426 694 m -13 Y s 442 688 m -7 Y s 458 688 m -7 Y s 474 688 m -7 Y s 490 688 m -7 Y s 506 694 m -13 Y s 521
 688 m -7 Y s 537 688 m -7 Y s 553 688 m -7 Y s 569 688 m -7 Y s 585 694 m -13 Y s 601 688 m -7 Y s 617 688 m -7 Y s 632 688 m -7 Y s 648 688 m -7 Y s 664 694 m -13 Y s 189 694 m -13 Y s 173 688 m -7 Y s 157 688 m -7 Y s 664 694 m -13 Y s 680 688 m
 -7 Y s 143 1108 m 548 X s 189 1095 m 13 Y s 205 1102 m 6 Y s 220 1102 m 6 Y s 236 1102 m 6 Y s 252 1102 m 6 Y s 268 1095 m 13 Y s 284 1102 m 6 Y s 300 1102 m 6 Y s 315 1102 m 6 Y s 331 1102 m 6 Y s 347 1095 m 13 Y s 363 1102 m 6 Y s 379 1102 m 6 Y s
 395 1102 m 6 Y s 411 1102 m 6 Y s 426 1095 m 13 Y s 442 1102 m 6 Y s 458 1102 m 6 Y s 474 1102 m 6 Y s 490 1102 m 6 Y s 506 1095 m 13 Y s 521 1102 m 6 Y s 537 1102 m 6 Y s 553 1102 m 6 Y s 569 1102 m 6 Y s 585 1095 m 13 Y s 601 1102 m 6 Y s 617 1102
 m 6 Y s 632 1102 m 6 Y s 648 1102 m 6 Y s 664 1095 m 13 Y s 189 1095 m 13 Y s 173 1102 m 6 Y s 157 1102 m 6 Y s 664 1095 m 13 Y s 680 1102 m 6 Y s 143 681 m 427 Y s 160 681 m -17 X s 152 691 m -9 X s 152 700 m -9 X s 152 710 m -9 X s 152 719 m -9 X
 s 160 729 m -17 X s 152 738 m -9 X s 152 748 m -9 X s 152 757 m -9 X s 152 767 m -9 X s 160 776 m -17 X s 152 786 m -9 X s 152 795 m -9 X s 152 805 m -9 X s 152 814 m -9 X s 160 824 m -17 X s 152 833 m -9 X s 152 843 m -9 X s 152 852 m -9 X s 152
 862 m -9 X s 160 871 m -17 X s 152 881 m -9 X s 152 890 m -9 X s 152 900 m -9 X s 152 909 m -9 X s 160 919 m -17 X s 152 928 m -9 X s 152 938 m -9 X s 152 947 m -9 X s 152 957 m -9 X s 160 966 m -17 X s 152 975 m -9 X s 152 985 m -9 X s 152 994 m -9
 X s 152 1004 m -9 X s 160 1013 m -17 X s 152 1023 m -9 X s 152 1032 m -9 X s 152 1042 m -9 X s 152 1051 m -9 X s 160 1061 m -17 X s 160 1061 m -17 X s 152 1070 m -9 X s 152 1080 m -9 X s 152 1089 m -9 X s 152 1099 m -9 X s 691 681 m 427 Y s 674 681
 m 17 X s 683 691 m 8 X s 683 700 m 8 X s 683 710 m 8 X s 683 719 m 8 X s 674 729 m 17 X s 683 738 m 8 X s 683 748 m 8 X s 683 757 m 8 X s 683 767 m 8 X s 674 776 m 17 X s 683 786 m 8 X s 683 795 m 8 X s 683 805 m 8 X s 683 814 m 8 X s 674 824 m 17 X
 s 683 833 m 8 X s 683 843 m 8 X s 683 852 m 8 X s 683 862 m 8 X s 674 871 m 17 X s 683 881 m 8 X s 683 890 m 8 X s 683 900 m 8 X s 683 909 m 8 X s 674 919 m 17 X s 683 928 m 8 X s 683 938 m 8 X s 683 947 m 8 X s 683 957 m 8 X s 674 966 m 17 X s 683
 975 m 8 X s 683 985 m 8 X s 683 994 m 8 X s 683 1004 m 8 X s 674 1013 m 17 X s 683 1023 m 8 X s 683 1032 m 8 X s 683 1042 m 8 X s 683 1051 m 8 X s 674 1061 m 17 X s 674 1061 m 17 X s 683 1070 m 8 X s 683 1080 m 8 X s 683 1089 m 8 X s 683 1099 m 8 X
 s
 gsave  710 565 23 600 C 719.017 679.067 t 90 r /Helvetica-Bold findfont 19.9646 sf 0 0 m (U/O\255flow \(S,B\): \(0.0, 0.0\)% / \(0.0, 0.0\)%) show NC gr  0.48 0.56 0.6 c 0.364706 0.419608 0.490196 c 406 38 30 1124 bf 0.48 0.56 0.6 c 30 1124 m 406 X
 s 436 1124 m 38 Y s 436 1162 m -406 X s 30 1162 m -38 Y s 1 1 1 c black 1 1 1 c
 gsave  710 565 23 600 C 34.101 1136.7 t 0 r /Helvetica-Bold findfont 28.5208 sf 0 0 m (Input variable: log_XiccK_PT) show NC gr  0.48 0.56 0.6 c 1 1 1 c 710 565 779 600 bf black 1 1 1 c 548 427 899 681 bf black 548 427 899 681 bl 1 1 1 c 548 427 899
 681 bf black 548 427 899 681 bl 0 0 0.933333 c 6 lw 0.49 0.6 0.82 c black 3 lw 0.49 0.6 0.82 c 899 681 m 96 Y 14 X 15 Y 14 X -32 Y 13 X 79 Y 14 X -34 Y 14 X 22 Y 13 X 62 Y 14 X -25 Y 14 X -16 Y 13 X 44 Y 14 X -62 Y 14 X 65 Y 14 X -36 Y 13 X 7 Y 14 X
 3 Y 14 X -25 Y 13 X -8 Y 14 X 36 Y 14 X -63 Y 13 X -2 Y 14 X 8 Y 14 X -46 Y 13 X 7 Y 14 X 5 Y 14 X -32 Y 13 X 2 Y 14 X -21 Y 14 X 4 Y 13 X -28 Y 14 X -13 Y 27 X -2 Y 14 X 6 Y 14 X -11 Y 13 X -4 Y 14 X 6 Y 14 X -7 Y 13 X 1 Y 14 X -1 Y 14 X 1 Y 14 X
 -1 Y f 6 lw 0 0 0.933333 c 0.49 0.6 0.82 c 0 0 0.933333 c 899 777 m 14 X 15 Y 14 X -32 Y 13 X 79 Y 14 X -34 Y 14 X 22 Y 13 X 62 Y 14 X -25 Y 14 X -16 Y 13 X 44 Y 14 X -62 Y 14 X 65 Y 14 X -36 Y 13 X 7 Y 14 X 3 Y 14 X -25 Y 13 X -8 Y 14 X 36 Y 14 X
 -63 Y 13 X -2 Y 14 X 8 Y 14 X -46 Y 13 X 7 Y 14 X 5 Y 14 X -32 Y 13 X 2 Y 14 X -21 Y 14 X 4 Y 13 X -28 Y 14 X -13 Y 27 X -2 Y 14 X 6 Y 14 X -11 Y 13 X -4 Y 14 X 6 Y 14 X -7 Y 13 X 1 Y 14 X -1 Y 14 X 1 Y 14 X s black 3 lw 899 681 m 548 X s
 gsave  710 565 779 600 C 1261.74 613.818 t 0 r /Helvetica findfont 28.5208 sf 0 0 m (log_XiccPi_PT) show NC gr  949 694 m -13 Y s 967 688 m -7 Y s 984 688 m -7 Y s 1002 688 m -7 Y s 1019 688 m -7 Y s 1037 694 m -13 Y s 1054 688 m -7 Y s 1071 688 m
 -7 Y s 1089 688 m -7 Y s 1106 688 m -7 Y s 1124 694 m -13 Y s 1141 688 m -7 Y s 1159 688 m -7 Y s 1176 688 m -7 Y s 1194 688 m -7 Y s 1211 694 m -13 Y s 1229 688 m -7 Y s 1246 688 m -7 Y s 1264 688 m -7 Y s 1281 688 m -7 Y s 1298 694 m -13 Y s 1316
 688 m -7 Y s 1333 688 m -7 Y s 1351 688 m -7 Y s 1368 688 m -7 Y s 1386 694 m -13 Y s 949 694 m -13 Y s 932 688 m -7 Y s 914 688 m -7 Y s 1386 694 m -13 Y s 1403 688 m -7 Y s 1421 688 m -7 Y s 1438 688 m -7 Y s
 gsave  710 565 779 600 C 929.252 653.603 t 0 r /Helvetica findfont 25.6688 sf 0 0 m (6.5) show NC gr 
 gsave  710 565 779 600 C 1025.87 653.603 t 0 r /Helvetica findfont 25.6688 sf 0 0 m (7) show NC gr 
 gsave  710 565 779 600 C 1102.6 653.603 t 0 r /Helvetica findfont 25.6688 sf 0 0 m (7.5) show NC gr 
 gsave  710 565 779 600 C 1202.06 653.603 t 0 r /Helvetica findfont 25.6688 sf 0 0 m (8) show NC gr 
 gsave  710 565 779 600 C 1275.95 653.603 t 0 r /Helvetica findfont 25.6688 sf 0 0 m (8.5) show NC gr 
 gsave  710 565 779 600 C 1375.41 653.603 t 0 r /Helvetica findfont 25.6688 sf 0 0 m (9) show NC gr  899 1108 m 548 X s 949 1095 m 13 Y s 967 1102 m 6 Y s 984 1102 m 6 Y s 1002 1102 m 6 Y s 1019 1102 m 6 Y s 1037 1095 m 13 Y s 1054 1102 m 6 Y s 1071
 1102 m 6 Y s 1089 1102 m 6 Y s 1106 1102 m 6 Y s 1124 1095 m 13 Y s 1141 1102 m 6 Y s 1159 1102 m 6 Y s 1176 1102 m 6 Y s 1194 1102 m 6 Y s 1211 1095 m 13 Y s 1229 1102 m 6 Y s 1246 1102 m 6 Y s 1264 1102 m 6 Y s 1281 1102 m 6 Y s 1298 1095 m 13 Y s
 1316 1102 m 6 Y s 1333 1102 m 6 Y s 1351 1102 m 6 Y s 1368 1102 m 6 Y s 1386 1095 m 13 Y s 949 1095 m 13 Y s 932 1102 m 6 Y s 914 1102 m 6 Y s 1386 1095 m 13 Y s 1403 1102 m 6 Y s 1421 1102 m 6 Y s 1438 1102 m 6 Y s 899 681 m 427 Y s
 gsave  710 565 779 600 C 801.374 1011.66 t 90 r /Helvetica findfont 28.5208 sf 0 0 m (0.0783 ) show NC gr 
 gsave  710 565 779 600 C 787.165 1005.98 t 90 r /Helvetica findfont 19.9646 sf 0 0 m ( ) show NC gr 
 gsave  710 565 779 600 C 801.374 994.613 t 90 r /Helvetica findfont 28.5208 sf 0 0 m (/) show NC gr 
 gsave  710 565 779 600 C 809.899 988.929 t 90 r /Helvetica findfont 19.9646 sf 0 0 m ( ) show NC gr 
 gsave  710 565 779 600 C 801.374 880.943 t 90 r /Helvetica findfont 28.5208 sf 0 0 m (\(1/N\) dN) show NC gr  915 681 m -16 X s 907 697 m -8 X s 907 712 m -8 X s 907 727 m -8 X s 915 742 m -16 X s 907 758 m -8 X s 907 773 m -8 X s 907 788 m -8 X s
 915 803 m -16 X s 907 819 m -8 X s 907 834 m -8 X s 907 849 m -8 X s 915 864 m -16 X s 907 880 m -8 X s 907 895 m -8 X s 907 910 m -8 X s 915 925 m -16 X s 907 941 m -8 X s 907 956 m -8 X s 907 971 m -8 X s 915 986 m -16 X s 907 1002 m -8 X s 907
 1017 m -8 X s 907 1032 m -8 X s 915 1048 m -16 X s 915 1048 m -16 X s 907 1063 m -8 X s 907 1078 m -8 X s 907 1093 m -8 X s
 gsave  710 565 779 600 C 875.259 670.653 t 0 r /Helvetica findfont 25.6688 sf 0 0 m (0) show NC gr 
 gsave  710 565 779 600 C 852.525 733.172 t 0 r /Helvetica findfont 25.6688 sf 0 0 m (0.2) show NC gr 
 gsave  710 565 779 600 C 852.525 792.848 t 0 r /Helvetica findfont 25.6688 sf 0 0 m (0.4) show NC gr 
 gsave  710 565 779 600 C 852.525 855.367 t 0 r /Helvetica findfont 25.6688 sf 0 0 m (0.6) show NC gr 
 gsave  710 565 779 600 C 852.525 915.044 t 0 r /Helvetica findfont 25.6688 sf 0 0 m (0.8) show NC gr 
 gsave  710 565 779 600 C 878.101 977.562 t 0 r /Helvetica findfont 25.6688 sf 0 0 m (1) show NC gr 
 gsave  710 565 779 600 C 852.525 1037.24 t 0 r /Helvetica findfont 25.6688 sf 0 0 m (1.2) show NC gr  1447 681 m 427 Y s 1430 681 m 17 X s 1438 697 m 9 X s 1438 712 m 9 X s 1438 727 m 9 X s 1430 742 m 17 X s 1438 758 m 9 X s 1438 773 m 9 X s 1438
 788 m 9 X s 1430 803 m 17 X s 1438 819 m 9 X s 1438 834 m 9 X s 1438 849 m 9 X s 1430 864 m 17 X s 1438 880 m 9 X s 1438 895 m 9 X s 1438 910 m 9 X s 1430 925 m 17 X s 1438 941 m 9 X s 1438 956 m 9 X s 1438 971 m 9 X s 1430 986 m 17 X s 1438 1002 m
 9 X s 1438 1017 m 9 X s 1438 1032 m 9 X s 1430 1048 m 17 X s 1430 1048 m 17 X s 1438 1063 m 9 X s 1438 1078 m 9 X s 1438 1093 m 9 X s 1 0 0 c 6 lw black 3 lw 1 0 0 c 1432 681 m cl s 1417 681 m s 1402 681 m s 1387 681 m s 1372 681 m s 1357 682 m -1 Y
 s 1342 682 m -1 Y s 1327 682 m -1 Y s 1313 683 m -2 -2 d s 1298 683 m -2 -2 d s 1284 684 m -3 -3 d s 1270 685 m -4 -4 d s 1256 686 m -5 -5 d s 1243 689 m -7 -8 d s 1231 691 m -10 -10 d s 1219 694 m -13 -13 d s 1208 699 m -17 -18 d s 1199 705 m -23
 -24 d s 1187 707 m -26 -26 d s 1174 709 m -28 -28 d s 1167 718 m -36 -37 d s 1159 725 m -43 -44 d s 1146 727 m -46 -46 d s 1136 732 m -51 -51 d s 1132 743 m -62 -62 d s 1119 746 m -64 -65 d s 1113 754 m -73 -73 d s 1105 761 m -80 -80 d s 1096 768 m
 -86 -87 d s 1091 778 m -96 -97 d s 1079 781 m -99 -100 d s 1077 795 m -112 -114 d s 1070 803 m -120 -122 d s 1064 811 m -129 -130 d s 1052 814 m -132 -133 d s 1050 828 m -145 -147 d s 1048 842 m -149 -151 d s 1036 844 m -137 -137 d s 1036 860 m -137
 -138 d s 1022 861 m -123 -124 d s 1022 876 m -123 -124 d s 1016 885 m -117 -118 d s 1009 893 m -110 -111 d s 1009 908 m -110 -110 d s 1001 915 m -102 -102 d s 995 924 m -96 -96 d s 988 932 m -89 -89 d s 981 941 m -82 -83 d s 981 956 m -82 -82 d s
 980 970 m -81 -81 d s 968 973 m -69 -69 d s 968 988 m -69 -69 d s 959 995 m -60 -61 d s 954 1005 m -55 -56 d s 943 1008 m -44 -43 d s 940 1021 m -41 -41 d s 932 1028 m -33 -33 d s 927 1038 m -28 -28 d s 927 1053 m -28 -28 d s 920 1061 m -21 -20 d s
 913 1069 m -14 -13 d s 6 lw 899 1069 m 14 X -8 Y 14 X -33 Y 13 X -20 Y 14 X -13 Y 14 X -25 Y 13 X -38 Y 14 X -17 Y 14 X -30 Y 13 X -25 Y 14 X -18 Y 14 X -28 Y 14 X -11 Y 13 X -22 Y 14 X -13 Y 14 X -14 Y 13 X -8 Y 14 X -14 Y 14 X -7 Y 13 X -7 Y 14 X
 -9 Y 14 X -4 Y 13 X -6 Y 14 X -5 Y 14 X -3 Y 13 X -2 Y 14 X -3 Y 14 X -1 Y 13 X -1 Y 14 X -1 Y 27 X -1 Y 41 X -1 Y 83 X s black 3 lw 899 681 m 548 X s 949 694 m -13 Y s 967 688 m -7 Y s 984 688 m -7 Y s 1002 688 m -7 Y s 1019 688 m -7 Y s 1037 694 m
 -13 Y s 1054 688 m -7 Y s 1071 688 m -7 Y s 1089 688 m -7 Y s 1106 688 m -7 Y s 1124 694 m -13 Y s 1141 688 m -7 Y s 1159 688 m -7 Y s 1176 688 m -7 Y s 1194 688 m -7 Y s 1211 694 m -13 Y s 1229 688 m -7 Y s 1246 688 m -7 Y s 1264 688 m -7 Y s 1281
 688 m -7 Y s 1298 694 m -13 Y s 1316 688 m -7 Y s 1333 688 m -7 Y s 1351 688 m -7 Y s 1368 688 m -7 Y s 1386 694 m -13 Y s 949 694 m -13 Y s 932 688 m -7 Y s 914 688 m -7 Y s 1386 694 m -13 Y s 1403 688 m -7 Y s 1421 688 m -7 Y s 1438 688 m -7 Y s
 899 1108 m 548 X s 949 1095 m 13 Y s 967 1102 m 6 Y s 984 1102 m 6 Y s 1002 1102 m 6 Y s 1019 1102 m 6 Y s 1037 1095 m 13 Y s 1054 1102 m 6 Y s 1071 1102 m 6 Y s 1089 1102 m 6 Y s 1106 1102 m 6 Y s 1124 1095 m 13 Y s 1141 1102 m 6 Y s 1159 1102 m 6
 Y s 1176 1102 m 6 Y s 1194 1102 m 6 Y s 1211 1095 m 13 Y s 1229 1102 m 6 Y s 1246 1102 m 6 Y s 1264 1102 m 6 Y s 1281 1102 m 6 Y s 1298 1095 m 13 Y s 1316 1102 m 6 Y s 1333 1102 m 6 Y s 1351 1102 m 6 Y s 1368 1102 m 6 Y s 1386 1095 m 13 Y s 949 1095
 m 13 Y s 932 1102 m 6 Y s 914 1102 m 6 Y s 1386 1095 m 13 Y s 1403 1102 m 6 Y s 1421 1102 m 6 Y s 1438 1102 m 6 Y s 899 681 m 427 Y s 915 681 m -16 X s 907 697 m -8 X s 907 712 m -8 X s 907 727 m -8 X s 915 742 m -16 X s 907 758 m -8 X s 907 773 m
 -8 X s 907 788 m -8 X s 915 803 m -16 X s 907 819 m -8 X s 907 834 m -8 X s 907 849 m -8 X s 915 864 m -16 X s 907 880 m -8 X s 907 895 m -8 X s 907 910 m -8 X s 915 925 m -16 X s 907 941 m -8 X s 907 956 m -8 X s 907 971 m -8 X s 915 986 m -16 X s
 907 1002 m -8 X s 907 1017 m -8 X s 907 1032 m -8 X s 915 1048 m -16 X s 915 1048 m -16 X s 907 1063 m -8 X s 907 1078 m -8 X s 907 1093 m -8 X s 1447 681 m 427 Y s 1430 681 m 17 X s 1438 697 m 9 X s 1438 712 m 9 X s 1438 727 m 9 X s 1430 742 m 17 X
 s 1438 758 m 9 X s 1438 773 m 9 X s 1438 788 m 9 X s 1430 803 m 17 X s 1438 819 m 9 X s 1438 834 m 9 X s 1438 849 m 9 X s 1430 864 m 17 X s 1438 880 m 9 X s 1438 895 m 9 X s 1438 910 m 9 X s 1430 925 m 17 X s 1438 941 m 9 X s 1438 956 m 9 X s 1438
 971 m 9 X s 1430 986 m 17 X s 1438 1002 m 9 X s 1438 1017 m 9 X s 1438 1032 m 9 X s 1430 1048 m 17 X s 1430 1048 m 17 X s 1438 1063 m 9 X s 1438 1078 m 9 X s 1438 1093 m 9 X s
 gsave  710 565 779 600 C 1474.92 679.067 t 90 r /Helvetica-Bold findfont 19.9646 sf 0 0 m (U/O\255flow \(S,B\): \(0.0, 0.0\)% / \(0.0, 0.0\)%) show NC gr  0.48 0.56 0.6 c 0.364706 0.419608 0.490196 c 412 38 786 1124 bf 0.48 0.56 0.6 c 786 1124 m 412
 X s 1198 1124 m 38 Y s 1198 1162 m -412 X s 786 1162 m -38 Y s 1 1 1 c black 1 1 1 c
 gsave  710 565 779 600 C 790.007 1136.7 t 0 r /Helvetica-Bold findfont 28.5208 sf 0 0 m (Input variable: log_XiccPi_PT) show NC gr  0.48 0.56 0.6 c 1 1 1 c 711 565 1534 600 bf black 1 1 1 c 547 427 1655 681 bf black 547 427 1655 681 bl 1 1 1 c 547
 427 1655 681 bf black 547 427 1655 681 bl 0 0 0.933333 c 6 lw 0.49 0.6 0.82 c black 3 lw 0.49 0.6 0.82 c 1655 681 m 69 X 3 Y 13 X 2 Y 14 X -1 Y 14 X 15 Y 13 X 6 Y 14 X 5 Y 14 X 37 Y 13 X 28 Y 14 X -4 Y 14 X 84 Y 13 X -30 Y 14 X 126 Y 14 X -1 Y 13 X
 118 Y 14 X -68 Y 14 X -3 Y 14 X -24 Y 13 X 16 Y 14 X -10 Y 14 X -83 Y 13 X -15 Y 14 X -53 Y 14 X -9 Y 13 X -54 Y 14 X 2 Y 14 X -29 Y 13 X -16 Y 14 X -28 Y 14 X -1 Y 13 X -7 Y 14 X 3 Y 14 X -8 Y 41 X -1 Y 13 X f 6 lw 0 0 0.933333 c 0.49 0.6 0.82 c 0
 0 0.933333 c 1655 681 m 69 X 3 Y 13 X 2 Y 14 X -1 Y 14 X 15 Y 13 X 6 Y 14 X 5 Y 14 X 37 Y 13 X 28 Y 14 X -4 Y 14 X 84 Y 13 X -30 Y 14 X 126 Y 14 X -1 Y 13 X 118 Y 14 X -68 Y 14 X -3 Y 14 X -24 Y 13 X 16 Y 14 X -10 Y 14 X -83 Y 13 X -15 Y 14 X -53 Y
 14 X -9 Y 13 X -54 Y 14 X 2 Y 14 X -29 Y 13 X -16 Y 14 X -28 Y 14 X -1 Y 13 X -7 Y 14 X 3 Y 14 X -8 Y 41 X -1 Y 13 X s black 3 lw 1655 681 m 547 X s
 gsave  711 565 1534 600 C 2046.06 613.818 t 0 r /Helvetica findfont 28.5208 sf 0 0 m (log_LcP_PT) show NC gr  1713 694 m -13 Y s 1727 688 m -7 Y s 1742 688 m -7 Y s 1756 688 m -7 Y s 1770 688 m -7 Y s 1785 694 m -13 Y s 1799 688 m -7 Y s 1814 688 m
 -7 Y s 1828 688 m -7 Y s 1843 688 m -7 Y s 1857 694 m -13 Y s 1871 688 m -7 Y s 1886 688 m -7 Y s 1900 688 m -7 Y s 1915 688 m -7 Y s 1929 694 m -13 Y s 1944 688 m -7 Y s 1958 688 m -7 Y s 1972 688 m -7 Y s 1987 688 m -7 Y s 2001 694 m -13 Y s 2016
 688 m -7 Y s 2030 688 m -7 Y s 2045 688 m -7 Y s 2059 688 m -7 Y s 2073 694 m -13 Y s 2088 688 m -7 Y s 2102 688 m -7 Y s 2117 688 m -7 Y s 2131 688 m -7 Y s 2146 694 m -13 Y s 1713 694 m -13 Y s 1698 688 m -7 Y s 1684 688 m -7 Y s 1669 688 m -7 Y s
 2146 694 m -13 Y s 2160 688 m -7 Y s 2174 688 m -7 Y s 2189 688 m -7 Y s
 gsave  711 565 1534 600 C 1690.84 653.603 t 0 r /Helvetica findfont 25.6688 sf 0 0 m (6.5) show NC gr 
 gsave  711 565 1534 600 C 1776.09 653.603 t 0 r /Helvetica findfont 25.6688 sf 0 0 m (7) show NC gr 
 gsave  711 565 1534 600 C 1835.77 653.603 t 0 r /Helvetica findfont 25.6688 sf 0 0 m (7.5) show NC gr 
 gsave  711 565 1534 600 C 1918.18 653.603 t 0 r /Helvetica findfont 25.6688 sf 0 0 m (8) show NC gr 
 gsave  711 565 1534 600 C 1980.7 653.603 t 0 r /Helvetica findfont 25.6688 sf 0 0 m (8.5) show NC gr 
 gsave  711 565 1534 600 C 2063.11 653.603 t 0 r /Helvetica findfont 25.6688 sf 0 0 m (9) show NC gr 
 gsave  711 565 1534 600 C 2125.63 653.603 t 0 r /Helvetica findfont 25.6688 sf 0 0 m (9.5) show NC gr  1655 1108 m 547 X s 1713 1095 m 13 Y s 1727 1102 m 6 Y s 1742 1102 m 6 Y s 1756 1102 m 6 Y s 1770 1102 m 6 Y s 1785 1095 m 13 Y s 1799 1102 m 6 Y
 s 1814 1102 m 6 Y s 1828 1102 m 6 Y s 1843 1102 m 6 Y s 1857 1095 m 13 Y s 1871 1102 m 6 Y s 1886 1102 m 6 Y s 1900 1102 m 6 Y s 1915 1102 m 6 Y s 1929 1095 m 13 Y s 1944 1102 m 6 Y s 1958 1102 m 6 Y s 1972 1102 m 6 Y s 1987 1102 m 6 Y s 2001 1095 m
 13 Y s 2016 1102 m 6 Y s 2030 1102 m 6 Y s 2045 1102 m 6 Y s 2059 1102 m 6 Y s 2073 1095 m 13 Y s 2088 1102 m 6 Y s 2102 1102 m 6 Y s 2117 1102 m 6 Y s 2131 1102 m 6 Y s 2146 1095 m 13 Y s 1713 1095 m 13 Y s 1698 1102 m 6 Y s 1684 1102 m 6 Y s 1669
 1102 m 6 Y s 2146 1095 m 13 Y s 2160 1102 m 6 Y s 2174 1102 m 6 Y s 2189 1102 m 6 Y s 1655 681 m 427 Y s
 gsave  711 565 1534 600 C 1557.28 1011.66 t 90 r /Helvetica findfont 28.5208 sf 0 0 m (0.0948 ) show NC gr 
 gsave  711 565 1534 600 C 1543.07 1005.98 t 90 r /Helvetica findfont 19.9646 sf 0 0 m ( ) show NC gr 
 gsave  711 565 1534 600 C 1557.28 994.613 t 90 r /Helvetica findfont 28.5208 sf 0 0 m (/) show NC gr 
 gsave  711 565 1534 600 C 1565.8 988.929 t 90 r /Helvetica findfont 19.9646 sf 0 0 m ( ) show NC gr 
 gsave  711 565 1534 600 C 1557.28 880.943 t 90 r /Helvetica findfont 28.5208 sf 0 0 m (\(1/N\) dN) show NC gr  1671 681 m -16 X s 1663 701 m -8 X s 1663 721 m -8 X s 1663 740 m -8 X s 1671 760 m -16 X s 1663 779 m -8 X s 1663 799 m -8 X s 1663 819 m
 -8 X s 1671 838 m -16 X s 1663 858 m -8 X s 1663 877 m -8 X s 1663 897 m -8 X s 1671 917 m -16 X s 1663 936 m -8 X s 1663 956 m -8 X s 1663 975 m -8 X s 1671 995 m -16 X s 1663 1015 m -8 X s 1663 1034 m -8 X s 1663 1054 m -8 X s 1671 1073 m -16 X s
 1671 1073 m -16 X s 1663 1093 m -8 X s
 gsave  711 565 1534 600 C 1631.16 670.653 t 0 r /Helvetica findfont 25.6688 sf 0 0 m (0) show NC gr 
 gsave  711 565 1534 600 C 1608.43 750.222 t 0 r /Helvetica findfont 25.6688 sf 0 0 m (0.2) show NC gr 
 gsave  711 565 1534 600 C 1608.43 826.949 t 0 r /Helvetica findfont 25.6688 sf 0 0 m (0.4) show NC gr 
 gsave  711 565 1534 600 C 1608.43 906.518 t 0 r /Helvetica findfont 25.6688 sf 0 0 m (0.6) show NC gr 
 gsave  711 565 1534 600 C 1608.43 986.087 t 0 r /Helvetica findfont 25.6688 sf 0 0 m (0.8) show NC gr 
 gsave  711 565 1534 600 C 1634.01 1062.81 t 0 r /Helvetica findfont 25.6688 sf 0 0 m (1) show NC gr  2202 681 m 427 Y s 2186 681 m 16 X s 2194 701 m 8 X s 2194 721 m 8 X s 2194 740 m 8 X s 2186 760 m 16 X s 2194 779 m 8 X s 2194 799 m 8 X s 2194 819
 m 8 X s 2186 838 m 16 X s 2194 858 m 8 X s 2194 877 m 8 X s 2194 897 m 8 X s 2186 917 m 16 X s 2194 936 m 8 X s 2194 956 m 8 X s 2194 975 m 8 X s 2186 995 m 16 X s 2194 1015 m 8 X s 2194 1034 m 8 X s 2194 1054 m 8 X s 2186 1073 m 16 X s 2186 1073 m
 16 X s 2194 1093 m 8 X s 1 0 0 c 6 lw black 3 lw 1 0 0 c 2188 681 m s 2173 682 m -1 Y s 2158 682 m -1 Y s 2144 682 m -1 -1 d s 2131 684 m -3 -3 d s 2117 686 m -4 -5 d s 2105 689 m -7 -8 d s 2093 692 m -11 -11 d s 2080 694 m -13 -13 d s 2071 700 m
 -19 -19 d s 2064 708 m -27 -27 d s 2052 711 m -30 -30 d s 2046 721 m -39 -40 d s 2038 728 m -46 -47 d s 2034 739 m -57 -58 d s 2025 745 m -63 -64 d s 2025 760 m -78 -79 d s 2011 761 m -79 -80 d s 2011 776 m -94 -95 d s 2003 783 m -101 -102 d s 1997
 793 m -110 -112 d s 1997 808 m -126 -127 d s 1984 809 m -128 -128 d s 1984 825 m -143 -144 d s 1984 840 m -158 -159 d s 1974 846 m -163 -165 d s 1970 856 m -174 -175 d s 1967 868 m -186 -187 d s 1956 873 m -190 -192 d s 1956 888 m -205 -207 d s 1955
 902 m -219 -221 d s 1943 905 m -222 -224 d s 1943 920 m -165 -165 d s 1778 754 m -13 -13 d s 1761 737 m -10 -10 d s 1742 718 m -5 -5 d s 1730 706 m -6 -7 d s 1719 695 m -13 -14 d s 1943 935 m -151 -151 d s 1779 770 m -1 X s 1700 691 m -4 -4 d s 1694
 685 m -3 -4 d s 1929 937 m -123 -124 d s 1795 802 m -3 -3 d s 1677 683 m -2 -2 d s 1929 952 m -110 -110 d s 1810 832 m -4 -4 d s 1661 682 m -1 -1 d s 1928 966 m -95 -96 d s 1829 866 m -10 -9 d s 1915 968 m -82 -82 d s 1915 984 m -82 -83 d s 1915 999
 m -68 -69 d s 1833 916 m s 1903 1002 m -43 -43 d s 1852 951 m -5 -6 d s 1895 1008 m -21 -20 d s 1864 978 m -4 -4 d s 1883 1011 m -9 -8 d s 6 lw 1655 682 m 14 X 1 Y 14 X 2 Y 13 X 6 Y 14 X 4 Y 14 X 11 Y 13 X 12 Y 14 X 19 Y 14 X 17 Y 13 X 16 Y 14 X 32
 Y 14 X 30 Y 13 X 34 Y 14 X 50 Y 14 X 35 Y 13 X 27 Y 14 X 33 Y 14 X -3 Y 13 X -6 Y 14 X -36 Y 14 X -30 Y 14 X -34 Y 13 X -34 Y 14 X -22 Y 14 X -38 Y 13 X -25 Y 14 X -22 Y 14 X -22 Y 13 X -18 Y 14 X -13 Y 14 X -8 Y 13 X -6 Y 14 X -5 Y 14 X -3 Y 13 X
 -2 Y 14 X -2 Y 41 X -1 Y 27 X s black 3 lw 1655 681 m 547 X s 1713 694 m -13 Y s 1727 688 m -7 Y s 1742 688 m -7 Y s 1756 688 m -7 Y s 1770 688 m -7 Y s 1785 694 m -13 Y s 1799 688 m -7 Y s 1814 688 m -7 Y s 1828 688 m -7 Y s 1843 688 m -7 Y s 1857
 694 m -13 Y s 1871 688 m -7 Y s 1886 688 m -7 Y s 1900 688 m -7 Y s 1915 688 m -7 Y s 1929 694 m -13 Y s 1944 688 m -7 Y s 1958 688 m -7 Y s 1972 688 m -7 Y s 1987 688 m -7 Y s 2001 694 m -13 Y s 2016 688 m -7 Y s 2030 688 m -7 Y s 2045 688 m -7 Y s
 2059 688 m -7 Y s 2073 694 m -13 Y s 2088 688 m -7 Y s 2102 688 m -7 Y s 2117 688 m -7 Y s 2131 688 m -7 Y s 2146 694 m -13 Y s 1713 694 m -13 Y s 1698 688 m -7 Y s 1684 688 m -7 Y s 1669 688 m -7 Y s 2146 694 m -13 Y s 2160 688 m -7 Y s 2174 688 m
 -7 Y s 2189 688 m -7 Y s 1655 1108 m 547 X s 1713 1095 m 13 Y s 1727 1102 m 6 Y s 1742 1102 m 6 Y s 1756 1102 m 6 Y s 1770 1102 m 6 Y s 1785 1095 m 13 Y s 1799 1102 m 6 Y s 1814 1102 m 6 Y s 1828 1102 m 6 Y s 1843 1102 m 6 Y s 1857 1095 m 13 Y s
 1871 1102 m 6 Y s 1886 1102 m 6 Y s 1900 1102 m 6 Y s 1915 1102 m 6 Y s 1929 1095 m 13 Y s 1944 1102 m 6 Y s 1958 1102 m 6 Y s 1972 1102 m 6 Y s 1987 1102 m 6 Y s 2001 1095 m 13 Y s 2016 1102 m 6 Y s 2030 1102 m 6 Y s 2045 1102 m 6 Y s 2059 1102 m 6
 Y s 2073 1095 m 13 Y s 2088 1102 m 6 Y s 2102 1102 m 6 Y s 2117 1102 m 6 Y s 2131 1102 m 6 Y s 2146 1095 m 13 Y s 1713 1095 m 13 Y s 1698 1102 m 6 Y s 1684 1102 m 6 Y s 1669 1102 m 6 Y s 2146 1095 m 13 Y s 2160 1102 m 6 Y s 2174 1102 m 6 Y s 2189
 1102 m 6 Y s 1655 681 m 427 Y s 1671 681 m -16 X s 1663 701 m -8 X s 1663 721 m -8 X s 1663 740 m -8 X s 1671 760 m -16 X s 1663 779 m -8 X s 1663 799 m -8 X s 1663 819 m -8 X s 1671 838 m -16 X s 1663 858 m -8 X s 1663 877 m -8 X s 1663 897 m -8 X
 s 1671 917 m -16 X s 1663 936 m -8 X s 1663 956 m -8 X s 1663 975 m -8 X s 1671 995 m -16 X s 1663 1015 m -8 X s 1663 1034 m -8 X s 1663 1054 m -8 X s 1671 1073 m -16 X s 1671 1073 m -16 X s 1663 1093 m -8 X s 2202 681 m 427 Y s 2186 681 m 16 X s
 2194 701 m 8 X s 2194 721 m 8 X s 2194 740 m 8 X s 2186 760 m 16 X s 2194 779 m 8 X s 2194 799 m 8 X s 2194 819 m 8 X s 2186 838 m 16 X s 2194 858 m 8 X s 2194 877 m 8 X s 2194 897 m 8 X s 2186 917 m 16 X s 2194 936 m 8 X s 2194 956 m 8 X s 2194 975
 m 8 X s 2186 995 m 16 X s 2194 1015 m 8 X s 2194 1034 m 8 X s 2194 1054 m 8 X s 2186 1073 m 16 X s 2186 1073 m 16 X s 2194 1093 m 8 X s
 gsave  711 565 1534 600 C 2230.83 679.067 t 90 r /Helvetica-Bold findfont 19.9646 sf 0 0 m (U/O\255flow \(S,B\): \(0.0, 0.0\)% / \(0.0, 0.0\)%) show NC gr  0.48 0.56 0.6 c 0.364706 0.419608 0.490196 c 380 38 1542 1124 bf 0.48 0.56 0.6 c 1542 1124 m
 380 X s 1922 1124 m 38 Y s 1922 1162 m -380 X s 1542 1162 m -38 Y s 1 1 1 c black 1 1 1 c
 gsave  711 565 1534 600 C 1545.91 1136.7 t 0 r /Helvetica-Bold findfont 28.5208 sf 0 0 m (Input variable: log_LcP_PT) show NC gr  0.48 0.56 0.6 c 1 1 1 c 710 564 23 12 bf black 1 1 1 c 548 427 143 93 bf black 548 427 143 93 bl 1 1 1 c 548 427 143 93
 bf black 548 427 143 93 bl 0 0 0.933333 c 6 lw 0.49 0.6 0.82 c black 3 lw 0.49 0.6 0.82 c 143 93 m 28 X 3 Y 14 X -2 Y 13 X 4 Y 14 X -2 Y 14 X 1 Y 13 X 20 Y 14 X -13 Y 14 X 27 Y 13 X 13 Y 14 X 23 Y 14 X 43 Y 13 X 5 Y 14 X 90 Y 14 X 1 Y 13 X 35 Y 14 X
 27 Y 14 X 72 Y 13 X -10 Y 14 X 51 Y 14 X -57 Y 13 X 15 Y 14 X -53 Y 14 X -20 Y 13 X -2 Y 14 X -80 Y 14 X -41 Y 13 X -44 Y 14 X -36 Y 14 X -26 Y 13 X -1 Y 14 X -36 Y 14 X 5 Y 14 X -6 Y 13 X -6 Y 14 X 1 Y 14 X -1 Y 41 X f 6 lw 0 0 0.933333 c 0.49 0.6
 0.82 c 0 0 0.933333 c 143 93 m 28 X 3 Y 14 X -2 Y 13 X 4 Y 14 X -2 Y 14 X 1 Y 13 X 20 Y 14 X -13 Y 14 X 27 Y 13 X 13 Y 14 X 23 Y 14 X 43 Y 13 X 5 Y 14 X 90 Y 14 X 1 Y 13 X 35 Y 14 X 27 Y 14 X 72 Y 13 X -10 Y 14 X 51 Y 14 X -57 Y 13 X 15 Y 14 X -53 Y
 14 X -20 Y 13 X -2 Y 14 X -80 Y 14 X -41 Y 13 X -44 Y 14 X -36 Y 14 X -26 Y 13 X -1 Y 14 X -36 Y 14 X 5 Y 14 X -6 Y 13 X -6 Y 14 X 1 Y 14 X -1 Y 41 X s black 3 lw 143 93 m 548 X s
 gsave  710 564 23 12 C 534.249 25.5758 t 0 r /Helvetica findfont 28.5208 sf 0 0 m (log_LcK_PT) show NC gr  168 106 m -13 Y s 180 100 m -7 Y s 192 100 m -7 Y s 205 100 m -7 Y s 217 100 m -7 Y s 229 106 m -13 Y s 241 100 m -7 Y s 253 100 m -7 Y s 265
 100 m -7 Y s 278 100 m -7 Y s 290 106 m -13 Y s 302 100 m -7 Y s 314 100 m -7 Y s 326 100 m -7 Y s 339 100 m -7 Y s 351 106 m -13 Y s 363 100 m -7 Y s 375 100 m -7 Y s 387 100 m -7 Y s 399 100 m -7 Y s 412 106 m -13 Y s 424 100 m -7 Y s 436 100 m -7
 Y s 448 100 m -7 Y s 460 100 m -7 Y s 473 106 m -13 Y s 485 100 m -7 Y s 497 100 m -7 Y s 509 100 m -7 Y s 521 100 m -7 Y s 534 106 m -13 Y s 546 100 m -7 Y s 558 100 m -7 Y s 570 100 m -7 Y s 582 100 m -7 Y s 594 106 m -13 Y s 607 100 m -7 Y s 619
 100 m -7 Y s 631 100 m -7 Y s 643 100 m -7 Y s 655 106 m -13 Y s 168 106 m -13 Y s 156 100 m -7 Y s 144 100 m -7 Y s 655 106 m -13 Y s 668 100 m -7 Y s 680 100 m -7 Y s
 gsave  710 564 23 12 C 147.771 65.3603 t 0 r /Helvetica findfont 25.6688 sf 0 0 m (5.5) show NC gr 
 gsave  710 564 23 12 C 218.815 65.3603 t 0 r /Helvetica findfont 25.6688 sf 0 0 m (6) show NC gr 
 gsave  710 564 23 12 C 267.125 65.3603 t 0 r /Helvetica findfont 25.6688 sf 0 0 m (6.5) show NC gr 
 gsave  710 564 23 12 C 341.01 65.3603 t 0 r /Helvetica findfont 25.6688 sf 0 0 m (7) show NC gr 
 gsave  710 564 23 12 C 389.32 65.3603 t 0 r /Helvetica findfont 25.6688 sf 0 0 m (7.5) show NC gr 
 gsave  710 564 23 12 C 463.205 65.3603 t 0 r /Helvetica findfont 25.6688 sf 0 0 m (8) show NC gr 
 gsave  710 564 23 12 C 511.515 65.3603 t 0 r /Helvetica findfont 25.6688 sf 0 0 m (8.5) show NC gr 
 gsave  710 564 23 12 C 585.401 65.3603 t 0 r /Helvetica findfont 25.6688 sf 0 0 m (9) show NC gr 
 gsave  710 564 23 12 C 633.71 65.3603 t 0 r /Helvetica findfont 25.6688 sf 0 0 m (9.5) show NC gr  143 520 m 548 X s 168 507 m 13 Y s 180 513 m 7 Y s 192 513 m 7 Y s 205 513 m 7 Y s 217 513 m 7 Y s 229 507 m 13 Y s 241 513 m 7 Y s 253 513 m 7 Y s
 265 513 m 7 Y s 278 513 m 7 Y s 290 507 m 13 Y s 302 513 m 7 Y s 314 513 m 7 Y s 326 513 m 7 Y s 339 513 m 7 Y s 351 507 m 13 Y s 363 513 m 7 Y s 375 513 m 7 Y s 387 513 m 7 Y s 399 513 m 7 Y s 412 507 m 13 Y s 424 513 m 7 Y s 436 513 m 7 Y s 448
 513 m 7 Y s 460 513 m 7 Y s 473 507 m 13 Y s 485 513 m 7 Y s 497 513 m 7 Y s 509 513 m 7 Y s 521 513 m 7 Y s 534 507 m 13 Y s 546 513 m 7 Y s 558 513 m 7 Y s 570 513 m 7 Y s 582 513 m 7 Y s 594 507 m 13 Y s 607 513 m 7 Y s 619 513 m 7 Y s 631 513 m
 7 Y s 643 513 m 7 Y s 655 507 m 13 Y s 168 507 m 13 Y s 156 513 m 7 Y s 144 513 m 7 Y s 655 507 m 13 Y s 668 513 m 7 Y s 680 513 m 7 Y s 143 93 m 427 Y s
 gsave  710 564 23 12 C 45.468 440.471 t 90 r /Helvetica findfont 28.5208 sf 0 0 m (0.112 ) show NC gr 
 gsave  710 564 23 12 C 31.2593 434.788 t 90 r /Helvetica findfont 19.9646 sf 0 0 m ( ) show NC gr 
 gsave  710 564 23 12 C 45.468 423.421 t 90 r /Helvetica findfont 28.5208 sf 0 0 m (/) show NC gr 
 gsave  710 564 23 12 C 53.9933 417.737 t 90 r /Helvetica findfont 19.9646 sf 0 0 m ( ) show NC gr 
 gsave  710 564 23 12 C 45.468 309.751 t 90 r /Helvetica findfont 28.5208 sf 0 0 m (\(1/N\) dN) show NC gr  160 93 m -17 X s 152 103 m -9 X s 152 114 m -9 X s 152 124 m -9 X s 152 134 m -9 X s 160 145 m -17 X s 152 155 m -9 X s 152 166 m -9 X s 152
 176 m -9 X s 152 186 m -9 X s 160 197 m -17 X s 152 207 m -9 X s 152 217 m -9 X s 152 228 m -9 X s 152 238 m -9 X s 160 248 m -17 X s 152 259 m -9 X s 152 269 m -9 X s 152 279 m -9 X s 152 290 m -9 X s 160 300 m -17 X s 152 310 m -9 X s 152 321 m -9
 X s 152 331 m -9 X s 152 342 m -9 X s 160 352 m -17 X s 152 362 m -9 X s 152 373 m -9 X s 152 383 m -9 X s 152 393 m -9 X s 160 404 m -17 X s 152 414 m -9 X s 152 424 m -9 X s 152 435 m -9 X s 152 445 m -9 X s 160 455 m -17 X s 152 466 m -9 X s 152
 476 m -9 X s 152 486 m -9 X s 152 497 m -9 X s 160 507 m -17 X s 160 507 m -17 X s 152 518 m -9 X s
 gsave  710 564 23 12 C 119.354 82.4108 t 0 r /Helvetica findfont 25.6688 sf 0 0 m (0) show NC gr 
 gsave  710 564 23 12 C 102.303 133.562 t 0 r /Helvetica findfont 25.6688 sf 0 0 m (0.1) show NC gr 
 gsave  710 564 23 12 C 96.6195 187.556 t 0 r /Helvetica findfont 25.6688 sf 0 0 m (0.2) show NC gr 
 gsave  710 564 23 12 C 96.6195 238.707 t 0 r /Helvetica findfont 25.6688 sf 0 0 m (0.3) show NC gr 
 gsave  710 564 23 12 C 96.6195 289.859 t 0 r /Helvetica findfont 25.6688 sf 0 0 m (0.4) show NC gr 
 gsave  710 564 23 12 C 96.6195 341.01 t 0 r /Helvetica findfont 25.6688 sf 0 0 m (0.5) show NC gr 
 gsave  710 564 23 12 C 96.6195 395.003 t 0 r /Helvetica findfont 25.6688 sf 0 0 m (0.6) show NC gr 
 gsave  710 564 23 12 C 96.6195 446.155 t 0 r /Helvetica findfont 25.6688 sf 0 0 m (0.7) show NC gr 
 gsave  710 564 23 12 C 96.6195 497.306 t 0 r /Helvetica findfont 25.6688 sf 0 0 m (0.8) show NC gr  691 93 m 427 Y s 674 93 m 17 X s 683 103 m 8 X s 683 114 m 8 X s 683 124 m 8 X s 683 134 m 8 X s 674 145 m 17 X s 683 155 m 8 X s 683 166 m 8 X s 683
 176 m 8 X s 683 186 m 8 X s 674 197 m 17 X s 683 207 m 8 X s 683 217 m 8 X s 683 228 m 8 X s 683 238 m 8 X s 674 248 m 17 X s 683 259 m 8 X s 683 269 m 8 X s 683 279 m 8 X s 683 290 m 8 X s 674 300 m 17 X s 683 310 m 8 X s 683 321 m 8 X s 683 331 m
 8 X s 683 342 m 8 X s 674 352 m 17 X s 683 362 m 8 X s 683 373 m 8 X s 683 383 m 8 X s 683 393 m 8 X s 674 404 m 17 X s 683 414 m 8 X s 683 424 m 8 X s 683 435 m 8 X s 683 445 m 8 X s 674 455 m 17 X s 683 466 m 8 X s 683 476 m 8 X s 683 486 m 8 X s
 683 497 m 8 X s 674 507 m 17 X s 674 507 m 17 X s 683 518 m 8 X s 1 0 0 c 6 lw black 3 lw 1 0 0 c 676 93 m s 661 93 m s 646 93 m s 631 93 m s 617 95 m -1 -2 d s 604 96 m -3 -3 d s 592 99 m -6 -6 d s 581 104 m -10 -11 d s 568 105 m -12 -12 d s 560
 113 m -19 -20 d s 554 122 m -29 -29 d s 543 126 m -33 -33 d s 540 138 m -45 -45 d s 527 140 m -47 -47 d s 526 155 m -61 -62 d s 525 168 m -75 -75 d s 513 171 m -78 -78 d s 513 187 m -93 -94 d s 500 188 m -95 -95 d s 499 203 m -109 -110 d s 499 218 m
 -124 -125 d s 489 224 m -129 -131 d s 485 235 m -140 -142 d s 485 250 m -156 -157 d s 484 264 m -170 -171 d s 472 267 m -173 -174 d s 472 282 m -188 -189 d s 472 297 m -203 -204 d s 469 309 m -215 -216 d s 458 314 m -219 -221 d s 458 329 m -234 -236
 d s 458 344 m -191 -193 d s 267 151 m -14 -14 d s 248 132 m -9 -8 d s 239 123 m -30 -30 d s 458 359 m -178 -179 d s 271 171 m -4 -5 d s 214 114 m -2 -3 d s 209 109 m -15 -16 d s 445 361 m -151 -152 d s 290 205 m -10 -10 d s 191 105 m -12 -12 d s 444
 376 m -136 -138 d s 305 236 m -11 -12 d s 172 102 m -1 -2 d s 169 99 m -5 -6 d s 444 390 m -136 -137 d s 153 98 m -4 -5 d s 431 392 m -110 -110 d s 314 275 m -6 -7 d s 431 408 m -110 -111 d s 431 423 m -96 -97 d s 331 322 m -10 -9 d s 417 425 m -68
 -70 d s 347 354 m -12 -12 d s 417 439 m -68 -68 d s 407 444 m -45 -44 d s 356 393 m -7 -7 d s 403 456 m -27 -28 d s 371 424 m -9 -9 d s 391 459 m -1 -2 d s 383 451 m -7 -7 d s 6 lw 143 98 m 14 X 1 Y 14 X 3 Y 14 X 3 Y 13 X 4 Y 14 X 5 Y 14 X 9 Y 13 X
 9 Y 14 X 19 Y 14 X 20 Y 13 X 34 Y 14 X 31 Y 14 X 39 Y 13 X 47 Y 14 X 32 Y 14 X 39 Y 13 X 31 Y 14 X 27 Y 14 X 8 Y 13 X -15 Y 14 X -19 Y 14 X -35 Y 13 X -29 Y 14 X -52 Y 14 X -45 Y 13 X -40 Y 14 X -36 Y 14 X -20 Y 13 X -28 Y 14 X -14 Y 14 X -13 Y 13 X
 -8 Y 14 X -6 Y 14 X -3 Y 14 X -1 Y 13 X -2 Y 69 X s black 3 lw 143 93 m 548 X s 168 106 m -13 Y s 180 100 m -7 Y s 192 100 m -7 Y s 205 100 m -7 Y s 217 100 m -7 Y s 229 106 m -13 Y s 241 100 m -7 Y s 253 100 m -7 Y s 265 100 m -7 Y s 278 100 m -7 Y
 s 290 106 m -13 Y s 302 100 m -7 Y s 314 100 m -7 Y s 326 100 m -7 Y s 339 100 m -7 Y s 351 106 m -13 Y s 363 100 m -7 Y s 375 100 m -7 Y s 387 100 m -7 Y s 399 100 m -7 Y s 412 106 m -13 Y s 424 100 m -7 Y s 436 100 m -7 Y s 448 100 m -7 Y s 460
 100 m -7 Y s 473 106 m -13 Y s 485 100 m -7 Y s 497 100 m -7 Y s 509 100 m -7 Y s 521 100 m -7 Y s 534 106 m -13 Y s 546 100 m -7 Y s 558 100 m -7 Y s 570 100 m -7 Y s 582 100 m -7 Y s 594 106 m -13 Y s 607 100 m -7 Y s 619 100 m -7 Y s 631 100 m -7
 Y s 643 100 m -7 Y s 655 106 m -13 Y s 168 106 m -13 Y s 156 100 m -7 Y s 144 100 m -7 Y s 655 106 m -13 Y s 668 100 m -7 Y s 680 100 m -7 Y s 143 520 m 548 X s 168 507 m 13 Y s 180 513 m 7 Y s 192 513 m 7 Y s 205 513 m 7 Y s 217 513 m 7 Y s 229 507
 m 13 Y s 241 513 m 7 Y s 253 513 m 7 Y s 265 513 m 7 Y s 278 513 m 7 Y s 290 507 m 13 Y s 302 513 m 7 Y s 314 513 m 7 Y s 326 513 m 7 Y s 339 513 m 7 Y s 351 507 m 13 Y s 363 513 m 7 Y s 375 513 m 7 Y s 387 513 m 7 Y s 399 513 m 7 Y s 412 507 m 13 Y
 s 424 513 m 7 Y s 436 513 m 7 Y s 448 513 m 7 Y s 460 513 m 7 Y s 473 507 m 13 Y s 485 513 m 7 Y s 497 513 m 7 Y s 509 513 m 7 Y s 521 513 m 7 Y s 534 507 m 13 Y s 546 513 m 7 Y s 558 513 m 7 Y s 570 513 m 7 Y s 582 513 m 7 Y s 594 507 m 13 Y s 607
 513 m 7 Y s 619 513 m 7 Y s 631 513 m 7 Y s 643 513 m 7 Y s 655 507 m 13 Y s 168 507 m 13 Y s 156 513 m 7 Y s 144 513 m 7 Y s 655 507 m 13 Y s 668 513 m 7 Y s 680 513 m 7 Y s 143 93 m 427 Y s 160 93 m -17 X s 152 103 m -9 X s 152 114 m -9 X s 152
 124 m -9 X s 152 134 m -9 X s 160 145 m -17 X s 152 155 m -9 X s 152 166 m -9 X s 152 176 m -9 X s 152 186 m -9 X s 160 197 m -17 X s 152 207 m -9 X s 152 217 m -9 X s 152 228 m -9 X s 152 238 m -9 X s 160 248 m -17 X s 152 259 m -9 X s 152 269 m -9
 X s 152 279 m -9 X s 152 290 m -9 X s 160 300 m -17 X s 152 310 m -9 X s 152 321 m -9 X s 152 331 m -9 X s 152 342 m -9 X s 160 352 m -17 X s 152 362 m -9 X s 152 373 m -9 X s 152 383 m -9 X s 152 393 m -9 X s 160 404 m -17 X s 152 414 m -9 X s 152
 424 m -9 X s 152 435 m -9 X s 152 445 m -9 X s 160 455 m -17 X s 152 466 m -9 X s 152 476 m -9 X s 152 486 m -9 X s 152 497 m -9 X s 160 507 m -17 X s 160 507 m -17 X s 152 518 m -9 X s 691 93 m 427 Y s 674 93 m 17 X s 683 103 m 8 X s 683 114 m 8 X
 s 683 124 m 8 X s 683 134 m 8 X s 674 145 m 17 X s 683 155 m 8 X s 683 166 m 8 X s 683 176 m 8 X s 683 186 m 8 X s 674 197 m 17 X s 683 207 m 8 X s 683 217 m 8 X s 683 228 m 8 X s 683 238 m 8 X s 674 248 m 17 X s 683 259 m 8 X s 683 269 m 8 X s 683
 279 m 8 X s 683 290 m 8 X s 674 300 m 17 X s 683 310 m 8 X s 683 321 m 8 X s 683 331 m 8 X s 683 342 m 8 X s 674 352 m 17 X s 683 362 m 8 X s 683 373 m 8 X s 683 383 m 8 X s 683 393 m 8 X s 674 404 m 17 X s 683 414 m 8 X s 683 424 m 8 X s 683 435 m
 8 X s 683 445 m 8 X s 674 455 m 17 X s 683 466 m 8 X s 683 476 m 8 X s 683 486 m 8 X s 683 497 m 8 X s 674 507 m 17 X s 674 507 m 17 X s 683 518 m 8 X s
 gsave  710 564 23 12 C 719.017 90.8246 t 90 r /Helvetica-Bold findfont 19.9646 sf 0 0 m (U/O\255flow \(S,B\): \(0.0, 0.0\)% / \(0.0, 0.0\)%) show NC gr  0.48 0.56 0.6 c 0.364706 0.419608 0.490196 c 381 38 30 536 bf 0.48 0.56 0.6 c 30 536 m 381 X s
 411 536 m 38 Y s 411 574 m -381 X s 30 574 m -38 Y s 1 1 1 c black 1 1 1 c
 gsave  710 564 23 12 C 34.101 548.458 t 0 r /Helvetica-Bold findfont 28.5208 sf 0 0 m (Input variable: log_LcK_PT) show NC gr  0.48 0.56 0.6 c 1 1 1 c 710 564 779 12 bf black 1 1 1 c 548 427 899 93 bf black 548 427 899 93 bl 1 1 1 c 548 427 899 93
 bf black 548 427 899 93 bl 0 0 0.933333 c 6 lw 0.49 0.6 0.82 c black 3 lw 0.49 0.6 0.82 c 899 93 m 15 Y 14 X 57 Y 14 X -38 Y 13 X 11 Y 14 X 5 Y 14 X 56 Y 13 X 9 Y 14 X 31 Y 14 X 32 Y 13 X -14 Y 14 X 72 Y 14 X 24 Y 14 X 62 Y 13 X -6 Y 14 X -19 Y 27 X
 45 Y 14 X 1 Y 14 X 34 Y 13 X -99 Y 14 X 110 Y 14 X -170 Y 13 X 35 Y 14 X -6 Y 14 X -111 Y 13 X 4 Y 14 X -3 Y 14 X -84 Y 13 X -13 Y 14 X -9 Y 14 X -13 Y 13 X -15 Y 14 X 4 Y 14 X 2 Y 13 X -8 Y 28 X -1 Y 55 X f 6 lw 0 0 0.933333 c 0.49 0.6 0.82 c 0 0
 0.933333 c 899 108 m 14 X 57 Y 14 X -38 Y 13 X 11 Y 14 X 5 Y 14 X 56 Y 13 X 9 Y 14 X 31 Y 14 X 32 Y 13 X -14 Y 14 X 72 Y 14 X 24 Y 14 X 62 Y 13 X -6 Y 14 X -19 Y 27 X 45 Y 14 X 1 Y 14 X 34 Y 13 X -99 Y 14 X 110 Y 14 X -170 Y 13 X 35 Y 14 X -6 Y 14 X
 -111 Y 13 X 4 Y 14 X -3 Y 14 X -84 Y 13 X -13 Y 14 X -9 Y 14 X -13 Y 13 X -15 Y 14 X 4 Y 14 X 2 Y 13 X -8 Y 28 X -1 Y 55 X s black 3 lw 899 93 m 548 X s
 gsave  710 564 779 12 C 1284.47 25.5758 t 0 r /Helvetica findfont 28.5208 sf 0 0 m (log_LcPi_PT) show NC gr  925 106 m -13 Y s 937 100 m -7 Y s 950 100 m -7 Y s 962 100 m -7 Y s 975 100 m -7 Y s 987 106 m -13 Y s 1000 100 m -7 Y s 1012 100 m -7 Y s
 1025 100 m -7 Y s 1037 100 m -7 Y s 1050 106 m -13 Y s 1062 100 m -7 Y s 1075 100 m -7 Y s 1087 100 m -7 Y s 1100 100 m -7 Y s 1112 106 m -13 Y s 1124 100 m -7 Y s 1137 100 m -7 Y s 1149 100 m -7 Y s 1162 100 m -7 Y s 1174 106 m -13 Y s 1187 100 m
 -7 Y s 1199 100 m -7 Y s 1212 100 m -7 Y s 1224 100 m -7 Y s 1237 106 m -13 Y s 1249 100 m -7 Y s 1262 100 m -7 Y s 1274 100 m -7 Y s 1287 100 m -7 Y s 1299 106 m -13 Y s 1312 100 m -7 Y s 1324 100 m -7 Y s 1337 100 m -7 Y s 1349 100 m -7 Y s 1362
 106 m -13 Y s 1374 100 m -7 Y s 1387 100 m -7 Y s 1399 100 m -7 Y s 1412 100 m -7 Y s 1424 106 m -13 Y s 925 106 m -13 Y s 912 100 m -7 Y s 900 100 m -7 Y s 1424 106 m -13 Y s 1437 100 m -7 Y s
 gsave  710 564 779 12 C 903.677 65.3603 t 0 r /Helvetica findfont 25.6688 sf 0 0 m (5.5) show NC gr 
 gsave  710 564 779 12 C 977.562 65.3603 t 0 r /Helvetica findfont 25.6688 sf 0 0 m (6) show NC gr 
 gsave  710 564 779 12 C 1028.71 65.3603 t 0 r /Helvetica findfont 25.6688 sf 0 0 m (6.5) show NC gr 
 gsave  710 564 779 12 C 1102.6 65.3603 t 0 r /Helvetica findfont 25.6688 sf 0 0 m (7) show NC gr 
 gsave  710 564 779 12 C 1153.75 65.3603 t 0 r /Helvetica findfont 25.6688 sf 0 0 m (7.5) show NC gr 
 gsave  710 564 779 12 C 1227.64 65.3603 t 0 r /Helvetica findfont 25.6688 sf 0 0 m (8) show NC gr 
 gsave  710 564 779 12 C 1278.79 65.3603 t 0 r /Helvetica findfont 25.6688 sf 0 0 m (8.5) show NC gr 
 gsave  710 564 779 12 C 1352.67 65.3603 t 0 r /Helvetica findfont 25.6688 sf 0 0 m (9) show NC gr 
 gsave  710 564 779 12 C 1403.82 65.3603 t 0 r /Helvetica findfont 25.6688 sf 0 0 m (9.5) show NC gr  899 520 m 548 X s 925 507 m 13 Y s 937 513 m 7 Y s 950 513 m 7 Y s 962 513 m 7 Y s 975 513 m 7 Y s 987 507 m 13 Y s 1000 513 m 7 Y s 1012 513 m 7 Y
 s 1025 513 m 7 Y s 1037 513 m 7 Y s 1050 507 m 13 Y s 1062 513 m 7 Y s 1075 513 m 7 Y s 1087 513 m 7 Y s 1100 513 m 7 Y s 1112 507 m 13 Y s 1124 513 m 7 Y s 1137 513 m 7 Y s 1149 513 m 7 Y s 1162 513 m 7 Y s 1174 507 m 13 Y s 1187 513 m 7 Y s 1199
 513 m 7 Y s 1212 513 m 7 Y s 1224 513 m 7 Y s 1237 507 m 13 Y s 1249 513 m 7 Y s 1262 513 m 7 Y s 1274 513 m 7 Y s 1287 513 m 7 Y s 1299 507 m 13 Y s 1312 513 m 7 Y s 1324 513 m 7 Y s 1337 513 m 7 Y s 1349 513 m 7 Y s 1362 507 m 13 Y s 1374 513 m 7
 Y s 1387 513 m 7 Y s 1399 513 m 7 Y s 1412 513 m 7 Y s 1424 507 m 13 Y s 925 507 m 13 Y s 912 513 m 7 Y s 900 513 m 7 Y s 1424 507 m 13 Y s 1437 513 m 7 Y s 899 93 m 427 Y s
 gsave  710 564 779 12 C 801.374 440.471 t 90 r /Helvetica findfont 28.5208 sf 0 0 m (0.109 ) show NC gr 
 gsave  710 564 779 12 C 787.165 434.788 t 90 r /Helvetica findfont 19.9646 sf 0 0 m ( ) show NC gr 
 gsave  710 564 779 12 C 801.374 423.421 t 90 r /Helvetica findfont 28.5208 sf 0 0 m (/) show NC gr 
 gsave  710 564 779 12 C 809.899 417.737 t 90 r /Helvetica findfont 19.9646 sf 0 0 m ( ) show NC gr 
 gsave  710 564 779 12 C 801.374 309.751 t 90 r /Helvetica findfont 28.5208 sf 0 0 m (\(1/N\) dN) show NC gr  915 93 m -16 X s 907 105 m -8 X s 907 118 m -8 X s 907 130 m -8 X s 907 143 m -8 X s 915 155 m -16 X s 907 168 m -8 X s 907 180 m -8 X s 907
 192 m -8 X s 907 205 m -8 X s 915 217 m -16 X s 907 230 m -8 X s 907 242 m -8 X s 907 254 m -8 X s 907 267 m -8 X s 915 279 m -16 X s 907 292 m -8 X s 907 304 m -8 X s 907 317 m -8 X s 907 329 m -8 X s 915 341 m -16 X s 907 354 m -8 X s 907 366 m -8
 X s 907 379 m -8 X s 907 391 m -8 X s 915 403 m -16 X s 907 416 m -8 X s 907 428 m -8 X s 907 441 m -8 X s 907 453 m -8 X s 915 466 m -16 X s 915 466 m -16 X s 907 478 m -8 X s 907 490 m -8 X s 907 503 m -8 X s 907 515 m -8 X s
 gsave  710 564 779 12 C 875.259 82.4108 t 0 r /Helvetica findfont 25.6688 sf 0 0 m (0) show NC gr 
 gsave  710 564 779 12 C 858.208 144.929 t 0 r /Helvetica findfont 25.6688 sf 0 0 m (0.1) show NC gr 
 gsave  710 564 779 12 C 852.525 207.448 t 0 r /Helvetica findfont 25.6688 sf 0 0 m (0.2) show NC gr 
 gsave  710 564 779 12 C 852.525 269.966 t 0 r /Helvetica findfont 25.6688 sf 0 0 m (0.3) show NC gr 
 gsave  710 564 779 12 C 852.525 332.485 t 0 r /Helvetica findfont 25.6688 sf 0 0 m (0.4) show NC gr 
 gsave  710 564 779 12 C 852.525 392.162 t 0 r /Helvetica findfont 25.6688 sf 0 0 m (0.5) show NC gr 
 gsave  710 564 779 12 C 852.525 454.68 t 0 r /Helvetica findfont 25.6688 sf 0 0 m (0.6) show NC gr  1447 93 m 427 Y s 1430 93 m 17 X s 1438 105 m 9 X s 1438 118 m 9 X s 1438 130 m 9 X s 1438 143 m 9 X s 1430 155 m 17 X s 1438 168 m 9 X s 1438 180 m
 9 X s 1438 192 m 9 X s 1438 205 m 9 X s 1430 217 m 17 X s 1438 230 m 9 X s 1438 242 m 9 X s 1438 254 m 9 X s 1438 267 m 9 X s 1430 279 m 17 X s 1438 292 m 9 X s 1438 304 m 9 X s 1438 317 m 9 X s 1438 329 m 9 X s 1430 341 m 17 X s 1438 354 m 9 X s
 1438 366 m 9 X s 1438 379 m 9 X s 1438 391 m 9 X s 1430 403 m 17 X s 1438 416 m 9 X s 1438 428 m 9 X s 1438 441 m 9 X s 1438 453 m 9 X s 1430 466 m 17 X s 1430 466 m 17 X s 1438 478 m 9 X s 1438 490 m 9 X s 1438 503 m 9 X s 1438 515 m 9 X s 1 0 0 c
 6 lw black 3 lw 1 0 0 c 1432 93 m s 1417 93 m s 1402 93 m s 1387 93 m s 1373 94 m -1 -1 d s 1359 96 m -2 -3 d s 1347 98 m -5 -5 d s 1334 101 m -7 -8 d s 1323 105 m -12 -12 d s 1311 108 m -15 -15 d s 1301 113 m -20 -20 d s 1296 123 m -30 -30 d s 1285
 127 m -34 -34 d s 1282 140 m -46 -47 d s 1269 141 m -48 -48 d s 1269 156 m -63 -63 d s 1256 159 m -65 -66 d s 1255 173 m -79 -80 d s 1255 188 m -94 -95 d s 1241 189 m -95 -96 d s 1241 205 m -110 -112 d s 1239 218 m -123 -125 d s 1228 221 m -128 -128
 d s 1228 236 m -143 -143 d s 1228 252 m -158 -159 d s 1217 256 m -162 -163 d s 1214 268 m -174 -175 d s 1214 283 m -189 -190 d s 1211 295 m -201 -202 d s 1200 300 m -205 -207 d s 1200 315 m -220 -222 d s 1200 330 m -235 -237 d s 1187 332 m -237 -239
 d s 1187 347 m -252 -254 d s 1187 362 m -267 -269 d s 1187 377 m -282 -284 d s 1174 379 m -275 -276 d s 1173 394 m -274 -276 d s 1168 404 m -200 -202 d s 965 200 m -11 -11 d s 952 187 m -53 -54 d s 1159 410 m -123 -124 d s 1031 281 m -9 -8 d s 1013
 263 m -4 -4 d s 997 247 m -2 -2 d s 928 178 m -1 -2 d s 922 171 m -9 -9 d s 909 158 m -10 -9 d s 1159 426 m -123 -124 d s 1151 433 m -115 -116 d s 1146 442 m -82 -82 d s 1062 358 m -12 -12 d s 1044 340 m -8 -8 d s 1130 442 m -39 -40 d s 1090 402 m
 -26 -27 d s 1118 445 m -27 -27 d s 1095 437 m -4 -4 d s 6 lw 899 158 m 14 X 13 Y 14 X 7 Y 13 X 9 Y 14 X 13 Y 14 X 16 Y 13 X 14 Y 14 X 17 Y 14 X 16 Y 13 X 18 Y 14 X 59 Y 14 X 18 Y 14 X 31 Y 13 X 13 Y 14 X 35 Y 14 X 8 Y 13 X -3 Y 28 X -9 Y 13 X -29 Y
 14 X -25 Y 14 X -47 Y 13 X -37 Y 14 X -39 Y 14 X -38 Y 13 X -29 Y 14 X -30 Y 14 X -19 Y 13 X -13 Y 14 X -14 Y 14 X -5 Y 13 X -7 Y 14 X -3 Y 14 X -2 Y 13 X -2 Y 14 X -1 Y 69 X s black 3 lw 899 93 m 548 X s 925 106 m -13 Y s 937 100 m -7 Y s 950 100 m
 -7 Y s 962 100 m -7 Y s 975 100 m -7 Y s 987 106 m -13 Y s 1000 100 m -7 Y s 1012 100 m -7 Y s 1025 100 m -7 Y s 1037 100 m -7 Y s 1050 106 m -13 Y s 1062 100 m -7 Y s 1075 100 m -7 Y s 1087 100 m -7 Y s 1100 100 m -7 Y s 1112 106 m -13 Y s 1124 100
 m -7 Y s 1137 100 m -7 Y s 1149 100 m -7 Y s 1162 100 m -7 Y s 1174 106 m -13 Y s 1187 100 m -7 Y s 1199 100 m -7 Y s 1212 100 m -7 Y s 1224 100 m -7 Y s 1237 106 m -13 Y s 1249 100 m -7 Y s 1262 100 m -7 Y s 1274 100 m -7 Y s 1287 100 m -7 Y s 1299
 106 m -13 Y s 1312 100 m -7 Y s 1324 100 m -7 Y s 1337 100 m -7 Y s 1349 100 m -7 Y s 1362 106 m -13 Y s 1374 100 m -7 Y s 1387 100 m -7 Y s 1399 100 m -7 Y s 1412 100 m -7 Y s 1424 106 m -13 Y s 925 106 m -13 Y s 912 100 m -7 Y s 900 100 m -7 Y s
 1424 106 m -13 Y s 1437 100 m -7 Y s 899 520 m 548 X s 925 507 m 13 Y s 937 513 m 7 Y s 950 513 m 7 Y s 962 513 m 7 Y s 975 513 m 7 Y s 987 507 m 13 Y s 1000 513 m 7 Y s 1012 513 m 7 Y s 1025 513 m 7 Y s 1037 513 m 7 Y s 1050 507 m 13 Y s 1062 513 m
 7 Y s 1075 513 m 7 Y s 1087 513 m 7 Y s 1100 513 m 7 Y s 1112 507 m 13 Y s 1124 513 m 7 Y s 1137 513 m 7 Y s 1149 513 m 7 Y s 1162 513 m 7 Y s 1174 507 m 13 Y s 1187 513 m 7 Y s 1199 513 m 7 Y s 1212 513 m 7 Y s 1224 513 m 7 Y s 1237 507 m 13 Y s
 1249 513 m 7 Y s 1262 513 m 7 Y s 1274 513 m 7 Y s 1287 513 m 7 Y s 1299 507 m 13 Y s 1312 513 m 7 Y s 1324 513 m 7 Y s 1337 513 m 7 Y s 1349 513 m 7 Y s 1362 507 m 13 Y s 1374 513 m 7 Y s 1387 513 m 7 Y s 1399 513 m 7 Y s 1412 513 m 7 Y s 1424 507
 m 13 Y s 925 507 m 13 Y s 912 513 m 7 Y s 900 513 m 7 Y s 1424 507 m 13 Y s 1437 513 m 7 Y s 899 93 m 427 Y s 915 93 m -16 X s 907 105 m -8 X s 907 118 m -8 X s 907 130 m -8 X s 907 143 m -8 X s 915 155 m -16 X s 907 168 m -8 X s 907 180 m -8 X s
 907 192 m -8 X s 907 205 m -8 X s 915 217 m -16 X s 907 230 m -8 X s 907 242 m -8 X s 907 254 m -8 X s 907 267 m -8 X s 915 279 m -16 X s 907 292 m -8 X s 907 304 m -8 X s 907 317 m -8 X s 907 329 m -8 X s 915 341 m -16 X s 907 354 m -8 X s 907 366
 m -8 X s 907 379 m -8 X s 907 391 m -8 X s 915 403 m -16 X s 907 416 m -8 X s 907 428 m -8 X s 907 441 m -8 X s 907 453 m -8 X s 915 466 m -16 X s 915 466 m -16 X s 907 478 m -8 X s 907 490 m -8 X s 907 503 m -8 X s 907 515 m -8 X s 1447 93 m 427 Y
 s 1430 93 m 17 X s 1438 105 m 9 X s 1438 118 m 9 X s 1438 130 m 9 X s 1438 143 m 9 X s 1430 155 m 17 X s 1438 168 m 9 X s 1438 180 m 9 X s 1438 192 m 9 X s 1438 205 m 9 X s 1430 217 m 17 X s 1438 230 m 9 X s 1438 242 m 9 X s 1438 254 m 9 X s 1438
 267 m 9 X s 1430 279 m 17 X s 1438 292 m 9 X s 1438 304 m 9 X s 1438 317 m 9 X s 1438 329 m 9 X s 1430 341 m 17 X s 1438 354 m 9 X s 1438 366 m 9 X s 1438 379 m 9 X s 1438 391 m 9 X s 1430 403 m 17 X s 1438 416 m 9 X s 1438 428 m 9 X s 1438 441 m 9
 X s 1438 453 m 9 X s 1430 466 m 17 X s 1430 466 m 17 X s 1438 478 m 9 X s 1438 490 m 9 X s 1438 503 m 9 X s 1438 515 m 9 X s
 gsave  710 564 779 12 C 1474.92 90.8246 t 90 r /Helvetica-Bold findfont 19.9646 sf 0 0 m (U/O\255flow \(S,B\): \(0.0, 0.0\)% / \(0.0, 0.0\)%) show NC gr  0.48 0.56 0.6 c 0.364706 0.419608 0.490196 c 389 38 786 536 bf 0.48 0.56 0.6 c 786 536 m 389 X
 s 1175 536 m 38 Y s 1175 574 m -389 X s 786 574 m -38 Y s 1 1 1 c black 1 1 1 c
 gsave  710 564 779 12 C 790.007 548.458 t 0 r /Helvetica-Bold findfont 28.5208 sf 0 0 m (Input variable: log_LcPi_PT) show NC gr  0.48 0.56 0.6 c 1 1 1 c 711 564 1534 12 bf black 1 1 1 c 547 427 1655 93 bf black 547 427 1655 93 bl 1 1 1 c 547 427
 1655 93 bf black 547 427 1655 93 bl 0 0 0.933333 c 6 lw 0.49 0.6 0.82 c black 3 lw 0.49 0.6 0.82 c 1655 93 m 41 X 2 Y 14 X -2 Y 68 X 2 Y 14 X 2 Y 14 X -4 Y 27 X 2 Y 27 X 6 Y 14 X 6 Y 14 X -1 Y 13 X 7 Y 14 X 7 Y 14 X 7 Y 14 X 36 Y 13 X 7 Y 14 X 54 Y
 14 X 33 Y 13 X 36 Y 14 X 49 Y 14 X 79 Y 13 X 16 Y 14 X 44 Y 14 X -65 Y 13 X -64 Y 14 X -98 Y 14 X -94 Y 13 X -45 Y 14 X -17 Y 14 X -4 Y 13 X -1 Y 41 X f 6 lw 0 0 0.933333 c 0.49 0.6 0.82 c 0 0 0.933333 c 1655 93 m 41 X 2 Y 14 X -2 Y 68 X 2 Y 14 X 2
 Y 14 X -4 Y 27 X 2 Y 27 X 6 Y 14 X 6 Y 14 X -1 Y 13 X 7 Y 14 X 7 Y 14 X 7 Y 14 X 36 Y 13 X 7 Y 14 X 54 Y 14 X 33 Y 13 X 36 Y 14 X 49 Y 14 X 79 Y 13 X 16 Y 14 X 44 Y 14 X -65 Y 13 X -64 Y 14 X -98 Y 14 X -94 Y 13 X -45 Y 14 X -17 Y 14 X -4 Y 13 X -1
 Y 41 X s black 3 lw 1655 93 m 547 X s
 gsave  711 564 1534 12 C 1898.29 25.5758 t 0 r /Helvetica findfont 28.5208 sf 0 0 m (log_C_IPCHI2_OWNPV) show NC gr  1721 106 m -13 Y s 1741 100 m -7 Y s 1760 100 m -7 Y s 1780 100 m -7 Y s 1800 106 m -13 Y s 1819 100 m -7 Y s 1839 100 m -7 Y s 1859
 100 m -7 Y s 1878 106 m -13 Y s 1898 100 m -7 Y s 1918 100 m -7 Y s 1938 100 m -7 Y s 1957 106 m -13 Y s 1977 100 m -7 Y s 1997 100 m -7 Y s 2016 100 m -7 Y s 2036 106 m -13 Y s 2056 100 m -7 Y s 2075 100 m -7 Y s 2095 100 m -7 Y s 2115 106 m -13 Y
 s 2135 100 m -7 Y s 2154 100 m -7 Y s 2174 100 m -7 Y s 2194 106 m -13 Y s 1721 106 m -13 Y s 1701 100 m -7 Y s 1681 100 m -7 Y s 1662 100 m -7 Y s 2194 106 m -13 Y s
 gsave  711 564 1534 12 C 1716.42 65.3603 t 0 r /Helvetica findfont 25.6688 sf 0 0 m (8) show NC gr 
 gsave  711 564 1534 12 C 1705.05 65.3603 t 0 r /Symbol findfont 25.6688 sf 0 0 m (-) show NC gr 
 gsave  711 564 1534 12 C 1795.99 65.3603 t 0 r /Helvetica findfont 25.6688 sf 0 0 m (6) show NC gr 
 gsave  711 564 1534 12 C 1784.62 65.3603 t 0 r /Symbol findfont 25.6688 sf 0 0 m (-) show NC gr 
 gsave  711 564 1534 12 C 1875.56 65.3603 t 0 r /Helvetica findfont 25.6688 sf 0 0 m (4) show NC gr 
 gsave  711 564 1534 12 C 1864.19 65.3603 t 0 r /Symbol findfont 25.6688 sf 0 0 m (-) show NC gr 
 gsave  711 564 1534 12 C 1952.28 65.3603 t 0 r /Helvetica findfont 25.6688 sf 0 0 m (2) show NC gr 
 gsave  711 564 1534 12 C 1940.92 65.3603 t 0 r /Symbol findfont 25.6688 sf 0 0 m (-) show NC gr 
 gsave  711 564 1534 12 C 2026.17 65.3603 t 0 r /Helvetica findfont 25.6688 sf 0 0 m (0) show NC gr 
 gsave  711 564 1534 12 C 2105.74 65.3603 t 0 r /Helvetica findfont 25.6688 sf 0 0 m (2) show NC gr 
 gsave  711 564 1534 12 C 2182.46 65.3603 t 0 r /Helvetica findfont 25.6688 sf 0 0 m (4) show NC gr  1655 520 m 547 X s 1721 507 m 13 Y s 1741 513 m 7 Y s 1760 513 m 7 Y s 1780 513 m 7 Y s 1800 507 m 13 Y s 1819 513 m 7 Y s 1839 513 m 7 Y s 1859 513
 m 7 Y s 1878 507 m 13 Y s 1898 513 m 7 Y s 1918 513 m 7 Y s 1938 513 m 7 Y s 1957 507 m 13 Y s 1977 513 m 7 Y s 1997 513 m 7 Y s 2016 513 m 7 Y s 2036 507 m 13 Y s 2056 513 m 7 Y s 2075 513 m 7 Y s 2095 513 m 7 Y s 2115 507 m 13 Y s 2135 513 m 7 Y s
 2154 513 m 7 Y s 2174 513 m 7 Y s 2194 507 m 13 Y s 1721 507 m 13 Y s 1701 513 m 7 Y s 1681 513 m 7 Y s 1662 513 m 7 Y s 2194 507 m 13 Y s 1655 93 m 427 Y s
 gsave  711 564 1534 12 C 1557.28 440.471 t 90 r /Helvetica findfont 28.5208 sf 0 0 m (0.347 ) show NC gr 
 gsave  711 564 1534 12 C 1543.07 434.788 t 90 r /Helvetica findfont 19.9646 sf 0 0 m ( ) show NC gr 
 gsave  711 564 1534 12 C 1557.28 423.421 t 90 r /Helvetica findfont 28.5208 sf 0 0 m (/) show NC gr 
 gsave  711 564 1534 12 C 1565.8 417.737 t 90 r /Helvetica findfont 19.9646 sf 0 0 m ( ) show NC gr 
 gsave  711 564 1534 12 C 1557.28 309.751 t 90 r /Helvetica findfont 28.5208 sf 0 0 m (\(1/N\) dN) show NC gr  1671 93 m -16 X s 1663 103 m -8 X s 1663 113 m -8 X s 1663 123 m -8 X s 1663 134 m -8 X s 1671 144 m -16 X s 1663 154 m -8 X s 1663 164 m
 -8 X s 1663 174 m -8 X s 1663 184 m -8 X s 1671 194 m -16 X s 1663 204 m -8 X s 1663 214 m -8 X s 1663 224 m -8 X s 1663 235 m -8 X s 1671 245 m -16 X s 1663 255 m -8 X s 1663 265 m -8 X s 1663 275 m -8 X s 1663 285 m -8 X s 1671 295 m -16 X s 1663
 305 m -8 X s 1663 315 m -8 X s 1663 326 m -8 X s 1663 336 m -8 X s 1671 346 m -16 X s 1663 356 m -8 X s 1663 366 m -8 X s 1663 376 m -8 X s 1663 386 m -8 X s 1671 396 m -16 X s 1663 406 m -8 X s 1663 417 m -8 X s 1663 427 m -8 X s 1663 437 m -8 X s
 1671 447 m -16 X s 1663 457 m -8 X s 1663 467 m -8 X s 1663 477 m -8 X s 1663 487 m -8 X s 1671 497 m -16 X s 1671 497 m -16 X s 1663 507 m -8 X s 1663 518 m -8 X s
 gsave  711 564 1534 12 C 1631.16 82.4108 t 0 r /Helvetica findfont 25.6688 sf 0 0 m (0) show NC gr 
 gsave  711 564 1534 12 C 1594.22 133.562 t 0 r /Helvetica findfont 25.6688 sf 0 0 m (0.05) show NC gr 
 gsave  711 564 1534 12 C 1614.11 184.714 t 0 r /Helvetica findfont 25.6688 sf 0 0 m (0.1) show NC gr 
 gsave  711 564 1534 12 C 1594.22 235.865 t 0 r /Helvetica findfont 25.6688 sf 0 0 m (0.15) show NC gr 
 gsave  711 564 1534 12 C 1608.43 284.175 t 0 r /Helvetica findfont 25.6688 sf 0 0 m (0.2) show NC gr 
 gsave  711 564 1534 12 C 1594.22 335.327 t 0 r /Helvetica findfont 25.6688 sf 0 0 m (0.25) show NC gr 
 gsave  711 564 1534 12 C 1608.43 386.478 t 0 r /Helvetica findfont 25.6688 sf 0 0 m (0.3) show NC gr 
 gsave  711 564 1534 12 C 1594.22 437.63 t 0 r /Helvetica findfont 25.6688 sf 0 0 m (0.35) show NC gr 
 gsave  711 564 1534 12 C 1608.43 488.781 t 0 r /Helvetica findfont 25.6688 sf 0 0 m (0.4) show NC gr  2202 93 m 427 Y s 2186 93 m 16 X s 2194 103 m 8 X s 2194 113 m 8 X s 2194 123 m 8 X s 2194 134 m 8 X s 2186 144 m 16 X s 2194 154 m 8 X s 2194 164
 m 8 X s 2194 174 m 8 X s 2194 184 m 8 X s 2186 194 m 16 X s 2194 204 m 8 X s 2194 214 m 8 X s 2194 224 m 8 X s 2194 235 m 8 X s 2186 245 m 16 X s 2194 255 m 8 X s 2194 265 m 8 X s 2194 275 m 8 X s 2194 285 m 8 X s 2186 295 m 16 X s 2194 305 m 8 X s
 2194 315 m 8 X s 2194 326 m 8 X s 2194 336 m 8 X s 2186 346 m 16 X s 2194 356 m 8 X s 2194 366 m 8 X s 2194 376 m 8 X s 2194 386 m 8 X s 2186 396 m 16 X s 2194 406 m 8 X s 2194 417 m 8 X s 2194 427 m 8 X s 2194 437 m 8 X s 2186 447 m 16 X s 2194 457
 m 8 X s 2194 467 m 8 X s 2194 477 m 8 X s 2194 487 m 8 X s 2186 497 m 16 X s 2186 497 m 16 X s 2194 507 m 8 X s 2194 518 m 8 X s 1 0 0 c 6 lw black 3 lw 1 0 0 c 2189 94 m -1 -1 d s 2189 109 m -16 -16 d s 2189 124 m -31 -31 d s 2177 128 m -34 -35 d s
 2175 141 m -47 -48 d s 2175 156 m -62 -63 d s 2175 171 m -77 -78 d s 2175 186 m -93 -93 d s 2161 188 m -94 -95 d s 2161 203 m -109 -110 d s 2161 218 m -124 -125 d s 2151 223 m -129 -130 d s 2148 235 m -141 -142 d s 2148 250 m -156 -157 d s 2137 254
 m -160 -161 d s 2134 267 m -172 -174 d s 2128 276 m -181 -183 d s 2120 283 m -188 -190 d s 2120 298 m -136 -138 d s 1982 159 m -12 -12 d s 1962 139 m -6 -6 d s 1950 127 m -7 -8 d s 1939 116 m -22 -23 d s 2119 313 m -122 -124 d s 1986 178 m -2 -2 d s
 1918 110 m -3 -3 d s 1914 105 m -12 -12 d s 2107 315 m -96 -97 d s 1999 206 m -2 -1 d s 1894 101 m -7 -8 d s 2107 330 m -82 -83 d s 2021 244 m -10 -10 d s 1877 99 m -6 -6 d s 2107 345 m -82 -82 d s 1861 98 m -1 -1 d s 1859 96 m -3 -3 d s 2096 350 m
 -58 -58 d s 2025 279 m -1 Y s 1843 95 m -2 -2 d s 2093 362 m -41 -42 d s 2052 320 m -14 -13 d s 1828 95 m -2 -2 d s 2093 377 m -41 -41 d s 1812 94 m -1 -1 d s 2081 380 m -15 -15 d s 2062 361 m -10 -10 d s 1797 94 m -1 -1 d s 2069 383 m -3 -3 d s
 1782 94 m -1 -1 d s 1766 93 m s 1751 94 m -1 Y s 1736 93 m s 1721 93 m s 1706 93 m s 1691 93 m s 1675 93 m cl s 1661 93 m -1 X s 6 lw 1655 93 m 96 X 1 Y 14 X -1 Y 13 X 1 Y 41 X 1 Y 28 X 1 Y 13 X 2 Y 14 X 1 Y 14 X 2 Y 13 X 4 Y 14 X 5 Y 14 X 6 Y 14 X
 11 Y 13 X 12 Y 14 X 20 Y 14 X 19 Y 13 X 28 Y 14 X 38 Y 14 X 35 Y 13 X 41 Y 14 X 41 Y 14 X 22 Y 13 X -3 Y 14 X -30 Y 14 X -37 Y 13 X -37 Y 14 X -22 Y 14 X -31 Y 13 X -37 Y 14 X -58 Y 14 X -35 Y 13 X s black 3 lw 1655 93 m 547 X s 1721 106 m -13 Y s
 1741 100 m -7 Y s 1760 100 m -7 Y s 1780 100 m -7 Y s 1800 106 m -13 Y s 1819 100 m -7 Y s 1839 100 m -7 Y s 1859 100 m -7 Y s 1878 106 m -13 Y s 1898 100 m -7 Y s 1918 100 m -7 Y s 1938 100 m -7 Y s 1957 106 m -13 Y s 1977 100 m -7 Y s 1997 100 m
 -7 Y s 2016 100 m -7 Y s 2036 106 m -13 Y s 2056 100 m -7 Y s 2075 100 m -7 Y s 2095 100 m -7 Y s 2115 106 m -13 Y s 2135 100 m -7 Y s 2154 100 m -7 Y s 2174 100 m -7 Y s 2194 106 m -13 Y s 1721 106 m -13 Y s 1701 100 m -7 Y s 1681 100 m -7 Y s 1662
 100 m -7 Y s 2194 106 m -13 Y s 1655 520 m 547 X s 1721 507 m 13 Y s 1741 513 m 7 Y s 1760 513 m 7 Y s 1780 513 m 7 Y s 1800 507 m 13 Y s 1819 513 m 7 Y s 1839 513 m 7 Y s 1859 513 m 7 Y s 1878 507 m 13 Y s 1898 513 m 7 Y s 1918 513 m 7 Y s 1938 513
 m 7 Y s 1957 507 m 13 Y s 1977 513 m 7 Y s 1997 513 m 7 Y s 2016 513 m 7 Y s 2036 507 m 13 Y s 2056 513 m 7 Y s 2075 513 m 7 Y s 2095 513 m 7 Y s 2115 507 m 13 Y s 2135 513 m 7 Y s 2154 513 m 7 Y s 2174 513 m 7 Y s 2194 507 m 13 Y s 1721 507 m 13 Y
 s 1701 513 m 7 Y s 1681 513 m 7 Y s 1662 513 m 7 Y s 2194 507 m 13 Y s 1655 93 m 427 Y s 1671 93 m -16 X s 1663 103 m -8 X s 1663 113 m -8 X s 1663 123 m -8 X s 1663 134 m -8 X s 1671 144 m -16 X s 1663 154 m -8 X s 1663 164 m -8 X s 1663 174 m -8 X
 s 1663 184 m -8 X s 1671 194 m -16 X s 1663 204 m -8 X s 1663 214 m -8 X s 1663 224 m -8 X s 1663 235 m -8 X s 1671 245 m -16 X s 1663 255 m -8 X s 1663 265 m -8 X s 1663 275 m -8 X s 1663 285 m -8 X s 1671 295 m -16 X s 1663 305 m -8 X s 1663 315 m
 -8 X s 1663 326 m -8 X s 1663 336 m -8 X s 1671 346 m -16 X s 1663 356 m -8 X s 1663 366 m -8 X s 1663 376 m -8 X s 1663 386 m -8 X s 1671 396 m -16 X s 1663 406 m -8 X s 1663 417 m -8 X s 1663 427 m -8 X s 1663 437 m -8 X s 1671 447 m -16 X s 1663
 457 m -8 X s 1663 467 m -8 X s 1663 477 m -8 X s 1663 487 m -8 X s 1671 497 m -16 X s 1671 497 m -16 X s 1663 507 m -8 X s 1663 518 m -8 X s 2202 93 m 427 Y s 2186 93 m 16 X s 2194 103 m 8 X s 2194 113 m 8 X s 2194 123 m 8 X s 2194 134 m 8 X s 2186
 144 m 16 X s 2194 154 m 8 X s 2194 164 m 8 X s 2194 174 m 8 X s 2194 184 m 8 X s 2186 194 m 16 X s 2194 204 m 8 X s 2194 214 m 8 X s 2194 224 m 8 X s 2194 235 m 8 X s 2186 245 m 16 X s 2194 255 m 8 X s 2194 265 m 8 X s 2194 275 m 8 X s 2194 285 m 8
 X s 2186 295 m 16 X s 2194 305 m 8 X s 2194 315 m 8 X s 2194 326 m 8 X s 2194 336 m 8 X s 2186 346 m 16 X s 2194 356 m 8 X s 2194 366 m 8 X s 2194 376 m 8 X s 2194 386 m 8 X s 2186 396 m 16 X s 2194 406 m 8 X s 2194 417 m 8 X s 2194 427 m 8 X s 2194
 437 m 8 X s 2186 447 m 16 X s 2194 457 m 8 X s 2194 467 m 8 X s 2194 477 m 8 X s 2194 487 m 8 X s 2186 497 m 16 X s 2186 497 m 16 X s 2194 507 m 8 X s 2194 518 m 8 X s
 gsave  711 564 1534 12 C 2230.83 90.8246 t 90 r /Helvetica-Bold findfont 19.9646 sf 0 0 m (U/O\255flow \(S,B\): \(0.0, 0.0\)% / \(0.0, 0.0\)%) show NC gr  0.48 0.56 0.6 c 0.364706 0.419608 0.490196 c 497 38 1542 536 bf 0.48 0.56 0.6 c 1542 536 m 497
 X s 2039 536 m 38 Y s 2039 574 m -497 X s 1542 574 m -38 Y s 1 1 1 c black 1 1 1 c
 gsave  711 564 1534 12 C 1557.28 548.458 t 0 r /Helvetica-Bold findfont 25.6688 sf 0 0 m (Input variable: log_C_IPCHI2_OWNPV) show NC gr 
 gr  gr showpage
end
%%EOF
