%!PS-Adobe-2.0 EPSF-2.0
%%BoundingBox:  0 0 567 294
%%Title: plots/variables_id_c1.eps: Input variables (training sample)
%%Creator: ROOT Version 6.06/02
%%CreationDate: Tue Oct 16 01:05:21 2018
%%DocumentNeededResources: ProcSet (FontSetInit)
%%EndComments
%%BeginProlog
80 dict begin
/s {stroke} def /l {lineto} def /m {moveto} def /t {translate} def
/r {rotate} def /rl {roll}  def /R {repeat} def
/d {rlineto} def /rm {rmoveto} def /gr {grestore} def /f {eofill} def
/c {setrgbcolor} def /black {0 setgray} def /sd {setdash} def
/cl {closepath} def /sf {scalefont setfont} def /lw {setlinewidth} def
/box {m dup 0 exch d exch 0 d 0 exch neg d cl} def
/NC{systemdict begin initclip end}def/C{NC box clip newpath}def
/bl {box s} def /bf {gsave box gsave f grestore 1 lw [] 0 sd s grestore} def /Y { 0 exch d} def /X { 0 d} def 
/K {{pop pop 0 moveto} exch kshow} bind def
/ita {/ang 15 def gsave [1 0 ang dup sin exch cos div 1 0 0] concat} def 
/mp {newpath /y exch def /x exch def} def
/side {[w .77 mul w .23 mul] .385 w mul sd w 0 l currentpoint t -144 r} def
/mr {mp x y w2 0 360 arc} def /m24 {mr s} def /m20 {mr f} def
/mb {mp x y w2 add m w2 neg 0 d 0 w neg d w 0 d 0 w d cl} def
/mt {mp x y w2 add m w2 neg w neg d w 0 d cl} def
/m21 {mb f} def /m25 {mb s} def /m22 {mt f} def /m26{mt s} def
/m23 {mp x y w2 sub m w2 w d w neg 0 d cl f} def
/m27 {mp x y w2 add m w3 neg w2 neg d w3 w2 neg d w3 w2 d cl s} def
/m28 {mp x w2 sub y w2 sub w3 add m w3 0 d  0 w3 neg d w3 0 d 0 w3 d w3 0 d  0 w3 d w3 neg 0 d 0 w3 d w3 neg 0 d 0 w3 neg d w3 neg 0 d cl s } def
/m29 {mp gsave x w2 sub y w2 add w3 sub m currentpoint t 4 {side} repeat cl fill gr} def
/m30 {mp gsave x w2 sub y w2 add w3 sub m currentpoint t 4 {side} repeat cl s gr} def
/m31 {mp x y w2 sub m 0 w d x w2 sub y m w 0 d x w2 sub y w2 add m w w neg d x w2 sub y w2 sub m w w d s} def
/m32 {mp x y w2 sub m w2 w d w neg 0 d cl s} def
/m33 {mp x y w2 add m w3 neg w2 neg d w3 w2 neg d w3 w2 d cl f} def
/m34 {mp x w2 sub y w2 sub w3 add m w3 0 d  0 w3 neg d w3 0 d 0 w3 d w3 0 d  0 w3 d w3 neg 0 d 0 w3 d w3 neg 0 d 0 w3 neg d w3 neg 0 d cl f } def
/m2 {mp x y w2 sub m 0 w d x w2 sub y m w 0 d s} def
/m5 {mp x w2 sub y w2 sub m w w d x w2 sub y w2 add m w w neg d s} def
%%IncludeResource: ProcSet (FontSetInit)
%%IncludeResource: font Times-Roman
%%IncludeResource: font Times-Italic
%%IncludeResource: font Times-Bold
%%IncludeResource: font Times-BoldItalic
%%IncludeResource: font Helvetica
%%IncludeResource: font Helvetica-Oblique
%%IncludeResource: font Helvetica-Bold
%%IncludeResource: font Helvetica-BoldOblique
%%IncludeResource: font Courier
%%IncludeResource: font Courier-Oblique
%%IncludeResource: font Courier-Bold
%%IncludeResource: font Courier-BoldOblique
%%IncludeResource: font Symbol
%%IncludeResource: font ZapfDingbats
/reEncode {exch findfont dup length dict begin {1 index /FID eq  {pop pop} {def} ifelse } forall /Encoding exch def currentdict end dup /FontName get exch definefont pop } def [/Times-Bold /Times-Italic /Times-BoldItalic /Helvetica /Helvetica-Oblique
 /Helvetica-Bold /Helvetica-BoldOblique /Courier /Courier-Oblique /Courier-Bold /Courier-BoldOblique /Times-Roman /AvantGarde-Book /AvantGarde-BookOblique /AvantGarde-Demi /AvantGarde-DemiOblique /Bookman-Demi /Bookman-DemiItalic /Bookman-Light
 /Bookman-LightItalic /Helvetica-Narrow /Helvetica-Narrow-Bold /Helvetica-Narrow-BoldOblique /Helvetica-Narrow-Oblique /NewCenturySchlbk-Roman /NewCenturySchlbk-Bold /NewCenturySchlbk-BoldItalic /NewCenturySchlbk-Italic /Palatino-Bold
 /Palatino-BoldItalic /Palatino-Italic /Palatino-Roman ] {ISOLatin1Encoding reEncode } forall
%%EndProlog
%%BeginSetup
%%EndSetup
newpath  gsave  .25 .25 scale  gsave  0 0 t 0.48 0.56 0.6 c[  ] 0 sd 3 lw 1 1 1 c 2268 1176 0 0 bf 0.48 0.56 0.6 c 1 1 1 c 710 565 23 600 bf black 1 1 1 c 548 427 143 681 bf black 548 427 143 681 bl 1 1 1 c 548 427 143 681 bf black 548 427 143 681 bl
 0 0 0.933333 c 6 lw 0.49 0.6 0.82 c black 3 lw 0.49 0.6 0.82 c 143 681 m 249 Y 14 X 80 Y 14 X -46 Y 14 X -51 Y 13 X -65 Y 14 X -11 Y 14 X -42 Y 13 X -29 Y 14 X -28 Y 14 X -1 Y 13 X -8 Y 14 X -11 Y 14 X -7 Y 13 X -2 Y 14 X -1 Y 14 X -11 Y 27 X -2 Y
 14 X 3 Y 13 X -4 Y 14 X -9 Y 14 X 2 Y 13 X 1 Y 14 X -1 Y 14 X -2 Y 13 X 3 Y 14 X -4 Y 14 X 2 Y 13 X -4 Y 14 X 4 Y 27 X 1 Y 14 X -2 Y 14 X -3 Y 14 X 2 Y 27 X -3 Y 14 X 3 Y 13 X -1 Y 14 X -2 Y 14 X f 6 lw 0 0 0.933333 c 0.49 0.6 0.82 c 0 0 0.933333 c
 143 930 m 14 X 80 Y 14 X -46 Y 14 X -51 Y 13 X -65 Y 14 X -11 Y 14 X -42 Y 13 X -29 Y 14 X -28 Y 14 X -1 Y 13 X -8 Y 14 X -11 Y 14 X -7 Y 13 X -2 Y 14 X -1 Y 14 X -11 Y 27 X -2 Y 14 X 3 Y 13 X -4 Y 14 X -9 Y 14 X 2 Y 13 X 1 Y 14 X -1 Y 14 X -2 Y 13
 X 3 Y 14 X -4 Y 14 X 2 Y 13 X -4 Y 14 X 4 Y 27 X 1 Y 14 X -2 Y 14 X -3 Y 14 X 2 Y 27 X -3 Y 14 X 3 Y 13 X -1 Y 14 X -2 Y 14 X s black 3 lw 143 681 m 548 X s
 gsave  710 565 23 600 C 292.7 610.976 t 0 r /Helvetica findfont 28.5208 sf 0 0 m (Lc_ENDVERTEX_CHI2_NDOF) show NC gr  250 694 m -13 Y s 277 688 m -7 Y s 304 688 m -7 Y s 330 688 m -7 Y s 357 694 m -13 Y s 384 688 m -7 Y s 410 688 m -7 Y s 437 688 m
 -7 Y s 464 694 m -13 Y s 490 688 m -7 Y s 517 688 m -7 Y s 544 688 m -7 Y s 571 694 m -13 Y s 597 688 m -7 Y s 624 688 m -7 Y s 651 688 m -7 Y s 677 694 m -13 Y s 250 694 m -13 Y s 224 688 m -7 Y s 197 688 m -7 Y s 170 688 m -7 Y s 677 694 m -13 Y s
 gsave  710 565 23 600 C 241.549 653.603 t 0 r /Helvetica findfont 25.6688 sf 0 0 m (2) show NC gr 
 gsave  710 565 23 600 C 346.694 653.603 t 0 r /Helvetica findfont 25.6688 sf 0 0 m (4) show NC gr 
 gsave  710 565 23 600 C 454.68 653.603 t 0 r /Helvetica findfont 25.6688 sf 0 0 m (6) show NC gr 
 gsave  710 565 23 600 C 559.825 653.603 t 0 r /Helvetica findfont 25.6688 sf 0 0 m (8) show NC gr 
 gsave  710 565 23 600 C 662.128 653.603 t 0 r /Helvetica findfont 25.6688 sf 0 0 m (10) show NC gr  143 1108 m 548 X s 250 1095 m 13 Y s 277 1102 m 6 Y s 304 1102 m 6 Y s 330 1102 m 6 Y s 357 1095 m 13 Y s 384 1102 m 6 Y s 410 1102 m 6 Y s 437 1102
 m 6 Y s 464 1095 m 13 Y s 490 1102 m 6 Y s 517 1102 m 6 Y s 544 1102 m 6 Y s 571 1095 m 13 Y s 597 1102 m 6 Y s 624 1102 m 6 Y s 651 1102 m 6 Y s 677 1095 m 13 Y s 250 1095 m 13 Y s 224 1102 m 6 Y s 197 1102 m 6 Y s 170 1102 m 6 Y s 677 1095 m 13 Y
 s 143 681 m 427 Y s
 gsave  710 565 23 600 C 45.468 1028.71 t 90 r /Helvetica findfont 28.5208 sf 0 0 m (0.256 ) show NC gr 
 gsave  710 565 23 600 C 31.2593 1023.03 t 90 r /Helvetica findfont 19.9646 sf 0 0 m ( ) show NC gr 
 gsave  710 565 23 600 C 45.468 1011.66 t 90 r /Helvetica findfont 28.5208 sf 0 0 m (/) show NC gr 
 gsave  710 565 23 600 C 53.9933 1005.98 t 90 r /Helvetica findfont 19.9646 sf 0 0 m ( ) show NC gr 
 gsave  710 565 23 600 C 45.468 897.993 t 90 r /Helvetica findfont 28.5208 sf 0 0 m (\(1/N\) dN) show NC gr  160 681 m -17 X s 152 692 m -9 X s 152 702 m -9 X s 152 713 m -9 X s 152 723 m -9 X s 160 734 m -17 X s 152 744 m -9 X s 152 754 m -9 X s 152
 765 m -9 X s 152 775 m -9 X s 160 786 m -17 X s 152 796 m -9 X s 152 807 m -9 X s 152 817 m -9 X s 152 827 m -9 X s 160 838 m -17 X s 152 848 m -9 X s 152 859 m -9 X s 152 869 m -9 X s 152 880 m -9 X s 160 890 m -17 X s 152 901 m -9 X s 152 911 m -9
 X s 152 921 m -9 X s 152 932 m -9 X s 160 942 m -17 X s 152 953 m -9 X s 152 963 m -9 X s 152 974 m -9 X s 152 984 m -9 X s 160 995 m -17 X s 152 1005 m -9 X s 152 1015 m -9 X s 152 1026 m -9 X s 152 1036 m -9 X s 160 1047 m -17 X s 152 1057 m -9 X
 s 152 1068 m -9 X s 152 1078 m -9 X s 152 1088 m -9 X s 160 1099 m -17 X s 160 1099 m -17 X s
 gsave  710 565 23 600 C 119.354 670.653 t 0 r /Helvetica findfont 25.6688 sf 0 0 m (0) show NC gr 
 gsave  710 565 23 600 C 102.303 724.646 t 0 r /Helvetica findfont 25.6688 sf 0 0 m (0.1) show NC gr 
 gsave  710 565 23 600 C 96.6195 775.798 t 0 r /Helvetica findfont 25.6688 sf 0 0 m (0.2) show NC gr 
 gsave  710 565 23 600 C 96.6195 826.949 t 0 r /Helvetica findfont 25.6688 sf 0 0 m (0.3) show NC gr 
 gsave  710 565 23 600 C 96.6195 880.943 t 0 r /Helvetica findfont 25.6688 sf 0 0 m (0.4) show NC gr 
 gsave  710 565 23 600 C 96.6195 932.094 t 0 r /Helvetica findfont 25.6688 sf 0 0 m (0.5) show NC gr 
 gsave  710 565 23 600 C 96.6195 983.246 t 0 r /Helvetica findfont 25.6688 sf 0 0 m (0.6) show NC gr 
 gsave  710 565 23 600 C 96.6195 1037.24 t 0 r /Helvetica findfont 25.6688 sf 0 0 m (0.7) show NC gr 
 gsave  710 565 23 600 C 96.6195 1088.39 t 0 r /Helvetica findfont 25.6688 sf 0 0 m (0.8) show NC gr  691 681 m 427 Y s 674 681 m 17 X s 683 692 m 8 X s 683 702 m 8 X s 683 713 m 8 X s 683 723 m 8 X s 674 734 m 17 X s 683 744 m 8 X s 683 754 m 8 X s
 683 765 m 8 X s 683 775 m 8 X s 674 786 m 17 X s 683 796 m 8 X s 683 807 m 8 X s 683 817 m 8 X s 683 827 m 8 X s 674 838 m 17 X s 683 848 m 8 X s 683 859 m 8 X s 683 869 m 8 X s 683 880 m 8 X s 674 890 m 17 X s 683 901 m 8 X s 683 911 m 8 X s 683
 921 m 8 X s 683 932 m 8 X s 674 942 m 17 X s 683 953 m 8 X s 683 963 m 8 X s 683 974 m 8 X s 683 984 m 8 X s 674 995 m 17 X s 683 1005 m 8 X s 683 1015 m 8 X s 683 1026 m 8 X s 683 1036 m 8 X s 674 1047 m 17 X s 683 1057 m 8 X s 683 1068 m 8 X s 683
 1078 m 8 X s 683 1088 m 8 X s 674 1099 m 17 X s 674 1099 m 17 X s 1 0 0 c 6 lw black 3 lw 1 0 0 c 677 682 m -1 -1 d s 666 687 m -5 -6 d s 651 687 m -5 -6 d s 636 687 m -5 -6 d s 623 688 m -1 X s 622 688 m -6 -7 d s 608 688 m -7 -7 d s 593 688 m -7
 -7 d s 578 688 m -7 -7 d s 563 689 m -7 -8 d s 549 690 m -8 -9 d s 533 689 m -8 -8 d s 520 691 m -10 -10 d s 506 692 m -11 -11 d s 491 692 m -11 -11 d s 477 693 m -12 -12 d s 462 693 m -12 -12 d s 449 695 m -14 -14 d s 433 695 m -13 -14 d s 420 697
 m -15 -16 d s 407 699 m -17 -18 d s 393 700 m -18 -19 d s 380 702 m -20 -21 d s 368 705 m -23 -24 d s 354 706 m -25 -25 d s 344 711 m -30 -30 d s 331 714 m -32 -33 d s 321 719 m -37 -38 d s 308 720 m -39 -39 d s 297 725 m -43 -44 d s 290 733 m -51
 -52 d s 280 738 m -56 -57 d s 268 741 m -59 -60 d s 267 755 m -73 -74 d s 253 756 m -74 -75 d s 250 768 m -86 -87 d s 239 773 m -90 -92 d s 239 788 m -96 -97 d s 228 792 m -85 -85 d s 226 804 m -83 -82 d s 221 815 m -78 -78 d s 212 821 m -69 -69 d s
 212 836 m -69 -69 d s 211 850 m -68 -68 d s 198 853 m -55 -55 d s 198 868 m -55 -55 d s 198 883 m -55 -55 d s 185 885 m -42 -42 d s 185 900 m -42 -42 d s 185 915 m -42 -41 d s 173 919 m -16 -16 d s 154 900 m -11 -11 d s 171 931 m -14 -13 d s 171 947
 m -14 -14 d s 161 952 m -4 -4 d s 6 lw 143 900 m 14 X 52 Y 14 X -33 Y 14 X -34 Y 13 X -35 Y 14 X -35 Y 14 X -23 Y 13 X -24 Y 14 X -13 Y 14 X -14 Y 13 X -8 Y 14 X -8 Y 14 X -5 Y 13 X -6 Y 14 X -3 Y 14 X -5 Y 13 X -1 Y 14 X -3 Y 14 X -2 Y 13 X -1 Y 14
 X -2 Y 14 X -2 Y 27 X -2 Y 27 X -1 Y 28 X -1 Y 13 X -2 Y 14 X 1 Y 14 X -1 Y 13 X -1 Y 69 X -1 Y 41 X -6 Y 14 X s 0.48 0.56 0.6 c 3 lw 1 1 1 c 0.48 0.56 0.6 c 285 84 143 1024 bl 143 1024 m 285 X s 428 1024 m 84 Y s 428 1108 m -285 X s 143 1108 m -84
 Y s black
 gsave  710 565 23 600 C 227.34 1079.87 t 0 r /Helvetica-Bold findfont 31.3729 sf 0 0 m (Signal) show NC gr  0.49 0.6 0.82 c 156 1072 m 60 X 30 Y -60 X f 0 0 0.933333 c 6 lw 156 1102 m 60 X s 156 1072 m 60 X s 216 1072 m 30 Y s 156 1072 m 30 Y s
 black
 gsave  710 565 23 600 C 227.34 1037.24 t 0 r /Helvetica-Bold findfont 31.3729 sf 0 0 m (Background) show NC gr  1 0 0 c 3 lw 216 1038 m -8 -8 d s 216 1053 m -23 -23 d s 207 1060 m -29 -30 d s 192 1060 m -29 -30 d s 177 1060 m -21 -22 d s 162 1060 m
 -6 -7 d s 6 lw 0 0 0.933333 c 1 0 0 c 156 1060 m 60 X s 156 1030 m 60 X s 216 1030 m 30 Y s 156 1030 m 30 Y s black 3 lw 143 681 m 548 X s 250 694 m -13 Y s 277 688 m -7 Y s 304 688 m -7 Y s 330 688 m -7 Y s 357 694 m -13 Y s 384 688 m -7 Y s 410
 688 m -7 Y s 437 688 m -7 Y s 464 694 m -13 Y s 490 688 m -7 Y s 517 688 m -7 Y s 544 688 m -7 Y s 571 694 m -13 Y s 597 688 m -7 Y s 624 688 m -7 Y s 651 688 m -7 Y s 677 694 m -13 Y s 250 694 m -13 Y s 224 688 m -7 Y s 197 688 m -7 Y s 170 688 m
 -7 Y s 677 694 m -13 Y s 143 1108 m 548 X s 250 1095 m 13 Y s 277 1102 m 6 Y s 304 1102 m 6 Y s 330 1102 m 6 Y s 357 1095 m 13 Y s 384 1102 m 6 Y s 410 1102 m 6 Y s 437 1102 m 6 Y s 464 1095 m 13 Y s 490 1102 m 6 Y s 517 1102 m 6 Y s 544 1102 m 6 Y
 s 571 1095 m 13 Y s 597 1102 m 6 Y s 624 1102 m 6 Y s 651 1102 m 6 Y s 677 1095 m 13 Y s 250 1095 m 13 Y s 224 1102 m 6 Y s 197 1102 m 6 Y s 170 1102 m 6 Y s 677 1095 m 13 Y s 143 681 m 427 Y s 160 681 m -17 X s 152 692 m -9 X s 152 702 m -9 X s 152
 713 m -9 X s 152 723 m -9 X s 160 734 m -17 X s 152 744 m -9 X s 152 754 m -9 X s 152 765 m -9 X s 152 775 m -9 X s 160 786 m -17 X s 152 796 m -9 X s 152 807 m -9 X s 152 817 m -9 X s 152 827 m -9 X s 160 838 m -17 X s 152 848 m -9 X s 152 859 m -9
 X s 152 869 m -9 X s 152 880 m -9 X s 160 890 m -17 X s 152 901 m -9 X s 152 911 m -9 X s 152 921 m -9 X s 152 932 m -9 X s 160 942 m -17 X s 152 953 m -9 X s 152 963 m -9 X s 152 974 m -9 X s 152 984 m -9 X s 160 995 m -17 X s 152 1005 m -9 X s 152
 1015 m -9 X s 152 1026 m -9 X s 152 1036 m -9 X s 160 1047 m -17 X s 152 1057 m -9 X s 152 1068 m -9 X s 152 1078 m -9 X s 152 1088 m -9 X s 160 1099 m -17 X s 160 1099 m -17 X s 691 681 m 427 Y s 674 681 m 17 X s 683 692 m 8 X s 683 702 m 8 X s 683
 713 m 8 X s 683 723 m 8 X s 674 734 m 17 X s 683 744 m 8 X s 683 754 m 8 X s 683 765 m 8 X s 683 775 m 8 X s 674 786 m 17 X s 683 796 m 8 X s 683 807 m 8 X s 683 817 m 8 X s 683 827 m 8 X s 674 838 m 17 X s 683 848 m 8 X s 683 859 m 8 X s 683 869 m
 8 X s 683 880 m 8 X s 674 890 m 17 X s 683 901 m 8 X s 683 911 m 8 X s 683 921 m 8 X s 683 932 m 8 X s 674 942 m 17 X s 683 953 m 8 X s 683 963 m 8 X s 683 974 m 8 X s 683 984 m 8 X s 674 995 m 17 X s 683 1005 m 8 X s 683 1015 m 8 X s 683 1026 m 8 X
 s 683 1036 m 8 X s 674 1047 m 17 X s 683 1057 m 8 X s 683 1068 m 8 X s 683 1078 m 8 X s 683 1088 m 8 X s 674 1099 m 17 X s 674 1099 m 17 X s
 gsave  710 565 23 600 C 719.017 679.067 t 90 r /Helvetica-Bold findfont 19.9646 sf 0 0 m (U/O\255flow \(S,B\): \(0.0, 0.0\)% / \(0.0, 0.0\)%) show NC gr  0.48 0.56 0.6 c 0.364706 0.419608 0.490196 c 497 38 30 1124 bf 0.48 0.56 0.6 c 30 1124 m 497 X
 s 527 1124 m 38 Y s 527 1162 m -497 X s 30 1162 m -38 Y s 1 1 1 c black 1 1 1 c
 gsave  710 565 23 600 C 34.101 1136.7 t 0 r /Helvetica-Bold findfont 22.8167 sf 0 0 m (Input variable: Lc_ENDVERTEX_CHI2_NDOF) show NC gr  0.48 0.56 0.6 c 1 1 1 c 710 565 779 600 bf black 1 1 1 c 548 427 899 681 bf black 548 427 899 681 bl 1 1 1 c
 548 427 899 681 bf black 548 427 899 681 bl 0 0 0.933333 c 6 lw 0.49 0.6 0.82 c black 3 lw 0.49 0.6 0.82 c 899 681 m 286 Y 14 X 102 Y 14 X -11 Y 13 X -54 Y 14 X -97 Y 14 X -73 Y 13 X -9 Y 14 X -25 Y 14 X -33 Y 13 X -9 Y 14 X -33 Y 14 X -2 Y 14 X -1
 Y 13 X -17 Y 14 X -7 Y 14 X 1 Y 13 X -12 Y 14 X 2 Y 14 X -5 Y 13 X 4 Y 14 X -5 Y 14 X -1 Y 13 X 1 Y 28 X -2 Y 13 X 2 Y 28 X -2 Y 13 X 1 Y 28 X -1 Y 82 X 3 Y 13 X -3 Y 42 X f 6 lw 0 0 0.933333 c 0.49 0.6 0.82 c 0 0 0.933333 c 899 967 m 14 X 102 Y 14
 X -11 Y 13 X -54 Y 14 X -97 Y 14 X -73 Y 13 X -9 Y 14 X -25 Y 14 X -33 Y 13 X -9 Y 14 X -33 Y 14 X -2 Y 14 X -1 Y 13 X -17 Y 14 X -7 Y 14 X 1 Y 13 X -12 Y 14 X 2 Y 14 X -5 Y 13 X 4 Y 14 X -5 Y 14 X -1 Y 13 X 1 Y 28 X -2 Y 13 X 2 Y 28 X -2 Y 13 X 1 Y
 28 X -1 Y 82 X 3 Y 13 X -3 Y 42 X s black 3 lw 899 681 m 548 X s
 gsave  710 565 779 600 C 1059.97 610.976 t 0 r /Helvetica findfont 28.5208 sf 0 0 m (C_ENDVERTEX_CHI2_NDOF) show NC gr  1006 694 m -13 Y s 1033 688 m -7 Y s 1060 688 m -7 Y s 1086 688 m -7 Y s 1113 694 m -13 Y s 1140 688 m -7 Y s 1167 688 m -7 Y s
 1193 688 m -7 Y s 1220 694 m -13 Y s 1247 688 m -7 Y s 1273 688 m -7 Y s 1300 688 m -7 Y s 1327 694 m -13 Y s 1354 688 m -7 Y s 1380 688 m -7 Y s 1407 688 m -7 Y s 1434 694 m -13 Y s 1006 694 m -13 Y s 980 688 m -7 Y s 953 688 m -7 Y s 926 688 m -7
 Y s 1434 694 m -13 Y s
 gsave  710 565 779 600 C 997.454 653.603 t 0 r /Helvetica findfont 25.6688 sf 0 0 m (2) show NC gr 
 gsave  710 565 779 600 C 1102.6 653.603 t 0 r /Helvetica findfont 25.6688 sf 0 0 m (4) show NC gr 
 gsave  710 565 779 600 C 1210.59 653.603 t 0 r /Helvetica findfont 25.6688 sf 0 0 m (6) show NC gr 
 gsave  710 565 779 600 C 1315.73 653.603 t 0 r /Helvetica findfont 25.6688 sf 0 0 m (8) show NC gr 
 gsave  710 565 779 600 C 1418.03 653.603 t 0 r /Helvetica findfont 25.6688 sf 0 0 m (10) show NC gr  899 1108 m 548 X s 1006 1095 m 13 Y s 1033 1102 m 6 Y s 1060 1102 m 6 Y s 1086 1102 m 6 Y s 1113 1095 m 13 Y s 1140 1102 m 6 Y s 1167 1102 m 6 Y s
 1193 1102 m 6 Y s 1220 1095 m 13 Y s 1247 1102 m 6 Y s 1273 1102 m 6 Y s 1300 1102 m 6 Y s 1327 1095 m 13 Y s 1354 1102 m 6 Y s 1380 1102 m 6 Y s 1407 1102 m 6 Y s 1434 1095 m 13 Y s 1006 1095 m 13 Y s 980 1102 m 6 Y s 953 1102 m 6 Y s 926 1102 m 6
 Y s 1434 1095 m 13 Y s 899 681 m 427 Y s
 gsave  710 565 779 600 C 801.374 1028.71 t 90 r /Helvetica findfont 28.5208 sf 0 0 m (0.256 ) show NC gr 
 gsave  710 565 779 600 C 787.165 1023.03 t 90 r /Helvetica findfont 19.9646 sf 0 0 m ( ) show NC gr 
 gsave  710 565 779 600 C 801.374 1011.66 t 90 r /Helvetica findfont 28.5208 sf 0 0 m (/) show NC gr 
 gsave  710 565 779 600 C 809.899 1005.98 t 90 r /Helvetica findfont 19.9646 sf 0 0 m ( ) show NC gr 
 gsave  710 565 779 600 C 801.374 897.993 t 90 r /Helvetica findfont 28.5208 sf 0 0 m (\(1/N\) dN) show NC gr  915 681 m -16 X s 907 694 m -8 X s 907 706 m -8 X s 907 718 m -8 X s 907 730 m -8 X s 915 743 m -16 X s 907 755 m -8 X s 907 767 m -8 X s
 907 779 m -8 X s 907 792 m -8 X s 915 804 m -16 X s 907 816 m -8 X s 907 829 m -8 X s 907 841 m -8 X s 907 853 m -8 X s 915 865 m -16 X s 907 878 m -8 X s 907 890 m -8 X s 907 902 m -8 X s 907 914 m -8 X s 915 927 m -16 X s 907 939 m -8 X s 907 951
 m -8 X s 907 963 m -8 X s 907 976 m -8 X s 915 988 m -16 X s 907 1000 m -8 X s 907 1013 m -8 X s 907 1025 m -8 X s 907 1037 m -8 X s 915 1049 m -16 X s 915 1049 m -16 X s 907 1062 m -8 X s 907 1074 m -8 X s 907 1086 m -8 X s 907 1098 m -8 X s
 gsave  710 565 779 600 C 875.259 670.653 t 0 r /Helvetica findfont 25.6688 sf 0 0 m (0) show NC gr 
 gsave  710 565 779 600 C 858.208 733.172 t 0 r /Helvetica findfont 25.6688 sf 0 0 m (0.1) show NC gr 
 gsave  710 565 779 600 C 852.525 792.848 t 0 r /Helvetica findfont 25.6688 sf 0 0 m (0.2) show NC gr 
 gsave  710 565 779 600 C 852.525 855.367 t 0 r /Helvetica findfont 25.6688 sf 0 0 m (0.3) show NC gr 
 gsave  710 565 779 600 C 852.525 917.885 t 0 r /Helvetica findfont 25.6688 sf 0 0 m (0.4) show NC gr 
 gsave  710 565 779 600 C 852.525 977.562 t 0 r /Helvetica findfont 25.6688 sf 0 0 m (0.5) show NC gr 
 gsave  710 565 779 600 C 852.525 1040.08 t 0 r /Helvetica findfont 25.6688 sf 0 0 m (0.6) show NC gr  1447 681 m 427 Y s 1430 681 m 17 X s 1438 694 m 9 X s 1438 706 m 9 X s 1438 718 m 9 X s 1438 730 m 9 X s 1430 743 m 17 X s 1438 755 m 9 X s 1438
 767 m 9 X s 1438 779 m 9 X s 1438 792 m 9 X s 1430 804 m 17 X s 1438 816 m 9 X s 1438 829 m 9 X s 1438 841 m 9 X s 1438 853 m 9 X s 1430 865 m 17 X s 1438 878 m 9 X s 1438 890 m 9 X s 1438 902 m 9 X s 1438 914 m 9 X s 1430 927 m 17 X s 1438 939 m 9
 X s 1438 951 m 9 X s 1438 963 m 9 X s 1438 976 m 9 X s 1430 988 m 17 X s 1438 1000 m 9 X s 1438 1013 m 9 X s 1438 1025 m 9 X s 1438 1037 m 9 X s 1430 1049 m 17 X s 1430 1049 m 17 X s 1438 1062 m 9 X s 1438 1074 m 9 X s 1438 1086 m 9 X s 1438 1098 m
 9 X s 1 0 0 c 6 lw black 3 lw 1 0 0 c 1433 682 m -1 -1 d s 1421 685 m -4 -4 d s 1405 685 m -3 -4 d s 1391 685 m -4 -4 d s 1376 686 m -4 -5 d s 1361 686 m -4 -5 d s 1346 686 m -4 -5 d s 1332 686 m -5 -5 d s 1316 686 m -5 -5 d s 1302 687 m -6 -6 d s
 1288 688 m -7 -7 d s 1273 688 m -7 -7 d s 1259 689 m -8 -8 d s 1245 690 m -9 -9 d s 1230 691 m -9 -10 d s 1217 693 m -11 -12 d s 1204 694 m -13 -13 d s 1190 695 m -14 -14 d s 1177 698 m -16 -17 d s 1164 700 m -18 -19 d s 1149 700 m -18 -19 d s 1139
 705 m -23 -24 d s 1130 711 m -30 -30 d s 1118 714 m -33 -33 d s 1105 716 m -35 -35 d s 1098 724 m -43 -43 d s 1090 731 m -50 -50 d s 1077 734 m -52 -53 d s 1070 742 m -60 -61 d s 1062 749 m -67 -68 d s 1050 752 m -70 -71 d s 1042 759 m -77 -78 d s
 1035 767 m -85 -86 d s 1022 770 m -87 -89 d s 1019 782 m -99 -101 d s 1009 786 m -104 -105 d s 1004 797 m -105 -106 d s 995 803 m -96 -96 d s 995 818 m -96 -96 d s 982 820 m -83 -83 d s 981 835 m -82 -83 d s 977 845 m -78 -78 d s 968 851 m -69 -69 d
 s 968 867 m -69 -69 d s 963 877 m -64 -64 d s 954 883 m -55 -55 d s 954 898 m -55 -55 d s 954 914 m -55 -56 d s 943 918 m -44 -44 d s 940 930 m -41 -41 d s 940 945 m -27 -27 d s 909 914 m -10 -10 d s 934 954 m -21 -21 d s 927 962 m -14 -14 d s 921
 971 m -8 -8 d s 6 lw 899 914 m 14 X 57 Y 14 X -17 Y 13 X -36 Y 14 X -41 Y 14 X -32 Y 13 X -25 Y 14 X -23 Y 14 X -15 Y 13 X -15 Y 14 X -8 Y 14 X -10 Y 14 X -7 Y 13 X -11 Y 14 X -7 Y 14 X -8 Y 13 X -5 Y 14 X -6 Y 14 X -5 Y 27 X -2 Y 14 X -3 Y 13 X -1
 Y 14 X -1 Y 14 X -2 Y 13 X -1 Y 14 X -1 Y 14 X -1 Y 27 X -1 Y 14 X -1 Y 68 X -1 Y 27 X -1 Y 14 X 1 Y 14 X -4 Y 14 X s black 3 lw 899 681 m 548 X s 1006 694 m -13 Y s 1033 688 m -7 Y s 1060 688 m -7 Y s 1086 688 m -7 Y s 1113 694 m -13 Y s 1140 688 m
 -7 Y s 1167 688 m -7 Y s 1193 688 m -7 Y s 1220 694 m -13 Y s 1247 688 m -7 Y s 1273 688 m -7 Y s 1300 688 m -7 Y s 1327 694 m -13 Y s 1354 688 m -7 Y s 1380 688 m -7 Y s 1407 688 m -7 Y s 1434 694 m -13 Y s 1006 694 m -13 Y s 980 688 m -7 Y s 953
 688 m -7 Y s 926 688 m -7 Y s 1434 694 m -13 Y s 899 1108 m 548 X s 1006 1095 m 13 Y s 1033 1102 m 6 Y s 1060 1102 m 6 Y s 1086 1102 m 6 Y s 1113 1095 m 13 Y s 1140 1102 m 6 Y s 1167 1102 m 6 Y s 1193 1102 m 6 Y s 1220 1095 m 13 Y s 1247 1102 m 6 Y
 s 1273 1102 m 6 Y s 1300 1102 m 6 Y s 1327 1095 m 13 Y s 1354 1102 m 6 Y s 1380 1102 m 6 Y s 1407 1102 m 6 Y s 1434 1095 m 13 Y s 1006 1095 m 13 Y s 980 1102 m 6 Y s 953 1102 m 6 Y s 926 1102 m 6 Y s 1434 1095 m 13 Y s 899 681 m 427 Y s 915 681 m
 -16 X s 907 694 m -8 X s 907 706 m -8 X s 907 718 m -8 X s 907 730 m -8 X s 915 743 m -16 X s 907 755 m -8 X s 907 767 m -8 X s 907 779 m -8 X s 907 792 m -8 X s 915 804 m -16 X s 907 816 m -8 X s 907 829 m -8 X s 907 841 m -8 X s 907 853 m -8 X s
 915 865 m -16 X s 907 878 m -8 X s 907 890 m -8 X s 907 902 m -8 X s 907 914 m -8 X s 915 927 m -16 X s 907 939 m -8 X s 907 951 m -8 X s 907 963 m -8 X s 907 976 m -8 X s 915 988 m -16 X s 907 1000 m -8 X s 907 1013 m -8 X s 907 1025 m -8 X s 907
 1037 m -8 X s 915 1049 m -16 X s 915 1049 m -16 X s 907 1062 m -8 X s 907 1074 m -8 X s 907 1086 m -8 X s 907 1098 m -8 X s 1447 681 m 427 Y s 1430 681 m 17 X s 1438 694 m 9 X s 1438 706 m 9 X s 1438 718 m 9 X s 1438 730 m 9 X s 1430 743 m 17 X s
 1438 755 m 9 X s 1438 767 m 9 X s 1438 779 m 9 X s 1438 792 m 9 X s 1430 804 m 17 X s 1438 816 m 9 X s 1438 829 m 9 X s 1438 841 m 9 X s 1438 853 m 9 X s 1430 865 m 17 X s 1438 878 m 9 X s 1438 890 m 9 X s 1438 902 m 9 X s 1438 914 m 9 X s 1430 927
 m 17 X s 1438 939 m 9 X s 1438 951 m 9 X s 1438 963 m 9 X s 1438 976 m 9 X s 1430 988 m 17 X s 1438 1000 m 9 X s 1438 1013 m 9 X s 1438 1025 m 9 X s 1438 1037 m 9 X s 1430 1049 m 17 X s 1430 1049 m 17 X s 1438 1062 m 9 X s 1438 1074 m 9 X s 1438
 1086 m 9 X s 1438 1098 m 9 X s
 gsave  710 565 779 600 C 1474.92 679.067 t 90 r /Helvetica-Bold findfont 19.9646 sf 0 0 m (U/O\255flow \(S,B\): \(0.0, 0.0\)% / \(0.0, 0.0\)%) show NC gr  0.48 0.56 0.6 c 0.364706 0.419608 0.490196 c 497 38 786 1124 bf 0.48 0.56 0.6 c 786 1124 m 497
 X s 1283 1124 m 38 Y s 1283 1162 m -497 X s 786 1162 m -38 Y s 1 1 1 c black 1 1 1 c
 gsave  710 565 779 600 C 795.69 1136.7 t 0 r /Helvetica-Bold findfont 22.8167 sf 0 0 m (Input variable: C_ENDVERTEX_CHI2_NDOF) show NC gr  0.48 0.56 0.6 c 1 1 1 c 711 565 1534 600 bf black 1 1 1 c 547 427 1655 681 bf black 547 427 1655 681 bl 1 1 1
 c 547 427 1655 681 bf black 547 427 1655 681 bl 0 0 0.933333 c 6 lw 0.49 0.6 0.82 c black 3 lw 0.49 0.6 0.82 c 1655 681 m 20 Y 14 X 120 Y 14 X 154 Y 13 X 80 Y 14 X 6 Y 14 X 8 Y 13 X -51 Y 14 X -69 Y 14 X -42 Y 13 X -47 Y 14 X -58 Y 14 X -14 Y 13 X
 -6 Y 14 X -36 Y 14 X -13 Y 13 X -13 Y 14 X -10 Y 14 X 1 Y 13 X -8 Y 14 X -10 Y 14 X -3 Y 14 X 2 Y 13 X -5 Y 14 X -1 Y 14 X -1 Y 13 X 2 Y 14 X 1 Y 14 X 3 Y 13 X -4 Y 14 X -2 Y 14 X 2 Y 13 X 2 Y 14 X -8 Y 27 X 1 Y 28 X -1 Y 27 X 1 Y 14 X -1 Y 13 X f 6
 lw 0 0 0.933333 c 0.49 0.6 0.82 c 0 0 0.933333 c 1655 701 m 14 X 120 Y 14 X 154 Y 13 X 80 Y 14 X 6 Y 14 X 8 Y 13 X -51 Y 14 X -69 Y 14 X -42 Y 13 X -47 Y 14 X -58 Y 14 X -14 Y 13 X -6 Y 14 X -36 Y 14 X -13 Y 13 X -13 Y 14 X -10 Y 14 X 1 Y 13 X -8 Y
 14 X -10 Y 14 X -3 Y 14 X 2 Y 13 X -5 Y 14 X -1 Y 14 X -1 Y 13 X 2 Y 14 X 1 Y 14 X 3 Y 13 X -4 Y 14 X -2 Y 14 X 2 Y 13 X 2 Y 14 X -8 Y 27 X 1 Y 28 X -1 Y 27 X 1 Y 14 X -1 Y 13 X s black 3 lw 1655 681 m 547 X s
 gsave  711 565 1534 600 C 1921.02 610.976 t 0 r /Helvetica findfont 28.5208 sf 0 0 m (C_PVFit1_chi2_nDOF) show NC gr  1739 694 m -13 Y s 1756 688 m -7 Y s 1773 688 m -7 Y s 1791 688 m -7 Y s 1808 688 m -7 Y s 1825 694 m -13 Y s 1842 688 m -7 Y s
 1859 688 m -7 Y s 1876 688 m -7 Y s 1893 688 m -7 Y s 1911 694 m -13 Y s 1928 688 m -7 Y s 1945 688 m -7 Y s 1962 688 m -7 Y s 1979 688 m -7 Y s 1996 694 m -13 Y s 2013 688 m -7 Y s 2031 688 m -7 Y s 2048 688 m -7 Y s 2065 688 m -7 Y s 2082 694 m
 -13 Y s 2099 688 m -7 Y s 2116 688 m -7 Y s 2133 688 m -7 Y s 2151 688 m -7 Y s 2168 694 m -13 Y s 1739 694 m -13 Y s 1722 688 m -7 Y s 1705 688 m -7 Y s 1688 688 m -7 Y s 1671 688 m -7 Y s 2168 694 m -13 Y s 2185 688 m -7 Y s 2202 688 m -7 Y s
 gsave  711 565 1534 600 C 1730.63 653.603 t 0 r /Helvetica findfont 25.6688 sf 0 0 m (1) show NC gr 
 gsave  711 565 1534 600 C 1815.88 653.603 t 0 r /Helvetica findfont 25.6688 sf 0 0 m (2) show NC gr 
 gsave  711 565 1534 600 C 1901.13 653.603 t 0 r /Helvetica findfont 25.6688 sf 0 0 m (3) show NC gr 
 gsave  711 565 1534 600 C 1986.38 653.603 t 0 r /Helvetica findfont 25.6688 sf 0 0 m (4) show NC gr 
 gsave  711 565 1534 600 C 2071.64 653.603 t 0 r /Helvetica findfont 25.6688 sf 0 0 m (5) show NC gr 
 gsave  711 565 1534 600 C 2156.89 653.603 t 0 r /Helvetica findfont 25.6688 sf 0 0 m (6) show NC gr  1655 1108 m 547 X s 1739 1095 m 13 Y s 1756 1102 m 6 Y s 1773 1102 m 6 Y s 1791 1102 m 6 Y s 1808 1102 m 6 Y s 1825 1095 m 13 Y s 1842 1102 m 6 Y s
 1859 1102 m 6 Y s 1876 1102 m 6 Y s 1893 1102 m 6 Y s 1911 1095 m 13 Y s 1928 1102 m 6 Y s 1945 1102 m 6 Y s 1962 1102 m 6 Y s 1979 1102 m 6 Y s 1996 1095 m 13 Y s 2013 1102 m 6 Y s 2031 1102 m 6 Y s 2048 1102 m 6 Y s 2065 1102 m 6 Y s 2082 1095 m
 13 Y s 2099 1102 m 6 Y s 2116 1102 m 6 Y s 2133 1102 m 6 Y s 2151 1102 m 6 Y s 2168 1095 m 13 Y s 1739 1095 m 13 Y s 1722 1102 m 6 Y s 1705 1102 m 6 Y s 1688 1102 m 6 Y s 1671 1102 m 6 Y s 2168 1095 m 13 Y s 2185 1102 m 6 Y s 2202 1102 m 6 Y s 1655
 681 m 427 Y s
 gsave  711 565 1534 600 C 1557.28 1042.92 t 90 r /Helvetica findfont 28.5208 sf 0 0 m (0.16 ) show NC gr 
 gsave  711 565 1534 600 C 1543.07 1037.24 t 90 r /Helvetica findfont 19.9646 sf 0 0 m ( ) show NC gr 
 gsave  711 565 1534 600 C 1557.28 1025.87 t 90 r /Helvetica findfont 28.5208 sf 0 0 m (/) show NC gr 
 gsave  711 565 1534 600 C 1565.8 1020.19 t 90 r /Helvetica findfont 19.9646 sf 0 0 m ( ) show NC gr 
 gsave  711 565 1534 600 C 1557.28 912.202 t 90 r /Helvetica findfont 28.5208 sf 0 0 m (\(1/N\) dN) show NC gr  1671 681 m -16 X s 1663 692 m -8 X s 1663 702 m -8 X s 1663 713 m -8 X s 1663 723 m -8 X s 1671 733 m -16 X s 1663 744 m -8 X s 1663 754 m
 -8 X s 1663 765 m -8 X s 1663 775 m -8 X s 1671 785 m -16 X s 1663 796 m -8 X s 1663 806 m -8 X s 1663 817 m -8 X s 1663 827 m -8 X s 1671 837 m -16 X s 1663 848 m -8 X s 1663 858 m -8 X s 1663 869 m -8 X s 1663 879 m -8 X s 1671 889 m -16 X s 1663
 900 m -8 X s 1663 910 m -8 X s 1663 921 m -8 X s 1663 931 m -8 X s 1671 941 m -16 X s 1663 952 m -8 X s 1663 962 m -8 X s 1663 973 m -8 X s 1663 983 m -8 X s 1671 993 m -16 X s 1663 1004 m -8 X s 1663 1014 m -8 X s 1663 1025 m -8 X s 1663 1035 m -8
 X s 1671 1045 m -16 X s 1663 1056 m -8 X s 1663 1066 m -8 X s 1663 1077 m -8 X s 1663 1087 m -8 X s 1671 1097 m -16 X s 1671 1097 m -16 X s 1663 1108 m -8 X s
 gsave  711 565 1534 600 C 1631.16 670.653 t 0 r /Helvetica findfont 25.6688 sf 0 0 m (0) show NC gr 
 gsave  711 565 1534 600 C 1614.11 724.646 t 0 r /Helvetica findfont 25.6688 sf 0 0 m (0.1) show NC gr 
 gsave  711 565 1534 600 C 1608.43 775.798 t 0 r /Helvetica findfont 25.6688 sf 0 0 m (0.2) show NC gr 
 gsave  711 565 1534 600 C 1608.43 826.949 t 0 r /Helvetica findfont 25.6688 sf 0 0 m (0.3) show NC gr 
 gsave  711 565 1534 600 C 1608.43 878.101 t 0 r /Helvetica findfont 25.6688 sf 0 0 m (0.4) show NC gr 
 gsave  711 565 1534 600 C 1608.43 932.094 t 0 r /Helvetica findfont 25.6688 sf 0 0 m (0.5) show NC gr 
 gsave  711 565 1534 600 C 1608.43 983.246 t 0 r /Helvetica findfont 25.6688 sf 0 0 m (0.6) show NC gr 
 gsave  711 565 1534 600 C 1608.43 1034.4 t 0 r /Helvetica findfont 25.6688 sf 0 0 m (0.7) show NC gr 
 gsave  711 565 1534 600 C 1608.43 1088.39 t 0 r /Helvetica findfont 25.6688 sf 0 0 m (0.8) show NC gr  2202 681 m 427 Y s 2186 681 m 16 X s 2194 692 m 8 X s 2194 702 m 8 X s 2194 713 m 8 X s 2194 723 m 8 X s 2186 733 m 16 X s 2194 744 m 8 X s 2194
 754 m 8 X s 2194 765 m 8 X s 2194 775 m 8 X s 2186 785 m 16 X s 2194 796 m 8 X s 2194 806 m 8 X s 2194 817 m 8 X s 2194 827 m 8 X s 2186 837 m 16 X s 2194 848 m 8 X s 2194 858 m 8 X s 2194 869 m 8 X s 2194 879 m 8 X s 2186 889 m 16 X s 2194 900 m 8
 X s 2194 910 m 8 X s 2194 921 m 8 X s 2194 931 m 8 X s 2186 941 m 16 X s 2194 952 m 8 X s 2194 962 m 8 X s 2194 973 m 8 X s 2194 983 m 8 X s 2186 993 m 16 X s 2194 1004 m 8 X s 2194 1014 m 8 X s 2194 1025 m 8 X s 2194 1035 m 8 X s 2186 1045 m 16 X s
 2194 1056 m 8 X s 2194 1066 m 8 X s 2194 1077 m 8 X s 2194 1087 m 8 X s 2186 1097 m 16 X s 2186 1097 m 16 X s 2194 1108 m 8 X s 1 0 0 c 6 lw black 3 lw 1 0 0 c 2189 682 m -1 -1 d s 2188 697 m -15 -16 d s 2174 697 m -16 -16 d s 2160 699 m -17 -18 d s
 2146 700 m -18 -19 d s 2133 702 m -20 -21 d s 2120 704 m -22 -23 d s 2106 705 m -24 -24 d s 2093 707 m -26 -26 d s 2079 709 m -27 -28 d s 2067 711 m -30 -30 d s 2056 716 m -34 -35 d s 2042 717 m -35 -36 d s 2031 720 m -39 -39 d s 2019 723 m -42 -42
 d s 2006 726 m -44 -45 d s 1994 728 m -47 -47 d s 1984 734 m -52 -53 d s 1970 735 m -53 -54 d s 1956 736 m -54 -55 d s 1946 742 m -59 -61 d s 1932 742 m -61 -61 d s 1920 745 m -64 -64 d s 1909 750 m -68 -69 d s 1901 756 m -75 -75 d s 1888 759 m -77
 -78 d s 1880 766 m -84 -85 d s 1869 770 m -88 -89 d s 1860 777 m -94 -96 d s 1851 782 m -100 -101 d s 1838 784 m -102 -103 d s 1833 795 m -112 -114 d s 1821 797 m -115 -116 d s 1819 811 m -128 -130 d s 1809 816 m -134 -135 d s 1806 828 m -146 -147 d
 s 1792 829 m -123 -124 d s 1658 694 m -3 -3 d s 1791 843 m -122 -123 d s 1778 846 m -95 -97 d s 1682 749 m -13 -14 d s 1778 861 m -95 -97 d s 1766 864 m -83 -84 d s 1765 878 m -82 -83 d s 1751 879 m -55 -55 d s 1691 819 m -8 -9 d s 1748 891 m -52
 -52 d s 1737 896 m -41 -42 d s 1734 908 m -24 -25 d s 1709 882 m -13 -13 d s 1713 901 m -3 -3 d s 6 lw 1655 694 m 14 X 55 Y 14 X 70 Y 13 X 63 Y 14 X 19 Y 14 X 7 Y 13 X -17 Y 14 X -12 Y 14 X -15 Y 13 X -21 Y 14 X -15 Y 14 X -12 Y 13 X -19 Y 14 X -13
 Y 14 X -2 Y 13 X -12 Y 14 X -4 Y 14 X -10 Y 13 X -6 Y 14 X -5 Y 14 X -3 Y 27 X -7 Y 28 X -7 Y 13 X -2 Y 14 X -3 Y 14 X -3 Y 13 X -3 Y 14 X -1 Y 14 X -5 Y 13 X -3 Y 14 X -3 Y 27 X -3 Y 14 X -2 Y 14 X -1 Y 13 X -2 Y 28 X -15 Y 13 X -1 Y s black 3 lw
 1655 681 m 547 X s 1739 694 m -13 Y s 1756 688 m -7 Y s 1773 688 m -7 Y s 1791 688 m -7 Y s 1808 688 m -7 Y s 1825 694 m -13 Y s 1842 688 m -7 Y s 1859 688 m -7 Y s 1876 688 m -7 Y s 1893 688 m -7 Y s 1911 694 m -13 Y s 1928 688 m -7 Y s 1945 688 m
 -7 Y s 1962 688 m -7 Y s 1979 688 m -7 Y s 1996 694 m -13 Y s 2013 688 m -7 Y s 2031 688 m -7 Y s 2048 688 m -7 Y s 2065 688 m -7 Y s 2082 694 m -13 Y s 2099 688 m -7 Y s 2116 688 m -7 Y s 2133 688 m -7 Y s 2151 688 m -7 Y s 2168 694 m -13 Y s 1739
 694 m -13 Y s 1722 688 m -7 Y s 1705 688 m -7 Y s 1688 688 m -7 Y s 1671 688 m -7 Y s 2168 694 m -13 Y s 2185 688 m -7 Y s 2202 688 m -7 Y s 1655 1108 m 547 X s 1739 1095 m 13 Y s 1756 1102 m 6 Y s 1773 1102 m 6 Y s 1791 1102 m 6 Y s 1808 1102 m 6 Y
 s 1825 1095 m 13 Y s 1842 1102 m 6 Y s 1859 1102 m 6 Y s 1876 1102 m 6 Y s 1893 1102 m 6 Y s 1911 1095 m 13 Y s 1928 1102 m 6 Y s 1945 1102 m 6 Y s 1962 1102 m 6 Y s 1979 1102 m 6 Y s 1996 1095 m 13 Y s 2013 1102 m 6 Y s 2031 1102 m 6 Y s 2048 1102
 m 6 Y s 2065 1102 m 6 Y s 2082 1095 m 13 Y s 2099 1102 m 6 Y s 2116 1102 m 6 Y s 2133 1102 m 6 Y s 2151 1102 m 6 Y s 2168 1095 m 13 Y s 1739 1095 m 13 Y s 1722 1102 m 6 Y s 1705 1102 m 6 Y s 1688 1102 m 6 Y s 1671 1102 m 6 Y s 2168 1095 m 13 Y s
 2185 1102 m 6 Y s 2202 1102 m 6 Y s 1655 681 m 427 Y s 1671 681 m -16 X s 1663 692 m -8 X s 1663 702 m -8 X s 1663 713 m -8 X s 1663 723 m -8 X s 1671 733 m -16 X s 1663 744 m -8 X s 1663 754 m -8 X s 1663 765 m -8 X s 1663 775 m -8 X s 1671 785 m
 -16 X s 1663 796 m -8 X s 1663 806 m -8 X s 1663 817 m -8 X s 1663 827 m -8 X s 1671 837 m -16 X s 1663 848 m -8 X s 1663 858 m -8 X s 1663 869 m -8 X s 1663 879 m -8 X s 1671 889 m -16 X s 1663 900 m -8 X s 1663 910 m -8 X s 1663 921 m -8 X s 1663
 931 m -8 X s 1671 941 m -16 X s 1663 952 m -8 X s 1663 962 m -8 X s 1663 973 m -8 X s 1663 983 m -8 X s 1671 993 m -16 X s 1663 1004 m -8 X s 1663 1014 m -8 X s 1663 1025 m -8 X s 1663 1035 m -8 X s 1671 1045 m -16 X s 1663 1056 m -8 X s 1663 1066 m
 -8 X s 1663 1077 m -8 X s 1663 1087 m -8 X s 1671 1097 m -16 X s 1671 1097 m -16 X s 1663 1108 m -8 X s 2202 681 m 427 Y s 2186 681 m 16 X s 2194 692 m 8 X s 2194 702 m 8 X s 2194 713 m 8 X s 2194 723 m 8 X s 2186 733 m 16 X s 2194 744 m 8 X s 2194
 754 m 8 X s 2194 765 m 8 X s 2194 775 m 8 X s 2186 785 m 16 X s 2194 796 m 8 X s 2194 806 m 8 X s 2194 817 m 8 X s 2194 827 m 8 X s 2186 837 m 16 X s 2194 848 m 8 X s 2194 858 m 8 X s 2194 869 m 8 X s 2194 879 m 8 X s 2186 889 m 16 X s 2194 900 m 8
 X s 2194 910 m 8 X s 2194 921 m 8 X s 2194 931 m 8 X s 2186 941 m 16 X s 2194 952 m 8 X s 2194 962 m 8 X s 2194 973 m 8 X s 2194 983 m 8 X s 2186 993 m 16 X s 2194 1004 m 8 X s 2194 1014 m 8 X s 2194 1025 m 8 X s 2194 1035 m 8 X s 2186 1045 m 16 X s
 2194 1056 m 8 X s 2194 1066 m 8 X s 2194 1077 m 8 X s 2194 1087 m 8 X s 2186 1097 m 16 X s 2186 1097 m 16 X s 2194 1108 m 8 X s
 gsave  711 565 1534 600 C 2230.83 679.067 t 90 r /Helvetica-Bold findfont 19.9646 sf 0 0 m (U/O\255flow \(S,B\): \(0.0, 0.0\)% / \(0.0, 0.0\)%) show NC gr  0.48 0.56 0.6 c 0.364706 0.419608 0.490196 c 497 38 1542 1124 bf 0.48 0.56 0.6 c 1542 1124 m
 497 X s 2039 1124 m 38 Y s 2039 1162 m -497 X s 1542 1162 m -38 Y s 1 1 1 c black 1 1 1 c
 gsave  711 565 1534 600 C 1540.23 1136.7 t 0 r /Helvetica-Bold findfont 28.5208 sf 0 0 m (Input variable: C_PVFit1_chi2_nDOF) show NC gr  0.48 0.56 0.6 c 1 1 1 c 710 564 23 12 bf black 1 1 1 c 548 427 143 93 bf black 548 427 143 93 bl 1 1 1 c 548
 427 143 93 bf black 548 427 143 93 bl 0 0 0.933333 c 6 lw 0.49 0.6 0.82 c black 3 lw 0.49 0.6 0.82 c 143 93 m 99 Y 14 X 225 Y 14 X 64 Y 14 X -23 Y 13 X -111 Y 14 X -44 Y 14 X -92 Y 13 X -12 Y 14 X -61 Y 14 X -4 Y 13 X -17 Y 14 X -2 Y 14 X -10 Y 13 X
 -2 Y 14 X -6 Y 14 X 2 Y 13 X -2 Y 14 X 1 Y 14 X 1 Y 13 X -6 Y 14 X 1 Y 27 X -1 Y 28 X 1 Y 13 X 1 Y 14 X -2 Y 192 X f 6 lw 0 0 0.933333 c 0.49 0.6 0.82 c 0 0 0.933333 c 143 192 m 14 X 225 Y 14 X 64 Y 14 X -23 Y 13 X -111 Y 14 X -44 Y 14 X -92 Y 13 X
 -12 Y 14 X -61 Y 14 X -4 Y 13 X -17 Y 14 X -2 Y 14 X -10 Y 13 X -2 Y 14 X -6 Y 14 X 2 Y 13 X -2 Y 14 X 1 Y 14 X 1 Y 13 X -6 Y 14 X 1 Y 27 X -1 Y 28 X 1 Y 13 X 1 Y 14 X -2 Y 192 X s black 3 lw 143 93 m 548 X s
 gsave  710 564 23 12 C 508.673 22.734 t 0 r /Helvetica findfont 28.5208 sf 0 0 m (C_MAXDOCA) show NC gr  215 106 m -13 Y s 229 100 m -7 Y s 243 100 m -7 Y s 258 100 m -7 Y s 272 100 m -7 Y s 287 106 m -13 Y s 301 100 m -7 Y s 316 100 m -7 Y s 330
 100 m -7 Y s 345 100 m -7 Y s 359 106 m -13 Y s 374 100 m -7 Y s 388 100 m -7 Y s 402 100 m -7 Y s 417 100 m -7 Y s 431 106 m -13 Y s 446 100 m -7 Y s 460 100 m -7 Y s 475 100 m -7 Y s 489 100 m -7 Y s 504 106 m -13 Y s 518 100 m -7 Y s 532 100 m -7
 Y s 547 100 m -7 Y s 561 100 m -7 Y s 576 106 m -13 Y s 590 100 m -7 Y s 605 100 m -7 Y s 619 100 m -7 Y s 634 100 m -7 Y s 648 106 m -13 Y s 215 106 m -13 Y s 200 100 m -7 Y s 186 100 m -7 Y s 171 100 m -7 Y s 157 100 m -7 Y s 648 106 m -13 Y s 663
 100 m -7 Y s 677 100 m -7 Y s
 gsave  710 564 23 12 C 187.555 65.3603 t 0 r /Helvetica findfont 25.6688 sf 0 0 m (0.05) show NC gr 
 gsave  710 564 23 12 C 267.125 65.3603 t 0 r /Helvetica findfont 25.6688 sf 0 0 m (0.1) show NC gr 
 gsave  710 564 23 12 C 332.485 65.3603 t 0 r /Helvetica findfont 25.6688 sf 0 0 m (0.15) show NC gr 
 gsave  710 564 23 12 C 409.212 65.3603 t 0 r /Helvetica findfont 25.6688 sf 0 0 m (0.2) show NC gr 
 gsave  710 564 23 12 C 477.414 65.3603 t 0 r /Helvetica findfont 25.6688 sf 0 0 m (0.25) show NC gr 
 gsave  710 564 23 12 C 554.141 65.3603 t 0 r /Helvetica findfont 25.6688 sf 0 0 m (0.3) show NC gr 
 gsave  710 564 23 12 C 622.343 65.3603 t 0 r /Helvetica findfont 25.6688 sf 0 0 m (0.35) show NC gr  143 520 m 548 X s 215 507 m 13 Y s 229 513 m 7 Y s 243 513 m 7 Y s 258 513 m 7 Y s 272 513 m 7 Y s 287 507 m 13 Y s 301 513 m 7 Y s 316 513 m 7 Y s
 330 513 m 7 Y s 345 513 m 7 Y s 359 507 m 13 Y s 374 513 m 7 Y s 388 513 m 7 Y s 402 513 m 7 Y s 417 513 m 7 Y s 431 507 m 13 Y s 446 513 m 7 Y s 460 513 m 7 Y s 475 513 m 7 Y s 489 513 m 7 Y s 504 507 m 13 Y s 518 513 m 7 Y s 532 513 m 7 Y s 547
 513 m 7 Y s 561 513 m 7 Y s 576 507 m 13 Y s 590 513 m 7 Y s 605 513 m 7 Y s 619 513 m 7 Y s 634 513 m 7 Y s 648 507 m 13 Y s 215 507 m 13 Y s 200 513 m 7 Y s 186 513 m 7 Y s 171 513 m 7 Y s 157 513 m 7 Y s 648 507 m 13 Y s 663 513 m 7 Y s 677 513 m
 7 Y s 143 93 m 427 Y s
 gsave  710 564 23 12 C 45.468 409.212 t 90 r /Helvetica findfont 28.5208 sf 0 0 m (0.00947 ) show NC gr 
 gsave  710 564 23 12 C 31.2593 403.529 t 90 r /Helvetica findfont 19.9646 sf 0 0 m ( ) show NC gr 
 gsave  710 564 23 12 C 45.468 392.162 t 90 r /Helvetica findfont 28.5208 sf 0 0 m (/) show NC gr 
 gsave  710 564 23 12 C 53.9933 386.478 t 90 r /Helvetica findfont 19.9646 sf 0 0 m ( ) show NC gr 
 gsave  710 564 23 12 C 45.468 278.492 t 90 r /Helvetica findfont 28.5208 sf 0 0 m (\(1/N\) dN) show NC gr  160 93 m -17 X s 152 103 m -9 X s 152 112 m -9 X s 152 122 m -9 X s 160 132 m -17 X s 152 141 m -9 X s 152 151 m -9 X s 152 161 m -9 X s 160
 171 m -17 X s 152 180 m -9 X s 152 190 m -9 X s 152 200 m -9 X s 160 209 m -17 X s 152 219 m -9 X s 152 229 m -9 X s 152 238 m -9 X s 160 248 m -17 X s 152 258 m -9 X s 152 267 m -9 X s 152 277 m -9 X s 160 287 m -17 X s 152 296 m -9 X s 152 306 m
 -9 X s 152 316 m -9 X s 160 325 m -17 X s 152 335 m -9 X s 152 345 m -9 X s 152 354 m -9 X s 160 364 m -17 X s 152 374 m -9 X s 152 383 m -9 X s 152 393 m -9 X s 160 403 m -17 X s 152 412 m -9 X s 152 422 m -9 X s 152 432 m -9 X s 160 442 m -17 X s
 152 451 m -9 X s 152 461 m -9 X s 152 471 m -9 X s 160 480 m -17 X s 152 490 m -9 X s 152 500 m -9 X s 152 509 m -9 X s 160 519 m -17 X s 160 519 m -17 X s
 gsave  710 564 23 12 C 119.354 82.4108 t 0 r /Helvetica findfont 25.6688 sf 0 0 m (0) show NC gr 
 gsave  710 564 23 12 C 119.354 122.195 t 0 r /Helvetica findfont 25.6688 sf 0 0 m (2) show NC gr 
 gsave  710 564 23 12 C 119.354 161.98 t 0 r /Helvetica findfont 25.6688 sf 0 0 m (4) show NC gr 
 gsave  710 564 23 12 C 119.354 198.923 t 0 r /Helvetica findfont 25.6688 sf 0 0 m (6) show NC gr 
 gsave  710 564 23 12 C 119.354 238.707 t 0 r /Helvetica findfont 25.6688 sf 0 0 m (8) show NC gr 
 gsave  710 564 23 12 C 105.145 275.65 t 0 r /Helvetica findfont 25.6688 sf 0 0 m (10) show NC gr 
 gsave  710 564 23 12 C 105.145 315.434 t 0 r /Helvetica findfont 25.6688 sf 0 0 m (12) show NC gr 
 gsave  710 564 23 12 C 105.145 355.219 t 0 r /Helvetica findfont 25.6688 sf 0 0 m (14) show NC gr 
 gsave  710 564 23 12 C 105.145 392.162 t 0 r /Helvetica findfont 25.6688 sf 0 0 m (16) show NC gr 
 gsave  710 564 23 12 C 105.145 431.946 t 0 r /Helvetica findfont 25.6688 sf 0 0 m (18) show NC gr 
 gsave  710 564 23 12 C 105.145 468.889 t 0 r /Helvetica findfont 25.6688 sf 0 0 m (20) show NC gr 
 gsave  710 564 23 12 C 105.145 508.673 t 0 r /Helvetica findfont 25.6688 sf 0 0 m (22) show NC gr  691 93 m 427 Y s 674 93 m 17 X s 683 103 m 8 X s 683 112 m 8 X s 683 122 m 8 X s 674 132 m 17 X s 683 141 m 8 X s 683 151 m 8 X s 683 161 m 8 X s 674
 171 m 17 X s 683 180 m 8 X s 683 190 m 8 X s 683 200 m 8 X s 674 209 m 17 X s 683 219 m 8 X s 683 229 m 8 X s 683 238 m 8 X s 674 248 m 17 X s 683 258 m 8 X s 683 267 m 8 X s 683 277 m 8 X s 674 287 m 17 X s 683 296 m 8 X s 683 306 m 8 X s 683 316 m
 8 X s 674 325 m 17 X s 683 335 m 8 X s 683 345 m 8 X s 683 354 m 8 X s 674 364 m 17 X s 683 374 m 8 X s 683 383 m 8 X s 683 393 m 8 X s 674 403 m 17 X s 683 412 m 8 X s 683 422 m 8 X s 683 432 m 8 X s 674 442 m 17 X s 683 451 m 8 X s 683 461 m 8 X s
 683 471 m 8 X s 674 480 m 17 X s 683 490 m 8 X s 683 500 m 8 X s 683 509 m 8 X s 674 519 m 17 X s 674 519 m 17 X s 1 0 0 c 6 lw black 3 lw 1 0 0 c 676 93 m s 661 93 m s 646 93 m s 631 93 m s 616 93 m s 601 93 m s 586 94 m -1 Y s 571 94 m -1 Y s 556
 94 m -1 Y s 542 94 m -1 -1 d s 527 94 m -2 -1 d s 512 95 m -2 -2 d s 498 96 m -3 -3 d s 483 96 m -3 -3 d s 469 97 m -4 -4 d s 455 98 m -5 -5 d s 441 99 m -6 -6 d s 428 101 m -8 -8 d s 414 103 m -9 -10 d s 403 106 m -13 -13 d s 390 108 m -15 -15 d s
 377 110 m -17 -17 d s 366 115 m -21 -22 d s 358 122 m -29 -29 d s 349 128 m -35 -35 d s 335 129 m -36 -36 d s 328 137 m -44 -44 d s 321 146 m -52 -53 d s 312 152 m -58 -59 d s 308 162 m -69 -69 d s 295 165 m -71 -72 d s 294 179 m -85 -86 d s 283 183
 m -89 -90 d s 280 195 m -101 -102 d s 272 202 m -108 -109 d s 267 212 m -118 -119 d s 267 227 m -124 -124 d s 253 229 m -96 -97 d s 150 125 m -7 -7 d s 253 244 m -96 -97 d s 253 259 m -96 -97 d s 239 260 m -82 -82 d s 239 275 m -82 -82 d s 235 286 m
 -64 -64 d s 160 211 m -3 -3 d s 226 292 m -55 -55 d s 226 307 m -55 -55 d s 212 309 m -41 -42 d s 212 324 m -27 -28 d s 174 286 m -3 -3 d s 199 326 m -1 -1 d s 191 318 m -6 -7 d s 6 lw 143 125 m 14 X 86 Y 14 X 75 Y 14 X 32 Y 13 X 8 Y 14 X -18 Y 14 X
 -22 Y 13 X -27 Y 14 X -31 Y 14 X -26 Y 13 X -19 Y 14 X -18 Y 14 X -13 Y 13 X -15 Y 14 X -9 Y 14 X -6 Y 13 X -7 Y 14 X -5 Y 14 X -4 Y 13 X -3 Y 14 X -2 Y 14 X -2 Y 13 X -1 Y 14 X -1 Y 14 X -1 Y 27 X -1 Y 14 X -1 Y 82 X -1 Y 96 X s black 3 lw 143 93 m
 548 X s 215 106 m -13 Y s 229 100 m -7 Y s 243 100 m -7 Y s 258 100 m -7 Y s 272 100 m -7 Y s 287 106 m -13 Y s 301 100 m -7 Y s 316 100 m -7 Y s 330 100 m -7 Y s 345 100 m -7 Y s 359 106 m -13 Y s 374 100 m -7 Y s 388 100 m -7 Y s 402 100 m -7 Y s
 417 100 m -7 Y s 431 106 m -13 Y s 446 100 m -7 Y s 460 100 m -7 Y s 475 100 m -7 Y s 489 100 m -7 Y s 504 106 m -13 Y s 518 100 m -7 Y s 532 100 m -7 Y s 547 100 m -7 Y s 561 100 m -7 Y s 576 106 m -13 Y s 590 100 m -7 Y s 605 100 m -7 Y s 619 100
 m -7 Y s 634 100 m -7 Y s 648 106 m -13 Y s 215 106 m -13 Y s 200 100 m -7 Y s 186 100 m -7 Y s 171 100 m -7 Y s 157 100 m -7 Y s 648 106 m -13 Y s 663 100 m -7 Y s 677 100 m -7 Y s 143 520 m 548 X s 215 507 m 13 Y s 229 513 m 7 Y s 243 513 m 7 Y s
 258 513 m 7 Y s 272 513 m 7 Y s 287 507 m 13 Y s 301 513 m 7 Y s 316 513 m 7 Y s 330 513 m 7 Y s 345 513 m 7 Y s 359 507 m 13 Y s 374 513 m 7 Y s 388 513 m 7 Y s 402 513 m 7 Y s 417 513 m 7 Y s 431 507 m 13 Y s 446 513 m 7 Y s 460 513 m 7 Y s 475
 513 m 7 Y s 489 513 m 7 Y s 504 507 m 13 Y s 518 513 m 7 Y s 532 513 m 7 Y s 547 513 m 7 Y s 561 513 m 7 Y s 576 507 m 13 Y s 590 513 m 7 Y s 605 513 m 7 Y s 619 513 m 7 Y s 634 513 m 7 Y s 648 507 m 13 Y s 215 507 m 13 Y s 200 513 m 7 Y s 186 513 m
 7 Y s 171 513 m 7 Y s 157 513 m 7 Y s 648 507 m 13 Y s 663 513 m 7 Y s 677 513 m 7 Y s 143 93 m 427 Y s 160 93 m -17 X s 152 103 m -9 X s 152 112 m -9 X s 152 122 m -9 X s 160 132 m -17 X s 152 141 m -9 X s 152 151 m -9 X s 152 161 m -9 X s 160 171
 m -17 X s 152 180 m -9 X s 152 190 m -9 X s 152 200 m -9 X s 160 209 m -17 X s 152 219 m -9 X s 152 229 m -9 X s 152 238 m -9 X s 160 248 m -17 X s 152 258 m -9 X s 152 267 m -9 X s 152 277 m -9 X s 160 287 m -17 X s 152 296 m -9 X s 152 306 m -9 X
 s 152 316 m -9 X s 160 325 m -17 X s 152 335 m -9 X s 152 345 m -9 X s 152 354 m -9 X s 160 364 m -17 X s 152 374 m -9 X s 152 383 m -9 X s 152 393 m -9 X s 160 403 m -17 X s 152 412 m -9 X s 152 422 m -9 X s 152 432 m -9 X s 160 442 m -17 X s 152
 451 m -9 X s 152 461 m -9 X s 152 471 m -9 X s 160 480 m -17 X s 152 490 m -9 X s 152 500 m -9 X s 152 509 m -9 X s 160 519 m -17 X s 160 519 m -17 X s 691 93 m 427 Y s 674 93 m 17 X s 683 103 m 8 X s 683 112 m 8 X s 683 122 m 8 X s 674 132 m 17 X s
 683 141 m 8 X s 683 151 m 8 X s 683 161 m 8 X s 674 171 m 17 X s 683 180 m 8 X s 683 190 m 8 X s 683 200 m 8 X s 674 209 m 17 X s 683 219 m 8 X s 683 229 m 8 X s 683 238 m 8 X s 674 248 m 17 X s 683 258 m 8 X s 683 267 m 8 X s 683 277 m 8 X s 674
 287 m 17 X s 683 296 m 8 X s 683 306 m 8 X s 683 316 m 8 X s 674 325 m 17 X s 683 335 m 8 X s 683 345 m 8 X s 683 354 m 8 X s 674 364 m 17 X s 683 374 m 8 X s 683 383 m 8 X s 683 393 m 8 X s 674 403 m 17 X s 683 412 m 8 X s 683 422 m 8 X s 683 432 m
 8 X s 674 442 m 17 X s 683 451 m 8 X s 683 461 m 8 X s 683 471 m 8 X s 674 480 m 17 X s 683 490 m 8 X s 683 500 m 8 X s 683 509 m 8 X s 674 519 m 17 X s 674 519 m 17 X s
 gsave  710 564 23 12 C 719.017 90.8246 t 90 r /Helvetica-Bold findfont 19.9646 sf 0 0 m (U/O\255flow \(S,B\): \(0.0, 0.0\)% / \(0.0, 0.1\)%) show NC gr  0.48 0.56 0.6 c 0.364706 0.419608 0.490196 c 400 38 30 536 bf 0.48 0.56 0.6 c 30 536 m 400 X s
 430 536 m 38 Y s 430 574 m -400 X s 30 574 m -38 Y s 1 1 1 c black 1 1 1 c
 gsave  710 564 23 12 C 34.101 548.458 t 0 r /Helvetica-Bold findfont 28.5208 sf 0 0 m (Input variable: C_MAXDOCA) show NC gr  0.48 0.56 0.6 c 1 1 1 c 710 564 779 12 bf black 1 1 1 c 548 427 899 93 bf black 548 427 899 93 bl 1 1 1 c 548 427 899 93 bf
 black 548 427 899 93 bl 0 0 0.933333 c 6 lw 0.49 0.6 0.82 c black 3 lw 0.49 0.6 0.82 c 899 93 m 11 Y 14 X -2 Y 14 X 5 Y 13 X 26 Y 14 X 11 Y 14 X 38 Y 13 X 26 Y 14 X 65 Y 14 X -4 Y 13 X 44 Y 14 X 47 Y 14 X 8 Y 14 X 30 Y 13 X -11 Y 14 X 94 Y 14 X -66
 Y 13 X -71 Y 14 X 37 Y 14 X -37 Y 13 X 23 Y 14 X -51 Y 14 X -79 Y 13 X -19 Y 14 X -49 Y 14 X -13 Y 13 X 13 Y 14 X -33 Y 14 X -3 Y 13 X -17 Y 14 X -15 Y 14 X -5 Y 13 X -2 Y 28 X 3 Y 13 X -4 Y 69 X 1 Y 14 X -1 Y f 6 lw 0 0 0.933333 c 0.49 0.6 0.82 c 0
 0 0.933333 c 899 104 m 14 X -2 Y 14 X 5 Y 13 X 26 Y 14 X 11 Y 14 X 38 Y 13 X 26 Y 14 X 65 Y 14 X -4 Y 13 X 44 Y 14 X 47 Y 14 X 8 Y 14 X 30 Y 13 X -11 Y 14 X 94 Y 14 X -66 Y 13 X -71 Y 14 X 37 Y 14 X -37 Y 13 X 23 Y 14 X -51 Y 14 X -79 Y 13 X -19 Y
 14 X -49 Y 14 X -13 Y 13 X 13 Y 14 X -33 Y 14 X -3 Y 13 X -17 Y 14 X -15 Y 14 X -5 Y 13 X -2 Y 28 X 3 Y 13 X -4 Y 69 X 1 Y 14 X s black 3 lw 899 93 m 548 X s
 gsave  710 564 779 12 C 1318.57 25.5758 t 0 r /Helvetica findfont 28.5208 sf 0 0 m (log_C_PT) show NC gr  944 106 m -13 Y s 965 100 m -7 Y s 987 100 m -7 Y s 1008 100 m -7 Y s 1030 100 m -7 Y s 1052 106 m -13 Y s 1073 100 m -7 Y s 1095 100 m -7 Y s
 1116 100 m -7 Y s 1138 100 m -7 Y s 1159 106 m -13 Y s 1181 100 m -7 Y s 1203 100 m -7 Y s 1224 100 m -7 Y s 1246 100 m -7 Y s 1267 106 m -13 Y s 1289 100 m -7 Y s 1310 100 m -7 Y s 1332 100 m -7 Y s 1354 100 m -7 Y s 1375 106 m -13 Y s 944 106 m
 -13 Y s 922 100 m -7 Y s 901 100 m -7 Y s 1375 106 m -13 Y s 1397 100 m -7 Y s 1418 100 m -7 Y s 1440 100 m -7 Y s
 gsave  710 564 779 12 C 923.569 65.3603 t 0 r /Helvetica findfont 25.6688 sf 0 0 m (8.5) show NC gr 
 gsave  710 564 779 12 C 1042.92 65.3603 t 0 r /Helvetica findfont 25.6688 sf 0 0 m (9) show NC gr 
 gsave  710 564 779 12 C 1139.54 65.3603 t 0 r /Helvetica findfont 25.6688 sf 0 0 m (9.5) show NC gr 
 gsave  710 564 779 12 C 1250.37 65.3603 t 0 r /Helvetica findfont 25.6688 sf 0 0 m (10) show NC gr 
 gsave  710 564 779 12 C 1346.99 65.3603 t 0 r /Helvetica findfont 25.6688 sf 0 0 m (10.5) show NC gr  899 520 m 548 X s 944 507 m 13 Y s 965 513 m 7 Y s 987 513 m 7 Y s 1008 513 m 7 Y s 1030 513 m 7 Y s 1052 507 m 13 Y s 1073 513 m 7 Y s 1095 513 m
 7 Y s 1116 513 m 7 Y s 1138 513 m 7 Y s 1159 507 m 13 Y s 1181 513 m 7 Y s 1203 513 m 7 Y s 1224 513 m 7 Y s 1246 513 m 7 Y s 1267 507 m 13 Y s 1289 513 m 7 Y s 1310 513 m 7 Y s 1332 513 m 7 Y s 1354 513 m 7 Y s 1375 507 m 13 Y s 944 507 m 13 Y s
 922 513 m 7 Y s 901 513 m 7 Y s 1375 507 m 13 Y s 1397 513 m 7 Y s 1418 513 m 7 Y s 1440 513 m 7 Y s 899 93 m 427 Y s
 gsave  710 564 779 12 C 801.374 423.421 t 90 r /Helvetica findfont 28.5208 sf 0 0 m (0.0634 ) show NC gr 
 gsave  710 564 779 12 C 787.165 417.737 t 90 r /Helvetica findfont 19.9646 sf 0 0 m ( ) show NC gr 
 gsave  710 564 779 12 C 801.374 406.37 t 90 r /Helvetica findfont 28.5208 sf 0 0 m (/) show NC gr 
 gsave  710 564 779 12 C 809.899 400.687 t 90 r /Helvetica findfont 19.9646 sf 0 0 m ( ) show NC gr 
 gsave  710 564 779 12 C 801.374 292.7 t 90 r /Helvetica findfont 28.5208 sf 0 0 m (\(1/N\) dN) show NC gr  915 93 m -16 X s 907 108 m -8 X s 907 123 m -8 X s 907 137 m -8 X s 915 152 m -16 X s 907 167 m -8 X s 907 182 m -8 X s 907 196 m -8 X s 915
 211 m -16 X s 907 226 m -8 X s 907 240 m -8 X s 907 255 m -8 X s 915 270 m -16 X s 907 285 m -8 X s 907 299 m -8 X s 907 314 m -8 X s 915 329 m -16 X s 907 344 m -8 X s 907 358 m -8 X s 907 373 m -8 X s 915 388 m -16 X s 907 403 m -8 X s 907 417 m
 -8 X s 907 432 m -8 X s 915 447 m -16 X s 907 461 m -8 X s 907 476 m -8 X s 907 491 m -8 X s 915 506 m -16 X s 915 506 m -16 X s
 gsave  710 564 779 12 C 875.259 82.4108 t 0 r /Helvetica findfont 25.6688 sf 0 0 m (0) show NC gr 
 gsave  710 564 779 12 C 852.525 142.088 t 0 r /Helvetica findfont 25.6688 sf 0 0 m (0.2) show NC gr 
 gsave  710 564 779 12 C 852.525 201.764 t 0 r /Helvetica findfont 25.6688 sf 0 0 m (0.4) show NC gr 
 gsave  710 564 779 12 C 852.525 258.599 t 0 r /Helvetica findfont 25.6688 sf 0 0 m (0.6) show NC gr 
 gsave  710 564 779 12 C 852.525 318.276 t 0 r /Helvetica findfont 25.6688 sf 0 0 m (0.8) show NC gr 
 gsave  710 564 779 12 C 878.101 377.953 t 0 r /Helvetica findfont 25.6688 sf 0 0 m (1) show NC gr 
 gsave  710 564 779 12 C 852.525 437.63 t 0 r /Helvetica findfont 25.6688 sf 0 0 m (1.2) show NC gr 
 gsave  710 564 779 12 C 852.525 494.465 t 0 r /Helvetica findfont 25.6688 sf 0 0 m (1.4) show NC gr  1447 93 m 427 Y s 1430 93 m 17 X s 1438 108 m 9 X s 1438 123 m 9 X s 1438 137 m 9 X s 1430 152 m 17 X s 1438 167 m 9 X s 1438 182 m 9 X s 1438 196 m
 9 X s 1430 211 m 17 X s 1438 226 m 9 X s 1438 240 m 9 X s 1438 255 m 9 X s 1430 270 m 17 X s 1438 285 m 9 X s 1438 299 m 9 X s 1438 314 m 9 X s 1430 329 m 17 X s 1438 344 m 9 X s 1438 358 m 9 X s 1438 373 m 9 X s 1430 388 m 17 X s 1438 403 m 9 X s
 1438 417 m 9 X s 1438 432 m 9 X s 1430 447 m 17 X s 1438 461 m 9 X s 1438 476 m 9 X s 1438 491 m 9 X s 1430 506 m 17 X s 1430 506 m 17 X s 1 0 0 c 6 lw black 3 lw 1 0 0 c 1432 93 m cl s 1417 93 m s 1402 93 m s 1387 93 m s 1372 93 m s 1357 93 m s
 1342 93 m s 1327 94 m -1 Y s 1312 94 m -1 -1 d s 1298 95 m -2 -2 d s 1284 96 m -3 -3 d s 1271 98 m -5 -5 d s 1257 99 m -6 -6 d s 1247 104 m -11 -11 d s 1235 107 m -14 -14 d s 1226 113 m -20 -20 d s 1214 116 m -23 -23 d s 1202 120 m -26 -27 d s 1196
 128 m -35 -35 d s 1187 134 m -41 -41 d s 1182 145 m -51 -52 d s 1173 151 m -57 -58 d s 1166 159 m -66 -66 d s 1159 168 m -74 -75 d s 1153 176 m -83 -83 d s 1146 184 m -91 -91 d s 1146 199 m -106 -106 d s 1132 201 m -107 -108 d s 1132 216 m -122 -123
 d s 1121 220 m -126 -127 d s 1118 232 m -138 -139 d s 1118 248 m -153 -155 d s 1110 254 m -160 -161 d s 1105 264 m -170 -171 d s 1105 279 m -185 -186 d s 1091 281 m -186 -188 d s 1091 296 m -192 -193 d s 1084 304 m -185 -186 d s 1077 313 m -178 -180
 d s 1077 328 m -178 -179 d s 1076 342 m -177 -178 d s 1064 344 m -151 -151 d s 911 191 m -12 -12 d s 1064 360 m -151 -152 d s 1051 362 m -138 -139 d s 1050 376 m -123 -124 d s 921 246 m -8 -8 d s 1049 391 m -122 -124 d s 1036 393 m -109 -110 d s
 1036 408 m -96 -97 d s 930 301 m -3 -3 d s 1036 423 m -96 -96 d s 1022 425 m -68 -69 d s 950 352 m -10 -10 d s 1019 437 m -65 -66 d s 1009 441 m -41 -41 d s 957 389 m -3 -3 d s 1005 452 m -10 -9 d s 989 436 m -8 -7 d s 969 416 m -1 -1 d s 6 lw 899
 191 m 14 X 55 Y 14 X 55 Y 13 X 51 Y 14 X 37 Y 14 X 27 Y 13 X 20 Y 14 X 16 Y 14 X -15 Y 13 X -13 Y 14 X -33 Y 14 X -29 Y 14 X -20 Y 13 X -38 Y 14 X -24 Y 14 X -26 Y 13 X -34 Y 14 X -20 Y 14 X -24 Y 13 X -17 Y 14 X -14 Y 14 X -17 Y 13 X -8 Y 14 X -7 Y
 14 X -6 Y 13 X -3 Y 14 X -5 Y 14 X -1 Y 13 X -2 Y 14 X -1 Y 14 X -1 Y 27 X -1 Y 110 X s black 3 lw 899 93 m 548 X s 944 106 m -13 Y s 965 100 m -7 Y s 987 100 m -7 Y s 1008 100 m -7 Y s 1030 100 m -7 Y s 1052 106 m -13 Y s 1073 100 m -7 Y s 1095 100
 m -7 Y s 1116 100 m -7 Y s 1138 100 m -7 Y s 1159 106 m -13 Y s 1181 100 m -7 Y s 1203 100 m -7 Y s 1224 100 m -7 Y s 1246 100 m -7 Y s 1267 106 m -13 Y s 1289 100 m -7 Y s 1310 100 m -7 Y s 1332 100 m -7 Y s 1354 100 m -7 Y s 1375 106 m -13 Y s 944
 106 m -13 Y s 922 100 m -7 Y s 901 100 m -7 Y s 1375 106 m -13 Y s 1397 100 m -7 Y s 1418 100 m -7 Y s 1440 100 m -7 Y s 899 520 m 548 X s 944 507 m 13 Y s 965 513 m 7 Y s 987 513 m 7 Y s 1008 513 m 7 Y s 1030 513 m 7 Y s 1052 507 m 13 Y s 1073 513
 m 7 Y s 1095 513 m 7 Y s 1116 513 m 7 Y s 1138 513 m 7 Y s 1159 507 m 13 Y s 1181 513 m 7 Y s 1203 513 m 7 Y s 1224 513 m 7 Y s 1246 513 m 7 Y s 1267 507 m 13 Y s 1289 513 m 7 Y s 1310 513 m 7 Y s 1332 513 m 7 Y s 1354 513 m 7 Y s 1375 507 m 13 Y s
 944 507 m 13 Y s 922 513 m 7 Y s 901 513 m 7 Y s 1375 507 m 13 Y s 1397 513 m 7 Y s 1418 513 m 7 Y s 1440 513 m 7 Y s 899 93 m 427 Y s 915 93 m -16 X s 907 108 m -8 X s 907 123 m -8 X s 907 137 m -8 X s 915 152 m -16 X s 907 167 m -8 X s 907 182 m
 -8 X s 907 196 m -8 X s 915 211 m -16 X s 907 226 m -8 X s 907 240 m -8 X s 907 255 m -8 X s 915 270 m -16 X s 907 285 m -8 X s 907 299 m -8 X s 907 314 m -8 X s 915 329 m -16 X s 907 344 m -8 X s 907 358 m -8 X s 907 373 m -8 X s 915 388 m -16 X s
 907 403 m -8 X s 907 417 m -8 X s 907 432 m -8 X s 915 447 m -16 X s 907 461 m -8 X s 907 476 m -8 X s 907 491 m -8 X s 915 506 m -16 X s 915 506 m -16 X s 1447 93 m 427 Y s 1430 93 m 17 X s 1438 108 m 9 X s 1438 123 m 9 X s 1438 137 m 9 X s 1430
 152 m 17 X s 1438 167 m 9 X s 1438 182 m 9 X s 1438 196 m 9 X s 1430 211 m 17 X s 1438 226 m 9 X s 1438 240 m 9 X s 1438 255 m 9 X s 1430 270 m 17 X s 1438 285 m 9 X s 1438 299 m 9 X s 1438 314 m 9 X s 1430 329 m 17 X s 1438 344 m 9 X s 1438 358 m 9
 X s 1438 373 m 9 X s 1430 388 m 17 X s 1438 403 m 9 X s 1438 417 m 9 X s 1438 432 m 9 X s 1430 447 m 17 X s 1438 461 m 9 X s 1438 476 m 9 X s 1438 491 m 9 X s 1430 506 m 17 X s 1430 506 m 17 X s
 gsave  710 564 779 12 C 1474.92 90.8246 t 90 r /Helvetica-Bold findfont 19.9646 sf 0 0 m (U/O\255flow \(S,B\): \(0.0, 0.0\)% / \(0.0, 0.0\)%) show NC gr  0.48 0.56 0.6 c 0.364706 0.419608 0.490196 c 349 38 786 536 bf 0.48 0.56 0.6 c 786 536 m 349 X
 s 1135 536 m 38 Y s 1135 574 m -349 X s 786 574 m -38 Y s 1 1 1 c black 1 1 1 c
 gsave  710 564 779 12 C 790.007 548.458 t 0 r /Helvetica-Bold findfont 28.5208 sf 0 0 m (Input variable: log_C_PT) show NC gr  0.48 0.56 0.6 c 1 1 1 c 711 564 1534 12 bf black 1 1 1 c 547 427 1655 93 bf black 547 427 1655 93 bl 1 1 1 c 547 427 1655
 93 bf black 547 427 1655 93 bl 0 0 0.933333 c 6 lw 0.49 0.6 0.82 c black 3 lw 0.49 0.6 0.82 c 1655 93 m 14 X 24 Y 14 X -5 Y 13 X 38 Y 14 X 30 Y 14 X 5 Y 13 X 48 Y 14 X 48 Y 14 X -10 Y 13 X 52 Y 14 X 66 Y 14 X 49 Y 13 X -44 Y 14 X 87 Y 14 X -53 Y 13
 X -22 Y 14 X 48 Y 14 X -118 Y 13 X -10 Y 14 X -5 Y 14 X 2 Y 14 X -29 Y 13 X -92 Y 14 X -16 Y 14 X -1 Y 13 X -40 Y 14 X -25 Y 14 X -5 Y 13 X 10 Y 14 X -28 Y 14 X -1 Y 27 X -2 Y 14 X -1 Y 13 X 1 Y 14 X -1 Y 55 X 1 Y 13 X -1 Y f 6 lw 0 0 0.933333 c
 0.49 0.6 0.82 c 0 0 0.933333 c 1655 93 m 14 X 24 Y 14 X -5 Y 13 X 38 Y 14 X 30 Y 14 X 5 Y 13 X 48 Y 14 X 48 Y 14 X -10 Y 13 X 52 Y 14 X 66 Y 14 X 49 Y 13 X -44 Y 14 X 87 Y 14 X -53 Y 13 X -22 Y 14 X 48 Y 14 X -118 Y 13 X -10 Y 14 X -5 Y 14 X 2 Y 14
 X -29 Y 13 X -92 Y 14 X -16 Y 14 X -1 Y 13 X -40 Y 14 X -25 Y 14 X -5 Y 13 X 10 Y 14 X -28 Y 14 X -1 Y 27 X -2 Y 14 X -1 Y 13 X 1 Y 14 X -1 Y 55 X 1 Y 13 X s black 3 lw 1655 93 m 547 X s
 gsave  711 564 1534 12 C 2065.95 25.5758 t 0 r /Helvetica findfont 28.5208 sf 0 0 m (log_Lc_PT) show NC gr  1689 106 m -13 Y s 1710 100 m -7 Y s 1730 100 m -7 Y s 1750 100 m -7 Y s 1770 100 m -7 Y s 1790 106 m -13 Y s 1810 100 m -7 Y s 1830 100 m -7
 Y s 1850 100 m -7 Y s 1871 100 m -7 Y s 1891 106 m -13 Y s 1911 100 m -7 Y s 1931 100 m -7 Y s 1951 100 m -7 Y s 1971 100 m -7 Y s 1991 106 m -13 Y s 2011 100 m -7 Y s 2032 100 m -7 Y s 2052 100 m -7 Y s 2072 100 m -7 Y s 2092 106 m -13 Y s 2112 100
 m -7 Y s 2132 100 m -7 Y s 2152 100 m -7 Y s 2172 100 m -7 Y s 2192 106 m -13 Y s 1689 106 m -13 Y s 1669 100 m -7 Y s 2192 106 m -13 Y s
 gsave  711 564 1534 12 C 1679.47 65.3603 t 0 r /Helvetica findfont 25.6688 sf 0 0 m (8) show NC gr 
 gsave  711 564 1534 12 C 1767.57 65.3603 t 0 r /Helvetica findfont 25.6688 sf 0 0 m (8.5) show NC gr 
 gsave  711 564 1534 12 C 1881.24 65.3603 t 0 r /Helvetica findfont 25.6688 sf 0 0 m (9) show NC gr 
 gsave  711 564 1534 12 C 1969.33 65.3603 t 0 r /Helvetica findfont 25.6688 sf 0 0 m (9.5) show NC gr 
 gsave  711 564 1534 12 C 2077.32 65.3603 t 0 r /Helvetica findfont 25.6688 sf 0 0 m (10) show NC gr 
 gsave  711 564 1534 12 C 2165.41 65.3603 t 0 r /Helvetica findfont 25.6688 sf 0 0 m (10.5) show NC gr  1655 520 m 547 X s 1689 507 m 13 Y s 1710 513 m 7 Y s 1730 513 m 7 Y s 1750 513 m 7 Y s 1770 513 m 7 Y s 1790 507 m 13 Y s 1810 513 m 7 Y s 1830
 513 m 7 Y s 1850 513 m 7 Y s 1871 513 m 7 Y s 1891 507 m 13 Y s 1911 513 m 7 Y s 1931 513 m 7 Y s 1951 513 m 7 Y s 1971 513 m 7 Y s 1991 507 m 13 Y s 2011 513 m 7 Y s 2032 513 m 7 Y s 2052 513 m 7 Y s 2072 513 m 7 Y s 2092 507 m 13 Y s 2112 513 m 7
 Y s 2132 513 m 7 Y s 2152 513 m 7 Y s 2172 513 m 7 Y s 2192 507 m 13 Y s 1689 507 m 13 Y s 1669 513 m 7 Y s 2192 507 m 13 Y s 1655 93 m 427 Y s
 gsave  711 564 1534 12 C 1557.28 440.471 t 90 r /Helvetica findfont 28.5208 sf 0 0 m (0.068 ) show NC gr 
 gsave  711 564 1534 12 C 1543.07 434.788 t 90 r /Helvetica findfont 19.9646 sf 0 0 m ( ) show NC gr 
 gsave  711 564 1534 12 C 1557.28 423.421 t 90 r /Helvetica findfont 28.5208 sf 0 0 m (/) show NC gr 
 gsave  711 564 1534 12 C 1565.8 417.737 t 90 r /Helvetica findfont 19.9646 sf 0 0 m ( ) show NC gr 
 gsave  711 564 1534 12 C 1557.28 309.751 t 90 r /Helvetica findfont 28.5208 sf 0 0 m (\(1/N\) dN) show NC gr  1671 93 m -16 X s 1663 110 m -8 X s 1663 127 m -8 X s 1663 143 m -8 X s 1671 160 m -16 X s 1663 177 m -8 X s 1663 194 m -8 X s 1663 210 m
 -8 X s 1671 227 m -16 X s 1663 244 m -8 X s 1663 261 m -8 X s 1663 277 m -8 X s 1671 294 m -16 X s 1663 311 m -8 X s 1663 328 m -8 X s 1663 344 m -8 X s 1671 361 m -16 X s 1663 378 m -8 X s 1663 395 m -8 X s 1663 411 m -8 X s 1671 428 m -16 X s 1663
 445 m -8 X s 1663 462 m -8 X s 1663 479 m -8 X s 1671 495 m -16 X s 1671 495 m -16 X s 1663 512 m -8 X s
 gsave  711 564 1534 12 C 1631.16 82.4108 t 0 r /Helvetica findfont 25.6688 sf 0 0 m (0) show NC gr 
 gsave  711 564 1534 12 C 1608.43 150.613 t 0 r /Helvetica findfont 25.6688 sf 0 0 m (0.2) show NC gr 
 gsave  711 564 1534 12 C 1608.43 215.973 t 0 r /Helvetica findfont 25.6688 sf 0 0 m (0.4) show NC gr 
 gsave  711 564 1534 12 C 1608.43 284.175 t 0 r /Helvetica findfont 25.6688 sf 0 0 m (0.6) show NC gr 
 gsave  711 564 1534 12 C 1608.43 352.377 t 0 r /Helvetica findfont 25.6688 sf 0 0 m (0.8) show NC gr 
 gsave  711 564 1534 12 C 1634.01 417.737 t 0 r /Helvetica findfont 25.6688 sf 0 0 m (1) show NC gr 
 gsave  711 564 1534 12 C 1608.43 485.939 t 0 r /Helvetica findfont 25.6688 sf 0 0 m (1.2) show NC gr  2202 93 m 427 Y s 2186 93 m 16 X s 2194 110 m 8 X s 2194 127 m 8 X s 2194 143 m 8 X s 2186 160 m 16 X s 2194 177 m 8 X s 2194 194 m 8 X s 2194 210
 m 8 X s 2186 227 m 16 X s 2194 244 m 8 X s 2194 261 m 8 X s 2194 277 m 8 X s 2186 294 m 16 X s 2194 311 m 8 X s 2194 328 m 8 X s 2194 344 m 8 X s 2186 361 m 16 X s 2194 378 m 8 X s 2194 395 m 8 X s 2194 411 m 8 X s 2186 428 m 16 X s 2194 445 m 8 X s
 2194 462 m 8 X s 2194 479 m 8 X s 2186 495 m 16 X s 2186 495 m 16 X s 2194 512 m 8 X s 1 0 0 c 6 lw black 3 lw 1 0 0 c 2188 93 m s 2173 93 m s 2158 93 m s 2143 93 m s 2128 93 m s 2113 94 m -1 Y s 2098 94 m -1 Y s 2084 95 m -2 -2 d s 2070 96 m -3 -3
 d s 2056 97 m -4 -4 d s 2045 101 m -8 -8 d s 2033 104 m -11 -11 d s 2022 108 m -15 -15 d s 2011 112 m -19 -19 d s 1997 114 m -20 -21 d s 1990 121 m -28 -28 d s 1984 130 m -37 -37 d s 1973 134 m -41 -41 d s 1970 147 m -53 -54 d s 1956 148 m -54 -55 d
 s 1956 163 m -69 -70 d s 1943 165 m -72 -72 d s 1941 178 m -85 -85 d s 1929 181 m -88 -88 d s 1929 196 m -103 -103 d s 1917 200 m -106 -107 d s 1915 213 m -119 -120 d s 1910 223 m -129 -130 d s 1901 230 m -135 -137 d s 1901 245 m -150 -152 d s 1890
 249 m -154 -156 d s 1888 261 m -167 -168 d s 1882 271 m -176 -178 d s 1874 278 m -183 -185 d s 1874 293 m -199 -200 d s 1874 308 m -214 -215 d s 1860 310 m -191 -193 d s 1860 325 m -191 -193 d s 1854 334 m -171 -173 d s 1670 149 m -1 -2 d s 1847 342
 m -164 -166 d s 1847 357 m -164 -166 d s 1836 361 m -153 -154 d s 1833 373 m -150 -151 d s 1831 386 m -135 -135 d s 1686 240 m -3 -3 d s 1819 390 m -123 -124 d s 1819 405 m -123 -124 d s 1812 412 m -116 -116 d s 1806 422 m -96 -97 d s 1697 313 m -1
 -2 d s 1805 436 m -95 -96 d s 1790 436 m -66 -67 d s 1714 360 m -4 -4 d s 1778 440 m -27 -28 d s 1747 408 m -10 -10 d s 1730 391 m -6 -6 d s 1753 430 m -2 -3 d s 6 lw 1655 102 m 14 X 47 Y 14 X 91 Y 13 X 73 Y 14 X 47 Y 14 X 31 Y 13 X 17 Y 14 X 22 Y
 14 X 11 Y 13 X -5 Y 28 X -24 Y 13 X -26 Y 14 X -25 Y 14 X -27 Y 13 X -25 Y 14 X -38 Y 14 X -22 Y 13 X -26 Y 14 X -23 Y 14 X -22 Y 14 X -15 Y 13 X -16 Y 14 X -13 Y 14 X -13 Y 13 X -9 Y 14 X -4 Y 14 X -4 Y 13 X -3 Y 14 X -4 Y 14 X -1 Y 13 X -1 Y 14 X
 -1 Y 27 X -1 Y 82 X s black 3 lw 1655 93 m 547 X s 1689 106 m -13 Y s 1710 100 m -7 Y s 1730 100 m -7 Y s 1750 100 m -7 Y s 1770 100 m -7 Y s 1790 106 m -13 Y s 1810 100 m -7 Y s 1830 100 m -7 Y s 1850 100 m -7 Y s 1871 100 m -7 Y s 1891 106 m -13 Y
 s 1911 100 m -7 Y s 1931 100 m -7 Y s 1951 100 m -7 Y s 1971 100 m -7 Y s 1991 106 m -13 Y s 2011 100 m -7 Y s 2032 100 m -7 Y s 2052 100 m -7 Y s 2072 100 m -7 Y s 2092 106 m -13 Y s 2112 100 m -7 Y s 2132 100 m -7 Y s 2152 100 m -7 Y s 2172 100 m
 -7 Y s 2192 106 m -13 Y s 1689 106 m -13 Y s 1669 100 m -7 Y s 2192 106 m -13 Y s 1655 520 m 547 X s 1689 507 m 13 Y s 1710 513 m 7 Y s 1730 513 m 7 Y s 1750 513 m 7 Y s 1770 513 m 7 Y s 1790 507 m 13 Y s 1810 513 m 7 Y s 1830 513 m 7 Y s 1850 513 m
 7 Y s 1871 513 m 7 Y s 1891 507 m 13 Y s 1911 513 m 7 Y s 1931 513 m 7 Y s 1951 513 m 7 Y s 1971 513 m 7 Y s 1991 507 m 13 Y s 2011 513 m 7 Y s 2032 513 m 7 Y s 2052 513 m 7 Y s 2072 513 m 7 Y s 2092 507 m 13 Y s 2112 513 m 7 Y s 2132 513 m 7 Y s
 2152 513 m 7 Y s 2172 513 m 7 Y s 2192 507 m 13 Y s 1689 507 m 13 Y s 1669 513 m 7 Y s 2192 507 m 13 Y s 1655 93 m 427 Y s 1671 93 m -16 X s 1663 110 m -8 X s 1663 127 m -8 X s 1663 143 m -8 X s 1671 160 m -16 X s 1663 177 m -8 X s 1663 194 m -8 X s
 1663 210 m -8 X s 1671 227 m -16 X s 1663 244 m -8 X s 1663 261 m -8 X s 1663 277 m -8 X s 1671 294 m -16 X s 1663 311 m -8 X s 1663 328 m -8 X s 1663 344 m -8 X s 1671 361 m -16 X s 1663 378 m -8 X s 1663 395 m -8 X s 1663 411 m -8 X s 1671 428 m
 -16 X s 1663 445 m -8 X s 1663 462 m -8 X s 1663 479 m -8 X s 1671 495 m -16 X s 1671 495 m -16 X s 1663 512 m -8 X s 2202 93 m 427 Y s 2186 93 m 16 X s 2194 110 m 8 X s 2194 127 m 8 X s 2194 143 m 8 X s 2186 160 m 16 X s 2194 177 m 8 X s 2194 194 m
 8 X s 2194 210 m 8 X s 2186 227 m 16 X s 2194 244 m 8 X s 2194 261 m 8 X s 2194 277 m 8 X s 2186 294 m 16 X s 2194 311 m 8 X s 2194 328 m 8 X s 2194 344 m 8 X s 2186 361 m 16 X s 2194 378 m 8 X s 2194 395 m 8 X s 2194 411 m 8 X s 2186 428 m 16 X s
 2194 445 m 8 X s 2194 462 m 8 X s 2194 479 m 8 X s 2186 495 m 16 X s 2186 495 m 16 X s 2194 512 m 8 X s
 gsave  711 564 1534 12 C 2230.83 90.8246 t 90 r /Helvetica-Bold findfont 19.9646 sf 0 0 m (U/O\255flow \(S,B\): \(0.0, 0.0\)% / \(0.0, 0.0\)%) show NC gr  0.48 0.56 0.6 c 0.364706 0.419608 0.490196 c 360 38 1542 536 bf 0.48 0.56 0.6 c 1542 536 m 360
 X s 1902 536 m 38 Y s 1902 574 m -360 X s 1542 574 m -38 Y s 1 1 1 c black 1 1 1 c
 gsave  711 564 1534 12 C 1545.91 548.458 t 0 r /Helvetica-Bold findfont 28.5208 sf 0 0 m (Input variable: log_Lc_PT) show NC gr 
 gr  gr showpage
end
%%EOF
