%!PS-Adobe-2.0 EPSF-2.0
%%BoundingBox:  0 0 567 294
%%Title: plots/variables_id_c3.eps: Input variables (training sample)
%%Creator: ROOT Version 6.06/02
%%CreationDate: Tue Oct 16 01:05:25 2018
%%DocumentNeededResources: ProcSet (FontSetInit)
%%EndComments
%%BeginProlog
80 dict begin
/s {stroke} def /l {lineto} def /m {moveto} def /t {translate} def
/r {rotate} def /rl {roll}  def /R {repeat} def
/d {rlineto} def /rm {rmoveto} def /gr {grestore} def /f {eofill} def
/c {setrgbcolor} def /black {0 setgray} def /sd {setdash} def
/cl {closepath} def /sf {scalefont setfont} def /lw {setlinewidth} def
/box {m dup 0 exch d exch 0 d 0 exch neg d cl} def
/NC{systemdict begin initclip end}def/C{NC box clip newpath}def
/bl {box s} def /bf {gsave box gsave f grestore 1 lw [] 0 sd s grestore} def /Y { 0 exch d} def /X { 0 d} def 
/K {{pop pop 0 moveto} exch kshow} bind def
/ita {/ang 15 def gsave [1 0 ang dup sin exch cos div 1 0 0] concat} def 
/mp {newpath /y exch def /x exch def} def
/side {[w .77 mul w .23 mul] .385 w mul sd w 0 l currentpoint t -144 r} def
/mr {mp x y w2 0 360 arc} def /m24 {mr s} def /m20 {mr f} def
/mb {mp x y w2 add m w2 neg 0 d 0 w neg d w 0 d 0 w d cl} def
/mt {mp x y w2 add m w2 neg w neg d w 0 d cl} def
/m21 {mb f} def /m25 {mb s} def /m22 {mt f} def /m26{mt s} def
/m23 {mp x y w2 sub m w2 w d w neg 0 d cl f} def
/m27 {mp x y w2 add m w3 neg w2 neg d w3 w2 neg d w3 w2 d cl s} def
/m28 {mp x w2 sub y w2 sub w3 add m w3 0 d  0 w3 neg d w3 0 d 0 w3 d w3 0 d  0 w3 d w3 neg 0 d 0 w3 d w3 neg 0 d 0 w3 neg d w3 neg 0 d cl s } def
/m29 {mp gsave x w2 sub y w2 add w3 sub m currentpoint t 4 {side} repeat cl fill gr} def
/m30 {mp gsave x w2 sub y w2 add w3 sub m currentpoint t 4 {side} repeat cl s gr} def
/m31 {mp x y w2 sub m 0 w d x w2 sub y m w 0 d x w2 sub y w2 add m w w neg d x w2 sub y w2 sub m w w d s} def
/m32 {mp x y w2 sub m w2 w d w neg 0 d cl s} def
/m33 {mp x y w2 add m w3 neg w2 neg d w3 w2 neg d w3 w2 d cl f} def
/m34 {mp x w2 sub y w2 sub w3 add m w3 0 d  0 w3 neg d w3 0 d 0 w3 d w3 0 d  0 w3 d w3 neg 0 d 0 w3 d w3 neg 0 d 0 w3 neg d w3 neg 0 d cl f } def
/m2 {mp x y w2 sub m 0 w d x w2 sub y m w 0 d s} def
/m5 {mp x w2 sub y w2 sub m w w d x w2 sub y w2 add m w w neg d s} def
%%IncludeResource: ProcSet (FontSetInit)
%%IncludeResource: font Times-Roman
%%IncludeResource: font Times-Italic
%%IncludeResource: font Times-Bold
%%IncludeResource: font Times-BoldItalic
%%IncludeResource: font Helvetica
%%IncludeResource: font Helvetica-Oblique
%%IncludeResource: font Helvetica-Bold
%%IncludeResource: font Helvetica-BoldOblique
%%IncludeResource: font Courier
%%IncludeResource: font Courier-Oblique
%%IncludeResource: font Courier-Bold
%%IncludeResource: font Courier-BoldOblique
%%IncludeResource: font Symbol
%%IncludeResource: font ZapfDingbats
/reEncode {exch findfont dup length dict begin {1 index /FID eq  {pop pop} {def} ifelse } forall /Encoding exch def currentdict end dup /FontName get exch definefont pop } def [/Times-Bold /Times-Italic /Times-BoldItalic /Helvetica /Helvetica-Oblique
 /Helvetica-Bold /Helvetica-BoldOblique /Courier /Courier-Oblique /Courier-Bold /Courier-BoldOblique /Times-Roman /AvantGarde-Book /AvantGarde-BookOblique /AvantGarde-Demi /AvantGarde-DemiOblique /Bookman-Demi /Bookman-DemiItalic /Bookman-Light
 /Bookman-LightItalic /Helvetica-Narrow /Helvetica-Narrow-Bold /Helvetica-Narrow-BoldOblique /Helvetica-Narrow-Oblique /NewCenturySchlbk-Roman /NewCenturySchlbk-Bold /NewCenturySchlbk-BoldItalic /NewCenturySchlbk-Italic /Palatino-Bold
 /Palatino-BoldItalic /Palatino-Italic /Palatino-Roman ] {ISOLatin1Encoding reEncode } forall
%%EndProlog
%%BeginSetup
%%EndSetup
newpath  gsave  .25 .25 scale  gsave  0 0 t 0.48 0.56 0.6 c[  ] 0 sd 3 lw 1 1 1 c 2268 1176 0 0 bf 0.48 0.56 0.6 c 1 1 1 c 710 565 23 600 bf black 1 1 1 c 548 427 143 681 bf black 548 427 143 681 bl 1 1 1 c 548 427 143 681 bf black 548 427 143 681 bl
 0 0 0.933333 c 6 lw 0.49 0.6 0.82 c black 3 lw 0.49 0.6 0.82 c 143 681 m 83 X 1 Y 13 X 1 Y 14 X -2 Y 27 X 2 Y 14 X 4 Y 14 X -1 Y 13 X 2 Y 14 X -2 Y 14 X 6 Y 13 X 33 Y 14 X -5 Y 14 X 17 Y 13 X 42 Y 14 X 67 Y 14 X 54 Y 13 X 60 Y 14 X 84 Y 14 X 25 Y 13
 X -64 Y 14 X -123 Y 14 X -119 Y 13 X -44 Y 14 X -31 Y 14 X -6 Y 13 X -1 Y 124 X f 6 lw 0 0 0.933333 c 0.49 0.6 0.82 c 0 0 0.933333 c 143 681 m 83 X 1 Y 13 X 1 Y 14 X -2 Y 27 X 2 Y 14 X 4 Y 14 X -1 Y 13 X 2 Y 14 X -2 Y 14 X 6 Y 13 X 33 Y 14 X -5 Y 14
 X 17 Y 13 X 42 Y 14 X 67 Y 14 X 54 Y 13 X 60 Y 14 X 84 Y 14 X 25 Y 13 X -64 Y 14 X -123 Y 14 X -119 Y 13 X -44 Y 14 X -31 Y 14 X -6 Y 13 X -1 Y 124 X s black 3 lw 143 681 m 548 X s
 gsave  710 565 23 600 C 375.111 613.818 t 0 r /Helvetica findfont 28.5208 sf 0 0 m (log_Lc_IPCHI2_OWNPV) show NC gr  150 694 m -13 Y s 165 688 m -7 Y s 180 688 m -7 Y s 195 688 m -7 Y s 210 694 m -13 Y s 225 688 m -7 Y s 240 688 m -7 Y s 255 688 m
 -7 Y s 270 694 m -13 Y s 285 688 m -7 Y s 300 688 m -7 Y s 315 688 m -7 Y s 330 694 m -13 Y s 345 688 m -7 Y s 360 688 m -7 Y s 375 688 m -7 Y s 390 694 m -13 Y s 405 688 m -7 Y s 420 688 m -7 Y s 435 688 m -7 Y s 450 694 m -13 Y s 465 688 m -7 Y s
 480 688 m -7 Y s 495 688 m -7 Y s 510 694 m -13 Y s 525 688 m -7 Y s 540 688 m -7 Y s 555 688 m -7 Y s 570 694 m -13 Y s 585 688 m -7 Y s 600 688 m -7 Y s 615 688 m -7 Y s 630 694 m -13 Y s 645 688 m -7 Y s 660 688 m -7 Y s 675 688 m -7 Y s 690 694
 m -13 Y s 150 694 m -13 Y s 690 694 m -13 Y s
 gsave  710 565 23 600 C 139.246 653.603 t 0 r /Helvetica findfont 25.6688 sf 0 0 m (10) show NC gr 
 gsave  710 565 23 600 C 125.037 653.603 t 0 r /Symbol findfont 25.6688 sf 0 0 m (-) show NC gr 
 gsave  710 565 23 600 C 207.448 653.603 t 0 r /Helvetica findfont 25.6688 sf 0 0 m (8) show NC gr 
 gsave  710 565 23 600 C 196.081 653.603 t 0 r /Symbol findfont 25.6688 sf 0 0 m (-) show NC gr 
 gsave  710 565 23 600 C 267.125 653.603 t 0 r /Helvetica findfont 25.6688 sf 0 0 m (6) show NC gr 
 gsave  710 565 23 600 C 255.758 653.603 t 0 r /Symbol findfont 25.6688 sf 0 0 m (-) show NC gr 
 gsave  710 565 23 600 C 326.801 653.603 t 0 r /Helvetica findfont 25.6688 sf 0 0 m (4) show NC gr 
 gsave  710 565 23 600 C 315.434 653.603 t 0 r /Symbol findfont 25.6688 sf 0 0 m (-) show NC gr 
 gsave  710 565 23 600 C 386.478 653.603 t 0 r /Helvetica findfont 25.6688 sf 0 0 m (2) show NC gr 
 gsave  710 565 23 600 C 375.111 653.603 t 0 r /Symbol findfont 25.6688 sf 0 0 m (-) show NC gr 
 gsave  710 565 23 600 C 440.471 653.603 t 0 r /Helvetica findfont 25.6688 sf 0 0 m (0) show NC gr 
 gsave  710 565 23 600 C 500.148 653.603 t 0 r /Helvetica findfont 25.6688 sf 0 0 m (2) show NC gr 
 gsave  710 565 23 600 C 559.825 653.603 t 0 r /Helvetica findfont 25.6688 sf 0 0 m (4) show NC gr 
 gsave  710 565 23 600 C 619.502 653.603 t 0 r /Helvetica findfont 25.6688 sf 0 0 m (6) show NC gr 
 gsave  710 565 23 600 C 679.178 653.603 t 0 r /Helvetica findfont 25.6688 sf 0 0 m (8) show NC gr  143 1108 m 548 X s 150 1095 m 13 Y s 165 1102 m 6 Y s 180 1102 m 6 Y s 195 1102 m 6 Y s 210 1095 m 13 Y s 225 1102 m 6 Y s 240 1102 m 6 Y s 255 1102 m
 6 Y s 270 1095 m 13 Y s 285 1102 m 6 Y s 300 1102 m 6 Y s 315 1102 m 6 Y s 330 1095 m 13 Y s 345 1102 m 6 Y s 360 1102 m 6 Y s 375 1102 m 6 Y s 390 1095 m 13 Y s 405 1102 m 6 Y s 420 1102 m 6 Y s 435 1102 m 6 Y s 450 1095 m 13 Y s 465 1102 m 6 Y s
 480 1102 m 6 Y s 495 1102 m 6 Y s 510 1095 m 13 Y s 525 1102 m 6 Y s 540 1102 m 6 Y s 555 1102 m 6 Y s 570 1095 m 13 Y s 585 1102 m 6 Y s 600 1102 m 6 Y s 615 1102 m 6 Y s 630 1095 m 13 Y s 645 1102 m 6 Y s 660 1102 m 6 Y s 675 1102 m 6 Y s 690 1095
 m 13 Y s 150 1095 m 13 Y s 690 1095 m 13 Y s 143 681 m 427 Y s
 gsave  710 565 23 600 C 45.468 1028.71 t 90 r /Helvetica findfont 28.5208 sf 0 0 m (0.456 ) show NC gr 
 gsave  710 565 23 600 C 31.2593 1023.03 t 90 r /Helvetica findfont 19.9646 sf 0 0 m ( ) show NC gr 
 gsave  710 565 23 600 C 45.468 1011.66 t 90 r /Helvetica findfont 28.5208 sf 0 0 m (/) show NC gr 
 gsave  710 565 23 600 C 53.9933 1005.98 t 90 r /Helvetica findfont 19.9646 sf 0 0 m ( ) show NC gr 
 gsave  710 565 23 600 C 45.468 897.993 t 90 r /Helvetica findfont 28.5208 sf 0 0 m (\(1/N\) dN) show NC gr  160 681 m -17 X s 152 692 m -9 X s 152 703 m -9 X s 152 713 m -9 X s 152 724 m -9 X s 160 735 m -17 X s 152 745 m -9 X s 152 756 m -9 X s 152
 767 m -9 X s 152 777 m -9 X s 160 788 m -17 X s 152 799 m -9 X s 152 809 m -9 X s 152 820 m -9 X s 152 831 m -9 X s 160 841 m -17 X s 152 852 m -9 X s 152 863 m -9 X s 152 873 m -9 X s 152 884 m -9 X s 160 895 m -17 X s 152 905 m -9 X s 152 916 m -9
 X s 152 927 m -9 X s 152 937 m -9 X s 160 948 m -17 X s 152 959 m -9 X s 152 969 m -9 X s 152 980 m -9 X s 152 991 m -9 X s 160 1001 m -17 X s 152 1012 m -9 X s 152 1023 m -9 X s 152 1033 m -9 X s 152 1044 m -9 X s 160 1055 m -17 X s 152 1065 m -9 X
 s 152 1076 m -9 X s 152 1087 m -9 X s 152 1097 m -9 X s 160 1108 m -17 X s 160 1108 m -17 X s
 gsave  710 565 23 600 C 119.354 670.653 t 0 r /Helvetica findfont 25.6688 sf 0 0 m (0) show NC gr 
 gsave  710 565 23 600 C 82.4108 724.646 t 0 r /Helvetica findfont 25.6688 sf 0 0 m (0.05) show NC gr 
 gsave  710 565 23 600 C 102.303 778.64 t 0 r /Helvetica findfont 25.6688 sf 0 0 m (0.1) show NC gr 
 gsave  710 565 23 600 C 82.4108 832.633 t 0 r /Helvetica findfont 25.6688 sf 0 0 m (0.15) show NC gr 
 gsave  710 565 23 600 C 96.6195 883.784 t 0 r /Helvetica findfont 25.6688 sf 0 0 m (0.2) show NC gr 
 gsave  710 565 23 600 C 82.4108 937.778 t 0 r /Helvetica findfont 25.6688 sf 0 0 m (0.25) show NC gr 
 gsave  710 565 23 600 C 96.6195 991.771 t 0 r /Helvetica findfont 25.6688 sf 0 0 m (0.3) show NC gr 
 gsave  710 565 23 600 C 82.4108 1045.76 t 0 r /Helvetica findfont 25.6688 sf 0 0 m (0.35) show NC gr 
 gsave  710 565 23 600 C 96.6195 1096.92 t 0 r /Helvetica findfont 25.6688 sf 0 0 m (0.4) show NC gr  691 681 m 427 Y s 674 681 m 17 X s 683 692 m 8 X s 683 703 m 8 X s 683 713 m 8 X s 683 724 m 8 X s 674 735 m 17 X s 683 745 m 8 X s 683 756 m 8 X s
 683 767 m 8 X s 683 777 m 8 X s 674 788 m 17 X s 683 799 m 8 X s 683 809 m 8 X s 683 820 m 8 X s 683 831 m 8 X s 674 841 m 17 X s 683 852 m 8 X s 683 863 m 8 X s 683 873 m 8 X s 683 884 m 8 X s 674 895 m 17 X s 683 905 m 8 X s 683 916 m 8 X s 683
 927 m 8 X s 683 937 m 8 X s 674 948 m 17 X s 683 959 m 8 X s 683 969 m 8 X s 683 980 m 8 X s 683 991 m 8 X s 674 1001 m 17 X s 683 1012 m 8 X s 683 1023 m 8 X s 683 1033 m 8 X s 683 1044 m 8 X s 674 1055 m 17 X s 683 1065 m 8 X s 683 1076 m 8 X s
 683 1087 m 8 X s 683 1097 m 8 X s 674 1108 m 17 X s 674 1108 m 17 X s 1 0 0 c 6 lw black 3 lw 1 0 0 c 676 682 m -1 Y s 661 681 m s 647 682 m -1 -1 d s 633 683 m -2 -2 d s 620 685 m -4 -4 d s 608 688 m -7 -7 d s 595 691 m -9 -10 d s 584 695 m -13 -14
 d s 581 707 m -25 -26 d s 568 709 m -27 -28 d s 567 724 m -42 -43 d s 567 739 m -57 -58 d s 567 754 m -72 -73 d s 561 763 m -81 -82 d s 554 771 m -89 -90 d s 554 786 m -104 -105 d s 554 801 m -119 -120 d s 549 811 m -129 -130 d s 540 818 m -135 -137
 d s 540 833 m -150 -152 d s 531 839 m -156 -158 d s 526 849 m -166 -168 d s 526 865 m -123 -124 d s 393 730 m -3 -3 d s 377 714 m -1 -1 d s 364 701 m -2 -2 d s 357 694 m -12 -13 d s 516 869 m -99 -99 d s 337 689 m -2 -2 d s 335 687 m -6 -6 d s 513
 881 m -82 -83 d s 421 788 m -4 -3 d s 317 684 m -3 -3 d s 513 896 m -82 -82 d s 301 683 m -2 -2 d s 511 910 m -67 -67 d s 435 833 m -4 -4 d s 286 683 m -2 -2 d s 499 913 m -55 -55 d s 270 682 m -1 -1 d s 499 928 m -55 -55 d s 255 682 m -1 -1 d s 499
 943 m -41 -41 d s 450 894 m -6 -6 d s 239 681 m s 493 953 m -35 -36 d s 224 681 m s 485 960 m -13 -14 d s 469 943 m -11 -11 d s 209 681 m s 474 963 m -2 -2 d s 194 681 m s 179 681 m s 164 681 m cl s 149 681 m s 6 lw 143 681 m 110 X 1 Y 27 X 1 Y 28 X
 1 Y 13 X 3 Y 14 X 2 Y 14 X 5 Y 13 X 7 Y 14 X 13 Y 14 X 16 Y 13 X 26 Y 14 X 32 Y 14 X 45 Y 13 X 61 Y 14 X 49 Y 14 X 20 Y 13 X -10 Y 14 X -43 Y 14 X -41 Y 13 X -30 Y 14 X -28 Y 14 X -48 Y 13 X -54 Y 14 X -14 Y 14 X -7 Y 14 X -3 Y 13 X -2 Y 14 X -1 Y
 14 X -1 Y 13 X 1 Y 14 X -1 Y 14 X s black 3 lw 143 681 m 548 X s 150 694 m -13 Y s 165 688 m -7 Y s 180 688 m -7 Y s 195 688 m -7 Y s 210 694 m -13 Y s 225 688 m -7 Y s 240 688 m -7 Y s 255 688 m -7 Y s 270 694 m -13 Y s 285 688 m -7 Y s 300 688 m
 -7 Y s 315 688 m -7 Y s 330 694 m -13 Y s 345 688 m -7 Y s 360 688 m -7 Y s 375 688 m -7 Y s 390 694 m -13 Y s 405 688 m -7 Y s 420 688 m -7 Y s 435 688 m -7 Y s 450 694 m -13 Y s 465 688 m -7 Y s 480 688 m -7 Y s 495 688 m -7 Y s 510 694 m -13 Y s
 525 688 m -7 Y s 540 688 m -7 Y s 555 688 m -7 Y s 570 694 m -13 Y s 585 688 m -7 Y s 600 688 m -7 Y s 615 688 m -7 Y s 630 694 m -13 Y s 645 688 m -7 Y s 660 688 m -7 Y s 675 688 m -7 Y s 690 694 m -13 Y s 150 694 m -13 Y s 690 694 m -13 Y s 143
 1108 m 548 X s 150 1095 m 13 Y s 165 1102 m 6 Y s 180 1102 m 6 Y s 195 1102 m 6 Y s 210 1095 m 13 Y s 225 1102 m 6 Y s 240 1102 m 6 Y s 255 1102 m 6 Y s 270 1095 m 13 Y s 285 1102 m 6 Y s 300 1102 m 6 Y s 315 1102 m 6 Y s 330 1095 m 13 Y s 345 1102
 m 6 Y s 360 1102 m 6 Y s 375 1102 m 6 Y s 390 1095 m 13 Y s 405 1102 m 6 Y s 420 1102 m 6 Y s 435 1102 m 6 Y s 450 1095 m 13 Y s 465 1102 m 6 Y s 480 1102 m 6 Y s 495 1102 m 6 Y s 510 1095 m 13 Y s 525 1102 m 6 Y s 540 1102 m 6 Y s 555 1102 m 6 Y s
 570 1095 m 13 Y s 585 1102 m 6 Y s 600 1102 m 6 Y s 615 1102 m 6 Y s 630 1095 m 13 Y s 645 1102 m 6 Y s 660 1102 m 6 Y s 675 1102 m 6 Y s 690 1095 m 13 Y s 150 1095 m 13 Y s 690 1095 m 13 Y s 143 681 m 427 Y s 160 681 m -17 X s 152 692 m -9 X s 152
 703 m -9 X s 152 713 m -9 X s 152 724 m -9 X s 160 735 m -17 X s 152 745 m -9 X s 152 756 m -9 X s 152 767 m -9 X s 152 777 m -9 X s 160 788 m -17 X s 152 799 m -9 X s 152 809 m -9 X s 152 820 m -9 X s 152 831 m -9 X s 160 841 m -17 X s 152 852 m -9
 X s 152 863 m -9 X s 152 873 m -9 X s 152 884 m -9 X s 160 895 m -17 X s 152 905 m -9 X s 152 916 m -9 X s 152 927 m -9 X s 152 937 m -9 X s 160 948 m -17 X s 152 959 m -9 X s 152 969 m -9 X s 152 980 m -9 X s 152 991 m -9 X s 160 1001 m -17 X s 152
 1012 m -9 X s 152 1023 m -9 X s 152 1033 m -9 X s 152 1044 m -9 X s 160 1055 m -17 X s 152 1065 m -9 X s 152 1076 m -9 X s 152 1087 m -9 X s 152 1097 m -9 X s 160 1108 m -17 X s 160 1108 m -17 X s 691 681 m 427 Y s 674 681 m 17 X s 683 692 m 8 X s
 683 703 m 8 X s 683 713 m 8 X s 683 724 m 8 X s 674 735 m 17 X s 683 745 m 8 X s 683 756 m 8 X s 683 767 m 8 X s 683 777 m 8 X s 674 788 m 17 X s 683 799 m 8 X s 683 809 m 8 X s 683 820 m 8 X s 683 831 m 8 X s 674 841 m 17 X s 683 852 m 8 X s 683
 863 m 8 X s 683 873 m 8 X s 683 884 m 8 X s 674 895 m 17 X s 683 905 m 8 X s 683 916 m 8 X s 683 927 m 8 X s 683 937 m 8 X s 674 948 m 17 X s 683 959 m 8 X s 683 969 m 8 X s 683 980 m 8 X s 683 991 m 8 X s 674 1001 m 17 X s 683 1012 m 8 X s 683 1023
 m 8 X s 683 1033 m 8 X s 683 1044 m 8 X s 674 1055 m 17 X s 683 1065 m 8 X s 683 1076 m 8 X s 683 1087 m 8 X s 683 1097 m 8 X s 674 1108 m 17 X s 674 1108 m 17 X s
 gsave  710 565 23 600 C 719.017 679.067 t 90 r /Helvetica-Bold findfont 19.9646 sf 0 0 m (U/O\255flow \(S,B\): \(0.0, 0.0\)% / \(0.0, 0.0\)%) show NC gr  0.48 0.56 0.6 c 0.364706 0.419608 0.490196 c 497 38 30 1124 bf 0.48 0.56 0.6 c 30 1124 m 497 X
 s 527 1124 m 38 Y s 527 1162 m -497 X s 30 1162 m -38 Y s 1 1 1 c black 1 1 1 c
 gsave  710 565 23 600 C 39.7845 1136.7 t 0 r /Helvetica-Bold findfont 25.6688 sf 0 0 m (Input variable: log_Lc_IPCHI2_OWNPV) show NC gr  0.48 0.56 0.6 c 1 1 1 c 710 565 779 600 bf black 1 1 1 c 548 427 899 681 bf black 548 427 899 681 bl 1 1 1 c 548
 427 899 681 bf black 548 427 899 681 bl 0 0 0.933333 c 6 lw 0.49 0.6 0.82 c black 3 lw 0.49 0.6 0.82 c 899 681 m 69 X 3 Y 13 X -3 Y 14 X 7 Y 14 X -5 Y 13 X 3 Y 14 X 7 Y 14 X -2 Y 14 X 9 Y 13 X 11 Y 14 X 3 Y 14 X 30 Y 13 X 53 Y 14 X 24 Y 14 X 31 Y 13
 X 132 Y 14 X 85 Y 14 X -23 Y 13 X -4 Y 14 X 22 Y 14 X -137 Y 13 X -72 Y 14 X -94 Y 14 X -30 Y 13 X -25 Y 14 X -14 Y 14 X -8 Y 13 X -2 Y 14 X -1 Y 110 X f 6 lw 0 0 0.933333 c 0.49 0.6 0.82 c 0 0 0.933333 c 899 681 m 69 X 3 Y 13 X -3 Y 14 X 7 Y 14 X
 -5 Y 13 X 3 Y 14 X 7 Y 14 X -2 Y 14 X 9 Y 13 X 11 Y 14 X 3 Y 14 X 30 Y 13 X 53 Y 14 X 24 Y 14 X 31 Y 13 X 132 Y 14 X 85 Y 14 X -23 Y 13 X -4 Y 14 X 22 Y 14 X -137 Y 13 X -72 Y 14 X -94 Y 14 X -30 Y 13 X -25 Y 14 X -14 Y 14 X -8 Y 13 X -2 Y 14 X -1 Y
 110 X s black 3 lw 899 681 m 548 X s
 gsave  710 565 779 600 C 1088.39 613.818 t 0 r /Helvetica findfont 28.5208 sf 0 0 m (log_XiccK_IPCHI2_OWNPV) show NC gr  930 694 m -13 Y s 945 688 m -7 Y s 960 688 m -7 Y s 975 688 m -7 Y s 990 694 m -13 Y s 1005 688 m -7 Y s 1020 688 m -7 Y s 1035
 688 m -7 Y s 1050 694 m -13 Y s 1065 688 m -7 Y s 1080 688 m -7 Y s 1095 688 m -7 Y s 1110 694 m -13 Y s 1125 688 m -7 Y s 1140 688 m -7 Y s 1155 688 m -7 Y s 1170 694 m -13 Y s 1185 688 m -7 Y s 1200 688 m -7 Y s 1215 688 m -7 Y s 1230 694 m -13 Y
 s 1245 688 m -7 Y s 1260 688 m -7 Y s 1275 688 m -7 Y s 1290 694 m -13 Y s 1305 688 m -7 Y s 1320 688 m -7 Y s 1335 688 m -7 Y s 1350 694 m -13 Y s 1365 688 m -7 Y s 1380 688 m -7 Y s 1395 688 m -7 Y s 1410 694 m -13 Y s 930 694 m -13 Y s 915 688 m
 -7 Y s 900 688 m -7 Y s 1410 694 m -13 Y s 1425 688 m -7 Y s 1440 688 m -7 Y s
 gsave  710 565 779 600 C 926.411 653.603 t 0 r /Helvetica findfont 25.6688 sf 0 0 m (8) show NC gr 
 gsave  710 565 779 600 C 915.044 653.603 t 0 r /Symbol findfont 25.6688 sf 0 0 m (-) show NC gr 
 gsave  710 565 779 600 C 986.087 653.603 t 0 r /Helvetica findfont 25.6688 sf 0 0 m (6) show NC gr 
 gsave  710 565 779 600 C 974.72 653.603 t 0 r /Symbol findfont 25.6688 sf 0 0 m (-) show NC gr 
 gsave  710 565 779 600 C 1045.76 653.603 t 0 r /Helvetica findfont 25.6688 sf 0 0 m (4) show NC gr 
 gsave  710 565 779 600 C 1034.4 653.603 t 0 r /Symbol findfont 25.6688 sf 0 0 m (-) show NC gr 
 gsave  710 565 779 600 C 1105.44 653.603 t 0 r /Helvetica findfont 25.6688 sf 0 0 m (2) show NC gr 
 gsave  710 565 779 600 C 1094.07 653.603 t 0 r /Symbol findfont 25.6688 sf 0 0 m (-) show NC gr 
 gsave  710 565 779 600 C 1159.43 653.603 t 0 r /Helvetica findfont 25.6688 sf 0 0 m (0) show NC gr 
 gsave  710 565 779 600 C 1219.11 653.603 t 0 r /Helvetica findfont 25.6688 sf 0 0 m (2) show NC gr 
 gsave  710 565 779 600 C 1278.79 653.603 t 0 r /Helvetica findfont 25.6688 sf 0 0 m (4) show NC gr 
 gsave  710 565 779 600 C 1341.31 653.603 t 0 r /Helvetica findfont 25.6688 sf 0 0 m (6) show NC gr 
 gsave  710 565 779 600 C 1400.98 653.603 t 0 r /Helvetica findfont 25.6688 sf 0 0 m (8) show NC gr  899 1108 m 548 X s 930 1095 m 13 Y s 945 1102 m 6 Y s 960 1102 m 6 Y s 975 1102 m 6 Y s 990 1095 m 13 Y s 1005 1102 m 6 Y s 1020 1102 m 6 Y s 1035
 1102 m 6 Y s 1050 1095 m 13 Y s 1065 1102 m 6 Y s 1080 1102 m 6 Y s 1095 1102 m 6 Y s 1110 1095 m 13 Y s 1125 1102 m 6 Y s 1140 1102 m 6 Y s 1155 1102 m 6 Y s 1170 1095 m 13 Y s 1185 1102 m 6 Y s 1200 1102 m 6 Y s 1215 1102 m 6 Y s 1230 1095 m 13 Y
 s 1245 1102 m 6 Y s 1260 1102 m 6 Y s 1275 1102 m 6 Y s 1290 1095 m 13 Y s 1305 1102 m 6 Y s 1320 1102 m 6 Y s 1335 1102 m 6 Y s 1350 1095 m 13 Y s 1365 1102 m 6 Y s 1380 1102 m 6 Y s 1395 1102 m 6 Y s 1410 1095 m 13 Y s 930 1095 m 13 Y s 915 1102 m
 6 Y s 900 1102 m 6 Y s 1410 1095 m 13 Y s 1425 1102 m 6 Y s 1440 1102 m 6 Y s 899 681 m 427 Y s
 gsave  710 565 779 600 C 801.374 1028.71 t 90 r /Helvetica findfont 28.5208 sf 0 0 m (0.456 ) show NC gr 
 gsave  710 565 779 600 C 787.165 1023.03 t 90 r /Helvetica findfont 19.9646 sf 0 0 m ( ) show NC gr 
 gsave  710 565 779 600 C 801.374 1011.66 t 90 r /Helvetica findfont 28.5208 sf 0 0 m (/) show NC gr 
 gsave  710 565 779 600 C 809.899 1005.98 t 90 r /Helvetica findfont 19.9646 sf 0 0 m ( ) show NC gr 
 gsave  710 565 779 600 C 801.374 897.993 t 90 r /Helvetica findfont 28.5208 sf 0 0 m (\(1/N\) dN) show NC gr  915 681 m -16 X s 907 695 m -8 X s 907 709 m -8 X s 907 722 m -8 X s 907 736 m -8 X s 915 750 m -16 X s 907 763 m -8 X s 907 777 m -8 X s
 907 790 m -8 X s 907 804 m -8 X s 915 818 m -16 X s 907 831 m -8 X s 907 845 m -8 X s 907 859 m -8 X s 907 872 m -8 X s 915 886 m -16 X s 907 899 m -8 X s 907 913 m -8 X s 907 927 m -8 X s 907 940 m -8 X s 915 954 m -16 X s 907 968 m -8 X s 907 981
 m -8 X s 907 995 m -8 X s 907 1009 m -8 X s 915 1022 m -16 X s 907 1036 m -8 X s 907 1049 m -8 X s 907 1063 m -8 X s 907 1077 m -8 X s 915 1090 m -16 X s 915 1090 m -16 X s 907 1104 m -8 X s
 gsave  710 565 779 600 C 875.259 670.653 t 0 r /Helvetica findfont 25.6688 sf 0 0 m (0) show NC gr 
 gsave  710 565 779 600 C 838.316 738.855 t 0 r /Helvetica findfont 25.6688 sf 0 0 m (0.05) show NC gr 
 gsave  710 565 779 600 C 858.208 807.057 t 0 r /Helvetica findfont 25.6688 sf 0 0 m (0.1) show NC gr 
 gsave  710 565 779 600 C 838.316 875.259 t 0 r /Helvetica findfont 25.6688 sf 0 0 m (0.15) show NC gr 
 gsave  710 565 779 600 C 852.525 943.461 t 0 r /Helvetica findfont 25.6688 sf 0 0 m (0.2) show NC gr 
 gsave  710 565 779 600 C 838.316 1011.66 t 0 r /Helvetica findfont 25.6688 sf 0 0 m (0.25) show NC gr 
 gsave  710 565 779 600 C 852.525 1079.87 t 0 r /Helvetica findfont 25.6688 sf 0 0 m (0.3) show NC gr  1447 681 m 427 Y s 1430 681 m 17 X s 1438 695 m 9 X s 1438 709 m 9 X s 1438 722 m 9 X s 1438 736 m 9 X s 1430 750 m 17 X s 1438 763 m 9 X s 1438
 777 m 9 X s 1438 790 m 9 X s 1438 804 m 9 X s 1430 818 m 17 X s 1438 831 m 9 X s 1438 845 m 9 X s 1438 859 m 9 X s 1438 872 m 9 X s 1430 886 m 17 X s 1438 899 m 9 X s 1438 913 m 9 X s 1438 927 m 9 X s 1438 940 m 9 X s 1430 954 m 17 X s 1438 968 m 9
 X s 1438 981 m 9 X s 1438 995 m 9 X s 1438 1009 m 9 X s 1430 1022 m 17 X s 1438 1036 m 9 X s 1438 1049 m 9 X s 1438 1063 m 9 X s 1438 1077 m 9 X s 1430 1090 m 17 X s 1430 1090 m 17 X s 1438 1104 m 9 X s 1 0 0 c 6 lw black 3 lw 1 0 0 c 1432 682 m -1
 Y s 1418 682 m -1 -1 d s 1404 683 m -2 -2 d s 1390 685 m -3 -4 d s 1377 687 m -5 -6 d s 1364 689 m -7 -8 d s 1352 692 m -10 -11 d s 1339 694 m -12 -13 d s 1332 702 m -21 -21 d s 1323 708 m -27 -27 d s 1310 710 m -29 -29 d s 1301 717 m -35 -36 d s
 1291 721 m -40 -40 d s 1282 728 m -46 -47 d s 1276 736 m -55 -55 d s 1269 745 m -63 -64 d s 1267 758 m -76 -77 d s 1255 761 m -79 -80 d s 1255 776 m -94 -95 d s 1255 791 m -109 -110 d s 1245 796 m -114 -115 d s 1241 808 m -125 -127 d s 1241 823 m
 -141 -142 d s 1241 838 m -156 -157 d s 1237 849 m -167 -168 d s 1228 855 m -151 -152 d s 1076 703 m -21 -22 d s 1228 870 m -123 -124 d s 1095 737 m -4 -5 d s 1056 697 m -6 -6 d s 1049 690 m -9 -9 d s 1228 885 m -110 -110 d s 1109 766 m -4 -5 d s
 1030 687 m -5 -6 d s 1228 901 m -110 -111 d s 1014 685 m -4 -4 d s 1228 916 m -96 -97 d s 1122 809 m -4 -3 d s 998 684 m -3 -3 d s 1225 928 m -93 -94 d s 981 682 m -1 -1 d s 1214 932 m -82 -82 d s 965 682 m -1 Y s 1214 948 m -68 -69 d s 1132 865 m s
 950 682 m -1 Y s 1214 963 m -68 -69 d s 935 681 m s 1214 978 m -68 -69 d s 920 681 m s 1214 993 m -55 -55 d s 1151 930 m -5 -6 d s 905 681 m s 1209 1004 m -50 -51 d s 1200 1010 m -41 -42 d s 1200 1025 m -41 -41 d s 1200 1040 m -27 -27 d s 1160 1000
 m -1 -1 d s 1195 1050 m -22 -22 d s 1178 1048 m -5 -5 d s 6 lw 899 681 m 41 X 1 Y 41 X 1 Y 14 X 1 Y 14 X 1 Y 13 X 2 Y 14 X 3 Y 14 X 7 Y 14 X 6 Y 13 X 15 Y 14 X 19 Y 14 X 29 Y 13 X 43 Y 14 X 56 Y 14 X 65 Y 13 X 70 Y 14 X 48 Y 14 X 2 Y 13 X -46 Y 14 X
 -76 Y 14 X -79 Y 13 X -53 Y 14 X -38 Y 14 X -22 Y 13 X -15 Y 14 X -4 Y 14 X -9 Y 13 X -6 Y 14 X -8 Y 14 X -2 Y 13 X -5 Y 14 X -2 Y 14 X -2 Y 13 X -1 Y 28 X -1 Y 14 X s black 3 lw 899 681 m 548 X s 930 694 m -13 Y s 945 688 m -7 Y s 960 688 m -7 Y s
 975 688 m -7 Y s 990 694 m -13 Y s 1005 688 m -7 Y s 1020 688 m -7 Y s 1035 688 m -7 Y s 1050 694 m -13 Y s 1065 688 m -7 Y s 1080 688 m -7 Y s 1095 688 m -7 Y s 1110 694 m -13 Y s 1125 688 m -7 Y s 1140 688 m -7 Y s 1155 688 m -7 Y s 1170 694 m -13
 Y s 1185 688 m -7 Y s 1200 688 m -7 Y s 1215 688 m -7 Y s 1230 694 m -13 Y s 1245 688 m -7 Y s 1260 688 m -7 Y s 1275 688 m -7 Y s 1290 694 m -13 Y s 1305 688 m -7 Y s 1320 688 m -7 Y s 1335 688 m -7 Y s 1350 694 m -13 Y s 1365 688 m -7 Y s 1380 688
 m -7 Y s 1395 688 m -7 Y s 1410 694 m -13 Y s 930 694 m -13 Y s 915 688 m -7 Y s 900 688 m -7 Y s 1410 694 m -13 Y s 1425 688 m -7 Y s 1440 688 m -7 Y s 899 1108 m 548 X s 930 1095 m 13 Y s 945 1102 m 6 Y s 960 1102 m 6 Y s 975 1102 m 6 Y s 990 1095
 m 13 Y s 1005 1102 m 6 Y s 1020 1102 m 6 Y s 1035 1102 m 6 Y s 1050 1095 m 13 Y s 1065 1102 m 6 Y s 1080 1102 m 6 Y s 1095 1102 m 6 Y s 1110 1095 m 13 Y s 1125 1102 m 6 Y s 1140 1102 m 6 Y s 1155 1102 m 6 Y s 1170 1095 m 13 Y s 1185 1102 m 6 Y s
 1200 1102 m 6 Y s 1215 1102 m 6 Y s 1230 1095 m 13 Y s 1245 1102 m 6 Y s 1260 1102 m 6 Y s 1275 1102 m 6 Y s 1290 1095 m 13 Y s 1305 1102 m 6 Y s 1320 1102 m 6 Y s 1335 1102 m 6 Y s 1350 1095 m 13 Y s 1365 1102 m 6 Y s 1380 1102 m 6 Y s 1395 1102 m
 6 Y s 1410 1095 m 13 Y s 930 1095 m 13 Y s 915 1102 m 6 Y s 900 1102 m 6 Y s 1410 1095 m 13 Y s 1425 1102 m 6 Y s 1440 1102 m 6 Y s 899 681 m 427 Y s 915 681 m -16 X s 907 695 m -8 X s 907 709 m -8 X s 907 722 m -8 X s 907 736 m -8 X s 915 750 m -16
 X s 907 763 m -8 X s 907 777 m -8 X s 907 790 m -8 X s 907 804 m -8 X s 915 818 m -16 X s 907 831 m -8 X s 907 845 m -8 X s 907 859 m -8 X s 907 872 m -8 X s 915 886 m -16 X s 907 899 m -8 X s 907 913 m -8 X s 907 927 m -8 X s 907 940 m -8 X s 915
 954 m -16 X s 907 968 m -8 X s 907 981 m -8 X s 907 995 m -8 X s 907 1009 m -8 X s 915 1022 m -16 X s 907 1036 m -8 X s 907 1049 m -8 X s 907 1063 m -8 X s 907 1077 m -8 X s 915 1090 m -16 X s 915 1090 m -16 X s 907 1104 m -8 X s 1447 681 m 427 Y s
 1430 681 m 17 X s 1438 695 m 9 X s 1438 709 m 9 X s 1438 722 m 9 X s 1438 736 m 9 X s 1430 750 m 17 X s 1438 763 m 9 X s 1438 777 m 9 X s 1438 790 m 9 X s 1438 804 m 9 X s 1430 818 m 17 X s 1438 831 m 9 X s 1438 845 m 9 X s 1438 859 m 9 X s 1438 872
 m 9 X s 1430 886 m 17 X s 1438 899 m 9 X s 1438 913 m 9 X s 1438 927 m 9 X s 1438 940 m 9 X s 1430 954 m 17 X s 1438 968 m 9 X s 1438 981 m 9 X s 1438 995 m 9 X s 1438 1009 m 9 X s 1430 1022 m 17 X s 1438 1036 m 9 X s 1438 1049 m 9 X s 1438 1063 m 9
 X s 1438 1077 m 9 X s 1430 1090 m 17 X s 1430 1090 m 17 X s 1438 1104 m 9 X s
 gsave  710 565 779 600 C 1474.92 679.067 t 90 r /Helvetica-Bold findfont 19.9646 sf 0 0 m (U/O\255flow \(S,B\): \(0.0, 0.0\)% / \(0.0, 0.0\)%) show NC gr  0.48 0.56 0.6 c 0.364706 0.419608 0.490196 c 497 38 786 1124 bf 0.48 0.56 0.6 c 786 1124 m 497
 X s 1283 1124 m 38 Y s 1283 1162 m -497 X s 786 1162 m -38 Y s 1 1 1 c black 1 1 1 c
 gsave  710 565 779 600 C 801.374 1136.7 t 0 r /Helvetica-Bold findfont 22.8167 sf 0 0 m (Input variable: log_XiccK_IPCHI2_OWNPV) show NC gr  0.48 0.56 0.6 c 1 1 1 c 711 565 1534 600 bf black 1 1 1 c 547 427 1655 681 bf black 547 427 1655 681 bl 1 1
 1 c 547 427 1655 681 bf black 547 427 1655 681 bl 0 0 0.933333 c 6 lw 0.49 0.6 0.82 c black 3 lw 0.49 0.6 0.82 c 1655 681 m 96 X 3 Y 14 X -2 Y 13 X 1 Y 14 X -1 Y 14 X 4 Y 13 X -5 Y 14 X 17 Y 14 X -2 Y 13 X 1 Y 14 X 11 Y 14 X 35 Y 13 X 33 Y 14 X 47 Y
 14 X 77 Y 14 X 40 Y 13 X 129 Y 14 X -94 Y 14 X -31 Y 13 X -66 Y 14 X -71 Y 14 X -68 Y 13 X -21 Y 14 X -22 Y 14 X -10 Y 13 X -3 Y 14 X -1 Y 14 X -1 Y 95 X f 6 lw 0 0 0.933333 c 0.49 0.6 0.82 c 0 0 0.933333 c 1655 681 m 96 X 3 Y 14 X -2 Y 13 X 1 Y 14
 X -1 Y 14 X 4 Y 13 X -5 Y 14 X 17 Y 14 X -2 Y 13 X 1 Y 14 X 11 Y 14 X 35 Y 13 X 33 Y 14 X 47 Y 14 X 77 Y 14 X 40 Y 13 X 129 Y 14 X -94 Y 14 X -31 Y 13 X -66 Y 14 X -71 Y 14 X -68 Y 13 X -21 Y 14 X -22 Y 14 X -10 Y 13 X -3 Y 14 X -1 Y 14 X -1 Y 95 X
 s black 3 lw 1655 681 m 547 X s
 gsave  711 565 1534 600 C 1838.61 613.818 t 0 r /Helvetica findfont 28.5208 sf 0 0 m (log_XiccPi_IPCHI2_OWNPV) show NC gr  1662 694 m -13 Y s 1676 688 m -7 Y s 1690 688 m -7 Y s 1704 688 m -7 Y s 1718 694 m -13 Y s 1732 688 m -7 Y s 1746 688 m -7 Y
 s 1760 688 m -7 Y s 1774 694 m -13 Y s 1788 688 m -7 Y s 1802 688 m -7 Y s 1816 688 m -7 Y s 1830 694 m -13 Y s 1844 688 m -7 Y s 1858 688 m -7 Y s 1872 688 m -7 Y s 1886 694 m -13 Y s 1900 688 m -7 Y s 1914 688 m -7 Y s 1928 688 m -7 Y s 1942 694 m
 -13 Y s 1956 688 m -7 Y s 1970 688 m -7 Y s 1984 688 m -7 Y s 1998 694 m -13 Y s 2012 688 m -7 Y s 2026 688 m -7 Y s 2040 688 m -7 Y s 2054 694 m -13 Y s 2068 688 m -7 Y s 2082 688 m -7 Y s 2096 688 m -7 Y s 2110 694 m -13 Y s 2124 688 m -7 Y s 2138
 688 m -7 Y s 2152 688 m -7 Y s 2166 694 m -13 Y s 1662 694 m -13 Y s 2166 694 m -13 Y s 2180 688 m -7 Y s 2194 688 m -7 Y s
 gsave  711 565 1534 600 C 1651.06 653.603 t 0 r /Helvetica findfont 25.6688 sf 0 0 m (10) show NC gr 
 gsave  711 565 1534 600 C 1636.85 653.603 t 0 r /Symbol findfont 25.6688 sf 0 0 m (-) show NC gr 
 gsave  711 565 1534 600 C 1713.58 653.603 t 0 r /Helvetica findfont 25.6688 sf 0 0 m (8) show NC gr 
 gsave  711 565 1534 600 C 1702.21 653.603 t 0 r /Symbol findfont 25.6688 sf 0 0 m (-) show NC gr 
 gsave  711 565 1534 600 C 1770.41 653.603 t 0 r /Helvetica findfont 25.6688 sf 0 0 m (6) show NC gr 
 gsave  711 565 1534 600 C 1759.04 653.603 t 0 r /Symbol findfont 25.6688 sf 0 0 m (-) show NC gr 
 gsave  711 565 1534 600 C 1824.4 653.603 t 0 r /Helvetica findfont 25.6688 sf 0 0 m (4) show NC gr 
 gsave  711 565 1534 600 C 1813.04 653.603 t 0 r /Symbol findfont 25.6688 sf 0 0 m (-) show NC gr 
 gsave  711 565 1534 600 C 1881.24 653.603 t 0 r /Helvetica findfont 25.6688 sf 0 0 m (2) show NC gr 
 gsave  711 565 1534 600 C 1869.87 653.603 t 0 r /Symbol findfont 25.6688 sf 0 0 m (-) show NC gr 
 gsave  711 565 1534 600 C 1932.39 653.603 t 0 r /Helvetica findfont 25.6688 sf 0 0 m (0) show NC gr 
 gsave  711 565 1534 600 C 1986.38 653.603 t 0 r /Helvetica findfont 25.6688 sf 0 0 m (2) show NC gr 
 gsave  711 565 1534 600 C 2043.22 653.603 t 0 r /Helvetica findfont 25.6688 sf 0 0 m (4) show NC gr 
 gsave  711 565 1534 600 C 2100.05 653.603 t 0 r /Helvetica findfont 25.6688 sf 0 0 m (6) show NC gr 
 gsave  711 565 1534 600 C 2156.89 653.603 t 0 r /Helvetica findfont 25.6688 sf 0 0 m (8) show NC gr  1655 1108 m 547 X s 1662 1095 m 13 Y s 1676 1102 m 6 Y s 1690 1102 m 6 Y s 1704 1102 m 6 Y s 1718 1095 m 13 Y s 1732 1102 m 6 Y s 1746 1102 m 6 Y s
 1760 1102 m 6 Y s 1774 1095 m 13 Y s 1788 1102 m 6 Y s 1802 1102 m 6 Y s 1816 1102 m 6 Y s 1830 1095 m 13 Y s 1844 1102 m 6 Y s 1858 1102 m 6 Y s 1872 1102 m 6 Y s 1886 1095 m 13 Y s 1900 1102 m 6 Y s 1914 1102 m 6 Y s 1928 1102 m 6 Y s 1942 1095 m
 13 Y s 1956 1102 m 6 Y s 1970 1102 m 6 Y s 1984 1102 m 6 Y s 1998 1095 m 13 Y s 2012 1102 m 6 Y s 2026 1102 m 6 Y s 2040 1102 m 6 Y s 2054 1095 m 13 Y s 2068 1102 m 6 Y s 2082 1102 m 6 Y s 2096 1102 m 6 Y s 2110 1095 m 13 Y s 2124 1102 m 6 Y s 2138
 1102 m 6 Y s 2152 1102 m 6 Y s 2166 1095 m 13 Y s 1662 1095 m 13 Y s 2166 1095 m 13 Y s 2180 1102 m 6 Y s 2194 1102 m 6 Y s 1655 681 m 427 Y s
 gsave  711 565 1534 600 C 1557.28 1028.71 t 90 r /Helvetica findfont 28.5208 sf 0 0 m (0.489 ) show NC gr 
 gsave  711 565 1534 600 C 1543.07 1023.03 t 90 r /Helvetica findfont 19.9646 sf 0 0 m ( ) show NC gr 
 gsave  711 565 1534 600 C 1557.28 1011.66 t 90 r /Helvetica findfont 28.5208 sf 0 0 m (/) show NC gr 
 gsave  711 565 1534 600 C 1565.8 1005.98 t 90 r /Helvetica findfont 19.9646 sf 0 0 m ( ) show NC gr 
 gsave  711 565 1534 600 C 1557.28 897.993 t 90 r /Helvetica findfont 28.5208 sf 0 0 m (\(1/N\) dN) show NC gr  1671 681 m -16 X s 1663 692 m -8 X s 1663 703 m -8 X s 1663 714 m -8 X s 1663 725 m -8 X s 1671 736 m -16 X s 1663 747 m -8 X s 1663 758 m
 -8 X s 1663 769 m -8 X s 1663 780 m -8 X s 1671 791 m -16 X s 1663 802 m -8 X s 1663 813 m -8 X s 1663 824 m -8 X s 1663 835 m -8 X s 1671 846 m -16 X s 1663 857 m -8 X s 1663 868 m -8 X s 1663 879 m -8 X s 1663 890 m -8 X s 1671 901 m -16 X s 1663
 912 m -8 X s 1663 923 m -8 X s 1663 933 m -8 X s 1663 944 m -8 X s 1671 955 m -16 X s 1663 966 m -8 X s 1663 977 m -8 X s 1663 988 m -8 X s 1663 999 m -8 X s 1671 1010 m -16 X s 1663 1021 m -8 X s 1663 1032 m -8 X s 1663 1043 m -8 X s 1663 1054 m -8
 X s 1671 1065 m -16 X s 1671 1065 m -16 X s 1663 1076 m -8 X s 1663 1087 m -8 X s 1663 1098 m -8 X s
 gsave  711 565 1534 600 C 1631.16 670.653 t 0 r /Helvetica findfont 25.6688 sf 0 0 m (0) show NC gr 
 gsave  711 565 1534 600 C 1594.22 727.488 t 0 r /Helvetica findfont 25.6688 sf 0 0 m (0.05) show NC gr 
 gsave  711 565 1534 600 C 1614.11 781.481 t 0 r /Helvetica findfont 25.6688 sf 0 0 m (0.1) show NC gr 
 gsave  711 565 1534 600 C 1594.22 835.475 t 0 r /Helvetica findfont 25.6688 sf 0 0 m (0.15) show NC gr 
 gsave  711 565 1534 600 C 1608.43 889.468 t 0 r /Helvetica findfont 25.6688 sf 0 0 m (0.2) show NC gr 
 gsave  711 565 1534 600 C 1594.22 946.303 t 0 r /Helvetica findfont 25.6688 sf 0 0 m (0.25) show NC gr 
 gsave  711 565 1534 600 C 1608.43 1000.3 t 0 r /Helvetica findfont 25.6688 sf 0 0 m (0.3) show NC gr 
 gsave  711 565 1534 600 C 1594.22 1054.29 t 0 r /Helvetica findfont 25.6688 sf 0 0 m (0.35) show NC gr  2202 681 m 427 Y s 2186 681 m 16 X s 2194 692 m 8 X s 2194 703 m 8 X s 2194 714 m 8 X s 2194 725 m 8 X s 2186 736 m 16 X s 2194 747 m 8 X s 2194
 758 m 8 X s 2194 769 m 8 X s 2194 780 m 8 X s 2186 791 m 16 X s 2194 802 m 8 X s 2194 813 m 8 X s 2194 824 m 8 X s 2194 835 m 8 X s 2186 846 m 16 X s 2194 857 m 8 X s 2194 868 m 8 X s 2194 879 m 8 X s 2194 890 m 8 X s 2186 901 m 16 X s 2194 912 m 8
 X s 2194 923 m 8 X s 2194 933 m 8 X s 2194 944 m 8 X s 2186 955 m 16 X s 2194 966 m 8 X s 2194 977 m 8 X s 2194 988 m 8 X s 2194 999 m 8 X s 2186 1010 m 16 X s 2194 1021 m 8 X s 2194 1032 m 8 X s 2194 1043 m 8 X s 2194 1054 m 8 X s 2186 1065 m 16 X
 s 2186 1065 m 16 X s 2194 1076 m 8 X s 2194 1087 m 8 X s 2194 1098 m 8 X s 1 0 0 c 6 lw black 3 lw 1 0 0 c 2188 682 m -1 Y s 2174 682 m -1 -1 d s 2160 683 m -2 -2 d s 2146 685 m -3 -4 d s 2134 688 m -6 -7 d s 2120 689 m -7 -8 d s 2108 692 m -10 -11
 d s 2098 697 m -16 -16 d s 2088 702 m -21 -21 d s 2078 707 m -26 -26 d s 2066 710 m -29 -29 d s 2053 712 m -31 -31 d s 2045 720 m -38 -39 d s 2038 728 m -46 -47 d s 2032 736 m -55 -55 d s 2025 745 m -63 -64 d s 2021 756 m -74 -75 d s 2011 761 m -79
 -80 d s 2011 776 m -94 -95 d s 2011 791 m -109 -110 d s 2010 806 m -123 -125 d s 1997 808 m -126 -127 d s 1997 823 m -141 -142 d s 1997 838 m -156 -157 d s 1997 854 m -109 -111 d s 1883 738 m -9 -8 d s 1861 716 m -1 X s 1848 703 m -1 -1 d s 1839 694
 m -13 -13 d s 1993 865 m -92 -93 d s 1899 770 m -11 -11 d s 1820 690 m -1 X s 1817 687 m -6 -6 d s 1984 870 m -83 -82 d s 1799 684 m -3 -3 d s 1984 885 m -69 -69 d s 1909 811 m -8 -8 d s 1783 684 m -2 -3 d s 1984 901 m -69 -69 d s 1768 683 m -2 -2 d
 s 1984 916 m -69 -69 d s 1751 682 m -1 Y s 1984 931 m -55 -55 d s 1925 872 m -10 -10 d s 1736 682 m -1 Y s 1973 936 m -44 -45 d s 1721 681 m s 1970 948 m -41 -42 d s 1706 681 m s 1970 963 m -27 -28 d s 1932 924 m -3 -3 d s 1691 681 m s 1970 978 m
 -27 -28 d s 1676 681 m -1 X s 1958 981 m -2 -2 d s 1952 975 m -9 -9 d s 1660 681 m s 6 lw 1655 681 m 69 X 1 Y 41 X 1 Y 13 X 1 Y 28 X 3 Y 13 X 3 Y 14 X 4 Y 14 X 9 Y 13 X 13 Y 14 X 22 Y 14 X 32 Y 13 X 41 Y 14 X 61 Y 14 X 52 Y 14 X 51 Y 13 X 6 Y 14 X
 -45 Y 14 X -71 Y 13 X -59 Y 14 X -50 Y 14 X -20 Y 13 X -16 Y 14 X -8 Y 14 X -5 Y 13 X -5 Y 14 X -5 Y 14 X -5 Y 13 X -4 Y 14 X -3 Y 14 X -2 Y 13 X -1 Y 28 X -1 Y 13 X s black 3 lw 1655 681 m 547 X s 1662 694 m -13 Y s 1676 688 m -7 Y s 1690 688 m -7
 Y s 1704 688 m -7 Y s 1718 694 m -13 Y s 1732 688 m -7 Y s 1746 688 m -7 Y s 1760 688 m -7 Y s 1774 694 m -13 Y s 1788 688 m -7 Y s 1802 688 m -7 Y s 1816 688 m -7 Y s 1830 694 m -13 Y s 1844 688 m -7 Y s 1858 688 m -7 Y s 1872 688 m -7 Y s 1886 694
 m -13 Y s 1900 688 m -7 Y s 1914 688 m -7 Y s 1928 688 m -7 Y s 1942 694 m -13 Y s 1956 688 m -7 Y s 1970 688 m -7 Y s 1984 688 m -7 Y s 1998 694 m -13 Y s 2012 688 m -7 Y s 2026 688 m -7 Y s 2040 688 m -7 Y s 2054 694 m -13 Y s 2068 688 m -7 Y s
 2082 688 m -7 Y s 2096 688 m -7 Y s 2110 694 m -13 Y s 2124 688 m -7 Y s 2138 688 m -7 Y s 2152 688 m -7 Y s 2166 694 m -13 Y s 1662 694 m -13 Y s 2166 694 m -13 Y s 2180 688 m -7 Y s 2194 688 m -7 Y s 1655 1108 m 547 X s 1662 1095 m 13 Y s 1676
 1102 m 6 Y s 1690 1102 m 6 Y s 1704 1102 m 6 Y s 1718 1095 m 13 Y s 1732 1102 m 6 Y s 1746 1102 m 6 Y s 1760 1102 m 6 Y s 1774 1095 m 13 Y s 1788 1102 m 6 Y s 1802 1102 m 6 Y s 1816 1102 m 6 Y s 1830 1095 m 13 Y s 1844 1102 m 6 Y s 1858 1102 m 6 Y s
 1872 1102 m 6 Y s 1886 1095 m 13 Y s 1900 1102 m 6 Y s 1914 1102 m 6 Y s 1928 1102 m 6 Y s 1942 1095 m 13 Y s 1956 1102 m 6 Y s 1970 1102 m 6 Y s 1984 1102 m 6 Y s 1998 1095 m 13 Y s 2012 1102 m 6 Y s 2026 1102 m 6 Y s 2040 1102 m 6 Y s 2054 1095 m
 13 Y s 2068 1102 m 6 Y s 2082 1102 m 6 Y s 2096 1102 m 6 Y s 2110 1095 m 13 Y s 2124 1102 m 6 Y s 2138 1102 m 6 Y s 2152 1102 m 6 Y s 2166 1095 m 13 Y s 1662 1095 m 13 Y s 2166 1095 m 13 Y s 2180 1102 m 6 Y s 2194 1102 m 6 Y s 1655 681 m 427 Y s
 1671 681 m -16 X s 1663 692 m -8 X s 1663 703 m -8 X s 1663 714 m -8 X s 1663 725 m -8 X s 1671 736 m -16 X s 1663 747 m -8 X s 1663 758 m -8 X s 1663 769 m -8 X s 1663 780 m -8 X s 1671 791 m -16 X s 1663 802 m -8 X s 1663 813 m -8 X s 1663 824 m
 -8 X s 1663 835 m -8 X s 1671 846 m -16 X s 1663 857 m -8 X s 1663 868 m -8 X s 1663 879 m -8 X s 1663 890 m -8 X s 1671 901 m -16 X s 1663 912 m -8 X s 1663 923 m -8 X s 1663 933 m -8 X s 1663 944 m -8 X s 1671 955 m -16 X s 1663 966 m -8 X s 1663
 977 m -8 X s 1663 988 m -8 X s 1663 999 m -8 X s 1671 1010 m -16 X s 1663 1021 m -8 X s 1663 1032 m -8 X s 1663 1043 m -8 X s 1663 1054 m -8 X s 1671 1065 m -16 X s 1671 1065 m -16 X s 1663 1076 m -8 X s 1663 1087 m -8 X s 1663 1098 m -8 X s 2202
 681 m 427 Y s 2186 681 m 16 X s 2194 692 m 8 X s 2194 703 m 8 X s 2194 714 m 8 X s 2194 725 m 8 X s 2186 736 m 16 X s 2194 747 m 8 X s 2194 758 m 8 X s 2194 769 m 8 X s 2194 780 m 8 X s 2186 791 m 16 X s 2194 802 m 8 X s 2194 813 m 8 X s 2194 824 m
 8 X s 2194 835 m 8 X s 2186 846 m 16 X s 2194 857 m 8 X s 2194 868 m 8 X s 2194 879 m 8 X s 2194 890 m 8 X s 2186 901 m 16 X s 2194 912 m 8 X s 2194 923 m 8 X s 2194 933 m 8 X s 2194 944 m 8 X s 2186 955 m 16 X s 2194 966 m 8 X s 2194 977 m 8 X s
 2194 988 m 8 X s 2194 999 m 8 X s 2186 1010 m 16 X s 2194 1021 m 8 X s 2194 1032 m 8 X s 2194 1043 m 8 X s 2194 1054 m 8 X s 2186 1065 m 16 X s 2186 1065 m 16 X s 2194 1076 m 8 X s 2194 1087 m 8 X s 2194 1098 m 8 X s
 gsave  711 565 1534 600 C 2230.83 679.067 t 90 r /Helvetica-Bold findfont 19.9646 sf 0 0 m (U/O\255flow \(S,B\): \(0.0, 0.0\)% / \(0.0, 0.0\)%) show NC gr  0.48 0.56 0.6 c 0.364706 0.419608 0.490196 c 497 38 1542 1124 bf 0.48 0.56 0.6 c 1542 1124 m
 497 X s 2039 1124 m 38 Y s 2039 1162 m -497 X s 1542 1162 m -38 Y s 1 1 1 c black 1 1 1 c
 gsave  711 565 1534 600 C 1554.44 1136.7 t 0 r /Helvetica-Bold findfont 22.8167 sf 0 0 m (Input variable: log_XiccPi_IPCHI2_OWNPV) show NC gr  0.48 0.56 0.6 c 1 1 1 c 710 564 23 12 bf black 1 1 1 c 548 427 143 93 bf black 548 427 143 93 bl 1 1 1 c
 548 427 143 93 bf black 548 427 143 93 bl 0 0 0.933333 c 6 lw 0.49 0.6 0.82 c black 3 lw 0.49 0.6 0.82 c 143 93 m 124 X 7 Y 13 X 4 Y 14 X 5 Y 14 X 15 Y 13 X 45 Y 14 X 71 Y 14 X 28 Y 13 X 107 Y 14 X 106 Y 14 X -54 Y 13 X -35 Y 14 X -41 Y 14 X -69 Y
 13 X -80 Y 14 X -53 Y 14 X -24 Y 13 X -20 Y 14 X -8 Y 14 X -3 Y 13 X -1 Y 165 X f 6 lw 0 0 0.933333 c 0.49 0.6 0.82 c 0 0 0.933333 c 143 93 m 124 X 7 Y 13 X 4 Y 14 X 5 Y 14 X 15 Y 13 X 45 Y 14 X 71 Y 14 X 28 Y 13 X 107 Y 14 X 106 Y 14 X -54 Y 13 X
 -35 Y 14 X -41 Y 14 X -69 Y 13 X -80 Y 14 X -53 Y 14 X -24 Y 13 X -20 Y 14 X -8 Y 14 X -3 Y 13 X -1 Y 165 X s black 3 lw 143 93 m 548 X s
 gsave  710 564 23 12 C 372.269 25.5758 t 0 r /Helvetica findfont 28.5208 sf 0 0 m (log\(C_FDCHI2_OWNPV\)) show NC gr  172 106 m -13 Y s 186 100 m -7 Y s 200 100 m -7 Y s 215 100 m -7 Y s 229 106 m -13 Y s 243 100 m -7 Y s 257 100 m -7 Y s 271 100 m
 -7 Y s 285 106 m -13 Y s 300 100 m -7 Y s 314 100 m -7 Y s 328 100 m -7 Y s 342 106 m -13 Y s 356 100 m -7 Y s 370 100 m -7 Y s 385 100 m -7 Y s 399 106 m -13 Y s 413 100 m -7 Y s 427 100 m -7 Y s 441 100 m -7 Y s 455 106 m -13 Y s 470 100 m -7 Y s
 484 100 m -7 Y s 498 100 m -7 Y s 512 106 m -13 Y s 526 100 m -7 Y s 540 100 m -7 Y s 555 100 m -7 Y s 569 106 m -13 Y s 583 100 m -7 Y s 597 100 m -7 Y s 611 100 m -7 Y s 625 106 m -13 Y s 639 100 m -7 Y s 654 100 m -7 Y s 668 100 m -7 Y s 682 106
 m -13 Y s 172 106 m -13 Y s 158 100 m -7 Y s 144 100 m -7 Y s 682 106 m -13 Y s
 gsave  710 564 23 12 C 167.663 65.3603 t 0 r /Helvetica findfont 25.6688 sf 0 0 m (6) show NC gr 
 gsave  710 564 23 12 C 156.296 65.3603 t 0 r /Symbol findfont 25.6688 sf 0 0 m (-) show NC gr 
 gsave  710 564 23 12 C 224.498 65.3603 t 0 r /Helvetica findfont 25.6688 sf 0 0 m (4) show NC gr 
 gsave  710 564 23 12 C 213.131 65.3603 t 0 r /Symbol findfont 25.6688 sf 0 0 m (-) show NC gr 
 gsave  710 564 23 12 C 281.333 65.3603 t 0 r /Helvetica findfont 25.6688 sf 0 0 m (2) show NC gr 
 gsave  710 564 23 12 C 269.966 65.3603 t 0 r /Symbol findfont 25.6688 sf 0 0 m (-) show NC gr 
 gsave  710 564 23 12 C 332.485 65.3603 t 0 r /Helvetica findfont 25.6688 sf 0 0 m (0) show NC gr 
 gsave  710 564 23 12 C 389.32 65.3603 t 0 r /Helvetica findfont 25.6688 sf 0 0 m (2) show NC gr 
 gsave  710 564 23 12 C 446.155 65.3603 t 0 r /Helvetica findfont 25.6688 sf 0 0 m (4) show NC gr 
 gsave  710 564 23 12 C 502.99 65.3603 t 0 r /Helvetica findfont 25.6688 sf 0 0 m (6) show NC gr 
 gsave  710 564 23 12 C 559.825 65.3603 t 0 r /Helvetica findfont 25.6688 sf 0 0 m (8) show NC gr 
 gsave  710 564 23 12 C 610.976 65.3603 t 0 r /Helvetica findfont 25.6688 sf 0 0 m (10) show NC gr 
 gsave  710 564 23 12 C 664.969 65.3603 t 0 r /Helvetica findfont 25.6688 sf 0 0 m (12) show NC gr  143 520 m 548 X s 172 507 m 13 Y s 186 513 m 7 Y s 200 513 m 7 Y s 215 513 m 7 Y s 229 507 m 13 Y s 243 513 m 7 Y s 257 513 m 7 Y s 271 513 m 7 Y s
 285 507 m 13 Y s 300 513 m 7 Y s 314 513 m 7 Y s 328 513 m 7 Y s 342 507 m 13 Y s 356 513 m 7 Y s 370 513 m 7 Y s 385 513 m 7 Y s 399 507 m 13 Y s 413 513 m 7 Y s 427 513 m 7 Y s 441 513 m 7 Y s 455 507 m 13 Y s 470 513 m 7 Y s 484 513 m 7 Y s 498
 513 m 7 Y s 512 507 m 13 Y s 526 513 m 7 Y s 540 513 m 7 Y s 555 513 m 7 Y s 569 507 m 13 Y s 583 513 m 7 Y s 597 513 m 7 Y s 611 513 m 7 Y s 625 507 m 13 Y s 639 513 m 7 Y s 654 513 m 7 Y s 668 513 m 7 Y s 682 507 m 13 Y s 172 507 m 13 Y s 158 513
 m 7 Y s 144 513 m 7 Y s 682 507 m 13 Y s 143 93 m 427 Y s
 gsave  710 564 23 12 C 45.468 440.471 t 90 r /Helvetica findfont 28.5208 sf 0 0 m (0.483 ) show NC gr 
 gsave  710 564 23 12 C 31.2593 434.788 t 90 r /Helvetica findfont 19.9646 sf 0 0 m ( ) show NC gr 
 gsave  710 564 23 12 C 45.468 423.421 t 90 r /Helvetica findfont 28.5208 sf 0 0 m (/) show NC gr 
 gsave  710 564 23 12 C 53.9933 417.737 t 90 r /Helvetica findfont 19.9646 sf 0 0 m ( ) show NC gr 
 gsave  710 564 23 12 C 45.468 309.751 t 90 r /Helvetica findfont 28.5208 sf 0 0 m (\(1/N\) dN) show NC gr  160 93 m -17 X s 152 105 m -9 X s 152 117 m -9 X s 152 128 m -9 X s 152 140 m -9 X s 160 152 m -17 X s 152 163 m -9 X s 152 175 m -9 X s 152
 187 m -9 X s 152 199 m -9 X s 160 210 m -17 X s 152 222 m -9 X s 152 234 m -9 X s 152 246 m -9 X s 152 257 m -9 X s 160 269 m -17 X s 152 281 m -9 X s 152 292 m -9 X s 152 304 m -9 X s 152 316 m -9 X s 160 328 m -17 X s 152 339 m -9 X s 152 351 m -9
 X s 152 363 m -9 X s 152 375 m -9 X s 160 386 m -17 X s 152 398 m -9 X s 152 410 m -9 X s 152 421 m -9 X s 152 433 m -9 X s 160 445 m -17 X s 152 457 m -9 X s 152 468 m -9 X s 152 480 m -9 X s 152 492 m -9 X s 160 504 m -17 X s 160 504 m -17 X s 152
 515 m -9 X s
 gsave  710 564 23 12 C 119.354 82.4108 t 0 r /Helvetica findfont 25.6688 sf 0 0 m (0) show NC gr 
 gsave  710 564 23 12 C 82.4108 142.088 t 0 r /Helvetica findfont 25.6688 sf 0 0 m (0.05) show NC gr 
 gsave  710 564 23 12 C 102.303 201.764 t 0 r /Helvetica findfont 25.6688 sf 0 0 m (0.1) show NC gr 
 gsave  710 564 23 12 C 82.4108 258.599 t 0 r /Helvetica findfont 25.6688 sf 0 0 m (0.15) show NC gr 
 gsave  710 564 23 12 C 96.6195 318.276 t 0 r /Helvetica findfont 25.6688 sf 0 0 m (0.2) show NC gr 
 gsave  710 564 23 12 C 82.4108 375.111 t 0 r /Helvetica findfont 25.6688 sf 0 0 m (0.25) show NC gr 
 gsave  710 564 23 12 C 96.6195 434.788 t 0 r /Helvetica findfont 25.6688 sf 0 0 m (0.3) show NC gr 
 gsave  710 564 23 12 C 82.4108 494.465 t 0 r /Helvetica findfont 25.6688 sf 0 0 m (0.35) show NC gr  691 93 m 427 Y s 674 93 m 17 X s 683 105 m 8 X s 683 117 m 8 X s 683 128 m 8 X s 683 140 m 8 X s 674 152 m 17 X s 683 163 m 8 X s 683 175 m 8 X s
 683 187 m 8 X s 683 199 m 8 X s 674 210 m 17 X s 683 222 m 8 X s 683 234 m 8 X s 683 246 m 8 X s 683 257 m 8 X s 674 269 m 17 X s 683 281 m 8 X s 683 292 m 8 X s 683 304 m 8 X s 683 316 m 8 X s 674 328 m 17 X s 683 339 m 8 X s 683 351 m 8 X s 683
 363 m 8 X s 683 375 m 8 X s 674 386 m 17 X s 683 398 m 8 X s 683 410 m 8 X s 683 421 m 8 X s 683 433 m 8 X s 674 445 m 17 X s 683 457 m 8 X s 683 468 m 8 X s 683 480 m 8 X s 683 492 m 8 X s 674 504 m 17 X s 674 504 m 17 X s 683 515 m 8 X s 1 0 0 c 6
 lw black 3 lw 1 0 0 c 676 93 m s 661 93 m s 646 93 m s 631 93 m s 617 94 m -1 -1 d s 602 95 m -1 -2 d s 589 96 m -3 -3 d s 576 98 m -5 -5 d s 564 101 m -8 -8 d s 553 105 m -12 -12 d s 540 108 m -15 -15 d s 528 111 m -18 -18 d s 518 116 m -23 -23 d s
 509 122 m -29 -29 d s 499 127 m -34 -34 d s 486 129 m -36 -36 d s 473 131 m -38 -38 d s 466 139 m -46 -46 d s 458 147 m -53 -54 d s 458 162 m -68 -69 d s 456 175 m -81 -82 d s 444 178 m -84 -85 d s 444 194 m -99 -101 d s 444 209 m -115 -116 d s 444
 224 m -130 -131 d s 437 232 m -138 -139 d s 431 241 m -147 -148 d s 431 256 m -110 -110 d s 319 143 m -11 -11 d s 295 119 m -1 -1 d s 282 106 m -2 -2 d s 275 99 m -6 -6 d s 431 271 m -110 -110 d s 258 97 m -4 -4 d s 422 277 m -87 -87 d s 331 186 m
 -10 -10 d s 241 95 m -2 -2 d s 417 288 m -82 -83 d s 224 93 m s 417 303 m -82 -83 d s 209 93 m s 417 318 m -68 -69 d s 345 245 m -10 -10 d s 194 93 m s 415 331 m -66 -67 d s 179 93 m cl s 403 335 m -54 -56 d s 164 93 m cl s 403 350 m -54 -55 d s 149
 93 m s 403 365 m -54 -55 d s 403 380 m -41 -41 d s 358 334 m -9 -9 d s 403 395 m -41 -41 d s 395 402 m -33 -33 d s 390 412 m -28 -28 d s 390 427 m -14 -14 d s 374 412 m -12 -12 d s 389 442 m -13 -14 d s 6 lw 143 93 m 83 X 1 Y 13 X 1 Y 14 X 2 Y 14 X
 2 Y 13 X 7 Y 14 X 13 Y 14 X 24 Y 13 X 43 Y 14 X 59 Y 14 X 89 Y 13 X 78 Y 14 X 30 Y 14 X -40 Y 13 X -71 Y 14 X -54 Y 14 X -45 Y 13 X -57 Y 14 X -36 Y 14 X -8 Y 13 X -2 Y 14 X -7 Y 14 X -6 Y 13 X -5 Y 14 X -6 Y 14 X -4 Y 13 X -3 Y 14 X -2 Y 14 X -1 Y
 14 X -1 Y 13 X -1 Y 69 X s black 3 lw 143 93 m 548 X s 172 106 m -13 Y s 186 100 m -7 Y s 200 100 m -7 Y s 215 100 m -7 Y s 229 106 m -13 Y s 243 100 m -7 Y s 257 100 m -7 Y s 271 100 m -7 Y s 285 106 m -13 Y s 300 100 m -7 Y s 314 100 m -7 Y s 328
 100 m -7 Y s 342 106 m -13 Y s 356 100 m -7 Y s 370 100 m -7 Y s 385 100 m -7 Y s 399 106 m -13 Y s 413 100 m -7 Y s 427 100 m -7 Y s 441 100 m -7 Y s 455 106 m -13 Y s 470 100 m -7 Y s 484 100 m -7 Y s 498 100 m -7 Y s 512 106 m -13 Y s 526 100 m
 -7 Y s 540 100 m -7 Y s 555 100 m -7 Y s 569 106 m -13 Y s 583 100 m -7 Y s 597 100 m -7 Y s 611 100 m -7 Y s 625 106 m -13 Y s 639 100 m -7 Y s 654 100 m -7 Y s 668 100 m -7 Y s 682 106 m -13 Y s 172 106 m -13 Y s 158 100 m -7 Y s 144 100 m -7 Y s
 682 106 m -13 Y s 143 520 m 548 X s 172 507 m 13 Y s 186 513 m 7 Y s 200 513 m 7 Y s 215 513 m 7 Y s 229 507 m 13 Y s 243 513 m 7 Y s 257 513 m 7 Y s 271 513 m 7 Y s 285 507 m 13 Y s 300 513 m 7 Y s 314 513 m 7 Y s 328 513 m 7 Y s 342 507 m 13 Y s
 356 513 m 7 Y s 370 513 m 7 Y s 385 513 m 7 Y s 399 507 m 13 Y s 413 513 m 7 Y s 427 513 m 7 Y s 441 513 m 7 Y s 455 507 m 13 Y s 470 513 m 7 Y s 484 513 m 7 Y s 498 513 m 7 Y s 512 507 m 13 Y s 526 513 m 7 Y s 540 513 m 7 Y s 555 513 m 7 Y s 569
 507 m 13 Y s 583 513 m 7 Y s 597 513 m 7 Y s 611 513 m 7 Y s 625 507 m 13 Y s 639 513 m 7 Y s 654 513 m 7 Y s 668 513 m 7 Y s 682 507 m 13 Y s 172 507 m 13 Y s 158 513 m 7 Y s 144 513 m 7 Y s 682 507 m 13 Y s 143 93 m 427 Y s 160 93 m -17 X s 152
 105 m -9 X s 152 117 m -9 X s 152 128 m -9 X s 152 140 m -9 X s 160 152 m -17 X s 152 163 m -9 X s 152 175 m -9 X s 152 187 m -9 X s 152 199 m -9 X s 160 210 m -17 X s 152 222 m -9 X s 152 234 m -9 X s 152 246 m -9 X s 152 257 m -9 X s 160 269 m -17
 X s 152 281 m -9 X s 152 292 m -9 X s 152 304 m -9 X s 152 316 m -9 X s 160 328 m -17 X s 152 339 m -9 X s 152 351 m -9 X s 152 363 m -9 X s 152 375 m -9 X s 160 386 m -17 X s 152 398 m -9 X s 152 410 m -9 X s 152 421 m -9 X s 152 433 m -9 X s 160
 445 m -17 X s 152 457 m -9 X s 152 468 m -9 X s 152 480 m -9 X s 152 492 m -9 X s 160 504 m -17 X s 160 504 m -17 X s 152 515 m -9 X s 691 93 m 427 Y s 674 93 m 17 X s 683 105 m 8 X s 683 117 m 8 X s 683 128 m 8 X s 683 140 m 8 X s 674 152 m 17 X s
 683 163 m 8 X s 683 175 m 8 X s 683 187 m 8 X s 683 199 m 8 X s 674 210 m 17 X s 683 222 m 8 X s 683 234 m 8 X s 683 246 m 8 X s 683 257 m 8 X s 674 269 m 17 X s 683 281 m 8 X s 683 292 m 8 X s 683 304 m 8 X s 683 316 m 8 X s 674 328 m 17 X s 683
 339 m 8 X s 683 351 m 8 X s 683 363 m 8 X s 683 375 m 8 X s 674 386 m 17 X s 683 398 m 8 X s 683 410 m 8 X s 683 421 m 8 X s 683 433 m 8 X s 674 445 m 17 X s 683 457 m 8 X s 683 468 m 8 X s 683 480 m 8 X s 683 492 m 8 X s 674 504 m 17 X s 674 504 m
 17 X s 683 515 m 8 X s
 gsave  710 564 23 12 C 719.017 90.8246 t 90 r /Helvetica-Bold findfont 19.9646 sf 0 0 m (U/O\255flow \(S,B\): \(0.0, 0.0\)% / \(0.0, 0.0\)%) show NC gr  0.48 0.56 0.6 c 0.364706 0.419608 0.490196 c 497 38 30 536 bf 0.48 0.56 0.6 c 30 536 m 497 X s
 527 536 m 38 Y s 527 574 m -497 X s 30 574 m -38 Y s 1 1 1 c black 1 1 1 c
 gsave  710 564 23 12 C 36.9427 548.458 t 0 r /Helvetica-Bold findfont 25.6688 sf 0 0 m (Input variable: log\(C_FDCHI2_OWNPV\)) show NC gr  0.48 0.56 0.6 c 1 1 1 c 710 564 779 12 bf black 1 1 1 c 548 427 899 93 bf black 548 427 899 93 bl 1 1 1 c 548
 427 899 93 bf black 548 427 899 93 bl 0 0 0.933333 c 6 lw 0.49 0.6 0.82 c black 3 lw 0.49 0.6 0.82 c 899 93 m 55 X 7 Y 14 X 102 Y 13 X 136 Y 14 X 99 Y 14 X 44 Y 13 X -62 Y 14 X -30 Y 14 X -9 Y 14 X -110 Y 13 X -59 Y 14 X -14 Y 14 X -44 Y 13 X -6 Y
 14 X -34 Y 14 X 2 Y 13 X -14 Y 14 X -5 Y 14 X -2 Y 13 X -1 Y 14 X 1 Y 14 X -1 Y 219 X f 6 lw 0 0 0.933333 c 0.49 0.6 0.82 c 0 0 0.933333 c 899 93 m 55 X 7 Y 14 X 102 Y 13 X 136 Y 14 X 99 Y 14 X 44 Y 13 X -62 Y 14 X -30 Y 14 X -9 Y 14 X -110 Y 13 X
 -59 Y 14 X -14 Y 14 X -44 Y 13 X -6 Y 14 X -34 Y 14 X 2 Y 13 X -14 Y 14 X -5 Y 14 X -2 Y 13 X -1 Y 14 X 1 Y 14 X -1 Y 219 X s black 3 lw 899 93 m 548 X s
 gsave  710 564 779 12 C 1119.65 25.5758 t 0 r /Helvetica findfont 28.5208 sf 0 0 m (log\(Lc_FDCHI2_OWNPV\)) show NC gr  984 106 m -13 Y s 1009 100 m -7 Y s 1035 100 m -7 Y s 1060 100 m -7 Y s 1085 106 m -13 Y s 1111 100 m -7 Y s 1136 100 m -7 Y s
 1161 100 m -7 Y s 1187 106 m -13 Y s 1212 100 m -7 Y s 1238 100 m -7 Y s 1263 100 m -7 Y s 1288 106 m -13 Y s 1314 100 m -7 Y s 1339 100 m -7 Y s 1364 100 m -7 Y s 1390 106 m -13 Y s 984 106 m -13 Y s 959 100 m -7 Y s 933 100 m -7 Y s 908 100 m -7 Y
 s 1390 106 m -13 Y s 1415 100 m -7 Y s 1440 100 m -7 Y s
 gsave  710 564 779 12 C 974.72 65.3603 t 0 r /Helvetica findfont 25.6688 sf 0 0 m (4) show NC gr 
 gsave  710 564 779 12 C 1074.18 65.3603 t 0 r /Helvetica findfont 25.6688 sf 0 0 m (6) show NC gr 
 gsave  710 564 779 12 C 1176.48 65.3603 t 0 r /Helvetica findfont 25.6688 sf 0 0 m (8) show NC gr 
 gsave  710 564 779 12 C 1273.1 65.3603 t 0 r /Helvetica findfont 25.6688 sf 0 0 m (10) show NC gr 
 gsave  710 564 779 12 C 1375.41 65.3603 t 0 r /Helvetica findfont 25.6688 sf 0 0 m (12) show NC gr  899 520 m 548 X s 984 507 m 13 Y s 1009 513 m 7 Y s 1035 513 m 7 Y s 1060 513 m 7 Y s 1085 507 m 13 Y s 1111 513 m 7 Y s 1136 513 m 7 Y s 1161 513 m
 7 Y s 1187 507 m 13 Y s 1212 513 m 7 Y s 1238 513 m 7 Y s 1263 513 m 7 Y s 1288 507 m 13 Y s 1314 513 m 7 Y s 1339 513 m 7 Y s 1364 513 m 7 Y s 1390 507 m 13 Y s 984 507 m 13 Y s 959 513 m 7 Y s 933 513 m 7 Y s 908 513 m 7 Y s 1390 507 m 13 Y s 1415
 513 m 7 Y s 1440 513 m 7 Y s 899 93 m 427 Y s
 gsave  710 564 779 12 C 801.374 454.68 t 90 r /Helvetica findfont 28.5208 sf 0 0 m (0.27 ) show NC gr 
 gsave  710 564 779 12 C 787.165 448.997 t 90 r /Helvetica findfont 19.9646 sf 0 0 m ( ) show NC gr 
 gsave  710 564 779 12 C 801.374 437.63 t 90 r /Helvetica findfont 28.5208 sf 0 0 m (/) show NC gr 
 gsave  710 564 779 12 C 809.899 431.946 t 90 r /Helvetica findfont 19.9646 sf 0 0 m ( ) show NC gr 
 gsave  710 564 779 12 C 801.374 323.96 t 90 r /Helvetica findfont 28.5208 sf 0 0 m (\(1/N\) dN) show NC gr  915 93 m -16 X s 907 107 m -8 X s 907 121 m -8 X s 907 135 m -8 X s 907 148 m -8 X s 915 162 m -16 X s 907 176 m -8 X s 907 190 m -8 X s 907
 204 m -8 X s 907 218 m -8 X s 915 232 m -16 X s 907 245 m -8 X s 907 259 m -8 X s 907 273 m -8 X s 907 287 m -8 X s 915 301 m -16 X s 907 315 m -8 X s 907 329 m -8 X s 907 342 m -8 X s 907 356 m -8 X s 915 370 m -16 X s 907 384 m -8 X s 907 398 m -8
 X s 907 412 m -8 X s 907 426 m -8 X s 915 439 m -16 X s 907 453 m -8 X s 907 467 m -8 X s 907 481 m -8 X s 907 495 m -8 X s 915 509 m -16 X s 915 509 m -16 X s
 gsave  710 564 779 12 C 875.259 82.4108 t 0 r /Helvetica findfont 25.6688 sf 0 0 m (0) show NC gr 
 gsave  710 564 779 12 C 858.208 153.455 t 0 r /Helvetica findfont 25.6688 sf 0 0 m (0.1) show NC gr 
 gsave  710 564 779 12 C 852.525 221.657 t 0 r /Helvetica findfont 25.6688 sf 0 0 m (0.2) show NC gr 
 gsave  710 564 779 12 C 852.525 289.859 t 0 r /Helvetica findfont 25.6688 sf 0 0 m (0.3) show NC gr 
 gsave  710 564 779 12 C 852.525 360.902 t 0 r /Helvetica findfont 25.6688 sf 0 0 m (0.4) show NC gr 
 gsave  710 564 779 12 C 852.525 429.104 t 0 r /Helvetica findfont 25.6688 sf 0 0 m (0.5) show NC gr 
 gsave  710 564 779 12 C 852.525 497.306 t 0 r /Helvetica findfont 25.6688 sf 0 0 m (0.6) show NC gr  1447 93 m 427 Y s 1430 93 m 17 X s 1438 107 m 9 X s 1438 121 m 9 X s 1438 135 m 9 X s 1438 148 m 9 X s 1430 162 m 17 X s 1438 176 m 9 X s 1438 190 m
 9 X s 1438 204 m 9 X s 1438 218 m 9 X s 1430 232 m 17 X s 1438 245 m 9 X s 1438 259 m 9 X s 1438 273 m 9 X s 1438 287 m 9 X s 1430 301 m 17 X s 1438 315 m 9 X s 1438 329 m 9 X s 1438 342 m 9 X s 1438 356 m 9 X s 1430 370 m 17 X s 1438 384 m 9 X s
 1438 398 m 9 X s 1438 412 m 9 X s 1438 426 m 9 X s 1430 439 m 17 X s 1438 453 m 9 X s 1438 467 m 9 X s 1438 481 m 9 X s 1438 495 m 9 X s 1430 509 m 17 X s 1430 509 m 17 X s 1 0 0 c 6 lw black 3 lw 1 0 0 c 1432 93 m s 1417 93 m s 1402 93 m s 1387 93
 m s 1372 93 m s 1357 93 m s 1342 93 m s 1327 94 m -1 Y s 1312 94 m -1 -1 d s 1298 94 m -2 -1 d s 1283 94 m -2 -1 d s 1269 96 m -3 -3 d s 1255 97 m -4 -4 d s 1241 98 m -5 -5 d s 1228 100 m -7 -7 d s 1215 102 m -9 -9 d s 1203 106 m -12 -13 d s 1194
 111 m -18 -18 d s 1186 118 m -25 -25 d s 1173 121 m -27 -28 d s 1163 126 m -32 -33 d s 1159 137 m -43 -44 d s 1146 139 m -46 -46 d s 1143 151 m -58 -58 d s 1132 155 m -62 -62 d s 1132 170 m -77 -77 d s 1119 172 m -79 -79 d s 1118 187 m -93 -94 d s
 1116 200 m -106 -107 d s 1105 203 m -110 -110 d s 1105 219 m -125 -126 d s 1103 232 m -138 -139 d s 1091 235 m -137 -138 d s 954 97 m -4 -4 d s 1091 250 m -123 -124 d s 936 94 m -1 -1 d s 1088 263 m -120 -121 d s 920 93 m s 1077 267 m -109 -110 d s
 905 93 m s 1077 282 m -96 -96 d s 980 185 m -12 -13 d s 1077 297 m -96 -96 d s 1064 300 m -83 -84 d s 1064 314 m -83 -83 d s 1064 329 m -83 -82 d s 1058 339 m -77 -77 d s 1050 346 m -55 -55 d s 987 283 m -6 -6 d s 1050 361 m -55 -55 d s 1045 372 m
 -50 -51 d s 1035 377 m -26 -27 d s 1003 344 m -8 -8 d s 1017 374 m -8 -9 d s 6 lw 899 93 m 28 X 1 Y 13 X 3 Y 14 X 15 Y 14 X 73 Y 13 X 98 Y 14 X 61 Y 14 X 30 Y 13 X 3 Y 14 X -5 Y 14 X -33 Y 14 X -39 Y 13 X -37 Y 14 X -31 Y 14 X -32 Y 13 X -28 Y 14 X
 -21 Y 14 X -12 Y 13 X -13 Y 14 X -8 Y 14 X -7 Y 13 X -5 Y 14 X -4 Y 14 X -2 Y 13 X -3 Y 14 X -1 Y 14 X -1 Y 13 X -1 Y 55 X -1 Y 110 X s black 3 lw 899 93 m 548 X s 984 106 m -13 Y s 1009 100 m -7 Y s 1035 100 m -7 Y s 1060 100 m -7 Y s 1085 106 m
 -13 Y s 1111 100 m -7 Y s 1136 100 m -7 Y s 1161 100 m -7 Y s 1187 106 m -13 Y s 1212 100 m -7 Y s 1238 100 m -7 Y s 1263 100 m -7 Y s 1288 106 m -13 Y s 1314 100 m -7 Y s 1339 100 m -7 Y s 1364 100 m -7 Y s 1390 106 m -13 Y s 984 106 m -13 Y s 959
 100 m -7 Y s 933 100 m -7 Y s 908 100 m -7 Y s 1390 106 m -13 Y s 1415 100 m -7 Y s 1440 100 m -7 Y s 899 520 m 548 X s 984 507 m 13 Y s 1009 513 m 7 Y s 1035 513 m 7 Y s 1060 513 m 7 Y s 1085 507 m 13 Y s 1111 513 m 7 Y s 1136 513 m 7 Y s 1161 513
 m 7 Y s 1187 507 m 13 Y s 1212 513 m 7 Y s 1238 513 m 7 Y s 1263 513 m 7 Y s 1288 507 m 13 Y s 1314 513 m 7 Y s 1339 513 m 7 Y s 1364 513 m 7 Y s 1390 507 m 13 Y s 984 507 m 13 Y s 959 513 m 7 Y s 933 513 m 7 Y s 908 513 m 7 Y s 1390 507 m 13 Y s
 1415 513 m 7 Y s 1440 513 m 7 Y s 899 93 m 427 Y s 915 93 m -16 X s 907 107 m -8 X s 907 121 m -8 X s 907 135 m -8 X s 907 148 m -8 X s 915 162 m -16 X s 907 176 m -8 X s 907 190 m -8 X s 907 204 m -8 X s 907 218 m -8 X s 915 232 m -16 X s 907 245 m
 -8 X s 907 259 m -8 X s 907 273 m -8 X s 907 287 m -8 X s 915 301 m -16 X s 907 315 m -8 X s 907 329 m -8 X s 907 342 m -8 X s 907 356 m -8 X s 915 370 m -16 X s 907 384 m -8 X s 907 398 m -8 X s 907 412 m -8 X s 907 426 m -8 X s 915 439 m -16 X s
 907 453 m -8 X s 907 467 m -8 X s 907 481 m -8 X s 907 495 m -8 X s 915 509 m -16 X s 915 509 m -16 X s 1447 93 m 427 Y s 1430 93 m 17 X s 1438 107 m 9 X s 1438 121 m 9 X s 1438 135 m 9 X s 1438 148 m 9 X s 1430 162 m 17 X s 1438 176 m 9 X s 1438
 190 m 9 X s 1438 204 m 9 X s 1438 218 m 9 X s 1430 232 m 17 X s 1438 245 m 9 X s 1438 259 m 9 X s 1438 273 m 9 X s 1438 287 m 9 X s 1430 301 m 17 X s 1438 315 m 9 X s 1438 329 m 9 X s 1438 342 m 9 X s 1438 356 m 9 X s 1430 370 m 17 X s 1438 384 m 9
 X s 1438 398 m 9 X s 1438 412 m 9 X s 1438 426 m 9 X s 1430 439 m 17 X s 1438 453 m 9 X s 1438 467 m 9 X s 1438 481 m 9 X s 1438 495 m 9 X s 1430 509 m 17 X s 1430 509 m 17 X s
 gsave  710 564 779 12 C 1474.92 90.8246 t 90 r /Helvetica-Bold findfont 19.9646 sf 0 0 m (U/O\255flow \(S,B\): \(0.0, 0.0\)% / \(0.0, 0.0\)%) show NC gr  0.48 0.56 0.6 c 0.364706 0.419608 0.490196 c 497 38 786 536 bf 0.48 0.56 0.6 c 786 536 m 497 X
 s 1283 536 m 38 Y s 1283 574 m -497 X s 786 574 m -38 Y s 1 1 1 c black 1 1 1 c
 gsave  710 564 779 12 C 787.165 548.458 t 0 r /Helvetica-Bold findfont 25.6688 sf 0 0 m (Input variable: log\(Lc_FDCHI2_OWNPV\)) show NC gr  0.48 0.56 0.6 c 1 1 1 c 711 564 1534 12 bf black 1 1 1 c 547 427 1655 93 bf black 547 427 1655 93 bl 1 1 1 c
 547 427 1655 93 bf black 547 427 1655 93 bl 0 0 0.933333 c 6 lw 0.49 0.6 0.82 c black 3 lw 0.49 0.6 0.82 c 1655 93 m 388 Y 14 X -331 Y 14 X -37 Y 13 X -6 Y 14 X -10 Y 14 X 1 Y 13 X -3 Y 14 X -1 Y 14 X 1 Y 13 X -2 Y 41 X 1 Y 14 X 1 Y 14 X -1 Y 13 X
 -1 Y 110 X 1 Y 41 X -1 Y 41 X 1 Y 14 X -1 Y 136 X f 6 lw 0 0 0.933333 c 0.49 0.6 0.82 c 0 0 0.933333 c 1655 481 m 14 X -331 Y 14 X -37 Y 13 X -6 Y 14 X -10 Y 14 X 1 Y 13 X -3 Y 14 X -1 Y 14 X 1 Y 13 X -2 Y 41 X 1 Y 14 X 1 Y 14 X -1 Y 13 X -1 Y 110 X
 1 Y 41 X -1 Y 41 X 1 Y 14 X -1 Y 136 X s black 3 lw 1655 93 m 547 X s
 gsave  711 564 1534 12 C 1895.45 25.5758 t 0 r /Helvetica findfont 28.5208 sf 0 0 m (acos\(C_DIRA_OWNPV\)) show NC gr  1731 106 m -13 Y s 1750 100 m -7 Y s 1769 100 m -7 Y s 1788 100 m -7 Y s 1807 106 m -13 Y s 1826 100 m -7 Y s 1845 100 m -7 Y s
 1864 100 m -7 Y s 1883 106 m -13 Y s 1902 100 m -7 Y s 1921 100 m -7 Y s 1939 100 m -7 Y s 1958 106 m -13 Y s 1977 100 m -7 Y s 1996 100 m -7 Y s 2015 100 m -7 Y s 2034 106 m -13 Y s 2053 100 m -7 Y s 2072 100 m -7 Y s 2091 100 m -7 Y s 2110 106 m
 -13 Y s 2129 100 m -7 Y s 2148 100 m -7 Y s 2167 100 m -7 Y s 2186 106 m -13 Y s 1731 106 m -13 Y s 1712 100 m -7 Y s 1693 100 m -7 Y s 1674 100 m -7 Y s 2186 106 m -13 Y s
 gsave  711 564 1534 12 C 1710.73 65.3603 t 0 r /Helvetica findfont 25.6688 sf 0 0 m (0.2) show NC gr 
 gsave  711 564 1534 12 C 1784.62 65.3603 t 0 r /Helvetica findfont 25.6688 sf 0 0 m (0.4) show NC gr 
 gsave  711 564 1534 12 C 1861.35 65.3603 t 0 r /Helvetica findfont 25.6688 sf 0 0 m (0.6) show NC gr 
 gsave  711 564 1534 12 C 1938.07 65.3603 t 0 r /Helvetica findfont 25.6688 sf 0 0 m (0.8) show NC gr 
 gsave  711 564 1534 12 C 2026.17 65.3603 t 0 r /Helvetica findfont 25.6688 sf 0 0 m (1) show NC gr 
 gsave  711 564 1534 12 C 2088.69 65.3603 t 0 r /Helvetica findfont 25.6688 sf 0 0 m (1.2) show NC gr 
 gsave  711 564 1534 12 C 2165.41 65.3603 t 0 r /Helvetica findfont 25.6688 sf 0 0 m (1.4) show NC gr  1655 520 m 547 X s 1731 507 m 13 Y s 1750 513 m 7 Y s 1769 513 m 7 Y s 1788 513 m 7 Y s 1807 507 m 13 Y s 1826 513 m 7 Y s 1845 513 m 7 Y s 1864
 513 m 7 Y s 1883 507 m 13 Y s 1902 513 m 7 Y s 1921 513 m 7 Y s 1939 513 m 7 Y s 1958 507 m 13 Y s 1977 513 m 7 Y s 1996 513 m 7 Y s 2015 513 m 7 Y s 2034 507 m 13 Y s 2053 513 m 7 Y s 2072 513 m 7 Y s 2091 513 m 7 Y s 2110 507 m 13 Y s 2129 513 m 7
 Y s 2148 513 m 7 Y s 2167 513 m 7 Y s 2186 507 m 13 Y s 1731 507 m 13 Y s 1712 513 m 7 Y s 1693 513 m 7 Y s 1674 513 m 7 Y s 2186 507 m 13 Y s 1655 93 m 427 Y s
 gsave  711 564 1534 12 C 1557.28 429.104 t 90 r /Helvetica findfont 28.5208 sf 0 0 m (0.0361 ) show NC gr 
 gsave  711 564 1534 12 C 1543.07 423.421 t 90 r /Helvetica findfont 19.9646 sf 0 0 m ( ) show NC gr 
 gsave  711 564 1534 12 C 1557.28 412.054 t 90 r /Helvetica findfont 28.5208 sf 0 0 m (/) show NC gr 
 gsave  711 564 1534 12 C 1565.8 406.37 t 90 r /Helvetica findfont 19.9646 sf 0 0 m ( ) show NC gr 
 gsave  711 564 1534 12 C 1557.28 298.384 t 90 r /Helvetica findfont 28.5208 sf 0 0 m (\(1/N\) dN) show NC gr  1671 93 m -16 X s 1663 102 m -8 X s 1663 111 m -8 X s 1663 120 m -8 X s 1671 129 m -16 X s 1663 138 m -8 X s 1663 147 m -8 X s 1663 156 m
 -8 X s 1671 165 m -16 X s 1663 174 m -8 X s 1663 183 m -8 X s 1663 192 m -8 X s 1671 201 m -16 X s 1663 210 m -8 X s 1663 219 m -8 X s 1663 228 m -8 X s 1671 237 m -16 X s 1663 246 m -8 X s 1663 255 m -8 X s 1663 264 m -8 X s 1671 273 m -16 X s 1663
 282 m -8 X s 1663 291 m -8 X s 1663 300 m -8 X s 1671 309 m -16 X s 1663 318 m -8 X s 1663 327 m -8 X s 1663 336 m -8 X s 1671 345 m -16 X s 1663 354 m -8 X s 1663 363 m -8 X s 1663 372 m -8 X s 1671 381 m -16 X s 1663 390 m -8 X s 1663 399 m -8 X s
 1663 408 m -8 X s 1671 417 m -16 X s 1663 426 m -8 X s 1663 435 m -8 X s 1663 444 m -8 X s 1671 453 m -16 X s 1663 462 m -8 X s 1663 471 m -8 X s 1663 481 m -8 X s 1671 490 m -16 X s 1671 490 m -16 X s 1663 499 m -8 X s 1663 508 m -8 X s 1663 517 m
 -8 X s
 gsave  711 564 1534 12 C 1631.16 82.4108 t 0 r /Helvetica findfont 25.6688 sf 0 0 m (0) show NC gr 
 gsave  711 564 1534 12 C 1631.16 119.354 t 0 r /Helvetica findfont 25.6688 sf 0 0 m (2) show NC gr 
 gsave  711 564 1534 12 C 1631.16 156.296 t 0 r /Helvetica findfont 25.6688 sf 0 0 m (4) show NC gr 
 gsave  711 564 1534 12 C 1631.16 190.397 t 0 r /Helvetica findfont 25.6688 sf 0 0 m (6) show NC gr 
 gsave  711 564 1534 12 C 1631.16 227.34 t 0 r /Helvetica findfont 25.6688 sf 0 0 m (8) show NC gr 
 gsave  711 564 1534 12 C 1616.96 264.283 t 0 r /Helvetica findfont 25.6688 sf 0 0 m (10) show NC gr 
 gsave  711 564 1534 12 C 1616.96 298.384 t 0 r /Helvetica findfont 25.6688 sf 0 0 m (12) show NC gr 
 gsave  711 564 1534 12 C 1616.96 335.327 t 0 r /Helvetica findfont 25.6688 sf 0 0 m (14) show NC gr 
 gsave  711 564 1534 12 C 1616.96 372.269 t 0 r /Helvetica findfont 25.6688 sf 0 0 m (16) show NC gr 
 gsave  711 564 1534 12 C 1616.96 406.37 t 0 r /Helvetica findfont 25.6688 sf 0 0 m (18) show NC gr 
 gsave  711 564 1534 12 C 1616.96 443.313 t 0 r /Helvetica findfont 25.6688 sf 0 0 m (20) show NC gr 
 gsave  711 564 1534 12 C 1616.96 480.256 t 0 r /Helvetica findfont 25.6688 sf 0 0 m (22) show NC gr  2202 93 m 427 Y s 2186 93 m 16 X s 2194 102 m 8 X s 2194 111 m 8 X s 2194 120 m 8 X s 2186 129 m 16 X s 2194 138 m 8 X s 2194 147 m 8 X s 2194 156 m
 8 X s 2186 165 m 16 X s 2194 174 m 8 X s 2194 183 m 8 X s 2194 192 m 8 X s 2186 201 m 16 X s 2194 210 m 8 X s 2194 219 m 8 X s 2194 228 m 8 X s 2186 237 m 16 X s 2194 246 m 8 X s 2194 255 m 8 X s 2194 264 m 8 X s 2186 273 m 16 X s 2194 282 m 8 X s
 2194 291 m 8 X s 2194 300 m 8 X s 2186 309 m 16 X s 2194 318 m 8 X s 2194 327 m 8 X s 2194 336 m 8 X s 2186 345 m 16 X s 2194 354 m 8 X s 2194 363 m 8 X s 2194 372 m 8 X s 2186 381 m 16 X s 2194 390 m 8 X s 2194 399 m 8 X s 2194 408 m 8 X s 2186 417
 m 16 X s 2194 426 m 8 X s 2194 435 m 8 X s 2194 444 m 8 X s 2186 453 m 16 X s 2194 462 m 8 X s 2194 471 m 8 X s 2194 481 m 8 X s 2186 490 m 16 X s 2186 490 m 16 X s 2194 499 m 8 X s 2194 508 m 8 X s 2194 517 m 8 X s 1 0 0 c 6 lw black 3 lw 1 0 0 c
 2188 93 m s 2173 93 m s 2158 93 m s 2143 93 m s 2128 93 m s 2113 94 m -1 Y s 2098 94 m -1 Y s 2083 94 m -1 -1 d s 2068 94 m -1 -1 d s 2053 94 m -1 -1 d s 2038 94 m -1 -1 d s 2023 94 m -1 -1 d s 2008 94 m -1 -1 d s 1993 94 m -1 -1 d s 1978 94 m -1 -1
 d s 1963 94 m -1 -1 d s 1948 94 m -1 -1 d s 1933 94 m -1 -1 d s 1917 94 m -1 Y s 1903 94 m -1 -1 d s 1888 94 m -1 -1 d s 1873 94 m -2 -1 d s 1858 95 m -2 -2 d s 1843 95 m -2 -2 d s 1828 95 m -2 -2 d s 1814 96 m -3 -3 d s 1799 96 m -3 -3 d s 1785 97
 m -4 -4 d s 1770 97 m -4 -4 d s 1756 98 m -5 -5 d s 1743 100 m -7 -7 d s 1731 103 m -10 -10 d s 1720 107 m -14 -14 d s 1710 113 m -19 -20 d s 1698 116 m -23 -23 d s 1696 129 m -36 -36 d s 1688 136 m -33 -33 d s 1683 146 m -28 -28 d s 1683 161 m -28
 -28 d s 1683 176 m -28 -27 d s 1681 190 m -26 -26 d s 1669 193 m -14 -14 d s 1669 208 m -14 -14 d s 1669 223 m -14 -14 d s 1669 238 m -14 -13 d s 1669 254 m -14 -14 d s 1669 269 m -14 -14 d s 1669 284 m -14 -14 d s 1669 299 m -14 -14 d s 1669 314 m
 -14 -13 d s 1669 329 m -14 -13 d s 1669 345 m -14 -14 d s 1667 358 m -12 -12 d s 6 lw 1655 358 m 14 X -168 Y 14 X -54 Y 13 X -20 Y 14 X -9 Y 14 X -4 Y 13 X -3 Y 14 X -2 Y 14 X -1 Y 27 X -1 Y 27 X -1 Y 41 X -1 Y 260 X -1 Y 69 X 1 Y 13 X s black 3 lw
 1655 93 m 547 X s 1731 106 m -13 Y s 1750 100 m -7 Y s 1769 100 m -7 Y s 1788 100 m -7 Y s 1807 106 m -13 Y s 1826 100 m -7 Y s 1845 100 m -7 Y s 1864 100 m -7 Y s 1883 106 m -13 Y s 1902 100 m -7 Y s 1921 100 m -7 Y s 1939 100 m -7 Y s 1958 106 m
 -13 Y s 1977 100 m -7 Y s 1996 100 m -7 Y s 2015 100 m -7 Y s 2034 106 m -13 Y s 2053 100 m -7 Y s 2072 100 m -7 Y s 2091 100 m -7 Y s 2110 106 m -13 Y s 2129 100 m -7 Y s 2148 100 m -7 Y s 2167 100 m -7 Y s 2186 106 m -13 Y s 1731 106 m -13 Y s
 1712 100 m -7 Y s 1693 100 m -7 Y s 1674 100 m -7 Y s 2186 106 m -13 Y s 1655 520 m 547 X s 1731 507 m 13 Y s 1750 513 m 7 Y s 1769 513 m 7 Y s 1788 513 m 7 Y s 1807 507 m 13 Y s 1826 513 m 7 Y s 1845 513 m 7 Y s 1864 513 m 7 Y s 1883 507 m 13 Y s
 1902 513 m 7 Y s 1921 513 m 7 Y s 1939 513 m 7 Y s 1958 507 m 13 Y s 1977 513 m 7 Y s 1996 513 m 7 Y s 2015 513 m 7 Y s 2034 507 m 13 Y s 2053 513 m 7 Y s 2072 513 m 7 Y s 2091 513 m 7 Y s 2110 507 m 13 Y s 2129 513 m 7 Y s 2148 513 m 7 Y s 2167 513
 m 7 Y s 2186 507 m 13 Y s 1731 507 m 13 Y s 1712 513 m 7 Y s 1693 513 m 7 Y s 1674 513 m 7 Y s 2186 507 m 13 Y s 1655 93 m 427 Y s 1671 93 m -16 X s 1663 102 m -8 X s 1663 111 m -8 X s 1663 120 m -8 X s 1671 129 m -16 X s 1663 138 m -8 X s 1663 147
 m -8 X s 1663 156 m -8 X s 1671 165 m -16 X s 1663 174 m -8 X s 1663 183 m -8 X s 1663 192 m -8 X s 1671 201 m -16 X s 1663 210 m -8 X s 1663 219 m -8 X s 1663 228 m -8 X s 1671 237 m -16 X s 1663 246 m -8 X s 1663 255 m -8 X s 1663 264 m -8 X s
 1671 273 m -16 X s 1663 282 m -8 X s 1663 291 m -8 X s 1663 300 m -8 X s 1671 309 m -16 X s 1663 318 m -8 X s 1663 327 m -8 X s 1663 336 m -8 X s 1671 345 m -16 X s 1663 354 m -8 X s 1663 363 m -8 X s 1663 372 m -8 X s 1671 381 m -16 X s 1663 390 m
 -8 X s 1663 399 m -8 X s 1663 408 m -8 X s 1671 417 m -16 X s 1663 426 m -8 X s 1663 435 m -8 X s 1663 444 m -8 X s 1671 453 m -16 X s 1663 462 m -8 X s 1663 471 m -8 X s 1663 481 m -8 X s 1671 490 m -16 X s 1671 490 m -16 X s 1663 499 m -8 X s 1663
 508 m -8 X s 1663 517 m -8 X s 2202 93 m 427 Y s 2186 93 m 16 X s 2194 102 m 8 X s 2194 111 m 8 X s 2194 120 m 8 X s 2186 129 m 16 X s 2194 138 m 8 X s 2194 147 m 8 X s 2194 156 m 8 X s 2186 165 m 16 X s 2194 174 m 8 X s 2194 183 m 8 X s 2194 192 m
 8 X s 2186 201 m 16 X s 2194 210 m 8 X s 2194 219 m 8 X s 2194 228 m 8 X s 2186 237 m 16 X s 2194 246 m 8 X s 2194 255 m 8 X s 2194 264 m 8 X s 2186 273 m 16 X s 2194 282 m 8 X s 2194 291 m 8 X s 2194 300 m 8 X s 2186 309 m 16 X s 2194 318 m 8 X s
 2194 327 m 8 X s 2194 336 m 8 X s 2186 345 m 16 X s 2194 354 m 8 X s 2194 363 m 8 X s 2194 372 m 8 X s 2186 381 m 16 X s 2194 390 m 8 X s 2194 399 m 8 X s 2194 408 m 8 X s 2186 417 m 16 X s 2194 426 m 8 X s 2194 435 m 8 X s 2194 444 m 8 X s 2186 453
 m 16 X s 2194 462 m 8 X s 2194 471 m 8 X s 2194 481 m 8 X s 2186 490 m 16 X s 2186 490 m 16 X s 2194 499 m 8 X s 2194 508 m 8 X s 2194 517 m 8 X s
 gsave  711 564 1534 12 C 2230.83 90.8246 t 90 r /Helvetica-Bold findfont 19.9646 sf 0 0 m (U/O\255flow \(S,B\): \(0.0, 0.0\)% / \(0.4, 0.3\)%) show NC gr  0.48 0.56 0.6 c 0.364706 0.419608 0.490196 c 497 38 1542 536 bf 0.48 0.56 0.6 c 1542 536 m 497
 X s 2039 536 m 38 Y s 2039 574 m -497 X s 1542 574 m -38 Y s 1 1 1 c black 1 1 1 c
 gsave  711 564 1534 12 C 1554.44 548.458 t 0 r /Helvetica-Bold findfont 25.6688 sf 0 0 m (Input variable: acos\(C_DIRA_OWNPV\)) show NC gr 
 gr  gr showpage
end
%%EOF
