%!PS-Adobe-2.0 EPSF-2.0
%%BoundingBox:  0 0 567 407
%%Title: bg_xicc.eps: M_BC
%%Creator: ROOT Version 5.34/18
%%CreationDate: Mon May 21 16:48:45 2018
%%EndComments
%%BeginProlog
80 dict begin
/s {stroke} def /l {lineto} def /m {moveto} def /t {translate} def
/r {rotate} def /rl {roll}  def /R {repeat} def
/d {rlineto} def /rm {rmoveto} def /gr {grestore} def /f {eofill} def
/c {setrgbcolor} def /black {0 setgray} def /sd {setdash} def
/cl {closepath} def /sf {scalefont setfont} def /lw {setlinewidth} def
/box {m dup 0 exch d exch 0 d 0 exch neg d cl} def
/NC{systemdict begin initclip end}def/C{NC box clip newpath}def
/bl {box s} def /bf {box f} def /Y { 0 exch d} def /X { 0 d} def 
/K {{pop pop 0 moveto} exch kshow} bind def
/ita {/ang 15 def gsave [1 0 ang dup sin exch cos div 1 0 0] concat} def 
/mp {newpath /y exch def /x exch def} def
/side {[w .77 mul w .23 mul] .385 w mul sd w 0 l currentpoint t -144 r} def
/mr {mp x y w2 0 360 arc} def /m24 {mr s} def /m20 {mr f} def
/mb {mp x y w2 add m w2 neg 0 d 0 w neg d w 0 d 0 w d cl} def
/mt {mp x y w2 add m w2 neg w neg d w 0 d cl} def
/m21 {mb f} def /m25 {mb s} def /m22 {mt f} def /m26{mt s} def
/m23 {mp x y w2 sub m w2 w d w neg 0 d cl f} def
/m27 {mp x y w2 add m w3 neg w2 neg d w3 w2 neg d w3 w2 d cl s} def
/m28 {mp x w2 sub y w2 sub w3 add m w3 0 d  0 w3 neg d w3 0 d 0 w3 d w3 0 d  0 w3 d w3 neg 0 d 0 w3 d w3 neg 0 d 0 w3 neg d w3 neg 0 d cl s } def
/m29 {mp gsave x w2 sub y w2 add w3 sub m currentpoint t 4 {side} repeat cl fill gr} def
/m30 {mp gsave x w2 sub y w2 add w3 sub m currentpoint t 4 {side} repeat cl s gr} def
/m31 {mp x y w2 sub m 0 w d x w2 sub y m w 0 d x w2 sub y w2 add m w w neg d x w2 sub y w2 sub m w w d s} def
/m32 {mp x y w2 sub m w2 w d w neg 0 d cl s} def
/m33 {mp x y w2 add m w3 neg w2 neg d w3 w2 neg d w3 w2 d cl f} def
/m34 {mp x w2 sub y w2 sub w3 add m w3 0 d  0 w3 neg d w3 0 d 0 w3 d w3 0 d  0 w3 d w3 neg 0 d 0 w3 d w3 neg 0 d 0 w3 neg d w3 neg 0 d cl f } def
/m2 {mp x y w2 sub m 0 w d x w2 sub y m w 0 d s} def
/m5 {mp x w2 sub y w2 sub m w w d x w2 sub y w2 add m w w neg d s} def
/reEncode {exch findfont dup length dict begin {1 index /FID eq  {pop pop} {def} ifelse } forall /Encoding exch def currentdict end dup /FontName get exch definefont pop } def [/Times-Bold /Times-Italic /Times-BoldItalic /Helvetica /Helvetica-Oblique
 /Helvetica-Bold /Helvetica-BoldOblique /Courier /Courier-Oblique /Courier-Bold /Courier-BoldOblique /Times-Roman /AvantGarde-Book /AvantGarde-BookOblique /AvantGarde-Demi /AvantGarde-DemiOblique /Bookman-Demi /Bookman-DemiItalic /Bookman-Light
 /Bookman-LightItalic /Helvetica-Narrow /Helvetica-Narrow-Bold /Helvetica-Narrow-BoldOblique /Helvetica-Narrow-Oblique /NewCenturySchlbk-Roman /NewCenturySchlbk-Bold /NewCenturySchlbk-BoldItalic /NewCenturySchlbk-Italic /Palatino-Bold
 /Palatino-BoldItalic /Palatino-Italic /Palatino-Roman ] {ISOLatin1Encoding reEncode } forall
%%EndProlog
%%BeginSetup
%%EndSetup
newpath  gsave  .25 .25 scale  gsave  0 0 t black[  ] 0 sd 6 lw 0.999 0.999 0.999 c 2268 1630 0 0 bf black 3 lw 0.999 0.999 0.999 c 1724 1108 317 277 bf black 1724 1108 317 277 bl 0.999 0.999 0.999 c 1724 1108 317 277 bf black 1724 1108 317 277 bl
 0.7 0.7 0.7 c 6 lw 1 1 1 c 0.7 0.7 0.7 c 335 1060 m 37 Y s 335 1114 m 37 Y s 317 1106 m 9 X s 343 1106 m 9 X s 3 lw /w 18 def /w2 {w 2 div} def /w3 {w 3 div} def 335 1106 m21 6 lw 369 1111 m 38 Y s 369 1166 m 39 Y s 352 1158 m 9 X s 378 1158 m 8 X s
 3 lw 369 1158 m21 6 lw 404 1068 m 37 Y s 404 1122 m 37 Y s 386 1113 m 9 X s 412 1113 m 9 X s 3 lw 404 1113 m21 6 lw 438 1068 m 37 Y s 438 1122 m 37 Y s 421 1113 m 9 X s 447 1113 m 8 X s 3 lw 438 1113 m21 6 lw 473 1092 m 37 Y s 473 1147 m 37 Y s 455
 1138 m 9 X s 481 1138 m 9 X s 3 lw 473 1138 m21 6 lw 507 1109 m 38 Y s 507 1164 m 38 Y s 490 1155 m 9 X s 516 1155 m 8 X s 3 lw 507 1155 m21 6 lw 542 1101 m 38 Y s 542 1157 m 38 Y s 524 1148 m 9 X s 550 1148 m 9 X s 3 lw 542 1148 m21 6 lw 576 1128 m
 39 Y s 576 1184 m 39 Y s 559 1175 m 8 X s 585 1175 m 8 X s 3 lw 576 1175 m21 6 lw 610 1150 m 39 Y s 610 1206 m 40 Y s 593 1198 m 9 X s 619 1198 m 9 X s 3 lw 610 1198 m21 6 lw 645 1135 m 39 Y s 645 1191 m 39 Y s 628 1183 m 8 X s 653 1183 m 9 X s 3 lw
 645 1183 m21 6 lw 679 1181 m 41 Y s 679 1239 m 40 Y s 662 1230 m 9 X s 688 1230 m 9 X s 3 lw 679 1230 m21 6 lw 714 1198 m 41 Y s 714 1256 m 41 Y s 697 1248 m 8 X s 722 1248 m 9 X s 3 lw 714 1248 m21 6 lw 748 1055 m 37 Y s 748 1109 m 37 Y s 731 1101
 m 9 X s 757 1101 m 9 X s 3 lw 748 1101 m21 6 lw 783 1206 m 40 Y s 783 1264 m 40 Y s 766 1255 m 8 X s 791 1255 m 9 X s 3 lw 783 1255 m21 6 lw 817 1135 m 39 Y s 817 1191 m 39 Y s 800 1183 m 9 X s 826 1183 m 9 X s 3 lw 817 1183 m21 6 lw 852 1126 m 38 Y
 s 852 1181 m 39 Y s 835 1173 m 8 X s 860 1173 m 9 X s 3 lw 852 1173 m21 6 lw 886 1094 m 38 Y s 886 1149 m 38 Y s 869 1141 m 9 X s 895 1141 m 8 X s 3 lw 886 1141 m21 6 lw 921 1150 m 39 Y s 921 1206 m 40 Y s 903 1198 m 9 X s 929 1198 m 9 X s 3 lw 921
 1198 m21 6 lw 955 1126 m 38 Y s 955 1181 m 39 Y s 938 1173 m 9 X s 964 1173 m 8 X s 3 lw 955 1173 m21 6 lw 990 1101 m 38 Y s 990 1157 m 38 Y s 972 1148 m 9 X s 998 1148 m 9 X s 3 lw 990 1148 m21 6 lw 1024 1084 m 38 Y s 1024 1139 m 38 Y s 1007 1131 m
 9 X s 1033 1131 m 8 X s 3 lw 1024 1131 m21 6 lw 1059 1232 m 42 Y s 1059 1291 m 41 Y s 1041 1282 m 9 X s 1067 1282 m 9 X s 3 lw 1059 1282 m21 6 lw 1093 1048 m 37 Y s 1093 1102 m 36 Y s 1076 1093 m 8 X s 1102 1093 m 8 X s 3 lw 1093 1093 m21 6 lw 1128
 1082 m 38 Y s 1128 1137 m 37 Y s 1110 1128 m 9 X s 1136 1128 m 9 X s 3 lw 1128 1128 m21 6 lw 1162 1106 m 38 Y s 1162 1161 m 39 Y s 1145 1153 m 8 X s 1171 1153 m 8 X s 3 lw 1162 1153 m21 6 lw 1196 1092 m 37 Y s 1196 1147 m 37 Y s 1179 1138 m 9 X s
 1205 1138 m 9 X s 3 lw 1196 1138 m21 6 lw 1231 1140 m 39 Y s 1231 1196 m 39 Y s 1214 1188 m 8 X s 1239 1188 m 9 X s 3 lw 1231 1188 m21 6 lw 1265 1097 m 37 Y s 1265 1152 m 37 Y s 1248 1143 m 9 X s 1274 1143 m 9 X s 3 lw 1265 1143 m21 6 lw 1300 1060 m
 37 Y s 1300 1114 m 37 Y s 1283 1106 m 8 X s 1308 1106 m 9 X s 3 lw 1300 1106 m21 6 lw 1334 1155 m 39 Y s 1334 1211 m 40 Y s 1317 1203 m 9 X s 1343 1203 m 9 X s 3 lw 1334 1203 m21 6 lw 1369 1094 m 38 Y s 1369 1149 m 38 Y s 1352 1141 m 8 X s 1377 1141
 m 9 X s 3 lw 1369 1141 m21 6 lw 1403 1111 m 38 Y s 1403 1166 m 39 Y s 1386 1158 m 9 X s 1412 1158 m 8 X s 3 lw 1403 1158 m21 6 lw 1438 1009 m 36 Y s 1438 1062 m 35 Y s 1420 1053 m 9 X s 1446 1053 m 9 X s 3 lw 1438 1053 m21 6 lw 1472 1130 m 39 Y s
 1472 1186 m 39 Y s 1455 1178 m 9 X s 1481 1178 m 8 X s 3 lw 1472 1178 m21 6 lw 1507 951 m 34 Y s 1507 1002 m 34 Y s 1489 994 m 9 X s 1515 994 m 9 X s 3 lw 1507 994 m21 6 lw 1541 1065 m 37 Y s 1541 1119 m 37 Y s 1524 1111 m 9 X s 1550 1111 m 8 X s 3
 lw 1541 1111 m21 6 lw 1576 1055 m 37 Y s 1576 1109 m 37 Y s 1558 1101 m 9 X s 1584 1101 m 9 X s 3 lw 1576 1101 m21 6 lw 1610 1077 m 38 Y s 1610 1132 m 37 Y s 1593 1123 m 9 X s 1619 1123 m 8 X s 3 lw 1610 1123 m21 6 lw 1645 925 m 33 Y s 1645 975 m 33
 Y s 1627 966 m 9 X s 1653 966 m 9 X s 3 lw 1645 966 m21 6 lw 1679 1007 m 35 Y s 1679 1059 m 36 Y s 1662 1051 m 8 X s 1688 1051 m 8 X s 3 lw 1679 1051 m21 6 lw 1713 966 m 34 Y s 1713 1017 m 34 Y s 1696 1009 m 9 X s 1722 1009 m 9 X s 3 lw 1713 1009
 m21 6 lw 1748 1002 m 35 Y s 1748 1054 m 36 Y s 1731 1046 m 8 X s 1757 1046 m 8 X s 3 lw 1748 1046 m21 6 lw 1782 949 m 34 Y s 1782 1000 m 33 Y s 1765 991 m 9 X s 1791 991 m 9 X s 3 lw 1782 991 m21 6 lw 1817 1005 m 35 Y s 1817 1057 m 35 Y s 1800 1048
 m 8 X s 1825 1048 m 9 X s 3 lw 1817 1048 m21 6 lw 1851 884 m 31 Y s 1851 933 m 31 Y s 1834 924 m 9 X s 1860 924 m 9 X s 3 lw 1851 924 m21 6 lw 1886 886 m 32 Y s 1886 935 m 32 Y s 1869 927 m 8 X s 1894 927 m 9 X s 3 lw 1886 927 m21 6 lw 1920 1000 m
 35 Y s 1920 1052 m 35 Y s 1903 1043 m 9 X s 1929 1043 m 9 X s 3 lw 1920 1043 m21 6 lw 1955 997 m 35 Y s 1955 1050 m 35 Y s 1938 1041 m 8 X s 1963 1041 m 9 X s 3 lw 1955 1041 m21 6 lw 1989 896 m 32 Y s 1989 945 m 32 Y s 1972 936 m 9 X s 1998 936 m 8
 X s 3 lw 1989 936 m21 6 lw 2024 995 m 35 Y s 2024 1047 m 35 Y s 2006 1038 m 9 X s 2032 1038 m 9 X s 3 lw 2024 1038 m21 6 lw black 317 277 m 1724 X s
 gsave  2268 1630 0 0 C 2022.71 119.653 t 0 r /Helvetica findfont 76.92 sf 0 0 m (]) show NC gr 
 gsave  2268 1630 0 0 C 1994.22 153.84 t 0 r /Helvetica findfont 51.28 sf 0 0 m (2) show NC gr 
 gsave  2268 1630 0 0 C 1729.28 119.653 t 0 r /Helvetica findfont 76.92 sf 0 0 m (\)[MeV/c) show NC gr 
 gsave  2268 1630 0 0 C 1686.54 119.653 t 0 r /Symbol findfont 76.92 sf 0 0 m (p) show NC gr 
 gsave  2268 1630 0 0 C 1635.26 119.653 t 0 r /Helvetica findfont 76.92 sf 0 0 m (K) show NC gr 
 gsave  2268 1630 0 0 C 1606.77 156.689 t 0 r /Helvetica findfont 51.28 sf 0 0 m (+) show NC gr 
 gsave  2268 1630 0 0 C 1606.77 102.56 t 0 r /Helvetica findfont 51.28 sf 0 0 m (c) show NC gr 
 gsave  2268 1630 0 0 C 1552.65 119.653 t 0 r /Symbol findfont 76.92 sf 0 0 m (L) show NC gr 
 gsave  2268 1630 0 0 C 1444.39 119.653 t 0 r /Helvetica findfont 76.92 sf 0 0 m (M \() show NC gr  317 314 m -37 Y s 386 296 m -19 Y s 455 296 m -19 Y s 524 296 m -19 Y s 593 296 m -19 Y s 662 314 m -37 Y s 731 296 m -19 Y s 800 296 m -19 Y s 869
 296 m -19 Y s 938 296 m -19 Y s 1007 314 m -37 Y s 1076 296 m -19 Y s 1145 296 m -19 Y s 1214 296 m -19 Y s 1283 296 m -19 Y s 1352 314 m -37 Y s 1420 296 m -19 Y s 1489 296 m -19 Y s 1558 296 m -19 Y s 1627 296 m -19 Y s 1696 314 m -37 Y s 1765 296
 m -19 Y s 1834 296 m -19 Y s 1903 296 m -19 Y s 1972 296 m -19 Y s 2041 314 m -37 Y s
 gsave  2268 1630 0 0 C 247.853 207.969 t 0 r /Helvetica findfont 62.6756 sf 0 0 m (3300) show NC gr 
 gsave  2268 1630 0 0 C 592.569 207.969 t 0 r /Helvetica findfont 62.6756 sf 0 0 m (3400) show NC gr 
 gsave  2268 1630 0 0 C 937.285 207.969 t 0 r /Helvetica findfont 62.6756 sf 0 0 m (3500) show NC gr 
 gsave  2268 1630 0 0 C 1282 207.969 t 0 r /Helvetica findfont 62.6756 sf 0 0 m (3600) show NC gr 
 gsave  2268 1630 0 0 C 1626.72 207.969 t 0 r /Helvetica findfont 62.6756 sf 0 0 m (3700) show NC gr 
 gsave  2268 1630 0 0 C 1971.43 207.969 t 0 r /Helvetica findfont 62.6756 sf 0 0 m (3800) show NC gr  317 1385 m 1724 X s 317 1348 m 37 Y s 386 1367 m 18 Y s 455 1367 m 18 Y s 524 1367 m 18 Y s 593 1367 m 18 Y s 662 1348 m 37 Y s 731 1367 m 18 Y s
 800 1367 m 18 Y s 869 1367 m 18 Y s 938 1367 m 18 Y s 1007 1348 m 37 Y s 1076 1367 m 18 Y s 1145 1367 m 18 Y s 1214 1367 m 18 Y s 1283 1367 m 18 Y s 1352 1348 m 37 Y s 1420 1367 m 18 Y s 1489 1367 m 18 Y s 1558 1367 m 18 Y s 1627 1367 m 18 Y s 1696
 1348 m 37 Y s 1765 1367 m 18 Y s 1834 1367 m 18 Y s 1903 1367 m 18 Y s 1972 1367 m 18 Y s 2041 1348 m 37 Y s 317 277 m 1108 Y s
 gsave  2268 1630 0 0 C 162.387 1367.47 t 90 r /Helvetica findfont 76.92 sf 0 0 m (\)) show NC gr 
 gsave  2268 1630 0 0 C 128.2 1338.98 t 90 r /Helvetica findfont 51.28 sf 0 0 m (2) show NC gr 
 gsave  2268 1630 0 0 C 162.387 646.698 t 90 r /Helvetica findfont 76.92 sf 0 0 m (Events/\( 10.0 MeV/c) show NC gr  364 277 m -47 X s 341 327 m -24 X s 341 377 m -24 X s 341 426 m -24 X s 341 476 m -24 X s 364 526 m -47 X s 341 576 m -24 X s 341 625
 m -24 X s 341 675 m -24 X s 341 725 m -24 X s 364 775 m -47 X s 341 824 m -24 X s 341 874 m -24 X s 341 924 m -24 X s 341 974 m -24 X s 364 1024 m -47 X s 341 1073 m -24 X s 341 1123 m -24 X s 341 1173 m -24 X s 341 1223 m -24 X s 364 1272 m -47 X s
 364 1272 m -47 X s 341 1322 m -24 X s 341 1372 m -24 X s
 gsave  2268 1630 0 0 C 259.249 256.4 t 0 r /Helvetica findfont 62.6756 sf 0 0 m (0) show NC gr 
 gsave  2268 1630 0 0 C 190.876 504.254 t 0 r /Helvetica findfont 62.6756 sf 0 0 m (100) show NC gr 
 gsave  2268 1630 0 0 C 190.876 752.107 t 0 r /Helvetica findfont 62.6756 sf 0 0 m (200) show NC gr 
 gsave  2268 1630 0 0 C 190.876 1002.81 t 0 r /Helvetica findfont 62.6756 sf 0 0 m (300) show NC gr 
 gsave  2268 1630 0 0 C 190.876 1250.66 t 0 r /Helvetica findfont 62.6756 sf 0 0 m (400) show NC gr  2041 277 m 1108 Y s 1995 277 m 46 X s 2018 327 m 23 X s 2018 377 m 23 X s 2018 426 m 23 X s 2018 476 m 23 X s 1995 526 m 46 X s 2018 576 m 23 X s
 2018 625 m 23 X s 2018 675 m 23 X s 2018 725 m 23 X s 1995 775 m 46 X s 2018 824 m 23 X s 2018 874 m 23 X s 2018 924 m 23 X s 2018 974 m 23 X s 1995 1024 m 46 X s 2018 1073 m 23 X s 2018 1123 m 23 X s 2018 1173 m 23 X s 2018 1223 m 23 X s 1995 1272
 m 46 X s 1995 1272 m 46 X s 2018 1322 m 23 X s 2018 1372 m 23 X s 0.35 0.33 0.85 c 1 1 1 c 0.35 0.33 0.85 c 335 944 m 34 Y s 335 995 m 33 Y s 317 986 m 9 X s 343 986 m 9 X s 3 lw 335 986 m22 6 lw 369 967 m 34 Y s 369 1018 m 34 Y s 352 1009 m 9 X s
 378 1009 m 8 X s 3 lw 369 1009 m22 6 lw 404 993 m 35 Y s 404 1045 m 35 Y s 386 1036 m 9 X s 412 1036 m 9 X s 3 lw 404 1036 m22 6 lw 438 1002 m 35 Y s 438 1054 m 35 Y s 421 1045 m 9 X s 447 1045 m 8 X s 3 lw 438 1045 m22 6 lw 473 1012 m 36 Y s 473
 1065 m 35 Y s 455 1056 m 9 X s 481 1056 m 9 X s 3 lw 473 1056 m22 6 lw 507 991 m 35 Y s 507 1043 m 34 Y s 490 1034 m 9 X s 516 1034 m 8 X s 3 lw 507 1034 m22 6 lw 542 1022 m 36 Y s 542 1075 m 35 Y s 524 1066 m 9 X s 550 1066 m 9 X s 3 lw 542 1066
 m22 6 lw 576 1050 m 37 Y s 576 1104 m 36 Y s 559 1095 m 8 X s 585 1095 m 8 X s 3 lw 576 1095 m22 6 lw 610 1041 m 37 Y s 610 1095 m 36 Y s 593 1086 m 9 X s 619 1086 m 9 X s 3 lw 610 1086 m22 6 lw 645 1025 m 36 Y s 645 1078 m 36 Y s 628 1070 m 8 X s
 653 1070 m 9 X s 3 lw 645 1070 m22 6 lw 679 1009 m 35 Y s 679 1061 m 36 Y s 662 1053 m 9 X s 688 1053 m 9 X s 3 lw 679 1053 m22 6 lw 714 1025 m 36 Y s 714 1078 m 36 Y s 697 1070 m 8 X s 722 1070 m 9 X s 3 lw 714 1070 m22 6 lw 748 1026 m 36 Y s 748
 1079 m 36 Y s 731 1071 m 9 X s 757 1071 m 9 X s 3 lw 748 1071 m22 6 lw 783 1050 m 37 Y s 783 1104 m 36 Y s 766 1095 m 8 X s 791 1095 m 9 X s 3 lw 783 1095 m22 6 lw 817 1072 m 37 Y s 817 1126 m 37 Y s 800 1118 m 9 X s 826 1118 m 9 X s 3 lw 817 1118
 m22 6 lw 852 1041 m 37 Y s 852 1095 m 36 Y s 835 1086 m 8 X s 860 1086 m 9 X s 3 lw 852 1086 m22 6 lw 886 1080 m 38 Y s 886 1135 m 37 Y s 869 1126 m 9 X s 895 1126 m 8 X s 3 lw 886 1126 m22 6 lw 921 1036 m 36 Y s 921 1090 m 36 Y s 903 1081 m 9 X s
 929 1081 m 9 X s 3 lw 921 1081 m22 6 lw 955 1025 m 36 Y s 955 1078 m 36 Y s 938 1070 m 9 X s 964 1070 m 8 X s 3 lw 955 1070 m22 6 lw 990 1087 m 38 Y s 990 1142 m 37 Y s 972 1133 m 9 X s 998 1133 m 9 X s 3 lw 990 1133 m22 6 lw 1024 1123 m 39 Y s 1024
 1179 m 39 Y s 1007 1170 m 9 X s 1033 1170 m 8 X s 3 lw 1024 1170 m22 6 lw 1059 1127 m 39 Y s 1059 1183 m 38 Y s 1041 1174 m 9 X s 1067 1174 m 9 X s 3 lw 1059 1174 m22 6 lw 1093 1090 m 38 Y s 1093 1145 m 37 Y s 1076 1136 m 8 X s 1102 1136 m 8 X s 3
 lw 1093 1136 m22 6 lw 1128 1070 m 37 Y s 1128 1124 m 37 Y s 1110 1115 m 9 X s 1136 1115 m 9 X s 3 lw 1128 1115 m22 6 lw 1162 1105 m 38 Y s 1162 1160 m 38 Y s 1145 1152 m 8 X s 1171 1152 m 8 X s 3 lw 1162 1152 m22 6 lw 1196 1135 m 39 Y s 1196 1191 m
 39 Y s 1179 1182 m 9 X s 1205 1182 m 9 X s 3 lw 1196 1182 m22 6 lw 1231 1099 m 38 Y s 1231 1154 m 38 Y s 1214 1146 m 8 X s 1239 1146 m 9 X s 3 lw 1231 1146 m22 6 lw 1265 1112 m 39 Y s 1265 1168 m 38 Y s 1248 1159 m 9 X s 1274 1159 m 9 X s 3 lw 1265
 1159 m22 6 lw 1300 1068 m 37 Y s 1300 1122 m 37 Y s 1283 1114 m 8 X s 1308 1114 m 9 X s 3 lw 1300 1114 m22 6 lw 1334 1140 m 39 Y s 1334 1196 m 39 Y s 1317 1188 m 9 X s 1343 1188 m 9 X s 3 lw 1334 1188 m22 6 lw 1369 1099 m 38 Y s 1369 1154 m 38 Y s
 1352 1146 m 8 X s 1377 1146 m 9 X s 3 lw 1369 1146 m22 6 lw 1403 1094 m 38 Y s 1403 1149 m 38 Y s 1386 1141 m 9 X s 1412 1141 m 8 X s 3 lw 1403 1141 m22 6 lw 1438 1103 m 38 Y s 1438 1158 m 38 Y s 1420 1150 m 9 X s 1446 1150 m 9 X s 3 lw 1438 1150
 m22 6 lw 1472 1109 m 39 Y s 1472 1165 m 38 Y s 1455 1156 m 9 X s 1481 1156 m 8 X s 3 lw 1472 1156 m22 6 lw 1507 1067 m 37 Y s 1507 1121 m 37 Y s 1489 1112 m 9 X s 1515 1112 m 9 X s 3 lw 1507 1112 m22 6 lw 1541 1085 m 37 Y s 1541 1139 m 38 Y s 1524
 1131 m 9 X s 1550 1131 m 8 X s 3 lw 1541 1131 m22 6 lw 1576 1121 m 39 Y s 1576 1177 m 38 Y s 1558 1168 m 9 X s 1584 1168 m 9 X s 3 lw 1576 1168 m22 6 lw 1610 1115 m 39 Y s 1610 1171 m 38 Y s 1593 1162 m 9 X s 1619 1162 m 8 X s 3 lw 1610 1162 m22 6
 lw 1645 1059 m 37 Y s 1645 1113 m 37 Y s 1627 1105 m 9 X s 1653 1105 m 9 X s 3 lw 1645 1105 m22 6 lw 1679 1099 m 38 Y s 1679 1154 m 38 Y s 1662 1146 m 8 X s 1688 1146 m 8 X s 3 lw 1679 1146 m22 6 lw 1713 1109 m 38 Y s 1713 1164 m 38 Y s 1696 1156 m
 9 X s 1722 1156 m 9 X s 3 lw 1713 1156 m22 6 lw 1748 1097 m 38 Y s 1748 1152 m 38 Y s 1731 1144 m 8 X s 1757 1144 m 8 X s 3 lw 1748 1144 m22 6 lw 1782 1085 m 37 Y s 1782 1139 m 38 Y s 1765 1131 m 9 X s 1791 1131 m 9 X s 3 lw 1782 1131 m22 6 lw 1817
 1146 m 39 Y s 1817 1202 m 39 Y s 1800 1194 m 8 X s 1825 1194 m 9 X s 3 lw 1817 1194 m22 6 lw 1851 1072 m 37 Y s 1851 1126 m 37 Y s 1834 1118 m 9 X s 1860 1118 m 9 X s 3 lw 1851 1118 m22 6 lw 1886 1049 m 37 Y s 1886 1103 m 37 Y s 1869 1094 m 8 X s
 1894 1094 m 9 X s 3 lw 1886 1094 m22 6 lw 1920 1085 m 37 Y s 1920 1139 m 38 Y s 1903 1131 m 9 X s 1929 1131 m 9 X s 3 lw 1920 1131 m22 6 lw 1955 1128 m 38 Y s 1955 1183 m 39 Y s 1938 1175 m 8 X s 1963 1175 m 9 X s 3 lw 1955 1175 m22 6 lw 1989 1140 m
 39 Y s 1989 1196 m 39 Y s 1972 1188 m 9 X s 1998 1188 m 8 X s 3 lw 1989 1188 m22 6 lw 2024 1064 m 37 Y s 2024 1118 m 37 Y s 2006 1109 m 9 X s 2032 1109 m 9 X s 3 lw 2024 1109 m22 6 lw black 1 1 1 c 647 302 1259 407 bf black
 gsave  2268 1630 0 0 C 1518.46 601.116 t 0 r /Helvetica findfont 94.0134 sf 0 0 m (,sig,WS) show NC gr 
 gsave  2268 1630 0 0 C 1484.27 643.849 t 0 r /Helvetica findfont 62.6756 sf 0 0 m (+) show NC gr 
 gsave  2268 1630 0 0 C 1484.27 581.174 t 0 r /Helvetica findfont 62.6756 sf 0 0 m (c) show NC gr 
 gsave  2268 1630 0 0 C 1418.75 601.116 t 0 r /Symbol findfont 94.0134 sf 0 0 m (L) show NC gr  0.35 0.33 0.85 c 1283 634 m 114 X s 1340 589 m 90 Y s 3 lw 1340 634 m22 6 lw black
 gsave  2268 1630 0 0 C 1518.46 450.125 t 0 r /Helvetica findfont 94.0134 sf 0 0 m (,bkg,WS) show NC gr 
 gsave  2268 1630 0 0 C 1484.27 492.858 t 0 r /Helvetica findfont 62.6756 sf 0 0 m (+) show NC gr 
 gsave  2268 1630 0 0 C 1484.27 430.182 t 0 r /Helvetica findfont 62.6756 sf 0 0 m (c) show NC gr 
 gsave  2268 1630 0 0 C 1418.75 450.125 t 0 r /Symbol findfont 94.0134 sf 0 0 m (L) show NC gr  0.7 0.7 0.7 c 1283 483 m 114 X s 1340 438 m 90 Y s 3 lw 1340 483 m21 6 lw
 gr  gr showpage
end
%%EOF
