%!PS-Adobe-2.0 EPSF-2.0
%%BoundingBox:  0 0 567 407
%%Title: ul_systematic_rxicc.eps: 
%%Creator: ROOT Version 5.34/18
%%CreationDate: Thu Jul 19 20:16:02 2018
%%EndComments
%%BeginProlog
80 dict begin
/s {stroke} def /l {lineto} def /m {moveto} def /t {translate} def
/r {rotate} def /rl {roll}  def /R {repeat} def
/d {rlineto} def /rm {rmoveto} def /gr {grestore} def /f {eofill} def
/c {setrgbcolor} def /black {0 setgray} def /sd {setdash} def
/cl {closepath} def /sf {scalefont setfont} def /lw {setlinewidth} def
/box {m dup 0 exch d exch 0 d 0 exch neg d cl} def
/NC{systemdict begin initclip end}def/C{NC box clip newpath}def
/bl {box s} def /bf {box f} def /Y { 0 exch d} def /X { 0 d} def 
/K {{pop pop 0 moveto} exch kshow} bind def
/ita {/ang 15 def gsave [1 0 ang dup sin exch cos div 1 0 0] concat} def 
/mp {newpath /y exch def /x exch def} def
/side {[w .77 mul w .23 mul] .385 w mul sd w 0 l currentpoint t -144 r} def
/mr {mp x y w2 0 360 arc} def /m24 {mr s} def /m20 {mr f} def
/mb {mp x y w2 add m w2 neg 0 d 0 w neg d w 0 d 0 w d cl} def
/mt {mp x y w2 add m w2 neg w neg d w 0 d cl} def
/m21 {mb f} def /m25 {mb s} def /m22 {mt f} def /m26{mt s} def
/m23 {mp x y w2 sub m w2 w d w neg 0 d cl f} def
/m27 {mp x y w2 add m w3 neg w2 neg d w3 w2 neg d w3 w2 d cl s} def
/m28 {mp x w2 sub y w2 sub w3 add m w3 0 d  0 w3 neg d w3 0 d 0 w3 d w3 0 d  0 w3 d w3 neg 0 d 0 w3 d w3 neg 0 d 0 w3 neg d w3 neg 0 d cl s } def
/m29 {mp gsave x w2 sub y w2 add w3 sub m currentpoint t 4 {side} repeat cl fill gr} def
/m30 {mp gsave x w2 sub y w2 add w3 sub m currentpoint t 4 {side} repeat cl s gr} def
/m31 {mp x y w2 sub m 0 w d x w2 sub y m w 0 d x w2 sub y w2 add m w w neg d x w2 sub y w2 sub m w w d s} def
/m32 {mp x y w2 sub m w2 w d w neg 0 d cl s} def
/m33 {mp x y w2 add m w3 neg w2 neg d w3 w2 neg d w3 w2 d cl f} def
/m34 {mp x w2 sub y w2 sub w3 add m w3 0 d  0 w3 neg d w3 0 d 0 w3 d w3 0 d  0 w3 d w3 neg 0 d 0 w3 d w3 neg 0 d 0 w3 neg d w3 neg 0 d cl f } def
/m2 {mp x y w2 sub m 0 w d x w2 sub y m w 0 d s} def
/m5 {mp x w2 sub y w2 sub m w w d x w2 sub y w2 add m w w neg d s} def
/reEncode {exch findfont dup length dict begin {1 index /FID eq  {pop pop} {def} ifelse } forall /Encoding exch def currentdict end dup /FontName get exch definefont pop } def [/Times-Bold /Times-Italic /Times-BoldItalic /Helvetica /Helvetica-Oblique
 /Helvetica-Bold /Helvetica-BoldOblique /Courier /Courier-Oblique /Courier-Bold /Courier-BoldOblique /Times-Roman /AvantGarde-Book /AvantGarde-BookOblique /AvantGarde-Demi /AvantGarde-DemiOblique /Bookman-Demi /Bookman-DemiItalic /Bookman-Light
 /Bookman-LightItalic /Helvetica-Narrow /Helvetica-Narrow-Bold /Helvetica-Narrow-BoldOblique /Helvetica-Narrow-Oblique /NewCenturySchlbk-Roman /NewCenturySchlbk-Bold /NewCenturySchlbk-BoldItalic /NewCenturySchlbk-Italic /Palatino-Bold
 /Palatino-BoldItalic /Palatino-Italic /Palatino-Roman ] {ISOLatin1Encoding reEncode } forall
%%EndProlog
%%BeginSetup
%%EndSetup
newpath  gsave  .25 .25 scale  gsave  0 0 t black[  ] 0 sd 6 lw 1 1 1 c 2268 1630 0 0 bf black 3 lw 1 1 1 c 1724 1108 317 277 bf black 1724 1108 317 277 bl 1 1 1 c 1724 1108 317 277 bf black 1724 1108 317 277 bl 1 0 0 c 6 lw 0.999 0.999 0.999 c black
 1 0 0 c 326 1291 m 17 11 d 18 10 d 17 8 d 17 6 d 17 4 d 18 2 d 17 X 17 -2 d 17 -3 d 17 -6 d 18 -8 d 17 -9 d 17 -12 d 17 -13 d 18 -15 d 17 -16 d 17 -18 d 17 -19 d 18 -21 d 17 -22 d 17 -23 d 17 -24 d 17 -25 d 18 -25 d 17 -27 d 17 -26 d 17 -28 d 18 -27
 d 17 -28 d 17 -28 d 17 -27 d 18 -28 d 17 -27 d 17 -27 d 17 -27 d 18 -26 d 17 -25 d 17 -25 d 17 -25 d 17 -23 d 18 -23 d 17 -22 d 17 -21 d 17 -20 d 18 -20 d 17 -19 d 17 -17 d 17 -17 d 18 -16 d s 1171 472 m 17 -15 d 17 -14 d 17 -14 d 18 -12 d 17 -12 d
 17 -11 d 17 -10 d 17 -10 d 18 -9 d 17 -8 d 17 -7 d 17 -7 d 18 -7 d 17 -6 d 17 -5 d 17 -5 d 18 -5 d 17 -4 d 17 -3 d 17 -4 d 18 -3 d 17 -2 d 17 -3 d 17 -2 d 17 -2 d 18 -2 d 17 -1 d 17 -2 d 17 -1 d 18 -1 d 17 -1 d 17 -1 d 17 -1 d 18 -1 d 17 X 17 -1 d
 17 X 18 -1 d 51 X 17 -1 d 104 X 17 -1 d s 2015 277 m 17 X s black 317 277 m 1724 X s
 gsave  2268 1630 0 0 C 1997.07 122.502 t 0 r /Helvetica-BoldOblique findfont 34.1867 sf 0 0 m (++) show NC gr 
 gsave  2268 1630 0 0 C 1997.07 85.4667 t 0 r /Helvetica-BoldOblique findfont 34.1867 sf 0 0 m (cc) show NC gr 
 gsave  2268 1630 0 0 C 1957.19 99.7112 t 0 r /Symbol findfont 51.28 sf 0 0 m ita (X) show gr NC gr 
 gsave  2268 1630 0 0 C 1894.51 125.351 t 0 r /Helvetica-BoldOblique findfont 76.92 sf 0 0 m (R) show NC gr  317 314 m -37 Y s 404 296 m -19 Y s 490 296 m -19 Y s 576 296 m -19 Y s 662 314 m -37 Y s 748 296 m -19 Y s 835 296 m -19 Y s 921 296 m -19 Y
 s 1007 314 m -37 Y s 1093 296 m -19 Y s 1179 296 m -19 Y s 1265 296 m -19 Y s 1352 314 m -37 Y s 1438 296 m -19 Y s 1524 296 m -19 Y s 1610 296 m -19 Y s 1696 314 m -37 Y s 1782 296 m -19 Y s 1869 296 m -19 Y s 1955 296 m -19 Y s 2041 314 m -37 Y s
 2041 314 m -37 Y s
 gsave  2268 1630 0 0 C 296.285 196.573 t 0 r /Helvetica findfont 76.92 sf 0 0 m (0) show NC gr 
 gsave  2268 1630 0 0 C 606.814 196.573 t 0 r /Helvetica findfont 76.92 sf 0 0 m (0.2) show NC gr 
 gsave  2268 1630 0 0 C 951.529 196.573 t 0 r /Helvetica findfont 76.92 sf 0 0 m (0.4) show NC gr 
 gsave  2268 1630 0 0 C 1296.24 196.573 t 0 r /Helvetica findfont 76.92 sf 0 0 m (0.6) show NC gr 
 gsave  2268 1630 0 0 C 1640.96 196.573 t 0 r /Helvetica findfont 76.92 sf 0 0 m (0.8) show NC gr 
 gsave  2268 1630 0 0 C 2025.56 196.573 t 0 r /Helvetica findfont 76.92 sf 0 0 m (1) show NC gr  317 1385 m 1724 X s 317 1348 m 37 Y s 404 1367 m 18 Y s 490 1367 m 18 Y s 576 1367 m 18 Y s 662 1348 m 37 Y s 748 1367 m 18 Y s 835 1367 m 18 Y s 921
 1367 m 18 Y s 1007 1348 m 37 Y s 1093 1367 m 18 Y s 1179 1367 m 18 Y s 1265 1367 m 18 Y s 1352 1348 m 37 Y s 1438 1367 m 18 Y s 1524 1367 m 18 Y s 1610 1367 m 18 Y s 1696 1348 m 37 Y s 1782 1367 m 18 Y s 1869 1367 m 18 Y s 1955 1367 m 18 Y s 2041
 1348 m 37 Y s 2041 1348 m 37 Y s 317 277 m 1108 Y s
 gsave  2268 1630 0 0 C 148.142 1236.42 t 90 r /Helvetica-BoldOblique findfont 76.92 sf 0 0 m (NLL) show NC gr  364 277 m -47 X s 341 383 m -24 X s 341 488 m -24 X s 341 594 m -24 X s 341 699 m -24 X s 364 805 m -47 X s 341 910 m -24 X s 341 1016 m
 -24 X s 341 1121 m -24 X s 341 1227 m -24 X s 364 1333 m -47 X s 364 1333 m -47 X s
 gsave  2268 1630 0 0 C 253.551 250.702 t 0 r /Helvetica findfont 76.92 sf 0 0 m (0) show NC gr 
 gsave  2268 1630 0 0 C 188.027 777.747 t 0 r /Helvetica findfont 76.92 sf 0 0 m (0.5) show NC gr 
 gsave  2268 1630 0 0 C 264.947 1301.94 t 0 r /Helvetica findfont 76.92 sf 0 0 m (1) show NC gr  2041 277 m 1108 Y s 1995 277 m 46 X s 2018 383 m 23 X s 2018 488 m 23 X s 2018 594 m 23 X s 2018 699 m 23 X s 1995 805 m 46 X s 2018 910 m 23 X s 2018
 1016 m 23 X s 2018 1121 m 23 X s 2018 1227 m 23 X s 1995 1333 m 46 X s 1995 1333 m 46 X s 0 0 1 c 0.999 0.999 0.999 c black 0 0 1 c 326 1326 m 17 8 d 18 6 d 17 4 d 17 2 d 17 1 d 18 -1 d 17 -3 d 17 -5 d 17 -7 d 17 -9 d 18 -10 d 17 -12 d 17 -13 d 17
 -15 d 18 -17 d 17 -18 d 17 -19 d 17 -21 d 18 -21 d 17 -23 d 17 -23 d 17 -25 d 17 -25 d 18 -25 d 17 -26 d 17 -27 d 17 -27 d 18 -26 d 17 -27 d 17 -27 d 17 -27 d 18 -27 d 17 -26 d 17 -27 d 17 -25 d 18 -25 d 17 -25 d 17 -24 d 17 -23 d 17 -23 d 18 -22 d
 17 -21 d 17 -21 d 17 -19 d 18 -19 d 17 -18 d 17 -17 d 17 -16 d 18 -16 d s 1171 474 m 17 -15 d 17 -14 d 17 -13 d 18 -12 d 17 -12 d 17 -10 d 17 -11 d 17 -9 d 18 -9 d 17 -8 d 17 -8 d 17 -7 d 18 -6 d 17 -6 d 17 -6 d 17 -5 d 18 -4 d 17 -4 d 17 -4 d 17 -4
 d 18 -3 d 17 -3 d 17 -3 d 17 -2 d 17 -2 d 18 -2 d 17 -2 d 17 -1 d 17 -2 d 18 -1 d 17 -1 d 17 -1 d 17 -1 d 18 -1 d 17 X 17 -1 d 17 X 18 -1 d 17 X 17 -1 d 34 X 18 -1 d 103 X s 2015 278 m 17 X s 1 0 0 c 3 lw black 1 0 0 c 1183 1333 m -1056 Y s 1196 301
 m -13 -24 d -14 24 d s 0 0 1 c black 0 0 1 c 1193 1333 m -1056 Y s 1207 301 m -14 -24 d -14 24 d s black 6 lw 1 1 1 c 453 228 1497 913 bf black
 gsave  2268 1630 0 0 C 1609.62 1059.79 t 0 r /Helvetica findfont 48.4311 sf 0 0 m (unsmear) show NC gr  1 0 0 c 1514 1084 m 79 X s black
 gsave  2268 1630 0 0 C 1609.62 945.832 t 0 r /Helvetica findfont 48.4311 sf 0 0 m (smear) show NC gr  0 0 1 c 1514 970 m 79 X s
 gr  gr showpage
end
%%EOF
