%!PS-Adobe-2.0 EPSF-2.0
%%BoundingBox:  0 0 567 407
%%Title: lifetime.eps: 
%%Creator: ROOT Version 5.34/18
%%CreationDate: Tue Jul 24 15:59:51 2018
%%EndComments
%%BeginProlog
80 dict begin
/s {stroke} def /l {lineto} def /m {moveto} def /t {translate} def
/r {rotate} def /rl {roll}  def /R {repeat} def
/d {rlineto} def /rm {rmoveto} def /gr {grestore} def /f {eofill} def
/c {setrgbcolor} def /black {0 setgray} def /sd {setdash} def
/cl {closepath} def /sf {scalefont setfont} def /lw {setlinewidth} def
/box {m dup 0 exch d exch 0 d 0 exch neg d cl} def
/NC{systemdict begin initclip end}def/C{NC box clip newpath}def
/bl {box s} def /bf {box f} def /Y { 0 exch d} def /X { 0 d} def 
/K {{pop pop 0 moveto} exch kshow} bind def
/ita {/ang 15 def gsave [1 0 ang dup sin exch cos div 1 0 0] concat} def 
/mp {newpath /y exch def /x exch def} def
/side {[w .77 mul w .23 mul] .385 w mul sd w 0 l currentpoint t -144 r} def
/mr {mp x y w2 0 360 arc} def /m24 {mr s} def /m20 {mr f} def
/mb {mp x y w2 add m w2 neg 0 d 0 w neg d w 0 d 0 w d cl} def
/mt {mp x y w2 add m w2 neg w neg d w 0 d cl} def
/m21 {mb f} def /m25 {mb s} def /m22 {mt f} def /m26{mt s} def
/m23 {mp x y w2 sub m w2 w d w neg 0 d cl f} def
/m27 {mp x y w2 add m w3 neg w2 neg d w3 w2 neg d w3 w2 d cl s} def
/m28 {mp x w2 sub y w2 sub w3 add m w3 0 d  0 w3 neg d w3 0 d 0 w3 d w3 0 d  0 w3 d w3 neg 0 d 0 w3 d w3 neg 0 d 0 w3 neg d w3 neg 0 d cl s } def
/m29 {mp gsave x w2 sub y w2 add w3 sub m currentpoint t 4 {side} repeat cl fill gr} def
/m30 {mp gsave x w2 sub y w2 add w3 sub m currentpoint t 4 {side} repeat cl s gr} def
/m31 {mp x y w2 sub m 0 w d x w2 sub y m w 0 d x w2 sub y w2 add m w w neg d x w2 sub y w2 sub m w w d s} def
/m32 {mp x y w2 sub m w2 w d w neg 0 d cl s} def
/m33 {mp x y w2 add m w3 neg w2 neg d w3 w2 neg d w3 w2 d cl f} def
/m34 {mp x w2 sub y w2 sub w3 add m w3 0 d  0 w3 neg d w3 0 d 0 w3 d w3 0 d  0 w3 d w3 neg 0 d 0 w3 d w3 neg 0 d 0 w3 neg d w3 neg 0 d cl f } def
/m2 {mp x y w2 sub m 0 w d x w2 sub y m w 0 d s} def
/m5 {mp x w2 sub y w2 sub m w w d x w2 sub y w2 add m w w neg d s} def
/reEncode {exch findfont dup length dict begin {1 index /FID eq  {pop pop} {def} ifelse } forall /Encoding exch def currentdict end dup /FontName get exch definefont pop } def [/Times-Bold /Times-Italic /Times-BoldItalic /Helvetica /Helvetica-Oblique
 /Helvetica-Bold /Helvetica-BoldOblique /Courier /Courier-Oblique /Courier-Bold /Courier-BoldOblique /Times-Roman /AvantGarde-Book /AvantGarde-BookOblique /AvantGarde-Demi /AvantGarde-DemiOblique /Bookman-Demi /Bookman-DemiItalic /Bookman-Light
 /Bookman-LightItalic /Helvetica-Narrow /Helvetica-Narrow-Bold /Helvetica-Narrow-BoldOblique /Helvetica-Narrow-Oblique /NewCenturySchlbk-Roman /NewCenturySchlbk-Bold /NewCenturySchlbk-BoldItalic /NewCenturySchlbk-Italic /Palatino-Bold
 /Palatino-BoldItalic /Palatino-Italic /Palatino-Roman ] {ISOLatin1Encoding reEncode } forall
%%EndProlog
%%BeginSetup
%%EndSetup
newpath  gsave  .25 .25 scale  gsave  0 0 t black[  ] 0 sd 6 lw 1 1 1 c 2268 1630 0 0 bf black 1 1 1 c 1837 1287 317 261 bf black 1837 1287 317 261 bl 1 1 1 c 1837 1287 317 261 bf black 1837 1287 317 261 bl 317 261 m 1837 X s
 gsave  2268 1630 0 0 C 2071.14 56.9778 t 0 r /Times-Roman findfont 59.8267 sf 0 0 m (\(fs\)) show NC gr 
 gsave  2268 1630 0 0 C 2036.96 82.6178 t 0 r /Times-Roman findfont 39.8845 sf 0 0 m (+) show NC gr 
 gsave  2268 1630 0 0 C 2036.96 45.5822 t 0 r /Times-Roman findfont 39.8845 sf 0 0 m (cc) show NC gr 
 gsave  2268 1630 0 0 C 1999.92 56.9778 t 0 r /Symbol findfont 59.8267 sf 0 0 m (X) show NC gr 
 gsave  2268 1630 0 0 C 1960.04 91.1645 t 0 r /Symbol findfont 91.1645 sf 0 0 m (t) show NC gr  784 300 m -39 Y s 888 281 m -20 Y s 993 281 m -20 Y s 1097 281 m -20 Y s 1202 281 m -20 Y s 1306 300 m -39 Y s 1411 281 m -20 Y s 1515 281 m -20 Y s 1620
 281 m -20 Y s 1724 281 m -20 Y s 1829 300 m -39 Y s 784 300 m -39 Y s 680 281 m -20 Y s 575 281 m -20 Y s 471 281 m -20 Y s 366 281 m -20 Y s 1829 300 m -39 Y s 1933 281 m -20 Y s 2038 281 m -20 Y s 2142 281 m -20 Y s
 gsave  2268 1630 0 0 C 715.071 168.085 t 0 r /Times-Roman findfont 91.1645 sf 0 0 m (100) show NC gr 
 gsave  2268 1630 0 0 C 1236.42 168.085 t 0 r /Times-Roman findfont 91.1645 sf 0 0 m (200) show NC gr 
 gsave  2268 1630 0 0 C 1757.77 168.085 t 0 r /Times-Roman findfont 91.1645 sf 0 0 m (300) show NC gr  317 1548 m 1837 X s 784 1508 m 40 Y s 888 1528 m 20 Y s 993 1528 m 20 Y s 1097 1528 m 20 Y s 1202 1528 m 20 Y s 1306 1508 m 40 Y s 1411 1528 m 20 Y
 s 1515 1528 m 20 Y s 1620 1528 m 20 Y s 1724 1528 m 20 Y s 1829 1508 m 40 Y s 784 1508 m 40 Y s 680 1528 m 20 Y s 575 1528 m 20 Y s 471 1528 m 20 Y s 366 1528 m 20 Y s 1829 1508 m 40 Y s 1933 1528 m 20 Y s 2038 1528 m 20 Y s 2142 1528 m 20 Y s 317
 261 m 1287 Y s
 gsave  2268 1630 0 0 C 99.7112 1284.85 t 90 r /Times-Roman findfont 91.1645 sf 0 0 m ( [MeV]) show NC gr 
 gsave  2268 1630 0 0 C 99.7112 1230.72 t 90 r /Symbol findfont 91.1645 sf 0 0 m (m) show NC gr 
 gsave  2268 1630 0 0 C 99.7112 1185.14 t 90 r /Symbol findfont 91.1645 sf 0 0 m (d) show NC gr  371 261 m -54 X s 344 289 m -27 X s 344 317 m -27 X s 344 345 m -27 X s 371 374 m -54 X s 344 402 m -27 X s 344 430 m -27 X s 344 458 m -27 X s 371 487 m
 -54 X s 344 515 m -27 X s 344 543 m -27 X s 344 571 m -27 X s 371 599 m -54 X s 344 628 m -27 X s 344 656 m -27 X s 344 684 m -27 X s 371 712 m -54 X s 344 741 m -27 X s 344 769 m -27 X s 344 797 m -27 X s 371 825 m -54 X s 344 853 m -27 X s 344 882
 m -27 X s 344 910 m -27 X s 371 938 m -54 X s 344 966 m -27 X s 344 995 m -27 X s 344 1023 m -27 X s 371 1051 m -54 X s 344 1079 m -27 X s 344 1107 m -27 X s 344 1136 m -27 X s 371 1164 m -54 X s 344 1192 m -27 X s 344 1220 m -27 X s 344 1249 m -27
 X s 371 1277 m -54 X s 344 1305 m -27 X s 344 1333 m -27 X s 344 1361 m -27 X s 371 1390 m -54 X s 344 1418 m -27 X s 344 1446 m -27 X s 344 1474 m -27 X s 371 1503 m -54 X s 371 1503 m -54 X s 344 1531 m -27 X s
 gsave  2268 1630 0 0 C 256.4 233.609 t 0 r /Times-Roman findfont 76.92 sf 0 0 m (0) show NC gr 
 gsave  2268 1630 0 0 C 196.573 347.565 t 0 r /Times-Roman findfont 76.92 sf 0 0 m (0.2) show NC gr 
 gsave  2268 1630 0 0 C 199.422 458.671 t 0 r /Times-Roman findfont 76.92 sf 0 0 m (0.4) show NC gr 
 gsave  2268 1630 0 0 C 199.422 572.627 t 0 r /Times-Roman findfont 76.92 sf 0 0 m (0.6) show NC gr 
 gsave  2268 1630 0 0 C 199.422 686.583 t 0 r /Times-Roman findfont 76.92 sf 0 0 m (0.8) show NC gr 
 gsave  2268 1630 0 0 C 262.098 797.689 t 0 r /Times-Roman findfont 76.92 sf 0 0 m (1) show NC gr 
 gsave  2268 1630 0 0 C 196.573 911.645 t 0 r /Times-Roman findfont 76.92 sf 0 0 m (1.2) show NC gr 
 gsave  2268 1630 0 0 C 199.422 1022.75 t 0 r /Times-Roman findfont 76.92 sf 0 0 m (1.4) show NC gr 
 gsave  2268 1630 0 0 C 199.422 1136.71 t 0 r /Times-Roman findfont 76.92 sf 0 0 m (1.6) show NC gr 
 gsave  2268 1630 0 0 C 199.422 1250.66 t 0 r /Times-Roman findfont 76.92 sf 0 0 m (1.8) show NC gr 
 gsave  2268 1630 0 0 C 256.4 1361.77 t 0 r /Times-Roman findfont 76.92 sf 0 0 m (2) show NC gr 
 gsave  2268 1630 0 0 C 196.573 1475.73 t 0 r /Times-Roman findfont 76.92 sf 0 0 m (2.2) show NC gr  2154 261 m 1287 Y s 2101 261 m 53 X s 2127 289 m 27 X s 2127 317 m 27 X s 2127 345 m 27 X s 2101 374 m 53 X s 2127 402 m 27 X s 2127 430 m 27 X s
 2127 458 m 27 X s 2101 487 m 53 X s 2127 515 m 27 X s 2127 543 m 27 X s 2127 571 m 27 X s 2101 599 m 53 X s 2127 628 m 27 X s 2127 656 m 27 X s 2127 684 m 27 X s 2101 712 m 53 X s 2127 741 m 27 X s 2127 769 m 27 X s 2127 797 m 27 X s 2101 825 m 53 X
 s 2127 853 m 27 X s 2127 882 m 27 X s 2127 910 m 27 X s 2101 938 m 53 X s 2127 966 m 27 X s 2127 995 m 27 X s 2127 1023 m 27 X s 2101 1051 m 53 X s 2127 1079 m 27 X s 2127 1107 m 27 X s 2127 1136 m 27 X s 2101 1164 m 53 X s 2127 1192 m 27 X s 2127
 1220 m 27 X s 2127 1249 m 27 X s 2101 1277 m 53 X s 2127 1305 m 27 X s 2127 1333 m 27 X s 2127 1361 m 27 X s 2101 1390 m 53 X s 2127 1418 m 27 X s 2127 1446 m 27 X s 2127 1474 m 27 X s 2101 1503 m 53 X s 2101 1503 m 53 X s 2127 1531 m 27 X s 3 lw /w
 25 def /w2 {w 2 div} def /w3 {w 3 div} def 471 1344 680 893 888 647 1097 510 1515 453 2001 319 6 { m20} R 6 lw 471 1344 m 88 Y s 465 1432 m 11 X s 471 1344 m -88 Y s 465 1256 m 11 X s 680 893 m 54 Y s 674 947 m 11 X s 680 893 m -53 Y s 674 840 m 11
 X s 888 647 m 52 Y s 883 699 m 11 X s 888 647 m -51 Y s 883 596 m 11 X s 1097 510 m 43 Y s 1092 553 m 11 X s 1097 510 m -42 Y s 1092 468 m 11 X s 1515 453 m 51 Y s 1510 504 m 11 X s 1515 453 m -50 Y s 1510 403 m 11 X s 2001 319 m 48 Y s 1996 367 m
 11 X s 2001 319 m -47 Y s 1996 272 m 11 X s
 gr  gr showpage
end
%%EOF
