%!PS-Adobe-2.0 EPSF-2.0
%%BoundingBox:  0 0 567 544
%%Title: plots/CorrelationMatrixB.eps: Correlations between MVA input variables (background)
%%Creator: ROOT Version 5.34/18
%%CreationDate: Tue Oct 16 15:50:00 2018
%%EndComments
%%BeginProlog
80 dict begin
/s {stroke} def /l {lineto} def /m {moveto} def /t {translate} def
/r {rotate} def /rl {roll}  def /R {repeat} def
/d {rlineto} def /rm {rmoveto} def /gr {grestore} def /f {eofill} def
/c {setrgbcolor} def /black {0 setgray} def /sd {setdash} def
/cl {closepath} def /sf {scalefont setfont} def /lw {setlinewidth} def
/box {m dup 0 exch d exch 0 d 0 exch neg d cl} def
/NC{systemdict begin initclip end}def/C{NC box clip newpath}def
/bl {box s} def /bf {box f} def /Y { 0 exch d} def /X { 0 d} def 
/K {{pop pop 0 moveto} exch kshow} bind def
/ita {/ang 15 def gsave [1 0 ang dup sin exch cos div 1 0 0] concat} def 
/mp {newpath /y exch def /x exch def} def
/side {[w .77 mul w .23 mul] .385 w mul sd w 0 l currentpoint t -144 r} def
/mr {mp x y w2 0 360 arc} def /m24 {mr s} def /m20 {mr f} def
/mb {mp x y w2 add m w2 neg 0 d 0 w neg d w 0 d 0 w d cl} def
/mt {mp x y w2 add m w2 neg w neg d w 0 d cl} def
/m21 {mb f} def /m25 {mb s} def /m22 {mt f} def /m26{mt s} def
/m23 {mp x y w2 sub m w2 w d w neg 0 d cl f} def
/m27 {mp x y w2 add m w3 neg w2 neg d w3 w2 neg d w3 w2 d cl s} def
/m28 {mp x w2 sub y w2 sub w3 add m w3 0 d  0 w3 neg d w3 0 d 0 w3 d w3 0 d  0 w3 d w3 neg 0 d 0 w3 d w3 neg 0 d 0 w3 neg d w3 neg 0 d cl s } def
/m29 {mp gsave x w2 sub y w2 add w3 sub m currentpoint t 4 {side} repeat cl fill gr} def
/m30 {mp gsave x w2 sub y w2 add w3 sub m currentpoint t 4 {side} repeat cl s gr} def
/m31 {mp x y w2 sub m 0 w d x w2 sub y m w 0 d x w2 sub y w2 add m w w neg d x w2 sub y w2 sub m w w d s} def
/m32 {mp x y w2 sub m w2 w d w neg 0 d cl s} def
/m33 {mp x y w2 add m w3 neg w2 neg d w3 w2 neg d w3 w2 d cl f} def
/m34 {mp x w2 sub y w2 sub w3 add m w3 0 d  0 w3 neg d w3 0 d 0 w3 d w3 0 d  0 w3 d w3 neg 0 d 0 w3 d w3 neg 0 d 0 w3 neg d w3 neg 0 d cl f } def
/m2 {mp x y w2 sub m 0 w d x w2 sub y m w 0 d s} def
/m5 {mp x w2 sub y w2 sub m w w d x w2 sub y w2 add m w w neg d s} def
/reEncode {exch findfont dup length dict begin {1 index /FID eq  {pop pop} {def} ifelse } forall /Encoding exch def currentdict end dup /FontName get exch definefont pop } def [/Times-Bold /Times-Italic /Times-BoldItalic /Helvetica /Helvetica-Oblique
 /Helvetica-Bold /Helvetica-BoldOblique /Courier /Courier-Oblique /Courier-Bold /Courier-BoldOblique /Times-Roman /AvantGarde-Book /AvantGarde-BookOblique /AvantGarde-Demi /AvantGarde-DemiOblique /Bookman-Demi /Bookman-DemiItalic /Bookman-Light
 /Bookman-LightItalic /Helvetica-Narrow /Helvetica-Narrow-Bold /Helvetica-Narrow-BoldOblique /Helvetica-Narrow-Oblique /NewCenturySchlbk-Roman /NewCenturySchlbk-Bold /NewCenturySchlbk-BoldItalic /NewCenturySchlbk-Italic /Palatino-Bold
 /Palatino-BoldItalic /Palatino-Italic /Palatino-Roman ] {ISOLatin1Encoding reEncode } forall
%%EndProlog
%%BeginSetup
%%EndSetup
newpath  gsave  .25 .25 scale  gsave  0 0 t 0.490196 0.545098 0.615686 c[  ] 0 sd 3 lw 0.941176 0.941176 0.941176 c 2268 2176 0 0 bf black 1 1 0.992157 c 1633 1567 340 326 bf black 1633 1567 340 326 bl 1 1 0.992157 c 1633 1567 340 326 bf black 1633
 1567 340 326 bl 1 1 1 c 1 0 0 c 163 157 340 326 bf 1 0.466667 0 c 164 157 503 326 bf 1 0.653333 0 c 163 157 667 326 bf 1 0.466667 0 c 163 157 830 326 bf 0 1 0.52 c 164 157 993 326 bf 0 1 0.8 c 163 157 1157 326 bf 0 1 0.0533333 c 163 157 1320 326 bf
 163 157 1483 326 bf 164 157 1646 326 bf 1 0 0 c 163 157 1810 326 bf 1 0.466667 0 c 163 157 340 483 bf 1 0 0 c 164 157 503 483 bf 0.6 1 0 c 163 157 667 483 bf 163 157 830 483 bf 0 1 0.52 c 164 157 993 483 bf 0 1 0.333333 c 163 157 1157 483 bf 163 157
 1320 483 bf 163 157 1483 483 bf 0 1 0.0533333 c 164 157 1646 483 bf 1 0.653333 0 c 163 157 1810 483 bf 163 157 340 640 bf 0.6 1 0 c 164 157 503 640 bf 1 0 0 c 163 157 667 640 bf 0.413333 1 0 c 163 157 830 640 bf 0 1 0.333333 c 164 157 993 640 bf 0 1
 0.52 c 163 157 1157 640 bf 0 1 0.333333 c 163 157 1320 640 bf 0.133333 1 0 c 163 157 1483 640 bf 0 1 0.333333 c 164 157 1646 640 bf 1 0.653333 0 c 163 157 1810 640 bf 1 0.466667 0 c 163 156 340 797 bf 0.6 1 0 c 164 156 503 797 bf 0.413333 1 0 c 163
 156 667 797 bf 1 0 0 c 163 156 830 797 bf 0 1 0.52 c 164 156 993 797 bf 0 1 0.8 c 163 156 1157 797 bf 0.413333 1 0 c 163 156 1320 797 bf 0 1 0.333333 c 163 156 1483 797 bf 164 156 1646 797 bf 1 0.653333 0 c 163 156 1810 797 bf 0 1 0.52 c 163 157 340
 953 bf 164 157 503 953 bf 0 1 0.333333 c 163 157 667 953 bf 0 1 0.52 c 163 157 830 953 bf 1 0 0 c 164 157 993 953 bf 0.88 1 0 c 163 157 1157 953 bf 0 1 0.52 c 163 157 1320 953 bf 0 1 0.333333 c 163 157 1483 953 bf 0 1 0.0533333 c 164 157 1646 953 bf
 0 1 0.52 c 163 157 1810 953 bf 0 1 0.8 c 163 157 340 1110 bf 0 1 0.333333 c 164 157 503 1110 bf 0 1 0.52 c 163 157 667 1110 bf 0 1 0.8 c 163 157 830 1110 bf 0.88 1 0 c 164 157 993 1110 bf 1 0 0 c 163 157 1157 1110 bf 0 1 0.986667 c 163 157 1320 1110
 bf 0 1 0.52 c 163 157 1483 1110 bf 0 1 0.0533333 c 164 157 1646 1110 bf 0 1 0.52 c 163 157 1810 1110 bf 0 1 0.0533333 c 163 156 340 1267 bf 0 1 0.333333 c 164 156 503 1267 bf 163 156 667 1267 bf 0.413333 1 0 c 163 156 830 1267 bf 0 1 0.52 c 164 156
 993 1267 bf 0 1 0.986667 c 163 156 1157 1267 bf 1 0 0 c 163 156 1320 1267 bf 0 1 0.333333 c 163 156 1483 1267 bf 164 156 1646 1267 bf 0 1 0.0533333 c 163 156 1810 1267 bf 163 157 340 1423 bf 0 1 0.333333 c 164 157 503 1423 bf 0.133333 1 0 c 163 157
 667 1423 bf 0 1 0.333333 c 163 157 830 1423 bf 164 157 993 1423 bf 0 1 0.52 c 163 157 1157 1423 bf 0 1 0.333333 c 163 157 1320 1423 bf 1 0 0 c 163 157 1483 1423 bf 0 1 0.0533333 c 164 157 1646 1423 bf 163 157 1810 1423 bf 163 157 340 1580 bf 164 157
 503 1580 bf 0 1 0.333333 c 163 157 667 1580 bf 163 157 830 1580 bf 0 1 0.0533333 c 164 157 993 1580 bf 163 157 1157 1580 bf 0 1 0.333333 c 163 157 1320 1580 bf 0 1 0.0533333 c 163 157 1483 1580 bf 1 0 0 c 164 157 1646 1580 bf 0 1 0.0533333 c 163 157
 1810 1580 bf 1 0 0 c 163 156 340 1737 bf 1 0.653333 0 c 164 156 503 1737 bf 163 156 667 1737 bf 163 156 830 1737 bf 0 1 0.52 c 164 156 993 1737 bf 163 156 1157 1737 bf 0 1 0.0533333 c 163 156 1320 1737 bf 163 156 1483 1737 bf 164 156 1646 1737 bf 1
 0 0 c 163 156 1810 1737 bf 0.386667 0 1 c 102 79 1984 326 bf 0.2 0 1 c 102 78 1984 405 bf 0 0.0800001 1 c 102 79 1984 483 bf 0 0.266667 1 c 102 78 1984 562 bf 0 0.546666 1 c 102 78 1984 640 bf 0 0.733333 1 c 102 79 1984 718 bf 0 1 0.986667 c 102 78
 1984 797 bf 0 1 0.8 c 102 78 1984 875 bf 0 1 0.52 c 102 79 1984 953 bf 0 1 0.333333 c 102 78 1984 1032 bf 0 1 0.0533333 c 102 78 1984 1110 bf 0.133333 1 0 c 102 79 1984 1188 bf 0.413333 1 0 c 102 78 1984 1267 bf 0.6 1 0 c 102 78 1984 1345 bf 0.88 1
 0 c 102 79 1984 1423 bf 1 0.933333 0 c 102 78 1984 1502 bf 1 0.653333 0 c 102 78 1984 1580 bf 1 0.466667 0 c 102 79 1984 1658 bf 1 0.186667 0 c 102 78 1984 1737 bf 1 0 0 c 102 78 1984 1815 bf black 2086 326 m 1567 Y s 2037 326 m 49 X s 2037 718 m 49
 X s 2037 1110 m 49 X s 2037 1502 m 49 X s 2037 1893 m 49 X s
 gsave  2268 2176 0 0 C 2107.91 289.172 t 0 r /Helvetica findfont 102.732 sf 0 0 m (\255100) show NC gr 
 gsave  2268 2176 0 0 C 2107.91 681.076 t 0 r /Helvetica findfont 102.732 sf 0 0 m (\25550) show NC gr 
 gsave  2268 2176 0 0 C 2107.91 1072.98 t 0 r /Helvetica findfont 102.732 sf 0 0 m (0) show NC gr 
 gsave  2268 2176 0 0 C 2107.91 1464.88 t 0 r /Helvetica findfont 102.732 sf 0 0 m (50) show NC gr 
 gsave  2268 2176 0 0 C 2107.91 1856.79 t 0 r /Helvetica findfont 102.732 sf 0 0 m (100) show NC gr  1 1 1 c black 340 326 m 1633 X s
 gsave  2268 2176 0 0 C 410.928 262.538 t -19 r /Helvetica findfont 53.2685 sf 0 0 m (log\(Lc_FDCHI2_OWNPV\)) show NC gr 
 gsave  2268 2176 0 0 C 574.539 262.538 t -19 r /Helvetica findfont 53.2685 sf 0 0 m (log\(LcP_IPCHI2_OWNPV\)) show NC gr 
 gsave  2268 2176 0 0 C 738.149 262.538 t -19 r /Helvetica findfont 53.2685 sf 0 0 m (log\(LcK_IPCHI2_OWNPV\)) show NC gr 
 gsave  2268 2176 0 0 C 901.76 262.538 t -19 r /Helvetica findfont 53.2685 sf 0 0 m (log\(LcPi_IPCHI2_OWNPV\)) show NC gr 
 gsave  2268 2176 0 0 C 1065.37 262.538 t -19 r /Helvetica findfont 53.2685 sf 0 0 m (log\(LcP_ORIVX_CHI2\)) show NC gr 
 gsave  2268 2176 0 0 C 1228.98 262.538 t -19 r /Helvetica findfont 53.2685 sf 0 0 m (Lc_MAXDOCA) show NC gr 
 gsave  2268 2176 0 0 C 1392.59 262.538 t -19 r /Helvetica findfont 53.2685 sf 0 0 m (log\(LcPi_PT\)) show NC gr 
 gsave  2268 2176 0 0 C 1556.2 262.538 t -19 r /Helvetica findfont 53.2685 sf 0 0 m (log\(LcK_PT\)) show NC gr 
 gsave  2268 2176 0 0 C 1719.81 262.538 t -19 r /Helvetica findfont 53.2685 sf 0 0 m (log\(LcP_PT\)) show NC gr 
 gsave  2268 2176 0 0 C 1883.42 262.538 t -19 r /Helvetica findfont 53.2685 sf 0 0 m (sqrt\(Lc_Daughters_IPCHI2\)) show NC gr  340 373 m -47 Y s[ 4 8] 0 sd 340 1893 m -1567 Y s[  ] 0 sd 503 373 m -47 Y s[ 4 8] 0 sd 503 1893 m -1567 Y s[  ] 0 sd 667
 373 m -47 Y s[ 4 8] 0 sd 667 1893 m -1567 Y s[  ] 0 sd 830 373 m -47 Y s[ 4 8] 0 sd 830 1893 m -1567 Y s[  ] 0 sd 993 373 m -47 Y s[ 4 8] 0 sd 993 1893 m -1567 Y s[  ] 0 sd 1157 373 m -47 Y s[ 4 8] 0 sd 1157 1893 m -1567 Y s[  ] 0 sd 1320 373 m -47
 Y s[ 4 8] 0 sd 1320 1893 m -1567 Y s[  ] 0 sd 1483 373 m -47 Y s[ 4 8] 0 sd 1483 1893 m -1567 Y s[  ] 0 sd 1646 373 m -47 Y s[ 4 8] 0 sd 1646 1893 m -1567 Y s[  ] 0 sd 1810 373 m -47 Y s[ 4 8] 0 sd 1810 1893 m -1567 Y s[  ] 0 sd 1973 373 m -47 Y s[
 4 8] 0 sd 1973 1893 m -1567 Y s[  ] 0 sd 340 1893 m 1633 X s 340 1846 m 47 Y s 503 1846 m 47 Y s 667 1846 m 47 Y s 830 1846 m 47 Y s 993 1846 m 47 Y s 1157 1846 m 47 Y s 1320 1846 m 47 Y s 1483 1846 m 47 Y s 1646 1846 m 47 Y s 1810 1846 m 47 Y s
 1973 1846 m 47 Y s 340 326 m 1567 Y s
 gsave  2268 2176 0 0 C -323.416 391.904 t 0 r /Helvetica findfont 53.2685 sf 0 0 m (log\(Lc_FDCHI2_OWNPV\)) show NC gr 
 gsave  2268 2176 0 0 C -338.636 547.905 t 0 r /Helvetica findfont 53.2685 sf 0 0 m (log\(LcP_IPCHI2_OWNPV\)) show NC gr 
 gsave  2268 2176 0 0 C -338.636 703.905 t 0 r /Helvetica findfont 53.2685 sf 0 0 m (log\(LcK_IPCHI2_OWNPV\)) show NC gr 
 gsave  2268 2176 0 0 C -350.05 859.906 t 0 r /Helvetica findfont 53.2685 sf 0 0 m (log\(LcPi_IPCHI2_OWNPV\)) show NC gr 
 gsave  2268 2176 0 0 C -254.928 1019.71 t 0 r /Helvetica findfont 53.2685 sf 0 0 m (log\(LcP_ORIVX_CHI2\)) show NC gr 
 gsave  2268 2176 0 0 C -68.4881 1171.91 t 0 r /Helvetica findfont 53.2685 sf 0 0 m (Lc_MAXDOCA) show NC gr 
 gsave  2268 2176 0 0 C -15.2196 1331.71 t 0 r /Helvetica findfont 53.2685 sf 0 0 m (log\(LcPi_PT\)) show NC gr 
 gsave  2268 2176 0 0 C -3.80489 1487.71 t 0 r /Helvetica findfont 53.2685 sf 0 0 m (log\(LcK_PT\)) show NC gr 
 gsave  2268 2176 0 0 C -3.80489 1643.71 t 0 r /Helvetica findfont 53.2685 sf 0 0 m (log\(LcP_PT\)) show NC gr 
 gsave  2268 2176 0 0 C -365.27 1803.52 t 0 r /Helvetica findfont 53.2685 sf 0 0 m (sqrt\(Lc_Daughters_IPCHI2\)) show NC gr  389 326 m -49 X s[ 4 8] 0 sd 1973 326 m -1633 X s[  ] 0 sd 389 483 m -49 X s[ 4 8] 0 sd 1973 483 m -1633 X s[  ] 0 sd 389 640
 m -49 X s[ 4 8] 0 sd 1973 640 m -1633 X s[  ] 0 sd 389 797 m -49 X s[ 4 8] 0 sd 1973 797 m -1633 X s[  ] 0 sd 389 953 m -49 X s[ 4 8] 0 sd 1973 953 m -1633 X s[  ] 0 sd 389 1110 m -49 X s[ 4 8] 0 sd 1973 1110 m -1633 X s[  ] 0 sd 389 1267 m -49 X s[
 4 8] 0 sd 1973 1267 m -1633 X s[  ] 0 sd 389 1423 m -49 X s[ 4 8] 0 sd 1973 1423 m -1633 X s[  ] 0 sd 389 1580 m -49 X s[ 4 8] 0 sd 1973 1580 m -1633 X s[  ] 0 sd 389 1737 m -49 X s[ 4 8] 0 sd 1973 1737 m -1633 X s[  ] 0 sd 389 1893 m -49 X s[ 4 8]
 0 sd 1973 1893 m -1633 X s[  ] 0 sd 1973 326 m 1567 Y s 1924 326 m 49 X s 1924 483 m 49 X s 1924 640 m 49 X s 1924 797 m 49 X s 1924 953 m 49 X s 1924 1110 m 49 X s 1924 1267 m 49 X s 1924 1423 m 49 X s 1924 1580 m 49 X s 1924 1737 m 49 X s 1924
 1893 m 49 X s 0.490196 0.545098 0.615686 c 0.364706 0.419608 0.490196 c 1587 128 23 2038 bf 0.490196 0.545098 0.615686 c 23 2038 m 1587 X s 1610 2038 m 128 Y s 1610 2166 m -1587 X s 23 2166 m -128 Y s 1 1 1 c black 1 1 1 c
 gsave  2268 2176 0 0 C 91.3174 2077.47 t 0 r /Helvetica-Bold findfont 95.1223 sf 0 0 m (Correlation Matrix \(background\)) show NC gr  black 1 1 1 c
 gsave  2268 2176 0 0 C 365.27 384.294 t 0 r /Helvetica-Bold findfont 60.8783 sf 0 0 m (100) show NC gr  black 1 1 1 c
 gsave  2268 2176 0 0 C 540.295 384.294 t 0 r /Helvetica-Bold findfont 60.8783 sf 0 0 m ( 70) show NC gr  black 1 1 1 c
 gsave  2268 2176 0 0 C 703.905 384.294 t 0 r /Helvetica-Bold findfont 60.8783 sf 0 0 m ( 67) show NC gr  black 1 1 1 c
 gsave  2268 2176 0 0 C 867.516 384.294 t 0 r /Helvetica-Bold findfont 60.8783 sf 0 0 m ( 73) show NC gr  black 1 1 1 c
 gsave  2268 2176 0 0 C 1027.32 384.294 t 0 r /Helvetica-Bold findfont 60.8783 sf 0 0 m (\25519) show NC gr  black 1 1 1 c
 gsave  2268 2176 0 0 C 1190.93 384.294 t 0 r /Helvetica-Bold findfont 60.8783 sf 0 0 m (\25523) show NC gr  black 1 1 1 c
 gsave  2268 2176 0 0 C 1365.96 380.489 t 0 r /Helvetica-Bold findfont 60.8783 sf 0 0 m (  7) show NC gr  black 1 1 1 c
 gsave  2268 2176 0 0 C 1533.37 380.489 t 0 r /Helvetica-Bold findfont 60.8783 sf 0 0 m (  1) show NC gr  black 1 1 1 c
 gsave  2268 2176 0 0 C 1696.98 380.489 t 0 r /Helvetica-Bold findfont 60.8783 sf 0 0 m (  1) show NC gr  black 1 1 1 c
 gsave  2268 2176 0 0 C 1849.18 384.294 t 0 r /Helvetica-Bold findfont 60.8783 sf 0 0 m ( 90) show NC gr  black 1 1 1 c
 gsave  2268 2176 0 0 C 376.684 540.295 t 0 r /Helvetica-Bold findfont 60.8783 sf 0 0 m ( 70) show NC gr  black 1 1 1 c
 gsave  2268 2176 0 0 C 528.88 540.295 t 0 r /Helvetica-Bold findfont 60.8783 sf 0 0 m (100) show NC gr  black 1 1 1 c
 gsave  2268 2176 0 0 C 703.905 540.295 t 0 r /Helvetica-Bold findfont 60.8783 sf 0 0 m ( 34) show NC gr  black 1 1 1 c
 gsave  2268 2176 0 0 C 867.516 540.295 t 0 r /Helvetica-Bold findfont 60.8783 sf 0 0 m ( 37) show NC gr  black 1 1 1 c
 gsave  2268 2176 0 0 C 1027.32 536.49 t 0 r /Helvetica-Bold findfont 60.8783 sf 0 0 m (\25512) show NC gr  black 1 1 1 c
 gsave  2268 2176 0 0 C 1190.93 540.295 t 0 r /Helvetica-Bold findfont 60.8783 sf 0 0 m (\25510) show NC gr  black 1 1 1 c
 gsave  2268 2176 0 0 C 1362.15 540.295 t 0 r /Helvetica-Bold findfont 60.8783 sf 0 0 m ( \2555) show NC gr  black 1 1 1 c
 gsave  2268 2176 0 0 C 1525.76 536.49 t 0 r /Helvetica-Bold findfont 60.8783 sf 0 0 m ( \2554) show NC gr  black 1 1 1 c
 gsave  2268 2176 0 0 C 1693.18 536.49 t 0 r /Helvetica-Bold findfont 60.8783 sf 0 0 m (  7) show NC gr  black 1 1 1 c
 gsave  2268 2176 0 0 C 1849.18 540.295 t 0 r /Helvetica-Bold findfont 60.8783 sf 0 0 m ( 66) show NC gr  black 1 1 1 c
 gsave  2268 2176 0 0 C 376.684 696.296 t 0 r /Helvetica-Bold findfont 60.8783 sf 0 0 m ( 67) show NC gr  black 1 1 1 c
 gsave  2268 2176 0 0 C 540.295 696.296 t 0 r /Helvetica-Bold findfont 60.8783 sf 0 0 m ( 34) show NC gr  black 1 1 1 c
 gsave  2268 2176 0 0 C 692.491 696.296 t 0 r /Helvetica-Bold findfont 60.8783 sf 0 0 m (100) show NC gr  black 1 1 1 c
 gsave  2268 2176 0 0 C 867.516 692.491 t 0 r /Helvetica-Bold findfont 60.8783 sf 0 0 m ( 24) show NC gr  black 1 1 1 c
 gsave  2268 2176 0 0 C 1034.93 696.296 t 0 r /Helvetica-Bold findfont 60.8783 sf 0 0 m ( \2559) show NC gr  black 1 1 1 c
 gsave  2268 2176 0 0 C 1190.93 696.296 t 0 r /Helvetica-Bold findfont 60.8783 sf 0 0 m (\25513) show NC gr  black 1 1 1 c
 gsave  2268 2176 0 0 C 1362.15 696.296 t 0 r /Helvetica-Bold findfont 60.8783 sf 0 0 m ( \2559) show NC gr  black 1 1 1 c
 gsave  2268 2176 0 0 C 1521.96 696.296 t 0 r /Helvetica-Bold findfont 60.8783 sf 0 0 m ( 18) show NC gr  black 1 1 1 c
 gsave  2268 2176 0 0 C 1689.37 692.491 t 0 r /Helvetica-Bold findfont 60.8783 sf 0 0 m ( \2552) show NC gr  black 1 1 1 c
 gsave  2268 2176 0 0 C 1849.18 696.296 t 0 r /Helvetica-Bold findfont 60.8783 sf 0 0 m ( 62) show NC gr  black 1 1 1 c
 gsave  2268 2176 0 0 C 376.684 852.296 t 0 r /Helvetica-Bold findfont 60.8783 sf 0 0 m ( 73) show NC gr  black 1 1 1 c
 gsave  2268 2176 0 0 C 540.295 852.296 t 0 r /Helvetica-Bold findfont 60.8783 sf 0 0 m ( 37) show NC gr  black 1 1 1 c
 gsave  2268 2176 0 0 C 703.905 848.491 t 0 r /Helvetica-Bold findfont 60.8783 sf 0 0 m ( 24) show NC gr  black 1 1 1 c
 gsave  2268 2176 0 0 C 856.101 852.296 t 0 r /Helvetica-Bold findfont 60.8783 sf 0 0 m (100) show NC gr  black 1 1 1 c
 gsave  2268 2176 0 0 C 1027.32 852.296 t 0 r /Helvetica-Bold findfont 60.8783 sf 0 0 m (\25515) show NC gr  black 1 1 1 c
 gsave  2268 2176 0 0 C 1190.93 848.491 t 0 r /Helvetica-Bold findfont 60.8783 sf 0 0 m (\25524) show NC gr  black 1 1 1 c
 gsave  2268 2176 0 0 C 1358.35 848.491 t 0 r /Helvetica-Bold findfont 60.8783 sf 0 0 m ( 24) show NC gr  black 1 1 1 c
 gsave  2268 2176 0 0 C 1525.76 852.296 t 0 r /Helvetica-Bold findfont 60.8783 sf 0 0 m ( \2559) show NC gr  black 1 1 1 c
 gsave  2268 2176 0 0 C 1689.37 852.296 t 0 r /Helvetica-Bold findfont 60.8783 sf 0 0 m ( \2553) show NC gr  black 1 1 1 c
 gsave  2268 2176 0 0 C 1849.18 852.296 t 0 r /Helvetica-Bold findfont 60.8783 sf 0 0 m ( 68) show NC gr  black 1 1 1 c
 gsave  2268 2176 0 0 C 372.88 1012.1 t 0 r /Helvetica-Bold findfont 60.8783 sf 0 0 m (\25519) show NC gr  black 1 1 1 c
 gsave  2268 2176 0 0 C 536.49 1008.3 t 0 r /Helvetica-Bold findfont 60.8783 sf 0 0 m (\25512) show NC gr  black 1 1 1 c
 gsave  2268 2176 0 0 C 707.71 1012.1 t 0 r /Helvetica-Bold findfont 60.8783 sf 0 0 m ( \2559) show NC gr  black 1 1 1 c
 gsave  2268 2176 0 0 C 863.711 1012.1 t 0 r /Helvetica-Bold findfont 60.8783 sf 0 0 m (\25515) show NC gr  black 1 1 1 c
 gsave  2268 2176 0 0 C 1019.71 1012.1 t 0 r /Helvetica-Bold findfont 60.8783 sf 0 0 m (100) show NC gr  black 1 1 1 c
 gsave  2268 2176 0 0 C 1194.74 1008.3 t 0 r /Helvetica-Bold findfont 60.8783 sf 0 0 m ( 47) show NC gr  black 1 1 1 c
 gsave  2268 2176 0 0 C 1358.35 1008.3 t 0 r /Helvetica-Bold findfont 60.8783 sf 0 0 m (\25511) show NC gr  black 1 1 1 c
 gsave  2268 2176 0 0 C 1533.37 1008.3 t 0 r /Helvetica-Bold findfont 60.8783 sf 0 0 m ( \2551) show NC gr  black 1 1 1 c
 gsave  2268 2176 0 0 C 1693.18 1012.1 t 0 r /Helvetica-Bold findfont 60.8783 sf 0 0 m (  8) show NC gr  black 1 1 1 c
 gsave  2268 2176 0 0 C 1849.18 1008.3 t 0 r /Helvetica-Bold findfont 60.8783 sf 0 0 m (\25511) show NC gr  black 1 1 1 c
 gsave  2268 2176 0 0 C 372.88 1168.1 t 0 r /Helvetica-Bold findfont 60.8783 sf 0 0 m (\25523) show NC gr  black 1 1 1 c
 gsave  2268 2176 0 0 C 536.49 1168.1 t 0 r /Helvetica-Bold findfont 60.8783 sf 0 0 m (\25510) show NC gr  black 1 1 1 c
 gsave  2268 2176 0 0 C 700.1 1168.1 t 0 r /Helvetica-Bold findfont 60.8783 sf 0 0 m (\25513) show NC gr  black 1 1 1 c
 gsave  2268 2176 0 0 C 863.711 1164.3 t 0 r /Helvetica-Bold findfont 60.8783 sf 0 0 m (\25524) show NC gr  black 1 1 1 c
 gsave  2268 2176 0 0 C 1031.13 1164.3 t 0 r /Helvetica-Bold findfont 60.8783 sf 0 0 m ( 47) show NC gr  black 1 1 1 c
 gsave  2268 2176 0 0 C 1183.32 1168.1 t 0 r /Helvetica-Bold findfont 60.8783 sf 0 0 m (100) show NC gr  black 1 1 1 c
 gsave  2268 2176 0 0 C 1354.54 1168.1 t 0 r /Helvetica-Bold findfont 60.8783 sf 0 0 m (\25540) show NC gr  black 1 1 1 c
 gsave  2268 2176 0 0 C 1518.15 1168.1 t 0 r /Helvetica-Bold findfont 60.8783 sf 0 0 m (\25516) show NC gr  black 1 1 1 c
 gsave  2268 2176 0 0 C 1845.37 1168.1 t 0 r /Helvetica-Bold findfont 60.8783 sf 0 0 m (\25516) show NC gr  black 1 1 1 c
 gsave  2268 2176 0 0 C 384.294 1320.3 t 0 r /Helvetica-Bold findfont 60.8783 sf 0 0 m (  7) show NC gr  black 1 1 1 c
 gsave  2268 2176 0 0 C 544.1 1324.1 t 0 r /Helvetica-Bold findfont 60.8783 sf 0 0 m ( \2555) show NC gr  black 1 1 1 c
 gsave  2268 2176 0 0 C 707.71 1324.1 t 0 r /Helvetica-Bold findfont 60.8783 sf 0 0 m ( \2559) show NC gr  black 1 1 1 c
 gsave  2268 2176 0 0 C 867.516 1320.3 t 0 r /Helvetica-Bold findfont 60.8783 sf 0 0 m ( 24) show NC gr  black 1 1 1 c
 gsave  2268 2176 0 0 C 1031.13 1320.3 t 0 r /Helvetica-Bold findfont 60.8783 sf 0 0 m (\25511) show NC gr  black 1 1 1 c
 gsave  2268 2176 0 0 C 1190.93 1324.1 t 0 r /Helvetica-Bold findfont 60.8783 sf 0 0 m (\25540) show NC gr  black 1 1 1 c
 gsave  2268 2176 0 0 C 1346.93 1324.1 t 0 r /Helvetica-Bold findfont 60.8783 sf 0 0 m (100) show NC gr  black 1 1 1 c
 gsave  2268 2176 0 0 C 1518.15 1324.1 t 0 r /Helvetica-Bold findfont 60.8783 sf 0 0 m (\25510) show NC gr  black 1 1 1 c
 gsave  2268 2176 0 0 C 1689.37 1320.3 t 0 r /Helvetica-Bold findfont 60.8783 sf 0 0 m ( \2552) show NC gr  black 1 1 1 c
 gsave  2268 2176 0 0 C 1856.79 1320.3 t 0 r /Helvetica-Bold findfont 60.8783 sf 0 0 m (  2) show NC gr  black 1 1 1 c
 gsave  2268 2176 0 0 C 388.099 1476.3 t 0 r /Helvetica-Bold findfont 60.8783 sf 0 0 m (  1) show NC gr  black 1 1 1 c
 gsave  2268 2176 0 0 C 544.1 1476.3 t 0 r /Helvetica-Bold findfont 60.8783 sf 0 0 m ( \2554) show NC gr  black 1 1 1 c
 gsave  2268 2176 0 0 C 703.905 1480.1 t 0 r /Helvetica-Bold findfont 60.8783 sf 0 0 m ( 18) show NC gr  black 1 1 1 c
 gsave  2268 2176 0 0 C 871.321 1480.1 t 0 r /Helvetica-Bold findfont 60.8783 sf 0 0 m ( \2559) show NC gr  black 1 1 1 c
 gsave  2268 2176 0 0 C 1042.54 1476.3 t 0 r /Helvetica-Bold findfont 60.8783 sf 0 0 m ( \2551) show NC gr  black 1 1 1 c
 gsave  2268 2176 0 0 C 1190.93 1480.1 t 0 r /Helvetica-Bold findfont 60.8783 sf 0 0 m (\25516) show NC gr  black 1 1 1 c
 gsave  2268 2176 0 0 C 1354.54 1480.1 t 0 r /Helvetica-Bold findfont 60.8783 sf 0 0 m (\25510) show NC gr  black 1 1 1 c
 gsave  2268 2176 0 0 C 1510.54 1480.1 t 0 r /Helvetica-Bold findfont 60.8783 sf 0 0 m (100) show NC gr  black 1 1 1 c
 gsave  2268 2176 0 0 C 388.099 1632.3 t 0 r /Helvetica-Bold findfont 60.8783 sf 0 0 m (  1) show NC gr  black 1 1 1 c
 gsave  2268 2176 0 0 C 547.905 1632.3 t 0 r /Helvetica-Bold findfont 60.8783 sf 0 0 m (  7) show NC gr  black 1 1 1 c
 gsave  2268 2176 0 0 C 707.71 1632.3 t 0 r /Helvetica-Bold findfont 60.8783 sf 0 0 m ( \2552) show NC gr  black 1 1 1 c
 gsave  2268 2176 0 0 C 871.321 1636.1 t 0 r /Helvetica-Bold findfont 60.8783 sf 0 0 m ( \2553) show NC gr  black 1 1 1 c
 gsave  2268 2176 0 0 C 1038.74 1636.1 t 0 r /Helvetica-Bold findfont 60.8783 sf 0 0 m (  8) show NC gr  black 1 1 1 c
 gsave  2268 2176 0 0 C 1362.15 1632.3 t 0 r /Helvetica-Bold findfont 60.8783 sf 0 0 m ( \2552) show NC gr  black 1 1 1 c
 gsave  2268 2176 0 0 C 1674.15 1636.1 t 0 r /Helvetica-Bold findfont 60.8783 sf 0 0 m (100) show NC gr  black 1 1 1 c
 gsave  2268 2176 0 0 C 1860.59 1632.3 t 0 r /Helvetica-Bold findfont 60.8783 sf 0 0 m (  1) show NC gr  black 1 1 1 c
 gsave  2268 2176 0 0 C 376.684 1795.91 t 0 r /Helvetica-Bold findfont 60.8783 sf 0 0 m ( 90) show NC gr  black 1 1 1 c
 gsave  2268 2176 0 0 C 540.295 1795.91 t 0 r /Helvetica-Bold findfont 60.8783 sf 0 0 m ( 66) show NC gr  black 1 1 1 c
 gsave  2268 2176 0 0 C 703.905 1795.91 t 0 r /Helvetica-Bold findfont 60.8783 sf 0 0 m ( 62) show NC gr  black 1 1 1 c
 gsave  2268 2176 0 0 C 867.516 1795.91 t 0 r /Helvetica-Bold findfont 60.8783 sf 0 0 m ( 68) show NC gr  black 1 1 1 c
 gsave  2268 2176 0 0 C 1031.13 1792.1 t 0 r /Helvetica-Bold findfont 60.8783 sf 0 0 m (\25511) show NC gr  black 1 1 1 c
 gsave  2268 2176 0 0 C 1190.93 1795.91 t 0 r /Helvetica-Bold findfont 60.8783 sf 0 0 m (\25516) show NC gr  black 1 1 1 c
 gsave  2268 2176 0 0 C 1365.96 1792.1 t 0 r /Helvetica-Bold findfont 60.8783 sf 0 0 m (  2) show NC gr  black 1 1 1 c
 gsave  2268 2176 0 0 C 1696.98 1792.1 t 0 r /Helvetica-Bold findfont 60.8783 sf 0 0 m (  1) show NC gr  black 1 1 1 c
 gsave  2268 2176 0 0 C 1837.76 1795.91 t 0 r /Helvetica-Bold findfont 60.8783 sf 0 0 m (100) show NC gr  black
 gsave  2268 2176 0 0 C 1201.89 1915.23 t 0 r /Helvetica-Bold findfont 53.2685 sf 0 0 m (Linear correlation coefficients in %) show NC gr 
 gr  gr showpage
end
%%EOF
