%!PS-Adobe-2.0 EPSF-2.0
%%BoundingBox:  0 0 567 419
%%Title: plots/overtrain_BDT.eps: TMVA comparison BDT
%%Creator: ROOT Version 5.34/18
%%CreationDate: Mon May  7 10:48:35 2018
%%EndComments
%%BeginProlog
80 dict begin
/s {stroke} def /l {lineto} def /m {moveto} def /t {translate} def
/r {rotate} def /rl {roll}  def /R {repeat} def
/d {rlineto} def /rm {rmoveto} def /gr {grestore} def /f {eofill} def
/c {setrgbcolor} def /black {0 setgray} def /sd {setdash} def
/cl {closepath} def /sf {scalefont setfont} def /lw {setlinewidth} def
/box {m dup 0 exch d exch 0 d 0 exch neg d cl} def
/NC{systemdict begin initclip end}def/C{NC box clip newpath}def
/bl {box s} def /bf {box f} def /Y { 0 exch d} def /X { 0 d} def 
/K {{pop pop 0 moveto} exch kshow} bind def
/ita {/ang 15 def gsave [1 0 ang dup sin exch cos div 1 0 0] concat} def 
/mp {newpath /y exch def /x exch def} def
/side {[w .77 mul w .23 mul] .385 w mul sd w 0 l currentpoint t -144 r} def
/mr {mp x y w2 0 360 arc} def /m24 {mr s} def /m20 {mr f} def
/mb {mp x y w2 add m w2 neg 0 d 0 w neg d w 0 d 0 w d cl} def
/mt {mp x y w2 add m w2 neg w neg d w 0 d cl} def
/m21 {mb f} def /m25 {mb s} def /m22 {mt f} def /m26{mt s} def
/m23 {mp x y w2 sub m w2 w d w neg 0 d cl f} def
/m27 {mp x y w2 add m w3 neg w2 neg d w3 w2 neg d w3 w2 d cl s} def
/m28 {mp x w2 sub y w2 sub w3 add m w3 0 d  0 w3 neg d w3 0 d 0 w3 d w3 0 d  0 w3 d w3 neg 0 d 0 w3 d w3 neg 0 d 0 w3 neg d w3 neg 0 d cl s } def
/m29 {mp gsave x w2 sub y w2 add w3 sub m currentpoint t 4 {side} repeat cl fill gr} def
/m30 {mp gsave x w2 sub y w2 add w3 sub m currentpoint t 4 {side} repeat cl s gr} def
/m31 {mp x y w2 sub m 0 w d x w2 sub y m w 0 d x w2 sub y w2 add m w w neg d x w2 sub y w2 sub m w w d s} def
/m32 {mp x y w2 sub m w2 w d w neg 0 d cl s} def
/m33 {mp x y w2 add m w3 neg w2 neg d w3 w2 neg d w3 w2 d cl f} def
/m34 {mp x w2 sub y w2 sub w3 add m w3 0 d  0 w3 neg d w3 0 d 0 w3 d w3 0 d  0 w3 d w3 neg 0 d 0 w3 d w3 neg 0 d 0 w3 neg d w3 neg 0 d cl f } def
/m2 {mp x y w2 sub m 0 w d x w2 sub y m w 0 d s} def
/m5 {mp x w2 sub y w2 sub m w w d x w2 sub y w2 add m w w neg d s} def
/reEncode {exch findfont dup length dict begin {1 index /FID eq  {pop pop} {def} ifelse } forall /Encoding exch def currentdict end dup /FontName get exch definefont pop } def [/Times-Bold /Times-Italic /Times-BoldItalic /Helvetica /Helvetica-Oblique
 /Helvetica-Bold /Helvetica-BoldOblique /Courier /Courier-Oblique /Courier-Bold /Courier-BoldOblique /Times-Roman /AvantGarde-Book /AvantGarde-BookOblique /AvantGarde-Demi /AvantGarde-DemiOblique /Bookman-Demi /Bookman-DemiItalic /Bookman-Light
 /Bookman-LightItalic /Helvetica-Narrow /Helvetica-Narrow-Bold /Helvetica-Narrow-BoldOblique /Helvetica-Narrow-Oblique /NewCenturySchlbk-Roman /NewCenturySchlbk-Bold /NewCenturySchlbk-BoldItalic /NewCenturySchlbk-Italic /Palatino-Bold
 /Palatino-BoldItalic /Palatino-Italic /Palatino-Roman ] {ISOLatin1Encoding reEncode } forall
%%EndProlog
%%BeginSetup
%%EndSetup
newpath  gsave  .25 .25 scale  gsave  0 0 t 0.490196 0.545098 0.615686 c[  ] 0 sd 3 lw 0.941176 0.941176 0.941176 c 2268 1674 0 0 bf black 1 1 0.992157 c 1916 1306 238 201 bf black 1916 1306 238 201 bl 1 1 0.992157 c 1916 1306 238 201 bf black 1916
 1306 238 201 bl 238 201 m 1916 X s
 gsave  2268 1674 0 0 C 1689.37 30.4391 t 0 r /Helvetica-Bold findfont 68.4881 sf 0 0 m (BDT response) show NC gr  392 243 m -42 Y s 458 222 m -21 Y s 524 222 m -21 Y s 590 222 m -21 Y s 655 222 m -21 Y s 721 243 m -42 Y s 787 222 m -21 Y s 853 222 m
 -21 Y s 919 222 m -21 Y s 985 222 m -21 Y s 1051 243 m -42 Y s 1116 222 m -21 Y s 1182 222 m -21 Y s 1248 222 m -21 Y s 1314 222 m -21 Y s 1380 243 m -42 Y s 1446 222 m -21 Y s 1511 222 m -21 Y s 1577 222 m -21 Y s 1643 222 m -21 Y s 1709 243 m -42
 Y s 1775 222 m -21 Y s 1841 222 m -21 Y s 1906 222 m -21 Y s 1972 222 m -21 Y s 2038 243 m -42 Y s 392 243 m -42 Y s 326 222 m -21 Y s 260 222 m -21 Y s 2038 243 m -42 Y s 2104 222 m -21 Y s
 gsave  2268 1674 0 0 C 338.636 129.366 t 0 r /Helvetica-Bold findfont 60.8783 sf 0 0 m (\2550.4) show NC gr 
 gsave  2268 1674 0 0 C 665.856 129.366 t 0 r /Helvetica-Bold findfont 60.8783 sf 0 0 m (\2550.3) show NC gr 
 gsave  2268 1674 0 0 C 996.882 129.366 t 0 r /Helvetica-Bold findfont 60.8783 sf 0 0 m (\2550.2) show NC gr 
 gsave  2268 1674 0 0 C 1327.91 129.366 t 0 r /Helvetica-Bold findfont 60.8783 sf 0 0 m (\2550.1) show NC gr 
 gsave  2268 1674 0 0 C 1689.37 129.366 t 0 r /Helvetica-Bold findfont 60.8783 sf 0 0 m (0) show NC gr 
 gsave  2268 1674 0 0 C 1997.57 129.366 t 0 r /Helvetica-Bold findfont 60.8783 sf 0 0 m (0.1) show NC gr  238 1507 m 1916 X s 392 1464 m 43 Y s 458 1486 m 21 Y s 524 1486 m 21 Y s 590 1486 m 21 Y s 655 1486 m 21 Y s 721 1464 m 43 Y s 787 1486 m 21 Y
 s 853 1486 m 21 Y s 919 1486 m 21 Y s 985 1486 m 21 Y s 1051 1464 m 43 Y s 1116 1486 m 21 Y s 1182 1486 m 21 Y s 1248 1486 m 21 Y s 1314 1486 m 21 Y s 1380 1464 m 43 Y s 1446 1486 m 21 Y s 1511 1486 m 21 Y s 1577 1486 m 21 Y s 1643 1486 m 21 Y s
 1709 1464 m 43 Y s 1775 1486 m 21 Y s 1841 1486 m 21 Y s 1906 1486 m 21 Y s 1972 1486 m 21 Y s 2038 1464 m 43 Y s 392 1464 m 43 Y s 326 1486 m 21 Y s 260 1486 m 21 Y s 2038 1464 m 43 Y s 2104 1486 m 21 Y s 238 201 m 1306 Y s
 gsave  2268 1674 0 0 C 64.6832 1426.84 t 90 r /Helvetica-Bold findfont 68.4881 sf 0 0 m (dx) show NC gr 
 gsave  2268 1674 0 0 C 34.244 1407.81 t 90 r /Helvetica-Bold findfont 45.6587 sf 0 0 m ( ) show NC gr 
 gsave  2268 1674 0 0 C 64.6832 1388.79 t 90 r /Helvetica-Bold findfont 68.4881 sf 0 0 m (/) show NC gr 
 gsave  2268 1674 0 0 C 30.4391 1369.76 t 90 r /Helvetica-Bold findfont 45.6587 sf 0 0 m ( ) show NC gr 
 gsave  2268 1674 0 0 C 60.8783 1111.03 t 90 r /Helvetica-Bold findfont 68.4881 sf 0 0 m (\(1/N\) dN) show NC gr  291 201 m -53 X s 265 233 m -27 X s 265 264 m -27 X s 265 296 m -27 X s 265 328 m -27 X s 291 360 m -53 X s 265 391 m -27 X s 265 423 m
 -27 X s 265 455 m -27 X s 265 487 m -27 X s 291 518 m -53 X s 265 550 m -27 X s 265 582 m -27 X s 265 613 m -27 X s 265 645 m -27 X s 291 677 m -53 X s 265 709 m -27 X s 265 740 m -27 X s 265 772 m -27 X s 265 804 m -27 X s 291 836 m -53 X s 265 867
 m -27 X s 265 899 m -27 X s 265 931 m -27 X s 265 963 m -27 X s 291 994 m -53 X s 265 1026 m -27 X s 265 1058 m -27 X s 265 1089 m -27 X s 265 1121 m -27 X s 291 1153 m -53 X s 265 1185 m -27 X s 265 1216 m -27 X s 265 1248 m -27 X s 265 1280 m -27
 X s 291 1312 m -53 X s 265 1343 m -27 X s 265 1375 m -27 X s 265 1407 m -27 X s 265 1439 m -27 X s 291 1470 m -53 X s 291 1470 m -53 X s 265 1502 m -27 X s
 gsave  2268 1674 0 0 C 175.025 178.83 t 0 r /Helvetica-Bold findfont 60.8783 sf 0 0 m (0) show NC gr 
 gsave  2268 1674 0 0 C 182.635 334.831 t 0 r /Helvetica-Bold findfont 60.8783 sf 0 0 m (1) show NC gr 
 gsave  2268 1674 0 0 C 175.025 494.636 t 0 r /Helvetica-Bold findfont 60.8783 sf 0 0 m (2) show NC gr 
 gsave  2268 1674 0 0 C 175.025 654.442 t 0 r /Helvetica-Bold findfont 60.8783 sf 0 0 m (3) show NC gr 
 gsave  2268 1674 0 0 C 175.025 810.442 t 0 r /Helvetica-Bold findfont 60.8783 sf 0 0 m (4) show NC gr 
 gsave  2268 1674 0 0 C 175.025 974.053 t 0 r /Helvetica-Bold findfont 60.8783 sf 0 0 m (5) show NC gr 
 gsave  2268 1674 0 0 C 175.025 1133.86 t 0 r /Helvetica-Bold findfont 60.8783 sf 0 0 m (6) show NC gr 
 gsave  2268 1674 0 0 C 175.025 1286.05 t 0 r /Helvetica-Bold findfont 60.8783 sf 0 0 m (7) show NC gr 
 gsave  2268 1674 0 0 C 175.025 1449.66 t 0 r /Helvetica-Bold findfont 60.8783 sf 0 0 m (8) show NC gr  2154 201 m 1306 Y s 2101 201 m 53 X s 2128 233 m 26 X s 2128 264 m 26 X s 2128 296 m 26 X s 2128 328 m 26 X s 2101 360 m 53 X s 2128 391 m 26 X s
 2128 423 m 26 X s 2128 455 m 26 X s 2128 487 m 26 X s 2101 518 m 53 X s 2128 550 m 26 X s 2128 582 m 26 X s 2128 613 m 26 X s 2128 645 m 26 X s 2101 677 m 53 X s 2128 709 m 26 X s 2128 740 m 26 X s 2128 772 m 26 X s 2128 804 m 26 X s 2101 836 m 53 X
 s 2128 867 m 26 X s 2128 899 m 26 X s 2128 931 m 26 X s 2128 963 m 26 X s 2101 994 m 53 X s 2128 1026 m 26 X s 2128 1058 m 26 X s 2128 1089 m 26 X s 2128 1121 m 26 X s 2101 1153 m 53 X s 2128 1185 m 26 X s 2128 1216 m 26 X s 2128 1248 m 26 X s 2128
 1280 m 26 X s 2101 1312 m 53 X s 2128 1343 m 26 X s 2128 1375 m 26 X s 2128 1407 m 26 X s 2128 1439 m 26 X s 2101 1470 m 53 X s 2101 1470 m 53 X s 2128 1502 m 26 X s 0.490196 0.545098 0.615686 c 0.95 0.95 0.95 c 0.490196 0.545098 0.615686 c 907 201
 238 1306 bl 238 1306 m 907 X s 1145 1306 m 201 Y s 1145 1507 m -907 X s 238 1507 m -201 Y s black
 gsave  2268 1674 0 0 C 419.528 1433.91 t 0 r /Times-Italic findfont 57.0734 sf 0 0 m (Signal \(test sample\)) show NC gr  0.49 0.6 0.82 c 265 1421 m 127 X 71 Y -127 X f 0 0 0.933333 c 265 1492 m 127 X s 265 1421 m 127 X s 392 1421 m 71 Y s 265 1421
 m 71 Y s black
 gsave  2268 1674 0 0 C 419.528 1333.46 t 0 r /Times-Italic findfont 57.0734 sf 0 0 m (Background \(test sample\)) show NC gr  1 0 0 c 392 1354 m -33 -33 d s 381 1391 m -70 -70 d s 333 1391 m -68 -67 d s 285 1391 m -20 -19 d s 0 lw 0 0 0.933333 c 1 0
 0 c 3 lw 265 1391 m 127 X s 265 1321 m 127 X s 392 1321 m 70 Y s 265 1321 m 70 Y s 0 0 0.933333 c 0.49 0.6 0.82 c black 0.49 0.6 0.82 c 2154 201 m -1916 X 431 X 12 Y 96 X 12 Y 48 X -12 Y 48 X 36 Y 48 X 24 Y 48 X 13 Y 48 X -25 Y 48 X 133 Y 47 X -24 Y
 48 X 109 Y 48 X 97 Y 48 X -37 Y 48 X 12 Y 48 X 182 Y 48 X 133 Y 48 X 145 Y 48 X -12 Y 48 X 12 Y 47 X 72 Y 48 X -36 Y 48 X 48 Y 48 X -157 Y 48 X -205 Y 48 X -85 Y 48 X -60 Y 48 X -218 Y 48 X 12 Y 48 X -84 Y 48 X -49 Y 47 X -12 Y 48 X f 0 0 0.933333 c
 0.49 0.6 0.82 c 0 0 0.933333 c 238 201 m 431 X 12 Y 96 X 12 Y 48 X -12 Y 48 X 36 Y 48 X 24 Y 48 X 13 Y 48 X -25 Y 48 X 133 Y 47 X -24 Y 48 X 109 Y 48 X 97 Y 48 X -37 Y 48 X 12 Y 48 X 182 Y 48 X 133 Y 48 X 145 Y 48 X -12 Y 48 X 12 Y 47 X 72 Y 48 X
 -36 Y 48 X 48 Y 48 X -157 Y 48 X -205 Y 48 X -85 Y 48 X -60 Y 48 X -218 Y 48 X 12 Y 48 X -84 Y 48 X -49 Y 47 X -12 Y 48 X s 1 0 0 c black 1 0 0 c 2125 201 m s 2077 201 m s 2031 203 m -2 -2 d s 1985 205 m -4 -4 d s 1938 207 m -5 -6 d s 1901 218 m -16
 -17 d s 1854 218 m -18 -17 d s 1815 228 m -27 -27 d s 1771 232 m -31 -31 d s 1741 249 m -49 -48 d s 1723 280 m -79 -79 d s 1682 287 m -86 -86 d s 1667 320 m -119 -119 d s 1627 329 m -127 -128 d s 1599 348 m -147 -147 d s 1579 377 m -175 -176 d s
 1540 385 m -185 -184 d s 1530 424 m -223 -223 d s 1484 425 m -225 -224 d s 1480 470 m -269 -269 d s 1436 474 m -273 -273 d s 1420 506 m -305 -305 d s 1388 522 m -321 -321 d s 1386 569 m -367 -368 d s 1340 570 m -369 -369 d s 1316 594 m -394 -393 d s
 1292 619 m -418 -418 d s 1292 667 m -466 -466 d s 1248 671 m -470 -470 d s 1234 705 m -504 -504 d s 1196 715 m -514 -514 d s 1193 760 m -559 -559 d s 1148 763 m -562 -562 d s 1148 812 m -610 -611 d s 1105 817 m -615 -616 d s 1100 860 m -659 -659 d s
 1053 861 m -1 Y s 1051 859 m -525 -526 d s 501 308 m -23 -23 d s 464 272 m -34 -35 d s 429 237 m -36 -36 d s 1005 860 m -384 -383 d s 590 445 m -17 -16 d s 530 385 m -4 -4 d s 362 217 m -17 -16 d s 966 870 m -249 -249 d s 716 620 m -47 -47 d s 628
 532 m -7 -7 d s 308 212 m -11 -11 d s 927 879 m -210 -210 d s 251 203 m -2 -2 d s 890 890 m -29 -29 d s 851 851 m -38 -38 d s 792 792 m -27 -27 d s 723 723 m -6 -6 d s 0 lw 3 lw 238 203 m 48 X 9 Y 48 X 5 Y 48 X 20 Y 48 X 35 Y 48 X 36 Y 48 X 77 Y 47
 X 60 Y 48 X 87 Y 48 X 88 Y 48 X 103 Y 48 X 69 Y 48 X 59 Y 48 X 39 Y 48 X -11 Y 48 X -9 Y 48 X -11 Y 48 X 2 Y 47 X -44 Y 48 X -57 Y 48 X -55 Y 48 X -34 Y 48 X -77 Y 48 X -25 Y 48 X -63 Y 48 X -36 Y 48 X -46 Y 48 X -39 Y 47 X -37 Y 48 X -28 Y 48 X -33
 Y 48 X -38 Y 48 X -21 Y 48 X -10 Y 96 X -11 Y 48 X -2 Y 48 X -2 Y 48 X -2 Y 95 X s 0.490196 0.545098 0.615686 c 0.95 0.95 0.95 c 0.490196 0.545098 0.615686 c 952 201 1202 1306 bl 1202 1306 m 952 X s 2154 1306 m 201 Y s 2154 1507 m -952 X s 1202 1507
 m -201 Y s black
 gsave  2268 1674 0 0 C 1297.13 1433.91 t 0 r /Times-Italic findfont 57.0734 sf 0 0 m (Signal \(training sample\)) show NC gr  0 0 0.933333 c /w 21 def /w2 {w 2 div} def /w3 {w 3 div} def 1250 1457 m20 black
 gsave  2268 1674 0 0 C 1297.13 1333.46 t 0 r /Times-Italic findfont 57.0734 sf 0 0 m (Background \(training sample\)) show NC gr  1 0 0 c 1250 1356 m20 0 0 0.933333 c 1 1 1 c 0 0 0.933333 c 981 208 m 9 Y s 981 233 m 9 Y s 957 225 m 16 X s 988 225 m
 17 X s 973 208 m 15 X s 973 242 m 15 X s 957 217 m 16 Y s 1005 217 m 16 Y s 981 225 m20 1029 208 m 9 Y s 1029 233 m 9 Y s 1005 225 m 16 X s 1036 225 m 17 X s 1021 208 m 15 X s 1021 242 m 15 X s 1005 217 m 16 Y s 1053 217 m 16 Y s 1029 225 m20 1076
 208 m 9 Y s 1076 233 m 9 Y s 1053 225 m 16 X s 1084 225 m 16 X s 1069 208 m 15 X s 1069 242 m 15 X s 1053 217 m 16 Y s 1100 217 m 16 Y s 1076 225 m20 1124 244 m 22 Y s 1124 281 m 22 Y s 1100 274 m 17 X s 1132 274 m 16 X s 1117 244 m 15 X s 1117 303
 m 15 X s 1100 266 m 15 Y s 1148 266 m 15 Y s 1124 274 m20 1172 315 m 36 Y s 1172 366 m 36 Y s 1148 358 m 17 X s 1180 358 m 16 X s 1165 315 m 15 X s 1165 402 m 15 X s 1148 351 m 15 Y s 1196 351 m 15 Y s 1172 358 m20 1220 325 m 38 Y s 1220 378 m 38 Y
 s 1196 370 m 17 X s 1228 370 m 16 X s 1213 325 m 15 X s 1213 416 m 15 X s 1196 363 m 15 Y s 1244 363 m 15 Y s 1220 370 m20 1268 378 m 45 Y s 1268 438 m 46 Y s 1244 431 m 16 X s 1276 431 m 16 X s 1260 378 m 16 X s 1260 484 m 16 X s 1244 423 m 15 Y s
 1292 423 m 15 Y s 1268 431 m20 1316 476 m 56 Y s 1316 547 m 57 Y s 1292 540 m 16 X s 1324 540 m 16 X s 1308 476 m 16 X s 1308 604 m 16 X s 1292 532 m 15 Y s 1340 532 m 15 Y s 1316 540 m20 1364 608 m 69 Y s 1364 693 m 69 Y s 1340 685 m 16 X s 1371
 685 m 17 X s 1356 608 m 15 X s 1356 762 m 15 X s 1340 677 m 16 Y s 1388 677 m 16 Y s 1364 685 m20 1412 542 m 63 Y s 1412 620 m 63 Y s 1388 612 m 16 X s 1419 612 m 17 X s 1404 542 m 15 X s 1404 683 m 15 X s 1388 605 m 15 Y s 1436 605 m 15 Y s 1412
 612 m20 1460 732 m 79 Y s 1460 826 m 79 Y s 1436 818 m 16 X s 1467 818 m 17 X s 1452 732 m 15 X s 1452 905 m 15 X s 1436 811 m 15 Y s 1484 811 m 15 Y s 1460 818 m20 1508 867 m 89 Y s 1508 971 m 88 Y s 1484 963 m 16 X s 1515 963 m 17 X s 1500 867 m
 15 X s 1500 1059 m 15 X s 1484 956 m 15 Y s 1532 956 m 15 Y s 1508 963 m20 1556 1095 m 103 Y s 1556 1213 m 103 Y s 1532 1205 m 16 X s 1563 1205 m 16 X s 1548 1095 m 15 X s 1548 1316 m 15 X s 1532 1198 m 15 Y s 1579 1198 m 15 Y s 1556 1205 m20 1603
 1061 m 100 Y s 1603 1177 m 100 Y s 1579 1169 m 17 X s 1611 1169 m 16 X s 1596 1061 m 15 X s 1596 1277 m 15 X s 1579 1161 m 16 Y s 1627 1161 m 16 Y s 1603 1169 m20 1651 1061 m 100 Y s 1651 1177 m 100 Y s 1627 1169 m 17 X s 1659 1169 m 16 X s 1644
 1061 m 15 X s 1644 1277 m 15 X s 1627 1161 m 16 Y s 1675 1161 m 16 Y s 1651 1169 m20 1699 1049 m 100 Y s 1699 1165 m 100 Y s 1675 1157 m 17 X s 1707 1157 m 16 X s 1692 1049 m 15 X s 1692 1265 m 15 X s 1675 1149 m 16 Y s 1723 1149 m 16 Y s 1699 1157
 m20 1747 1049 m 100 Y s 1747 1165 m 100 Y s 1723 1157 m 17 X s 1755 1157 m 16 X s 1740 1049 m 15 X s 1740 1265 m 15 X s 1723 1149 m 16 Y s 1771 1149 m 16 Y s 1747 1157 m20 1795 1038 m 99 Y s 1795 1152 m 100 Y s 1771 1145 m 16 X s 1803 1145 m 16 X s
 1787 1038 m 16 X s 1787 1252 m 16 X s 1771 1137 m 15 Y s 1819 1137 m 15 Y s 1795 1145 m20 1843 890 m 90 Y s 1843 995 m 90 Y s 1819 988 m 16 X s 1851 988 m 16 X s 1835 890 m 16 X s 1835 1085 m 16 X s 1819 980 m 15 Y s 1867 980 m 15 Y s 1843 988 m20
 1891 553 m 64 Y s 1891 632 m 64 Y s 1867 624 m 16 X s 1898 624 m 17 X s 1883 553 m 15 X s 1883 696 m 15 X s 1867 617 m 15 Y s 1915 617 m 15 Y s 1891 624 m20 1939 410 m 50 Y s 1939 475 m 49 Y s 1915 467 m 16 X s 1946 467 m 17 X s 1931 410 m 15 X s
 1931 524 m 15 X s 1915 460 m 15 Y s 1963 460 m 15 Y s 1939 467 m20 1987 346 m 41 Y s 1987 402 m 41 Y s 1963 395 m 16 X s 1994 395 m 17 X s 1979 346 m 15 X s 1979 443 m 15 X s 1963 387 m 15 Y s 2011 387 m 15 Y s 1987 395 m20 2035 244 m 22 Y s 2035
 281 m 22 Y s 2011 274 m 16 X s 2042 274 m 17 X s 2027 244 m 15 X s 2027 303 m 15 X s 2011 266 m 15 Y s 2059 266 m 15 Y s 2035 274 m20 2082 216 m 14 Y s 2082 245 m 13 Y s 2059 237 m 16 X s 2090 237 m 16 X s 2075 216 m 15 X s 2075 258 m 15 X s 2059
 230 m 15 Y s 2106 230 m 15 Y s 2082 237 m20 2130 201 m 4 Y s 2130 221 m 4 Y s 2106 213 m 17 X s 2138 213 m 16 X s 2123 201 m 15 X s 2123 225 m 15 X s 2106 205 m 16 Y s 2154 205 m 16 Y s 2130 213 m20 1 0 0 c 1 1 1 c 1 0 0 c 238 203 m 16 X s 270 203 m
 16 X s 238 195 m 15 Y s 286 195 m 15 Y s 262 203 m20 286 209 m 16 X s 318 209 m 16 X s 286 201 m 16 Y s 334 201 m 16 Y s 310 209 m20 334 220 m 16 X s 365 220 m 17 X s 334 213 m 15 Y s 382 213 m 15 Y s 358 220 m20 382 242 m 16 X s 413 242 m 17 X s
 382 234 m 16 Y s 430 234 m 16 Y s 406 242 m20 430 269 m 16 X s 461 269 m 17 X s 430 261 m 16 Y s 478 261 m 16 Y s 454 269 m20 478 324 m 16 X s 509 324 m 17 X s 478 316 m 16 Y s 526 316 m 16 Y s 502 324 m20 526 372 m 16 X s 557 372 m 16 X s 526 364 m
 16 Y s 573 364 m 16 Y s 549 372 m20 597 447 m 1 Y s 597 464 m 1 Y s 573 456 m 17 X s 605 456 m 16 X s 590 447 m 15 X s 590 465 m 15 X s 573 448 m 16 Y s 621 448 m 16 Y s 597 456 m20 645 523 m 2 Y s 645 540 m 3 Y s 621 533 m 17 X s 653 533 m 16 X s
 638 523 m 15 X s 638 543 m 15 X s 621 525 m 15 Y s 669 525 m 15 Y s 645 533 m20 693 627 m 4 Y s 693 646 m 4 Y s 669 639 m 17 X s 701 639 m 16 X s 686 627 m 15 X s 686 650 m 15 X s 669 631 m 15 Y s 717 631 m 15 Y s 693 639 m20 741 687 m 4 Y s 741 706
 m 5 Y s 717 699 m 17 X s 749 699 m 16 X s 734 687 m 15 X s 734 711 m 15 X s 717 691 m 15 Y s 765 691 m 15 Y s 741 699 m20 789 776 m 5 Y s 789 797 m 5 Y s 765 789 m 16 X s 797 789 m 16 X s 781 776 m 16 X s 781 802 m 16 X s 765 781 m 16 Y s 813 781 m
 16 Y s 789 789 m20 837 840 m 6 Y s 837 861 m 7 Y s 813 854 m 16 X s 845 854 m 16 X s 829 840 m 16 X s 829 868 m 16 X s 813 846 m 15 Y s 861 846 m 15 Y s 837 854 m20 885 858 m 7 Y s 885 880 m 7 Y s 861 873 m 16 X s 892 873 m 17 X s 877 858 m 15 X s
 877 887 m 15 X s 861 865 m 15 Y s 909 865 m 15 Y s 885 873 m20 933 891 m 8 Y s 933 914 m 7 Y s 909 906 m 16 X s 940 906 m 17 X s 925 891 m 15 X s 925 921 m 15 X s 909 899 m 15 Y s 957 899 m 15 Y s 933 906 m20 981 853 m 7 Y s 981 875 m 6 Y s 957 867
 m 16 X s 988 867 m 17 X s 973 853 m 15 X s 973 881 m 15 X s 957 860 m 15 Y s 1005 860 m 15 Y s 981 867 m20 1029 875 m 7 Y s 1029 897 m 7 Y s 1005 889 m 16 X s 1036 889 m 17 X s 1021 875 m 15 X s 1021 904 m 15 X s 1005 882 m 15 Y s 1053 882 m 15 Y s
 1029 889 m20 1076 827 m 6 Y s 1076 848 m 7 Y s 1053 841 m 16 X s 1084 841 m 16 X s 1069 827 m 15 X s 1069 855 m 15 X s 1053 833 m 15 Y s 1100 833 m 15 Y s 1076 841 m20 1124 802 m 6 Y s 1124 823 m 6 Y s 1100 816 m 17 X s 1132 816 m 16 X s 1117 802 m
 15 X s 1117 829 m 15 X s 1100 808 m 15 Y s 1148 808 m 15 Y s 1124 816 m20 1172 734 m 5 Y s 1172 754 m 5 Y s 1148 747 m 17 X s 1180 747 m 16 X s 1165 734 m 15 X s 1165 759 m 15 X s 1148 739 m 15 Y s 1196 739 m 15 Y s 1172 747 m20 1220 722 m 5 Y s
 1220 743 m 5 Y s 1196 735 m 17 X s 1228 735 m 16 X s 1213 722 m 15 X s 1213 748 m 15 X s 1196 727 m 16 Y s 1244 727 m 16 Y s 1220 735 m20 1268 656 m 4 Y s 1268 675 m 5 Y s 1244 668 m 16 X s 1276 668 m 16 X s 1260 656 m 16 X s 1260 680 m 16 X s 1244
 660 m 15 Y s 1292 660 m 15 Y s 1268 668 m20 1316 591 m 3 Y s 1316 609 m 4 Y s 1292 602 m 16 X s 1324 602 m 16 X s 1308 591 m 16 X s 1308 613 m 16 X s 1292 594 m 15 Y s 1340 594 m 15 Y s 1316 602 m20 1364 551 m 3 Y s 1364 569 m 3 Y s 1340 562 m 16 X
 s 1371 562 m 17 X s 1356 551 m 15 X s 1356 572 m 15 X s 1340 554 m 15 Y s 1388 554 m 15 Y s 1364 562 m20 1412 508 m 2 Y s 1412 525 m 2 Y s 1388 518 m 16 X s 1419 518 m 17 X s 1404 508 m 15 X s 1404 527 m 15 X s 1388 510 m 15 Y s 1436 510 m 15 Y s
 1412 518 m20 1460 454 m 1 Y s 1460 470 m 2 Y s 1436 463 m 16 X s 1467 463 m 17 X s 1452 454 m 15 X s 1452 472 m 15 X s 1436 455 m 15 Y s 1484 455 m 15 Y s 1460 463 m20 1508 424 m 1 Y s 1508 440 m 1 Y s 1484 433 m 16 X s 1515 433 m 17 X s 1500 424 m
 15 X s 1500 441 m 15 X s 1484 425 m 15 Y s 1532 425 m 15 Y s 1508 433 m20 1556 385 m s 1556 400 m s 1532 393 m 16 X s 1563 393 m 16 X s 1548 385 m 15 X s 1548 400 m 15 X s 1532 385 m 15 Y s 1579 385 m 15 Y s 1556 393 m20 1579 344 m 17 X s 1611 344 m
 16 X s 1579 337 m 15 Y s 1627 337 m 15 Y s 1603 344 m20 1627 313 m 17 X s 1659 313 m 16 X s 1627 305 m 15 Y s 1675 305 m 15 Y s 1651 313 m20 1675 261 m 17 X s 1707 261 m 16 X s 1675 253 m 15 Y s 1723 253 m 15 Y s 1699 261 m20 1723 244 m 17 X s 1755
 244 m 16 X s 1723 236 m 16 Y s 1771 236 m 16 Y s 1747 244 m20 1771 225 m 16 X s 1803 225 m 16 X s 1771 217 m 15 Y s 1819 217 m 15 Y s 1795 225 m20 1819 214 m 16 X s 1851 214 m 16 X s 1819 206 m 16 Y s 1867 206 m 16 Y s 1843 214 m20 1867 209 m 16 X s
 1898 209 m 17 X s 1867 201 m 16 Y s 1915 201 m 16 Y s 1891 209 m20 1915 206 m 16 X s 1946 206 m 17 X s 1915 199 m 15 Y s 1963 199 m 15 Y s 1939 206 m20 1963 203 m 16 X s 1994 203 m 17 X s 1963 195 m 15 Y s 2011 195 m 15 Y s 1987 203 m20 black
 gsave  2268 1674 0 0 C 272.126 1238.87 t 0 r /Helvetica-Bold findfont 49.4636 sf 0 0 m (Kolmogorov\255Smirnov test: signal \(background\) probability =     0 \(0.092\)) show NC gr  238 201 m 1916 X s 392 243 m -42 Y s 458 222 m -21 Y s 524 222 m -21
 Y s 590 222 m -21 Y s 655 222 m -21 Y s 721 243 m -42 Y s 787 222 m -21 Y s 853 222 m -21 Y s 919 222 m -21 Y s 985 222 m -21 Y s 1051 243 m -42 Y s 1116 222 m -21 Y s 1182 222 m -21 Y s 1248 222 m -21 Y s 1314 222 m -21 Y s 1380 243 m -42 Y s 1446
 222 m -21 Y s 1511 222 m -21 Y s 1577 222 m -21 Y s 1643 222 m -21 Y s 1709 243 m -42 Y s 1775 222 m -21 Y s 1841 222 m -21 Y s 1906 222 m -21 Y s 1972 222 m -21 Y s 2038 243 m -42 Y s 392 243 m -42 Y s 326 222 m -21 Y s 260 222 m -21 Y s 2038 243 m
 -42 Y s 2104 222 m -21 Y s 238 1507 m 1916 X s 392 1464 m 43 Y s 458 1486 m 21 Y s 524 1486 m 21 Y s 590 1486 m 21 Y s 655 1486 m 21 Y s 721 1464 m 43 Y s 787 1486 m 21 Y s 853 1486 m 21 Y s 919 1486 m 21 Y s 985 1486 m 21 Y s 1051 1464 m 43 Y s
 1116 1486 m 21 Y s 1182 1486 m 21 Y s 1248 1486 m 21 Y s 1314 1486 m 21 Y s 1380 1464 m 43 Y s 1446 1486 m 21 Y s 1511 1486 m 21 Y s 1577 1486 m 21 Y s 1643 1486 m 21 Y s 1709 1464 m 43 Y s 1775 1486 m 21 Y s 1841 1486 m 21 Y s 1906 1486 m 21 Y s
 1972 1486 m 21 Y s 2038 1464 m 43 Y s 392 1464 m 43 Y s 326 1486 m 21 Y s 260 1486 m 21 Y s 2038 1464 m 43 Y s 2104 1486 m 21 Y s 238 201 m 1306 Y s 291 201 m -53 X s 265 233 m -27 X s 265 264 m -27 X s 265 296 m -27 X s 265 328 m -27 X s 291 360 m
 -53 X s 265 391 m -27 X s 265 423 m -27 X s 265 455 m -27 X s 265 487 m -27 X s 291 518 m -53 X s 265 550 m -27 X s 265 582 m -27 X s 265 613 m -27 X s 265 645 m -27 X s 291 677 m -53 X s 265 709 m -27 X s 265 740 m -27 X s 265 772 m -27 X s 265 804
 m -27 X s 291 836 m -53 X s 265 867 m -27 X s 265 899 m -27 X s 265 931 m -27 X s 265 963 m -27 X s 291 994 m -53 X s 265 1026 m -27 X s 265 1058 m -27 X s 265 1089 m -27 X s 265 1121 m -27 X s 291 1153 m -53 X s 265 1185 m -27 X s 265 1216 m -27 X
 s 265 1248 m -27 X s 265 1280 m -27 X s 291 1312 m -53 X s 265 1343 m -27 X s 265 1375 m -27 X s 265 1407 m -27 X s 265 1439 m -27 X s 291 1470 m -53 X s 291 1470 m -53 X s 265 1502 m -27 X s 2154 201 m 1306 Y s 2101 201 m 53 X s 2128 233 m 26 X s
 2128 264 m 26 X s 2128 296 m 26 X s 2128 328 m 26 X s 2101 360 m 53 X s 2128 391 m 26 X s 2128 423 m 26 X s 2128 455 m 26 X s 2128 487 m 26 X s 2101 518 m 53 X s 2128 550 m 26 X s 2128 582 m 26 X s 2128 613 m 26 X s 2128 645 m 26 X s 2101 677 m 53 X
 s 2128 709 m 26 X s 2128 740 m 26 X s 2128 772 m 26 X s 2128 804 m 26 X s 2101 836 m 53 X s 2128 867 m 26 X s 2128 899 m 26 X s 2128 931 m 26 X s 2128 963 m 26 X s 2101 994 m 53 X s 2128 1026 m 26 X s 2128 1058 m 26 X s 2128 1089 m 26 X s 2128 1121
 m 26 X s 2101 1153 m 53 X s 2128 1185 m 26 X s 2128 1216 m 26 X s 2128 1248 m 26 X s 2128 1280 m 26 X s 2101 1312 m 53 X s 2128 1343 m 26 X s 2128 1375 m 26 X s 2128 1407 m 26 X s 2128 1439 m 26 X s 2101 1470 m 53 X s 2101 1470 m 53 X s 2128 1502 m
 26 X s
 gsave  2268 1674 0 0 C 2211.02 192.528 t 90 r /Helvetica-Bold findfont 45.6587 sf 0 0 m (U/O\255flow \(S,B\): \(0.0, 0.0\)% / \(0.0, 0.0\)%) show NC gr  0.490196 0.545098 0.615686 c 0.364706 0.419608 0.490196 c 1587 96 23 1570 bf 0.490196 0.545098
 0.615686 c 23 1570 m 1587 X s 1610 1570 m 96 Y s 1610 1666 m -1587 X s 23 1666 m -96 Y s 1 1 1 c black 1 1 1 c
 gsave  2268 1674 0 0 C 98.9272 1598.06 t 0 r /Helvetica-Bold findfont 68.4881 sf 0 0 m (TMVA overtraining check for classifier: BDT) show NC gr  0.490196 0.545098 0.615686 c 1 1 1 c 368 98 1786 1523 bf 368 98 1786 1523 bf 368 98 1786 1523 bl
/WT 3.8366 def /HT 3.89676 def /XS 1786 def /YY 1621 def /NX 96 def /NY 138 def /DrawCell {WT HT XX YY bf /NBBD NBBD 1 add def NBBD NBB eq {exit} if /XX WT XX add def IX NX eq {/YY YY HT sub def /XX XS def /IX 0 def} if /IX IX 1 add def} def /DrawCT
 {/NBB NX NY mul def /XX XS def /IX 1 def /NBBD 0 def /RC 0 def /GC 1 def /BC 2 def 1 1 NBB {/NB CT RC get def NB 301 ge {/NBL NB 300 sub def 1 1 NBL {DrawCell} for /RC RC 1 add def /GC RC 1 add def /BC RC 2 add def}{CT RC get 255 div CT GC get 255
 div CT BC get 255 div setrgbcolor DrawCell /RC RC 3 add def /GC GC 3 add def /BC BC 3 add def} ifelse NBBD NBB eq {exit} if} for /YY YY HT sub def clear} def /CT [ 255 255 255 315 255 251 246 255 215 157 255 175 59 255 165 33 301 255 186 86 255 222
 175 255 255 255 387 255 249 241 255 183 77 255 165 33 305 255 198 116 255 255 255 386 255 193 102 255 165 33 307 255 210 143 255 255 255 384 255 229 192 255 165 33 308 255 168 41 255 247 237 255 255 255 383 255 196 110 255 165 33 309 255 223 177 255
 255 255 383 255 183 77 255 165 33 309 255 205 132 255 255 255 312 255 191 191 310 214 214 234 204 204 229 302 255 255 255 304 224 224 239 204 204 229 302 244 244 249 301 204 204 229 302 244 244 249 255 255 255 304 214 214 234 204 204 229 301 234 234
 244 255 255 255 303 214 214 234 204 204 229 302 255 255 255 323 255 183 77 255 165 33 309 255 201 121 255 255 255 312 255 0 0 309 255 47 47 91 91 173 51 51 153 302 214 214 234 255 255 255 303 91 91 173 51 51 153 302 214 214 234 255 255 255 63 63 159
 51 51 153 301 173 173 214 255 255 255 304 61 61 158 51 51 153 301 224 224 239 255 255 255 303 61 61 158 51 51 153 302 224 224 239 255 255 255 322 255 193 104 255 165 33 309 255 219 166 255 255 255 311 255 178 178 255 0 0 309 255 102 102 91 91 173 51
 51 153 302 140 140 197 255 255 255 302 206 206 230 51 51 153 303 214 214 234 255 255 255 132 132 193 51 51 153 301 108 108 181 255 255 255 303 197 197 226 51 51 153 301 81 81 168 255 255 255 303 197 197 226 51 51 153 303 157 157 206 255 255 255 322
 255 219 166 255 165 33 309 255 241 221 255 255 255 311 255 223 223 255 191 191 302 255 95 95 255 0 0 301 255 63 63 255 191 191 302 255 223 223 91 91 173 51 51 153 302 61 61 158 244 244 249 255 255 255 301 132 132 193 51 51 153 303 214 214 234 255
 255 255 229 229 242 51 51 153 302 242 242 248 255 255 255 302 122 122 188 51 51 153 301 178 178 216 255 255 255 303 132 132 193 51 51 153 303 91 91 173 255 255 255 322 255 250 243 255 170 46 255 165 33 307 255 192 99 255 255 255 316 255 63 63 255 0
 0 301 255 127 127 255 255 255 303 91 91 173 51 51 153 303 173 173 214 255 255 255 242 242 248 61 61 158 51 51 153 303 214 214 234 255 255 255 301 81 81 168 51 51 153 301 178 178 216 255 255 255 302 71 71 163 51 51 153 301 242 242 248 255 255 255 303
 71 71 163 51 51 153 71 71 163 51 51 153 302 234 234 244 255 255 255 322 255 241 221 255 172 50 255 165 33 305 255 174 55 255 244 228 255 255 255 316 255 12 12 255 0 0 301 255 183 183 255 255 255 303 91 91 173 51 51 153 301 91 91 173 51 51 153 91 91
 173 255 255 255 142 142 198 51 51 153 83 83 169 51 51 153 302 214 214 234 255 255 255 301 148 148 201 51 51 153 301 102 102 178 255 255 255 301 204 204 229 51 51 153 301 108 108 181 255 255 255 303 193 193 224 51 51 153 301 148 148 201 122 122 188
 51 51 153 301 165 165 210 255 255 255 322 255 221 171 255 205 132 255 183 77 255 165 33 303 255 205 132 255 215 157 255 228 188 255 255 255 315 255 204 204 255 0 0 302 255 242 242 255 255 255 303 91 91 173 51 51 153 301 178 178 216 51 51 153 301 193
 193 224 51 51 153 301 152 152 203 51 51 153 302 214 214 234 255 255 255 301 224 224 239 51 51 153 302 234 234 244 255 255 255 127 127 191 51 51 153 301 183 183 219 255 255 255 303 114 114 184 51 51 153 301 203 203 229 191 191 223 51 51 153 301 101
 101 178 255 255 255 315 255 232 199 303 255 237 210 255 255 255 255 237 210 255 198 116 255 255 255 301 255 237 210 255 221 171 255 223 177 255 246 232 255 255 255 301 255 196 110 255 241 221 255 255 255 255 237 210 255 232 199 302 255 237 210 255
 255 255 308 255 153 153 255 0 0 301 255 25 25 255 255 255 304 91 91 173 51 51 153 301 255 255 255 71 71 163 51 51 153 71 71 163 51 51 153 301 234 234 244 51 51 153 302 214 214 234 255 255 255 302 71 71 163 51 51 153 301 183 183 219 255 255 255 63 63
 159 51 51 153 301 234 234 244 255 255 255 302 244 244 249 51 51 153 301 61 61 158 255 255 255 301 61 61 158 51 51 153 301 242 242 248 255 255 255 312 255 246 232 255 232 199 255 255 255 303 255 250 243 255 232 199 255 205 132 255 255 255 308 255 250
 243 255 192 99 255 232 199 255 250 243 255 255 255 302 255 250 243 255 232 199 255 255 255 307 255 102 102 255 0 0 301 255 76 76 255 255 255 304 91 91 173 51 51 153 301 255 255 255 142 142 198 51 51 153 302 101 101 178 255 255 255 51 51 153 302 214
 214 234 255 255 255 302 132 132 193 51 51 153 301 122 122 188 203 203 229 51 51 153 301 91 91 173 255 255 255 303 183 183 219 51 51 153 301 112 112 183 255 255 255 301 112 112 183 51 51 153 301 165 165 210 255 255 255 311 255 247 237 255 244 228 255
 255 255 306 255 233 201 255 255 255 308 255 251 246 255 237 210 255 255 255 306 255 233 201 255 255 255 306 255 40 40 255 0 0 301 255 132 132 255 255 255 304 91 91 173 51 51 153 301 255 255 255 222 222 238 51 51 153 302 181 181 218 255 255 255 51 51
 153 302 214 214 234 255 255 255 302 197 197 226 51 51 153 301 59 59 157 140 140 197 51 51 153 301 157 157 206 255 255 255 303 116 116 185 51 51 153 301 67 67 161 91 91 173 301 67 67 161 51 51 153 301 81 81 168 255 255 255 306 255 237 210 255 232 199
 304 255 255 255 307 255 250 243 255 226 185 255 232 199 307 255 228 188 255 255 255 308 255 221 171 255 232 199 304 255 224 197 255 0 0 302 255 173 146 255 232 199 304 91 87 162 51 51 153 301 255 232 199 301 101 92 156 51 51 153 63 58 145 255 232
 199 301 51 51 153 302 214 196 190 255 232 199 303 61 56 147 51 51 153 304 224 201 184 255 232 199 302 244 226 205 51 51 153 309 203 190 196 255 232 199 304 255 238 213 255 183 77 255 165 33 303 255 232 199 255 255 255 308 255 204 130 255 165 33 307
 255 228 188 255 255 255 308 255 221 171 255 165 33 304 255 132 26 255 0 0 302 255 156 31 255 165 33 304 91 73 129 51 51 153 301 255 165 33 306 51 51 153 302 214 142 57 255 165 33 303 122 90 111 51 51 153 303 81 68 135 255 165 33 303 193 130 69 51 51
 153 301 61 56 147 102 79 123 303 61 56 147 51 51 153 301 152 107 93 255 165 33 304 255 187 88 255 183 77 255 165 33 303 255 255 255 309 255 232 199 255 165 33 307 255 247 237 255 255 255 308 255 246 232 255 165 33 304 255 92 18 255 0 0 301 255 26 5
 255 165 33 305 91 73 129 51 51 153 301 255 165 33 306 51 51 153 302 214 142 57 255 165 33 303 189 128 71 51 51 153 303 148 105 95 255 165 33 303 124 92 109 51 51 153 301 148 105 95 255 165 33 303 148 105 95 51 51 153 301 83 69 133 255 165 33 304 255
 187 88 255 183 77 255 165 33 303 255 255 255 309 255 232 199 255 165 33 307 255 255 255 310 255 165 33 304 255 57 11 255 0 0 301 255 66 13 255 165 33 305 91 73 129 51 51 153 301 255 165 33 306 51 51 153 302 214 142 57 255 165 33 303 244 159 39 63 58
 145 51 51 153 302 214 142 57 255 165 33 303 61 56 147 51 51 153 301 224 147 51 255 165 33 303 203 136 63 51 51 153 302 224 147 51 255 165 33 303 255 187 88 255 183 77 255 165 33 303 255 255 255 309 255 232 199 255 165 33 307 255 246 232 255 255 255
 308 255 243 227 255 165 33 304 255 132 26 255 123 24 301 255 140 28 255 165 33 305 214 142 57 204 136 63 301 255 165 33 306 204 136 63 302 244 159 39 255 165 33 304 216 143 55 204 136 63 302 255 165 33 303 244 159 39 204 136 63 302 255 165 33 305
 204 136 63 302 234 153 45 255 165 33 303 255 187 88 255 183 77 255 165 33 303 255 241 221 255 255 255 308 255 215 157 255 165 33 307 255 228 188 255 255 255 308 255 221 171 255 165 33 359 255 187 88 255 183 77 255 165 33 303 255 204 130 255 255 255
 307 255 251 246 255 174 55 255 165 33 307 255 197 112 255 255 255 308 255 183 77 255 165 33 359 255 187 88 255 183 77 255 165 33 304 255 237 210 255 255 255 306 255 201 121 255 165 33 309 255 228 188 255 255 255 306 255 210 143 255 165 33 360 255
 187 88 255 183 77 255 165 33 304 255 169 44 255 232 199 255 255 255 304 255 205 132 255 165 33 310 255 169 44 255 221 171 255 255 255 304 255 214 155 255 165 33 361 255 187 88 242 188 109 255 187 88 306 255 210 143 255 232 199 302 255 201 121 255
 187 88 313 255 205 132 255 232 199 302 255 205 132 255 187 88 362 255 204 130] def /NY 25 def DrawCT 
 gr  gr showpage
end
%%EOF
