%!PS-Adobe-2.0 EPSF-2.0
%%BoundingBox:  0 0 567 419
%%Title: plots/overtrain_BDTG.eps: TMVA comparison BDTG
%%Creator: ROOT Version 5.34/18
%%CreationDate: Mon May  7 10:48:33 2018
%%EndComments
%%BeginProlog
80 dict begin
/s {stroke} def /l {lineto} def /m {moveto} def /t {translate} def
/r {rotate} def /rl {roll}  def /R {repeat} def
/d {rlineto} def /rm {rmoveto} def /gr {grestore} def /f {eofill} def
/c {setrgbcolor} def /black {0 setgray} def /sd {setdash} def
/cl {closepath} def /sf {scalefont setfont} def /lw {setlinewidth} def
/box {m dup 0 exch d exch 0 d 0 exch neg d cl} def
/NC{systemdict begin initclip end}def/C{NC box clip newpath}def
/bl {box s} def /bf {box f} def /Y { 0 exch d} def /X { 0 d} def 
/K {{pop pop 0 moveto} exch kshow} bind def
/ita {/ang 15 def gsave [1 0 ang dup sin exch cos div 1 0 0] concat} def 
/mp {newpath /y exch def /x exch def} def
/side {[w .77 mul w .23 mul] .385 w mul sd w 0 l currentpoint t -144 r} def
/mr {mp x y w2 0 360 arc} def /m24 {mr s} def /m20 {mr f} def
/mb {mp x y w2 add m w2 neg 0 d 0 w neg d w 0 d 0 w d cl} def
/mt {mp x y w2 add m w2 neg w neg d w 0 d cl} def
/m21 {mb f} def /m25 {mb s} def /m22 {mt f} def /m26{mt s} def
/m23 {mp x y w2 sub m w2 w d w neg 0 d cl f} def
/m27 {mp x y w2 add m w3 neg w2 neg d w3 w2 neg d w3 w2 d cl s} def
/m28 {mp x w2 sub y w2 sub w3 add m w3 0 d  0 w3 neg d w3 0 d 0 w3 d w3 0 d  0 w3 d w3 neg 0 d 0 w3 d w3 neg 0 d 0 w3 neg d w3 neg 0 d cl s } def
/m29 {mp gsave x w2 sub y w2 add w3 sub m currentpoint t 4 {side} repeat cl fill gr} def
/m30 {mp gsave x w2 sub y w2 add w3 sub m currentpoint t 4 {side} repeat cl s gr} def
/m31 {mp x y w2 sub m 0 w d x w2 sub y m w 0 d x w2 sub y w2 add m w w neg d x w2 sub y w2 sub m w w d s} def
/m32 {mp x y w2 sub m w2 w d w neg 0 d cl s} def
/m33 {mp x y w2 add m w3 neg w2 neg d w3 w2 neg d w3 w2 d cl f} def
/m34 {mp x w2 sub y w2 sub w3 add m w3 0 d  0 w3 neg d w3 0 d 0 w3 d w3 0 d  0 w3 d w3 neg 0 d 0 w3 d w3 neg 0 d 0 w3 neg d w3 neg 0 d cl f } def
/m2 {mp x y w2 sub m 0 w d x w2 sub y m w 0 d s} def
/m5 {mp x w2 sub y w2 sub m w w d x w2 sub y w2 add m w w neg d s} def
/reEncode {exch findfont dup length dict begin {1 index /FID eq  {pop pop} {def} ifelse } forall /Encoding exch def currentdict end dup /FontName get exch definefont pop } def [/Times-Bold /Times-Italic /Times-BoldItalic /Helvetica /Helvetica-Oblique
 /Helvetica-Bold /Helvetica-BoldOblique /Courier /Courier-Oblique /Courier-Bold /Courier-BoldOblique /Times-Roman /AvantGarde-Book /AvantGarde-BookOblique /AvantGarde-Demi /AvantGarde-DemiOblique /Bookman-Demi /Bookman-DemiItalic /Bookman-Light
 /Bookman-LightItalic /Helvetica-Narrow /Helvetica-Narrow-Bold /Helvetica-Narrow-BoldOblique /Helvetica-Narrow-Oblique /NewCenturySchlbk-Roman /NewCenturySchlbk-Bold /NewCenturySchlbk-BoldItalic /NewCenturySchlbk-Italic /Palatino-Bold
 /Palatino-BoldItalic /Palatino-Italic /Palatino-Roman ] {ISOLatin1Encoding reEncode } forall
%%EndProlog
%%BeginSetup
%%EndSetup
newpath  gsave  .25 .25 scale  gsave  0 0 t 0.490196 0.545098 0.615686 c[  ] 0 sd 3 lw 0.941176 0.941176 0.941176 c 2268 1674 0 0 bf black 1 1 0.992157 c 1916 1306 238 201 bf black 1916 1306 238 201 bl 1 1 0.992157 c 1916 1306 238 201 bf black 1916
 1306 238 201 bl 238 201 m 1916 X s
 gsave  2268 1674 0 0 C 1636.1 30.4391 t 0 r /Helvetica-Bold findfont 68.4881 sf 0 0 m (BDTG response) show NC gr  238 243 m -42 Y s 289 222 m -21 Y s 339 222 m -21 Y s 389 222 m -21 Y s 440 243 m -42 Y s 490 222 m -21 Y s 541 222 m -21 Y s 591 222 m
 -21 Y s 642 243 m -42 Y s 692 222 m -21 Y s 742 222 m -21 Y s 793 222 m -21 Y s 843 243 m -42 Y s 894 222 m -21 Y s 944 222 m -21 Y s 995 222 m -21 Y s 1045 243 m -42 Y s 1095 222 m -21 Y s 1146 222 m -21 Y s 1196 222 m -21 Y s 1247 243 m -42 Y s
 1297 222 m -21 Y s 1348 222 m -21 Y s 1398 222 m -21 Y s 1448 243 m -42 Y s 1499 222 m -21 Y s 1549 222 m -21 Y s 1600 222 m -21 Y s 1650 243 m -42 Y s 1701 222 m -21 Y s 1751 222 m -21 Y s 1801 222 m -21 Y s 1852 243 m -42 Y s 1902 222 m -21 Y s
 1953 222 m -21 Y s 2003 222 m -21 Y s 2054 243 m -42 Y s 238 243 m -42 Y s 2054 243 m -42 Y s 2104 222 m -21 Y s
 gsave  2268 1674 0 0 C 213.074 129.366 t 0 r /Helvetica-Bold findfont 60.8783 sf 0 0 m (\2551) show NC gr 
 gsave  2268 1674 0 0 C 384.294 129.366 t 0 r /Helvetica-Bold findfont 60.8783 sf 0 0 m (\2550.8) show NC gr 
 gsave  2268 1674 0 0 C 585.954 129.366 t 0 r /Helvetica-Bold findfont 60.8783 sf 0 0 m (\2550.6) show NC gr 
 gsave  2268 1674 0 0 C 787.613 129.366 t 0 r /Helvetica-Bold findfont 60.8783 sf 0 0 m (\2550.4) show NC gr 
 gsave  2268 1674 0 0 C 989.272 129.366 t 0 r /Helvetica-Bold findfont 60.8783 sf 0 0 m (\2550.2) show NC gr 
 gsave  2268 1674 0 0 C 1225.18 129.366 t 0 r /Helvetica-Bold findfont 60.8783 sf 0 0 m (0) show NC gr 
 gsave  2268 1674 0 0 C 1404.01 129.366 t 0 r /Helvetica-Bold findfont 60.8783 sf 0 0 m (0.2) show NC gr 
 gsave  2268 1674 0 0 C 1605.67 129.366 t 0 r /Helvetica-Bold findfont 60.8783 sf 0 0 m (0.4) show NC gr 
 gsave  2268 1674 0 0 C 1807.32 129.366 t 0 r /Helvetica-Bold findfont 60.8783 sf 0 0 m (0.6) show NC gr 
 gsave  2268 1674 0 0 C 2008.98 129.366 t 0 r /Helvetica-Bold findfont 60.8783 sf 0 0 m (0.8) show NC gr  238 1507 m 1916 X s 238 1464 m 43 Y s 289 1486 m 21 Y s 339 1486 m 21 Y s 389 1486 m 21 Y s 440 1464 m 43 Y s 490 1486 m 21 Y s 541 1486 m 21 Y
 s 591 1486 m 21 Y s 642 1464 m 43 Y s 692 1486 m 21 Y s 742 1486 m 21 Y s 793 1486 m 21 Y s 843 1464 m 43 Y s 894 1486 m 21 Y s 944 1486 m 21 Y s 995 1486 m 21 Y s 1045 1464 m 43 Y s 1095 1486 m 21 Y s 1146 1486 m 21 Y s 1196 1486 m 21 Y s 1247 1464
 m 43 Y s 1297 1486 m 21 Y s 1348 1486 m 21 Y s 1398 1486 m 21 Y s 1448 1464 m 43 Y s 1499 1486 m 21 Y s 1549 1486 m 21 Y s 1600 1486 m 21 Y s 1650 1464 m 43 Y s 1701 1486 m 21 Y s 1751 1486 m 21 Y s 1801 1486 m 21 Y s 1852 1464 m 43 Y s 1902 1486 m
 21 Y s 1953 1486 m 21 Y s 2003 1486 m 21 Y s 2054 1464 m 43 Y s 238 1464 m 43 Y s 2054 1464 m 43 Y s 2104 1486 m 21 Y s 238 201 m 1306 Y s
 gsave  2268 1674 0 0 C 64.6832 1426.84 t 90 r /Helvetica-Bold findfont 68.4881 sf 0 0 m (dx) show NC gr 
 gsave  2268 1674 0 0 C 34.244 1407.81 t 90 r /Helvetica-Bold findfont 45.6587 sf 0 0 m ( ) show NC gr 
 gsave  2268 1674 0 0 C 64.6832 1388.79 t 90 r /Helvetica-Bold findfont 68.4881 sf 0 0 m (/) show NC gr 
 gsave  2268 1674 0 0 C 30.4391 1369.76 t 90 r /Helvetica-Bold findfont 45.6587 sf 0 0 m ( ) show NC gr 
 gsave  2268 1674 0 0 C 60.8783 1111.03 t 90 r /Helvetica-Bold findfont 68.4881 sf 0 0 m (\(1/N\) dN) show NC gr  291 201 m -53 X s 265 265 m -27 X s 265 330 m -27 X s 265 394 m -27 X s 291 459 m -53 X s 265 523 m -27 X s 265 587 m -27 X s 265 652 m
 -27 X s 291 716 m -53 X s 265 781 m -27 X s 265 845 m -27 X s 265 910 m -27 X s 291 974 m -53 X s 265 1038 m -27 X s 265 1103 m -27 X s 265 1167 m -27 X s 291 1232 m -53 X s 265 1296 m -27 X s 265 1361 m -27 X s 265 1425 m -27 X s 291 1490 m -53 X s
 291 1490 m -53 X s
 gsave  2268 1674 0 0 C 175.025 178.83 t 0 r /Helvetica-Bold findfont 60.8783 sf 0 0 m (0) show NC gr 
 gsave  2268 1674 0 0 C 175.025 433.758 t 0 r /Helvetica-Bold findfont 60.8783 sf 0 0 m (2) show NC gr 
 gsave  2268 1674 0 0 C 175.025 692.491 t 0 r /Helvetica-Bold findfont 60.8783 sf 0 0 m (4) show NC gr 
 gsave  2268 1674 0 0 C 175.025 955.028 t 0 r /Helvetica-Bold findfont 60.8783 sf 0 0 m (6) show NC gr 
 gsave  2268 1674 0 0 C 175.025 1209.96 t 0 r /Helvetica-Bold findfont 60.8783 sf 0 0 m (8) show NC gr 
 gsave  2268 1674 0 0 C 140.781 1468.69 t 0 r /Helvetica-Bold findfont 60.8783 sf 0 0 m (10) show NC gr  2154 201 m 1306 Y s 2101 201 m 53 X s 2128 265 m 26 X s 2128 330 m 26 X s 2128 394 m 26 X s 2101 459 m 53 X s 2128 523 m 26 X s 2128 587 m 26 X s
 2128 652 m 26 X s 2101 716 m 53 X s 2128 781 m 26 X s 2128 845 m 26 X s 2128 910 m 26 X s 2101 974 m 53 X s 2128 1038 m 26 X s 2128 1103 m 26 X s 2128 1167 m 26 X s 2101 1232 m 53 X s 2128 1296 m 26 X s 2128 1361 m 26 X s 2128 1425 m 26 X s 2101
 1490 m 53 X s 2101 1490 m 53 X s 0.490196 0.545098 0.615686 c 0.95 0.95 0.95 c 0.490196 0.545098 0.615686 c 907 201 238 1306 bl 238 1306 m 907 X s 1145 1306 m 201 Y s 1145 1507 m -907 X s 238 1507 m -201 Y s black
 gsave  2268 1674 0 0 C 419.528 1433.91 t 0 r /Times-Italic findfont 57.0734 sf 0 0 m (Signal \(test sample\)) show NC gr  0.49 0.6 0.82 c 265 1421 m 127 X 71 Y -127 X f 0 0 0.933333 c 265 1492 m 127 X s 265 1421 m 127 X s 392 1421 m 71 Y s 265 1421
 m 71 Y s black
 gsave  2268 1674 0 0 C 419.528 1333.46 t 0 r /Times-Italic findfont 57.0734 sf 0 0 m (Background \(test sample\)) show NC gr  1 0 0 c 392 1354 m -33 -33 d s 381 1391 m -70 -70 d s 333 1391 m -68 -67 d s 285 1391 m -20 -19 d s 0 lw 0 0 0.933333 c 1 0
 0 c 3 lw 265 1391 m 127 X s 265 1321 m 127 X s 392 1321 m 70 Y s 265 1321 m 70 Y s 0 0 0.933333 c 0.49 0.6 0.82 c black 0.49 0.6 0.82 c 238 201 m 27 Y 48 X -18 Y 48 X 15 Y 96 X -6 Y 48 X 6 Y 48 X 6 Y 47 X -18 Y 48 X 6 Y 48 X 3 Y 48 X 15 Y 48 X -27 Y
 48 X 12 Y 48 X -12 Y 48 X 9 Y 48 X -3 Y 48 X 12 Y 48 X -9 Y 47 X 12 Y 48 X -12 Y 48 X 6 Y 48 X 12 Y 48 X -9 Y 48 X 6 Y 48 X -9 Y 48 X 21 Y 48 X -3 Y 48 X -9 Y 47 X 27 Y 48 X 18 Y 48 X 21 Y 144 X 18 Y 48 X 24 Y 48 X 39 Y 48 X 21 Y 48 X 112 Y 48 X 84
 Y 47 X -144 Y 48 X -253 Y f 0 0 0.933333 c 0.49 0.6 0.82 c 0 0 0.933333 c 238 228 m 48 X -18 Y 48 X 15 Y 96 X -6 Y 48 X 6 Y 48 X 6 Y 47 X -18 Y 48 X 6 Y 48 X 3 Y 48 X 15 Y 48 X -27 Y 48 X 12 Y 48 X -12 Y 48 X 9 Y 48 X -3 Y 48 X 12 Y 48 X -9 Y 47 X
 12 Y 48 X -12 Y 48 X 6 Y 48 X 12 Y 48 X -9 Y 48 X 6 Y 48 X -9 Y 48 X 21 Y 48 X -3 Y 48 X -9 Y 47 X 27 Y 48 X 18 Y 48 X 21 Y 144 X 18 Y 48 X 24 Y 48 X 39 Y 48 X 21 Y 48 X 112 Y 48 X 84 Y 47 X -144 Y 48 X -253 Y s 1 0 0 c black 1 0 0 c 2134 210 m -9
 -9 d s 2103 227 m -26 -26 d s 2059 231 m -30 -30 d s 2013 233 m -32 -32 d s 1968 236 m -35 -35 d s 1919 235 m -34 -34 d s 1870 235 m -34 -34 d s 1821 233 m -33 -32 d s 1774 235 m -34 -34 d s 1724 233 m -1 -1 d s 1721 230 m -29 -29 d s 1672 229 m -28
 -28 d s 1623 228 m -27 -27 d s 1573 226 m -25 -25 d s 1523 224 m -23 -23 d s 1477 227 m -25 -26 d s 1428 226 m -24 -25 d s 1380 225 m -25 -24 d s 1335 228 m -28 -27 d s 1290 232 m -31 -31 d s 1240 230 m -29 -29 d s 1188 226 m -25 -25 d s 1145 231 m
 -30 -30 d s 1096 230 m -29 -29 d s 1049 231 m -30 -30 d s 1001 232 m -30 -31 d s 956 234 m -34 -33 d s 903 230 m -29 -29 d s 859 234 m -33 -33 d s 813 236 m -35 -35 d s 766 237 m -36 -36 d s 718 237 m -36 -36 d s 676 243 m -42 -42 d s 632 247 m -46
 -46 d s 585 249 m -47 -48 d s 549 260 m -59 -59 d s 518 277 m -77 -76 d s 475 282 m -82 -81 d s 430 285 m -85 -84 d s 405 309 m -108 -108 d s 382 334 m -133 -133 d s 345 345 m -107 -107 d s 334 382 m -96 -96 d s 332 428 m -94 -94 d s 286 430 m -48
 -48 d s 286 478 m -48 -47 d s 286 527 m -48 -48 d s 286 575 m -48 -48 d s 286 623 m -48 -48 d s 286 671 m -48 -48 d s 286 719 m -48 -48 d s 286 767 m -48 -48 d s 286 815 m -48 -48 d s 286 863 m -48 -48 d s 286 911 m -48 -48 d s 286 959 m -48 -47 d s
 286 1008 m -48 -48 d s 286 1056 m -48 -48 d s 286 1104 m -48 -48 d s 286 1152 m -48 -48 d s 286 1200 m -48 -48 d s 243 1205 m -5 -5 d s 0 lw 3 lw 238 1205 m 48 X -777 Y 48 X -83 Y 48 X -36 Y 48 X -27 Y 48 X -5 Y 48 X -17 Y 47 X -11 Y 48 X -2 Y 48 X
 -4 Y 48 X -6 Y 96 X -3 Y 48 X -4 Y 48 X 4 Y 48 X -2 Y 48 X -1 Y 48 X -1 Y 47 X 1 Y 48 X -5 Y 48 X 4 Y 48 X 2 Y 48 X -4 Y 48 X -3 Y 48 X 1 Y 48 X 1 Y 48 X -3 Y 48 X 2 Y 47 X 2 Y 48 X 1 Y 48 X 1 Y 48 X 3 Y 48 X 2 Y 48 X -2 Y 48 X 2 Y 96 X 1 Y 48 X -3
 Y 48 X -6 Y 47 X -17 Y 48 X -9 Y s 0.490196 0.545098 0.615686 c 0.95 0.95 0.95 c 0.490196 0.545098 0.615686 c 952 201 1202 1306 bl 1202 1306 m 952 X s 2154 1306 m 201 Y s 2154 1507 m -952 X s 1202 1507 m -201 Y s black
 gsave  2268 1674 0 0 C 1297.13 1433.91 t 0 r /Times-Italic findfont 57.0734 sf 0 0 m (Signal \(training sample\)) show NC gr  0 0 0.933333 c /w 21 def /w2 {w 2 div} def /w3 {w 3 div} def 1250 1457 m20 black
 gsave  2268 1674 0 0 C 1297.13 1333.46 t 0 r /Times-Italic findfont 57.0734 sf 0 0 m (Background \(training sample\)) show NC gr  1 0 0 c 1250 1356 m20 0 0 0.933333 c 1 1 1 c 0 0 0.933333 c 238 207 m 16 X s 270 207 m 16 X s 238 199 m 16 Y s 286 199
 m 16 Y s 262 207 m20 334 213 m 16 X s 365 213 m 17 X s 334 205 m 16 Y s 382 205 m 16 Y s 358 213 m20 382 219 m 16 X s 413 219 m 17 X s 382 211 m 16 Y s 430 211 m 16 Y s 406 219 m20 430 216 m 16 X s 461 216 m 17 X s 430 208 m 16 Y s 478 208 m 16 Y s
 454 216 m20 478 216 m 16 X s 509 216 m 17 X s 478 208 m 16 Y s 526 208 m 16 Y s 502 216 m20 573 210 m 17 X s 605 210 m 16 X s 573 202 m 16 Y s 621 202 m 16 Y s 597 210 m20 693 216 m 1 Y s 693 233 m s 669 225 m 17 X s 701 225 m 16 X s 686 216 m 15 X
 s 686 233 m 15 X s 669 217 m 16 Y s 717 217 m 16 Y s 693 225 m20 717 207 m 17 X s 749 207 m 16 X s 717 199 m 16 Y s 765 199 m 16 Y s 741 207 m20 789 216 m 1 Y s 789 233 m s 765 225 m 16 X s 797 225 m 16 X s 781 216 m 16 X s 781 233 m 16 X s 765 217
 m 16 Y s 813 217 m 16 Y s 789 225 m20 813 210 m 16 X s 845 210 m 16 X s 813 202 m 16 Y s 861 202 m 16 Y s 837 210 m20 885 216 m 1 Y s 885 233 m s 861 225 m 16 X s 892 225 m 17 X s 877 216 m 15 X s 877 233 m 15 X s 861 217 m 16 Y s 909 217 m 16 Y s
 885 225 m20 933 216 m 1 Y s 933 233 m s 909 225 m 16 X s 940 225 m 17 X s 925 216 m 15 X s 925 233 m 15 X s 909 217 m 16 Y s 957 217 m 16 Y s 933 225 m20 981 214 m s 981 230 m s 957 222 m 16 X s 988 222 m 17 X s 973 214 m 15 X s 973 230 m 15 X s 957
 214 m 16 Y s 1005 214 m 16 Y s 981 222 m20 1005 216 m 16 X s 1036 216 m 17 X s 1005 208 m 16 Y s 1053 208 m 16 Y s 1029 216 m20 1053 216 m 16 X s 1084 216 m 16 X s 1053 208 m 16 Y s 1100 208 m 16 Y s 1076 216 m20 1124 214 m s 1124 230 m s 1100 222 m
 17 X s 1132 222 m 16 X s 1117 214 m 15 X s 1117 230 m 15 X s 1100 214 m 16 Y s 1148 214 m 16 Y s 1124 222 m20 1172 221 m 2 Y s 1172 239 m 1 Y s 1148 231 m 17 X s 1180 231 m 16 X s 1165 221 m 15 X s 1165 240 m 15 X s 1148 223 m 16 Y s 1196 223 m 16 Y
 s 1172 231 m20 1220 221 m 2 Y s 1220 239 m 1 Y s 1196 231 m 17 X s 1228 231 m 16 X s 1213 221 m 15 X s 1213 240 m 15 X s 1196 223 m 16 Y s 1244 223 m 16 Y s 1220 231 m20 1268 221 m 2 Y s 1268 239 m 1 Y s 1244 231 m 16 X s 1276 231 m 16 X s 1260 221
 m 16 X s 1260 240 m 16 X s 1244 223 m 16 Y s 1292 223 m 16 Y s 1268 231 m20 1316 229 m 3 Y s 1316 248 m 3 Y s 1292 240 m 16 X s 1324 240 m 16 X s 1308 229 m 16 X s 1308 251 m 16 X s 1292 232 m 16 Y s 1340 232 m 16 Y s 1316 240 m20 1364 240 m 4 Y s
 1364 260 m 4 Y s 1340 252 m 16 X s 1371 252 m 17 X s 1356 240 m 15 X s 1356 264 m 15 X s 1340 244 m 16 Y s 1388 244 m 16 Y s 1364 252 m20 1412 227 m 2 Y s 1412 245 m 2 Y s 1388 237 m 16 X s 1419 237 m 17 X s 1404 227 m 15 X s 1404 247 m 15 X s 1388
 229 m 16 Y s 1436 229 m 16 Y s 1412 237 m20 1460 227 m 2 Y s 1460 245 m 2 Y s 1436 237 m 16 X s 1467 237 m 17 X s 1452 227 m 15 X s 1452 247 m 15 X s 1436 229 m 16 Y s 1484 229 m 16 Y s 1460 237 m20 1508 227 m 2 Y s 1508 245 m 2 Y s 1484 237 m 16 X
 s 1515 237 m 17 X s 1500 227 m 15 X s 1500 247 m 15 X s 1484 229 m 16 Y s 1532 229 m 16 Y s 1508 237 m20 1556 234 m 4 Y s 1556 254 m 4 Y s 1532 246 m 16 X s 1563 246 m 16 X s 1548 234 m 15 X s 1548 258 m 15 X s 1532 238 m 16 Y s 1579 238 m 16 Y s
 1556 246 m20 1603 258 m 7 Y s 1603 281 m 7 Y s 1579 273 m 17 X s 1611 273 m 16 X s 1596 258 m 15 X s 1596 288 m 15 X s 1579 265 m 16 Y s 1627 265 m 16 Y s 1603 273 m20 1651 253 m 6 Y s 1651 275 m 6 Y s 1627 267 m 17 X s 1659 267 m 16 X s 1644 253 m
 15 X s 1644 281 m 15 X s 1627 259 m 16 Y s 1675 259 m 16 Y s 1651 267 m20 1699 240 m 4 Y s 1699 260 m 4 Y s 1675 252 m 17 X s 1707 252 m 16 X s 1692 240 m 15 X s 1692 264 m 15 X s 1675 244 m 16 Y s 1723 244 m 16 Y s 1699 252 m20 1747 280 m 10 Y s
 1747 305 m 9 Y s 1723 297 m 17 X s 1755 297 m 16 X s 1740 280 m 15 X s 1740 314 m 15 X s 1723 290 m 15 Y s 1771 290 m 15 Y s 1747 297 m20 1795 294 m 11 Y s 1795 320 m 10 Y s 1771 312 m 16 X s 1803 312 m 16 X s 1787 294 m 16 X s 1787 330 m 16 X s
 1771 305 m 15 Y s 1819 305 m 15 Y s 1795 312 m20 1843 313 m 13 Y s 1843 341 m 12 Y s 1819 333 m 16 X s 1851 333 m 16 X s 1835 313 m 16 X s 1835 353 m 16 X s 1819 326 m 15 Y s 1867 326 m 15 Y s 1843 333 m20 1891 347 m 15 Y s 1891 377 m 15 Y s 1867
 369 m 16 X s 1898 369 m 17 X s 1883 347 m 15 X s 1883 392 m 15 X s 1867 362 m 15 Y s 1915 362 m 15 Y s 1891 369 m20 1939 347 m 15 Y s 1939 377 m 15 Y s 1915 369 m 16 X s 1946 369 m 17 X s 1931 347 m 15 X s 1931 392 m 15 X s 1915 362 m 15 Y s 1963
 362 m 15 Y s 1939 369 m20 1987 446 m 21 Y s 1987 482 m 21 Y s 1963 475 m 16 X s 1994 475 m 17 X s 1979 446 m 15 X s 1979 503 m 15 X s 1963 467 m 15 Y s 2011 467 m 15 Y s 1987 475 m20 2035 500 m 24 Y s 2035 539 m 24 Y s 2011 532 m 16 X s 2042 532 m
 17 X s 2027 500 m 15 X s 2027 563 m 15 X s 2011 524 m 15 Y s 2059 524 m 15 Y s 2035 532 m20 2082 560 m 27 Y s 2082 603 m 26 Y s 2059 595 m 16 X s 2090 595 m 16 X s 2075 560 m 15 X s 2075 629 m 15 X s 2059 587 m 16 Y s 2106 587 m 16 Y s 2082 595 m20
 2130 429 m 20 Y s 2130 464 m 20 Y s 2106 457 m 17 X s 2138 457 m 16 X s 2123 429 m 15 X s 2123 484 m 15 X s 2106 449 m 15 Y s 2154 449 m 15 Y s 2130 457 m20 1 0 0 c 1 1 1 c 1 0 0 c 262 1196 m 1 Y s 262 1212 m 1 Y s 238 1205 m 16 X s 270 1205 m 16 X
 s 254 1196 m 16 X s 254 1213 m 16 X s 238 1197 m 15 Y s 286 1197 m 15 Y s 262 1205 m20 286 427 m 16 X s 318 427 m 16 X s 286 419 m 16 Y s 334 419 m 16 Y s 310 427 m20 334 342 m 16 X s 365 342 m 17 X s 334 334 m 15 Y s 382 334 m 15 Y s 358 342 m20
 382 308 m 16 X s 413 308 m 17 X s 382 300 m 15 Y s 430 300 m 15 Y s 406 308 m20 430 290 m 16 X s 461 290 m 17 X s 430 282 m 15 Y s 478 282 m 15 Y s 454 290 m20 478 276 m 16 X s 509 276 m 17 X s 478 269 m 15 Y s 526 269 m 15 Y s 502 276 m20 526 265 m
 16 X s 557 265 m 16 X s 526 257 m 16 Y s 573 257 m 16 Y s 549 265 m20 573 253 m 17 X s 605 253 m 16 X s 573 246 m 15 Y s 621 246 m 15 Y s 597 253 m20 621 249 m 17 X s 653 249 m 16 X s 621 241 m 15 Y s 669 241 m 15 Y s 645 249 m20 669 242 m 17 X s
 701 242 m 16 X s 669 234 m 15 Y s 717 234 m 15 Y s 693 242 m20 717 241 m 17 X s 749 241 m 16 X s 717 233 m 15 Y s 765 233 m 15 Y s 741 241 m20 765 236 m 16 X s 797 236 m 16 X s 765 228 m 15 Y s 813 228 m 15 Y s 789 236 m20 813 235 m 16 X s 845 235 m
 16 X s 813 227 m 16 Y s 861 227 m 16 Y s 837 235 m20 861 234 m 16 X s 892 234 m 17 X s 861 226 m 15 Y s 909 226 m 15 Y s 885 234 m20 909 231 m 16 X s 940 231 m 17 X s 909 224 m 15 Y s 957 224 m 15 Y s 933 231 m20 957 230 m 16 X s 988 230 m 17 X s
 957 222 m 15 Y s 1005 222 m 15 Y s 981 230 m20 1005 230 m 16 X s 1036 230 m 17 X s 1005 223 m 15 Y s 1053 223 m 15 Y s 1029 230 m20 1053 230 m 16 X s 1084 230 m 16 X s 1053 223 m 15 Y s 1100 223 m 15 Y s 1076 230 m20 1100 228 m 17 X s 1132 228 m 16
 X s 1100 221 m 15 Y s 1148 221 m 15 Y s 1124 228 m20 1148 230 m 17 X s 1180 230 m 16 X s 1148 222 m 15 Y s 1196 222 m 15 Y s 1172 230 m20 1196 230 m 17 X s 1228 230 m 16 X s 1196 222 m 15 Y s 1244 222 m 15 Y s 1220 230 m20 1244 229 m 16 X s 1276 229
 m 16 X s 1244 221 m 15 Y s 1292 221 m 15 Y s 1268 229 m20 1292 227 m 16 X s 1324 227 m 16 X s 1292 219 m 15 Y s 1340 219 m 15 Y s 1316 227 m20 1340 226 m 16 X s 1371 226 m 17 X s 1340 218 m 15 Y s 1388 218 m 15 Y s 1364 226 m20 1388 229 m 16 X s
 1419 229 m 17 X s 1388 222 m 15 Y s 1436 222 m 15 Y s 1412 229 m20 1436 225 m 16 X s 1467 225 m 17 X s 1436 217 m 15 Y s 1484 217 m 15 Y s 1460 225 m20 1484 225 m 16 X s 1515 225 m 17 X s 1484 218 m 15 Y s 1532 218 m 15 Y s 1508 225 m20 1532 226 m
 16 X s 1563 226 m 16 X s 1532 219 m 15 Y s 1579 219 m 15 Y s 1556 226 m20 1579 228 m 17 X s 1611 228 m 16 X s 1579 220 m 16 Y s 1627 220 m 16 Y s 1603 228 m20 1627 229 m 17 X s 1659 229 m 16 X s 1627 221 m 16 Y s 1675 221 m 16 Y s 1651 229 m20 1675
 229 m 17 X s 1707 229 m 16 X s 1675 222 m 15 Y s 1723 222 m 15 Y s 1699 229 m20 1723 231 m 17 X s 1755 231 m 16 X s 1723 223 m 16 Y s 1771 223 m 16 Y s 1747 231 m20 1771 233 m 16 X s 1803 233 m 16 X s 1771 225 m 15 Y s 1819 225 m 15 Y s 1795 233 m20
 1819 234 m 16 X s 1851 234 m 16 X s 1819 226 m 15 Y s 1867 226 m 15 Y s 1843 234 m20 1867 235 m 16 X s 1898 235 m 17 X s 1867 228 m 15 Y s 1915 228 m 15 Y s 1891 235 m20 1915 237 m 16 X s 1946 237 m 17 X s 1915 229 m 15 Y s 1963 229 m 15 Y s 1939
 237 m20 1963 233 m 16 X s 1994 233 m 17 X s 1963 226 m 15 Y s 2011 226 m 15 Y s 1987 233 m20 2011 231 m 16 X s 2042 231 m 17 X s 2011 224 m 15 Y s 2059 224 m 15 Y s 2035 231 m20 2059 223 m 16 X s 2090 223 m 16 X s 2059 215 m 16 Y s 2106 215 m 16 Y s
 2082 223 m20 2106 209 m 17 X s 2138 209 m 16 X s 2106 201 m 15 Y s 2154 201 m 15 Y s 2130 209 m20 black
 gsave  2268 1674 0 0 C 272.126 1238.87 t 0 r /Helvetica-Bold findfont 49.4636 sf 0 0 m (Kolmogorov\255Smirnov test: signal \(background\) probability = 0.015 \(0.039\)) show NC gr  238 201 m 1916 X s 238 243 m -42 Y s 289 222 m -21 Y s 339 222 m -21
 Y s 389 222 m -21 Y s 440 243 m -42 Y s 490 222 m -21 Y s 541 222 m -21 Y s 591 222 m -21 Y s 642 243 m -42 Y s 692 222 m -21 Y s 742 222 m -21 Y s 793 222 m -21 Y s 843 243 m -42 Y s 894 222 m -21 Y s 944 222 m -21 Y s 995 222 m -21 Y s 1045 243 m
 -42 Y s 1095 222 m -21 Y s 1146 222 m -21 Y s 1196 222 m -21 Y s 1247 243 m -42 Y s 1297 222 m -21 Y s 1348 222 m -21 Y s 1398 222 m -21 Y s 1448 243 m -42 Y s 1499 222 m -21 Y s 1549 222 m -21 Y s 1600 222 m -21 Y s 1650 243 m -42 Y s 1701 222 m
 -21 Y s 1751 222 m -21 Y s 1801 222 m -21 Y s 1852 243 m -42 Y s 1902 222 m -21 Y s 1953 222 m -21 Y s 2003 222 m -21 Y s 2054 243 m -42 Y s 238 243 m -42 Y s 2054 243 m -42 Y s 2104 222 m -21 Y s 238 1507 m 1916 X s 238 1464 m 43 Y s 289 1486 m 21
 Y s 339 1486 m 21 Y s 389 1486 m 21 Y s 440 1464 m 43 Y s 490 1486 m 21 Y s 541 1486 m 21 Y s 591 1486 m 21 Y s 642 1464 m 43 Y s 692 1486 m 21 Y s 742 1486 m 21 Y s 793 1486 m 21 Y s 843 1464 m 43 Y s 894 1486 m 21 Y s 944 1486 m 21 Y s 995 1486 m
 21 Y s 1045 1464 m 43 Y s 1095 1486 m 21 Y s 1146 1486 m 21 Y s 1196 1486 m 21 Y s 1247 1464 m 43 Y s 1297 1486 m 21 Y s 1348 1486 m 21 Y s 1398 1486 m 21 Y s 1448 1464 m 43 Y s 1499 1486 m 21 Y s 1549 1486 m 21 Y s 1600 1486 m 21 Y s 1650 1464 m 43
 Y s 1701 1486 m 21 Y s 1751 1486 m 21 Y s 1801 1486 m 21 Y s 1852 1464 m 43 Y s 1902 1486 m 21 Y s 1953 1486 m 21 Y s 2003 1486 m 21 Y s 2054 1464 m 43 Y s 238 1464 m 43 Y s 2054 1464 m 43 Y s 2104 1486 m 21 Y s 238 201 m 1306 Y s 291 201 m -53 X s
 265 265 m -27 X s 265 330 m -27 X s 265 394 m -27 X s 291 459 m -53 X s 265 523 m -27 X s 265 587 m -27 X s 265 652 m -27 X s 291 716 m -53 X s 265 781 m -27 X s 265 845 m -27 X s 265 910 m -27 X s 291 974 m -53 X s 265 1038 m -27 X s 265 1103 m -27
 X s 265 1167 m -27 X s 291 1232 m -53 X s 265 1296 m -27 X s 265 1361 m -27 X s 265 1425 m -27 X s 291 1490 m -53 X s 291 1490 m -53 X s 2154 201 m 1306 Y s 2101 201 m 53 X s 2128 265 m 26 X s 2128 330 m 26 X s 2128 394 m 26 X s 2101 459 m 53 X s
 2128 523 m 26 X s 2128 587 m 26 X s 2128 652 m 26 X s 2101 716 m 53 X s 2128 781 m 26 X s 2128 845 m 26 X s 2128 910 m 26 X s 2101 974 m 53 X s 2128 1038 m 26 X s 2128 1103 m 26 X s 2128 1167 m 26 X s 2101 1232 m 53 X s 2128 1296 m 26 X s 2128 1361
 m 26 X s 2128 1425 m 26 X s 2101 1490 m 53 X s 2101 1490 m 53 X s
 gsave  2268 1674 0 0 C 2211.02 192.528 t 90 r /Helvetica-Bold findfont 45.6587 sf 0 0 m (U/O\255flow \(S,B\): \(0.0, 0.0\)% / \(0.0, 0.0\)%) show NC gr  0.490196 0.545098 0.615686 c 0.364706 0.419608 0.490196 c 1587 96 23 1570 bf 0.490196 0.545098
 0.615686 c 23 1570 m 1587 X s 1610 1570 m 96 Y s 1610 1666 m -1587 X s 23 1666 m -96 Y s 1 1 1 c black 1 1 1 c
 gsave  2268 1674 0 0 C 72.293 1598.06 t 0 r /Helvetica-Bold findfont 68.4881 sf 0 0 m (TMVA overtraining check for classifier: BDTG) show NC gr  0.490196 0.545098 0.615686 c 1 1 1 c 368 98 1786 1523 bf 368 98 1786 1523 bf 368 98 1786 1523 bl
/WT 3.8366 def /HT 3.89676 def /XS 1786 def /YY 1621 def /NX 96 def /NY 138 def /DrawCell {WT HT XX YY bf /NBBD NBBD 1 add def NBBD NBB eq {exit} if /XX WT XX add def IX NX eq {/YY YY HT sub def /XX XS def /IX 0 def} if /IX IX 1 add def} def /DrawCT
 {/NBB NX NY mul def /XX XS def /IX 1 def /NBBD 0 def /RC 0 def /GC 1 def /BC 2 def 1 1 NBB {/NB CT RC get def NB 301 ge {/NBL NB 300 sub def 1 1 NBL {DrawCell} for /RC RC 1 add def /GC RC 1 add def /BC RC 2 add def}{CT RC get 255 div CT GC get 255
 div CT BC get 255 div setrgbcolor DrawCell /RC RC 3 add def /GC GC 3 add def /BC BC 3 add def} ifelse NBBD NBB eq {exit} if} for /YY YY HT sub def clear} def /CT [ 255 255 255 315 255 251 246 255 215 157 255 175 59 255 165 33 301 255 186 86 255 222
 175 255 255 255 387 255 249 241 255 183 77 255 165 33 305 255 198 116 255 255 255 386 255 193 102 255 165 33 307 255 210 143 255 255 255 384 255 229 192 255 165 33 308 255 168 41 255 247 237 255 255 255 383 255 196 110 255 165 33 309 255 223 177 255
 255 255 383 255 183 77 255 165 33 309 255 205 132 255 255 255 312 255 191 191 310 214 214 234 204 204 229 302 255 255 255 304 224 224 239 204 204 229 302 244 244 249 301 204 204 229 302 244 244 249 255 255 255 304 214 214 234 204 204 229 301 234 234
 244 255 255 255 303 214 214 234 204 204 229 302 255 255 255 323 255 183 77 255 165 33 309 255 201 121 255 255 255 312 255 0 0 309 255 47 47 91 91 173 51 51 153 302 214 214 234 255 255 255 303 91 91 173 51 51 153 302 214 214 234 255 255 255 63 63 159
 51 51 153 301 173 173 214 255 255 255 304 61 61 158 51 51 153 301 224 224 239 255 255 255 303 61 61 158 51 51 153 302 224 224 239 255 255 255 322 255 193 104 255 165 33 309 255 219 166 255 255 255 311 255 178 178 255 0 0 309 255 102 102 91 91 173 51
 51 153 302 140 140 197 255 255 255 302 206 206 230 51 51 153 303 214 214 234 255 255 255 132 132 193 51 51 153 301 108 108 181 255 255 255 303 197 197 226 51 51 153 301 81 81 168 255 255 255 303 197 197 226 51 51 153 303 157 157 206 255 255 255 322
 255 219 166 255 165 33 309 255 241 221 255 255 255 311 255 223 223 255 191 191 302 255 95 95 255 0 0 301 255 63 63 255 191 191 302 255 223 223 91 91 173 51 51 153 302 61 61 158 244 244 249 255 255 255 301 132 132 193 51 51 153 303 214 214 234 255
 255 255 229 229 242 51 51 153 302 242 242 248 255 255 255 302 122 122 188 51 51 153 301 178 178 216 255 255 255 303 132 132 193 51 51 153 303 91 91 173 255 255 255 322 255 250 243 255 170 46 255 165 33 307 255 192 99 255 255 255 316 255 63 63 255 0
 0 301 255 127 127 255 255 255 303 91 91 173 51 51 153 303 173 173 214 255 255 255 242 242 248 61 61 158 51 51 153 303 214 214 234 255 255 255 301 81 81 168 51 51 153 301 178 178 216 255 255 255 302 71 71 163 51 51 153 301 242 242 248 255 255 255 303
 71 71 163 51 51 153 71 71 163 51 51 153 302 234 234 244 255 255 255 322 255 241 221 255 172 50 255 165 33 305 255 174 55 255 244 228 255 255 255 316 255 12 12 255 0 0 301 255 183 183 255 255 255 303 91 91 173 51 51 153 301 91 91 173 51 51 153 91 91
 173 255 255 255 142 142 198 51 51 153 83 83 169 51 51 153 302 214 214 234 255 255 255 301 148 148 201 51 51 153 301 102 102 178 255 255 255 301 204 204 229 51 51 153 301 108 108 181 255 255 255 303 193 193 224 51 51 153 301 148 148 201 122 122 188
 51 51 153 301 165 165 210 255 255 255 322 255 221 171 255 205 132 255 183 77 255 165 33 303 255 205 132 255 215 157 255 228 188 255 255 255 315 255 204 204 255 0 0 302 255 242 242 255 255 255 303 91 91 173 51 51 153 301 178 178 216 51 51 153 301 193
 193 224 51 51 153 301 152 152 203 51 51 153 302 214 214 234 255 255 255 301 224 224 239 51 51 153 302 234 234 244 255 255 255 127 127 191 51 51 153 301 183 183 219 255 255 255 303 114 114 184 51 51 153 301 203 203 229 191 191 223 51 51 153 301 101
 101 178 255 255 255 315 255 232 199 303 255 237 210 255 255 255 255 237 210 255 198 116 255 255 255 301 255 237 210 255 221 171 255 223 177 255 246 232 255 255 255 301 255 196 110 255 241 221 255 255 255 255 237 210 255 232 199 302 255 237 210 255
 255 255 308 255 153 153 255 0 0 301 255 25 25 255 255 255 304 91 91 173 51 51 153 301 255 255 255 71 71 163 51 51 153 71 71 163 51 51 153 301 234 234 244 51 51 153 302 214 214 234 255 255 255 302 71 71 163 51 51 153 301 183 183 219 255 255 255 63 63
 159 51 51 153 301 234 234 244 255 255 255 302 244 244 249 51 51 153 301 61 61 158 255 255 255 301 61 61 158 51 51 153 301 242 242 248 255 255 255 312 255 246 232 255 232 199 255 255 255 303 255 250 243 255 232 199 255 205 132 255 255 255 308 255 250
 243 255 192 99 255 232 199 255 250 243 255 255 255 302 255 250 243 255 232 199 255 255 255 307 255 102 102 255 0 0 301 255 76 76 255 255 255 304 91 91 173 51 51 153 301 255 255 255 142 142 198 51 51 153 302 101 101 178 255 255 255 51 51 153 302 214
 214 234 255 255 255 302 132 132 193 51 51 153 301 122 122 188 203 203 229 51 51 153 301 91 91 173 255 255 255 303 183 183 219 51 51 153 301 112 112 183 255 255 255 301 112 112 183 51 51 153 301 165 165 210 255 255 255 311 255 247 237 255 244 228 255
 255 255 306 255 233 201 255 255 255 308 255 251 246 255 237 210 255 255 255 306 255 233 201 255 255 255 306 255 40 40 255 0 0 301 255 132 132 255 255 255 304 91 91 173 51 51 153 301 255 255 255 222 222 238 51 51 153 302 181 181 218 255 255 255 51 51
 153 302 214 214 234 255 255 255 302 197 197 226 51 51 153 301 59 59 157 140 140 197 51 51 153 301 157 157 206 255 255 255 303 116 116 185 51 51 153 301 67 67 161 91 91 173 301 67 67 161 51 51 153 301 81 81 168 255 255 255 306 255 237 210 255 232 199
 304 255 255 255 307 255 250 243 255 226 185 255 232 199 307 255 228 188 255 255 255 308 255 221 171 255 232 199 304 255 224 197 255 0 0 302 255 173 146 255 232 199 304 91 87 162 51 51 153 301 255 232 199 301 101 92 156 51 51 153 63 58 145 255 232
 199 301 51 51 153 302 214 196 190 255 232 199 303 61 56 147 51 51 153 304 224 201 184 255 232 199 302 244 226 205 51 51 153 309 203 190 196 255 232 199 304 255 238 213 255 183 77 255 165 33 303 255 232 199 255 255 255 308 255 204 130 255 165 33 307
 255 228 188 255 255 255 308 255 221 171 255 165 33 304 255 132 26 255 0 0 302 255 156 31 255 165 33 304 91 73 129 51 51 153 301 255 165 33 306 51 51 153 302 214 142 57 255 165 33 303 122 90 111 51 51 153 303 81 68 135 255 165 33 303 193 130 69 51 51
 153 301 61 56 147 102 79 123 303 61 56 147 51 51 153 301 152 107 93 255 165 33 304 255 187 88 255 183 77 255 165 33 303 255 255 255 309 255 232 199 255 165 33 307 255 247 237 255 255 255 308 255 246 232 255 165 33 304 255 92 18 255 0 0 301 255 26 5
 255 165 33 305 91 73 129 51 51 153 301 255 165 33 306 51 51 153 302 214 142 57 255 165 33 303 189 128 71 51 51 153 303 148 105 95 255 165 33 303 124 92 109 51 51 153 301 148 105 95 255 165 33 303 148 105 95 51 51 153 301 83 69 133 255 165 33 304 255
 187 88 255 183 77 255 165 33 303 255 255 255 309 255 232 199 255 165 33 307 255 255 255 310 255 165 33 304 255 57 11 255 0 0 301 255 66 13 255 165 33 305 91 73 129 51 51 153 301 255 165 33 306 51 51 153 302 214 142 57 255 165 33 303 244 159 39 63 58
 145 51 51 153 302 214 142 57 255 165 33 303 61 56 147 51 51 153 301 224 147 51 255 165 33 303 203 136 63 51 51 153 302 224 147 51 255 165 33 303 255 187 88 255 183 77 255 165 33 303 255 255 255 309 255 232 199 255 165 33 307 255 246 232 255 255 255
 308 255 243 227 255 165 33 304 255 132 26 255 123 24 301 255 140 28 255 165 33 305 214 142 57 204 136 63 301 255 165 33 306 204 136 63 302 244 159 39 255 165 33 304 216 143 55 204 136 63 302 255 165 33 303 244 159 39 204 136 63 302 255 165 33 305
 204 136 63 302 234 153 45 255 165 33 303 255 187 88 255 183 77 255 165 33 303 255 241 221 255 255 255 308 255 215 157 255 165 33 307 255 228 188 255 255 255 308 255 221 171 255 165 33 359 255 187 88 255 183 77 255 165 33 303 255 204 130 255 255 255
 307 255 251 246 255 174 55 255 165 33 307 255 197 112 255 255 255 308 255 183 77 255 165 33 359 255 187 88 255 183 77 255 165 33 304 255 237 210 255 255 255 306 255 201 121 255 165 33 309 255 228 188 255 255 255 306 255 210 143 255 165 33 360 255
 187 88 255 183 77 255 165 33 304 255 169 44 255 232 199 255 255 255 304 255 205 132 255 165 33 310 255 169 44 255 221 171 255 255 255 304 255 214 155 255 165 33 361 255 187 88 242 188 109 255 187 88 306 255 210 143 255 232 199 302 255 201 121 255
 187 88 313 255 205 132 255 232 199 302 255 205 132 255 187 88 362 255 204 130] def /NY 25 def DrawCT 
 gr  gr showpage
end
%%EOF
