%!PS-Adobe-2.0 EPSF-2.0
%%BoundingBox:  0 0 567 414
%%Title: plots/rejBvsS.eps: the canvas
%%Creator: ROOT Version 5.34/18
%%CreationDate: Mon May  7 10:46:53 2018
%%EndComments
%%BeginProlog
80 dict begin
/s {stroke} def /l {lineto} def /m {moveto} def /t {translate} def
/r {rotate} def /rl {roll}  def /R {repeat} def
/d {rlineto} def /rm {rmoveto} def /gr {grestore} def /f {eofill} def
/c {setrgbcolor} def /black {0 setgray} def /sd {setdash} def
/cl {closepath} def /sf {scalefont setfont} def /lw {setlinewidth} def
/box {m dup 0 exch d exch 0 d 0 exch neg d cl} def
/NC{systemdict begin initclip end}def/C{NC box clip newpath}def
/bl {box s} def /bf {box f} def /Y { 0 exch d} def /X { 0 d} def 
/K {{pop pop 0 moveto} exch kshow} bind def
/ita {/ang 15 def gsave [1 0 ang dup sin exch cos div 1 0 0] concat} def 
/mp {newpath /y exch def /x exch def} def
/side {[w .77 mul w .23 mul] .385 w mul sd w 0 l currentpoint t -144 r} def
/mr {mp x y w2 0 360 arc} def /m24 {mr s} def /m20 {mr f} def
/mb {mp x y w2 add m w2 neg 0 d 0 w neg d w 0 d 0 w d cl} def
/mt {mp x y w2 add m w2 neg w neg d w 0 d cl} def
/m21 {mb f} def /m25 {mb s} def /m22 {mt f} def /m26{mt s} def
/m23 {mp x y w2 sub m w2 w d w neg 0 d cl f} def
/m27 {mp x y w2 add m w3 neg w2 neg d w3 w2 neg d w3 w2 d cl s} def
/m28 {mp x w2 sub y w2 sub w3 add m w3 0 d  0 w3 neg d w3 0 d 0 w3 d w3 0 d  0 w3 d w3 neg 0 d 0 w3 d w3 neg 0 d 0 w3 neg d w3 neg 0 d cl s } def
/m29 {mp gsave x w2 sub y w2 add w3 sub m currentpoint t 4 {side} repeat cl fill gr} def
/m30 {mp gsave x w2 sub y w2 add w3 sub m currentpoint t 4 {side} repeat cl s gr} def
/m31 {mp x y w2 sub m 0 w d x w2 sub y m w 0 d x w2 sub y w2 add m w w neg d x w2 sub y w2 sub m w w d s} def
/m32 {mp x y w2 sub m w2 w d w neg 0 d cl s} def
/m33 {mp x y w2 add m w3 neg w2 neg d w3 w2 neg d w3 w2 d cl f} def
/m34 {mp x w2 sub y w2 sub w3 add m w3 0 d  0 w3 neg d w3 0 d 0 w3 d w3 0 d  0 w3 d w3 neg 0 d 0 w3 d w3 neg 0 d 0 w3 neg d w3 neg 0 d cl f } def
/m2 {mp x y w2 sub m 0 w d x w2 sub y m w 0 d s} def
/m5 {mp x w2 sub y w2 sub m w w d x w2 sub y w2 add m w w neg d s} def
/reEncode {exch findfont dup length dict begin {1 index /FID eq  {pop pop} {def} ifelse } forall /Encoding exch def currentdict end dup /FontName get exch definefont pop } def [/Times-Bold /Times-Italic /Times-BoldItalic /Helvetica /Helvetica-Oblique
 /Helvetica-Bold /Helvetica-BoldOblique /Courier /Courier-Oblique /Courier-Bold /Courier-BoldOblique /Times-Roman /AvantGarde-Book /AvantGarde-BookOblique /AvantGarde-Demi /AvantGarde-DemiOblique /Bookman-Demi /Bookman-DemiItalic /Bookman-Light
 /Bookman-LightItalic /Helvetica-Narrow /Helvetica-Narrow-Bold /Helvetica-Narrow-BoldOblique /Helvetica-Narrow-Oblique /NewCenturySchlbk-Roman /NewCenturySchlbk-Bold /NewCenturySchlbk-BoldItalic /NewCenturySchlbk-Italic /Palatino-Bold
 /Palatino-BoldItalic /Palatino-Italic /Palatino-Roman ] {ISOLatin1Encoding reEncode } forall
%%EndProlog
%%BeginSetup
%%EndSetup
newpath  gsave  .25 .25 scale  gsave  0 0 t 0.490196 0.545098 0.615686 c[  ] 0 sd 3 lw 0.941176 0.941176 0.941176 c 2268 1657 0 0 bf black 1 1 0.992157 c 1909 1292 245 199 bf black 1909 1292 245 199 bl 1 1 0.992157 c 1909 1292 245 199 bf black 1909
 1292 245 199 bl 245 199 m 1909 X s
 gsave  2268 1657 0 0 C 1597.23 31.5936 t 0 r /Helvetica-Bold findfont 70.2079 sf 0 0 m (Signal efficiency) show NC gr  245 241 m -42 Y s[ 4 8] 0 sd 245 1491 m -1292 Y s[  ] 0 sd 283 220 m -21 Y s 321 220 m -21 Y s 359 220 m -21 Y s 398 220 m -21 Y s
 436 241 m -42 Y s[ 4 8] 0 sd 436 1491 m -1292 Y s[  ] 0 sd 474 220 m -21 Y s 512 220 m -21 Y s 550 220 m -21 Y s 589 220 m -21 Y s 627 241 m -42 Y s[ 4 8] 0 sd 627 1491 m -1292 Y s[  ] 0 sd 665 220 m -21 Y s 703 220 m -21 Y s 741 220 m -21 Y s 780
 220 m -21 Y s 818 241 m -42 Y s[ 4 8] 0 sd 818 1491 m -1292 Y s[  ] 0 sd 856 220 m -21 Y s 894 220 m -21 Y s 932 220 m -21 Y s 970 220 m -21 Y s 1009 241 m -42 Y s[ 4 8] 0 sd 1009 1491 m -1292 Y s[  ] 0 sd 1047 220 m -21 Y s 1085 220 m -21 Y s 1123
 220 m -21 Y s 1161 220 m -21 Y s 1200 241 m -42 Y s[ 4 8] 0 sd 1200 1491 m -1292 Y s[  ] 0 sd 1238 220 m -21 Y s 1276 220 m -21 Y s 1314 220 m -21 Y s 1352 220 m -21 Y s 1391 241 m -42 Y s[ 4 8] 0 sd 1391 1491 m -1292 Y s[  ] 0 sd 1429 220 m -21 Y s
 1467 220 m -21 Y s 1505 220 m -21 Y s 1543 220 m -21 Y s 1582 241 m -42 Y s[ 4 8] 0 sd 1582 1491 m -1292 Y s[  ] 0 sd 1620 220 m -21 Y s 1658 220 m -21 Y s 1696 220 m -21 Y s 1734 220 m -21 Y s 1772 241 m -42 Y s[ 4 8] 0 sd 1772 1491 m -1292 Y s[  ]
 0 sd 1811 220 m -21 Y s 1849 220 m -21 Y s 1887 220 m -21 Y s 1925 220 m -21 Y s 1963 241 m -42 Y s[ 4 8] 0 sd 1963 1491 m -1292 Y s[  ] 0 sd 2002 220 m -21 Y s 2040 220 m -21 Y s 2078 220 m -21 Y s 2116 220 m -21 Y s 2154 241 m -42 Y s[ 4 8] 0 sd
 2154 1491 m -1292 Y s
 gsave  2268 1657 0 0 C 224.665 126.374 t 0 r /Helvetica-Bold findfont 63.1872 sf 0 0 m (0) show NC gr 
 gsave  2268 1657 0 0 C 396.675 126.374 t 0 r /Helvetica-Bold findfont 63.1872 sf 0 0 m (0.1) show NC gr 
 gsave  2268 1657 0 0 C 579.216 126.374 t 0 r /Helvetica-Bold findfont 63.1872 sf 0 0 m (0.2) show NC gr 
 gsave  2268 1657 0 0 C 768.777 126.374 t 0 r /Helvetica-Bold findfont 63.1872 sf 0 0 m (0.3) show NC gr 
 gsave  2268 1657 0 0 C 961.849 126.374 t 0 r /Helvetica-Bold findfont 63.1872 sf 0 0 m (0.4) show NC gr 
 gsave  2268 1657 0 0 C 1151.41 126.374 t 0 r /Helvetica-Bold findfont 63.1872 sf 0 0 m (0.5) show NC gr 
 gsave  2268 1657 0 0 C 1344.48 126.374 t 0 r /Helvetica-Bold findfont 63.1872 sf 0 0 m (0.6) show NC gr 
 gsave  2268 1657 0 0 C 1534.04 126.374 t 0 r /Helvetica-Bold findfont 63.1872 sf 0 0 m (0.7) show NC gr 
 gsave  2268 1657 0 0 C 1723.6 126.374 t 0 r /Helvetica-Bold findfont 63.1872 sf 0 0 m (0.8) show NC gr 
 gsave  2268 1657 0 0 C 1916.68 126.374 t 0 r /Helvetica-Bold findfont 63.1872 sf 0 0 m (0.9) show NC gr 
 gsave  2268 1657 0 0 C 2137.83 126.374 t 0 r /Helvetica-Bold findfont 63.1872 sf 0 0 m (1) show NC gr [  ] 0 sd 245 1491 m 1909 X s 245 1449 m 42 Y s 283 1470 m 21 Y s 321 1470 m 21 Y s 359 1470 m 21 Y s 398 1470 m 21 Y s 436 1449 m 42 Y s 474 1470
 m 21 Y s 512 1470 m 21 Y s 550 1470 m 21 Y s 589 1470 m 21 Y s 627 1449 m 42 Y s 665 1470 m 21 Y s 703 1470 m 21 Y s 741 1470 m 21 Y s 780 1470 m 21 Y s 818 1449 m 42 Y s 856 1470 m 21 Y s 894 1470 m 21 Y s 932 1470 m 21 Y s 970 1470 m 21 Y s 1009
 1449 m 42 Y s 1047 1470 m 21 Y s 1085 1470 m 21 Y s 1123 1470 m 21 Y s 1161 1470 m 21 Y s 1200 1449 m 42 Y s 1238 1470 m 21 Y s 1276 1470 m 21 Y s 1314 1470 m 21 Y s 1352 1470 m 21 Y s 1391 1449 m 42 Y s 1429 1470 m 21 Y s 1467 1470 m 21 Y s 1505
 1470 m 21 Y s 1543 1470 m 21 Y s 1582 1449 m 42 Y s 1620 1470 m 21 Y s 1658 1470 m 21 Y s 1696 1470 m 21 Y s 1734 1470 m 21 Y s 1772 1449 m 42 Y s 1811 1470 m 21 Y s 1849 1470 m 21 Y s 1887 1470 m 21 Y s 1925 1470 m 21 Y s 1963 1449 m 42 Y s 2002
 1470 m 21 Y s 2040 1470 m 21 Y s 2078 1470 m 21 Y s 2116 1470 m 21 Y s 2154 1449 m 42 Y s 245 199 m 1292 Y s
 gsave  2268 1657 0 0 C 63.1871 772.287 t 90 r /Helvetica-Bold findfont 70.2079 sf 0 0 m (Background rejection) show NC gr  298 199 m -53 X s[ 4 8] 0 sd 2154 199 m -1909 X s[  ] 0 sd 271 231 m -26 X s 271 263 m -26 X s 271 296 m -26 X s 271 328 m -26
 X s 298 360 m -53 X s[ 4 8] 0 sd 2154 360 m -1909 X s[  ] 0 sd 271 393 m -26 X s 271 425 m -26 X s 271 457 m -26 X s 271 490 m -26 X s 298 522 m -53 X s[ 4 8] 0 sd 2154 522 m -1909 X s[  ] 0 sd 271 554 m -26 X s 271 587 m -26 X s 271 619 m -26 X s
 271 651 m -26 X s 298 683 m -53 X s[ 4 8] 0 sd 2154 683 m -1909 X s[  ] 0 sd 271 716 m -26 X s 271 748 m -26 X s 271 780 m -26 X s 271 813 m -26 X s 298 845 m -53 X s[ 4 8] 0 sd 2154 845 m -1909 X s[  ] 0 sd 271 877 m -26 X s 271 910 m -26 X s 271
 942 m -26 X s 271 974 m -26 X s 298 1007 m -53 X s[ 4 8] 0 sd 2154 1007 m -1909 X s[  ] 0 sd 271 1039 m -26 X s 271 1071 m -26 X s 271 1104 m -26 X s 271 1136 m -26 X s 298 1168 m -53 X s[ 4 8] 0 sd 2154 1168 m -1909 X s[  ] 0 sd 271 1200 m -26 X s
 271 1233 m -26 X s 271 1265 m -26 X s 271 1297 m -26 X s 298 1330 m -53 X s[ 4 8] 0 sd 2154 1330 m -1909 X s[  ] 0 sd 271 1362 m -26 X s 271 1394 m -26 X s 271 1427 m -26 X s 271 1459 m -26 X s 298 1491 m -53 X s[ 4 8] 0 sd 2154 1491 m -1909 X s[  ]
 0 sd 298 199 m -53 X s[ 4 8] 0 sd 2154 199 m -1909 X s
 gsave  2268 1657 0 0 C 129.885 175.52 t 0 r /Helvetica-Bold findfont 63.1872 sf 0 0 m (0.2) show NC gr 
 gsave  2268 1657 0 0 C 129.885 336.998 t 0 r /Helvetica-Bold findfont 63.1872 sf 0 0 m (0.3) show NC gr 
 gsave  2268 1657 0 0 C 129.885 498.476 t 0 r /Helvetica-Bold findfont 63.1872 sf 0 0 m (0.4) show NC gr 
 gsave  2268 1657 0 0 C 129.885 659.955 t 0 r /Helvetica-Bold findfont 63.1872 sf 0 0 m (0.5) show NC gr 
 gsave  2268 1657 0 0 C 129.885 821.433 t 0 r /Helvetica-Bold findfont 63.1872 sf 0 0 m (0.6) show NC gr 
 gsave  2268 1657 0 0 C 129.885 982.911 t 0 r /Helvetica-Bold findfont 63.1872 sf 0 0 m (0.7) show NC gr 
 gsave  2268 1657 0 0 C 129.885 1144.39 t 0 r /Helvetica-Bold findfont 63.1872 sf 0 0 m (0.8) show NC gr 
 gsave  2268 1657 0 0 C 129.885 1305.87 t 0 r /Helvetica-Bold findfont 63.1872 sf 0 0 m (0.9) show NC gr 
 gsave  2268 1657 0 0 C 193.072 1467.35 t 0 r /Helvetica-Bold findfont 63.1872 sf 0 0 m (1) show NC gr [  ] 0 sd 2154 199 m 1292 Y s 2101 199 m 53 X s 2128 231 m 26 X s 2128 263 m 26 X s 2128 296 m 26 X s 2128 328 m 26 X s 2101 360 m 53 X s 2128 393
 m 26 X s 2128 425 m 26 X s 2128 457 m 26 X s 2128 490 m 26 X s 2101 522 m 53 X s 2128 554 m 26 X s 2128 587 m 26 X s 2128 619 m 26 X s 2128 651 m 26 X s 2101 683 m 53 X s 2128 716 m 26 X s 2128 748 m 26 X s 2128 780 m 26 X s 2128 813 m 26 X s 2101
 845 m 53 X s 2128 877 m 26 X s 2128 910 m 26 X s 2128 942 m 26 X s 2128 974 m 26 X s 2101 1007 m 53 X s 2128 1039 m 26 X s 2128 1071 m 26 X s 2128 1104 m 26 X s 2128 1136 m 26 X s 2101 1168 m 53 X s 2128 1200 m 26 X s 2128 1233 m 26 X s 2128 1265 m
 26 X s 2128 1297 m 26 X s 2101 1330 m 53 X s 2128 1362 m 26 X s 2128 1394 m 26 X s 2128 1427 m 26 X s 2128 1459 m 26 X s 2101 1491 m 53 X s 2101 199 m 53 X s 9 lw 1 1 1 c black 254 1491 m 20 X 19 -1 d 19 X 19 -1 d 19 X 19 -1 d 19 -1 d 19 X 19 -1 d
 15 -1 d 23 X 20 -1 d 19 -1 d 15 X 4 -1 d 19 -1 d 15 -1 d 23 X 19 -1 d 19 -1 d 19 -2 d 19 -1 d 20 -1 d 16 -2 d 3 X 19 -2 d 13 -1 d 6 -1 d 12 -1 d 20 X 6 -1 d 19 -1 d 13 -1 d 6 X 15 -1 d 16 X 5 -1 d 2 X 19 -4 d 8 -2 d 8 -1 d 4 X 5 -1 d 14 X 15 -2 d 4
 -1 d 5 X 8 -1 d 6 X 3 -1 d 16 -4 d 5 -1 d 7 -1 d 7 -1 d 7 -1 d 12 -1 d 14 -1 d 5 -1 d 19 -4 d 13 -2 d 6 -1 d 9 -1 d 11 -1 d 9 -1 d 6 -1 d 4 -1 d 5 X 12 -3 d 2 X 6 -1 d 10 -1 d 3 -1 d 19 -4 d 17 -3 d 2 X 10 -2 d 9 -1 d s 1190 1410 m 19 -4 d 19 -4 d
 19 -5 d 19 -3 d 20 -3 d 19 -4 d 19 -2 d 19 -8 d 19 -4 d 19 -5 d 19 -4 d 19 -6 d 19 -7 d 19 -5 d 19 -2 d 20 -6 d 19 -8 d 19 -5 d 19 -4 d 19 -6 d 19 -4 d 19 -6 d 19 -4 d 19 -7 d 19 -10 d 20 -11 d 19 -8 d 19 -9 d 19 -11 d 17 -7 d 2 -1 d 19 -16 d 19 -10
 d 19 -17 d 19 -13 d 16 -16 d 3 -3 d 19 -21 d 8 -5 d 8 -5 d 4 -4 d 4 -7 d 13 -25 d 2 -1 d 4 -4 d 7 -1 d 5 -2 d 3 -2 d 5 -7 d 14 -28 d 19 -35 d 15 -26 d 4 -6 d 6 -7 d 13 -12 d 8 -8 d 5 -6 d 4 -6 d 2 -5 d 3 -8 d 16 -62 d 3 -6 d 5 -7 d 7 -8 d 3 -5 d 1
 -5 d 4 -9 d 16 -64 d 3 -8 d 5 -9 d 5 -8 d 3 -8 d 3 -8 d 3 -16 d 4 -17 d 4 -23 d 3 -21 d 4 -25 d 1 -8 d s 2126 614 m 19 -274 d s 1 0 0 c 1 1 1 c black 1 0 0 c 254 1491 m 39 X 19 -1 d 19 X 19 -1 d 19 X 14 -1 d 5 X 19 -1 d 17 -1 d 21 X 19 -1 d 20 X 19
 -2 d 19 X 19 -1 d 19 -1 d 19 -1 d 19 X 19 -1 d 16 -1 d 3 X 19 -2 d 20 X 14 -1 d 5 X 19 -2 d 19 -2 d 16 -1 d 3 X 19 -2 d 16 -2 d 3 X 8 -1 d 10 X 1 -1 d 19 -1 d 6 -1 d 13 X 8 -1 d 8 -1 d 3 X 7 -1 d 11 -2 d 2 -1 d 6 X 13 -2 d 18 -2 d 20 X 10 -1 d 9 -1
 d 10 -1 d 9 -2 d 19 -3 d 7 X 11 -2 d 1 X 10 -1 d 9 -1 d 19 -4 d 8 -1 d 10 -1 d 2 X 19 -4 d 7 -1 d 12 -1 d 19 -2 d 13 -1 d 6 -1 d 4 -1 d 14 -3 d 1 X 7 -1 d 6 -1 d 6 -1 d s 1190 1417 m 17 -2 d 2 -1 d 19 -7 d 19 -2 d 19 -5 d 20 -3 d 19 -3 d 19 -2 d 19
 -5 d 19 -4 d 19 -3 d 19 -5 d 19 -3 d 16 -4 d 3 -1 d 19 -10 d 19 -6 d 20 -3 d 19 -6 d 19 -5 d 19 -7 d 19 -5 d 19 -4 d 19 -5 d 19 -9 d 19 -6 d 17 -4 d 2 -1 d 20 -14 d 19 -7 d 19 -10 d 19 -7 d 19 -12 d 16 -12 d 3 -2 d 19 -18 d 19 -15 d 19 -22 d 8 -6 d
 11 -7 d 19 -20 d 20 -19 d 19 -25 d 8 -7 d 11 -10 d 16 -18 d 3 -3 d 14 -18 d 5 -6 d 19 -38 d 10 -15 d 9 -13 d 10 -13 d 6 -9 d 3 -5 d 7 -16 d 8 -20 d 4 -12 d 19 -65 d 6 -14 d 7 -20 d 4 -11 d 3 -11 d 3 -15 d 4 -21 d 12 -71 d 8 -53 d 9 -58 d 2 -9 d s
 2126 549 m 19 -255 d s black 3 lw 245 199 m 1909 X s 245 241 m -42 Y s[ 4 8] 0 sd 245 1491 m -1292 Y s[  ] 0 sd 283 220 m -21 Y s 321 220 m -21 Y s 359 220 m -21 Y s 398 220 m -21 Y s 436 241 m -42 Y s[ 4 8] 0 sd 436 1491 m -1292 Y s[  ] 0 sd 474
 220 m -21 Y s 512 220 m -21 Y s 550 220 m -21 Y s 589 220 m -21 Y s 627 241 m -42 Y s[ 4 8] 0 sd 627 1491 m -1292 Y s[  ] 0 sd 665 220 m -21 Y s 703 220 m -21 Y s 741 220 m -21 Y s 780 220 m -21 Y s 818 241 m -42 Y s[ 4 8] 0 sd 818 1491 m -1292 Y s[
  ] 0 sd 856 220 m -21 Y s 894 220 m -21 Y s 932 220 m -21 Y s 970 220 m -21 Y s 1009 241 m -42 Y s[ 4 8] 0 sd 1009 1491 m -1292 Y s[  ] 0 sd 1047 220 m -21 Y s 1085 220 m -21 Y s 1123 220 m -21 Y s 1161 220 m -21 Y s 1200 241 m -42 Y s[ 4 8] 0 sd
 1200 1491 m -1292 Y s[  ] 0 sd 1238 220 m -21 Y s 1276 220 m -21 Y s 1314 220 m -21 Y s 1352 220 m -21 Y s 1391 241 m -42 Y s[ 4 8] 0 sd 1391 1491 m -1292 Y s[  ] 0 sd 1429 220 m -21 Y s 1467 220 m -21 Y s 1505 220 m -21 Y s 1543 220 m -21 Y s 1582
 241 m -42 Y s[ 4 8] 0 sd 1582 1491 m -1292 Y s[  ] 0 sd 1620 220 m -21 Y s 1658 220 m -21 Y s 1696 220 m -21 Y s 1734 220 m -21 Y s 1772 241 m -42 Y s[ 4 8] 0 sd 1772 1491 m -1292 Y s[  ] 0 sd 1811 220 m -21 Y s 1849 220 m -21 Y s 1887 220 m -21 Y s
 1925 220 m -21 Y s 1963 241 m -42 Y s[ 4 8] 0 sd 1963 1491 m -1292 Y s[  ] 0 sd 2002 220 m -21 Y s 2040 220 m -21 Y s 2078 220 m -21 Y s 2116 220 m -21 Y s 2154 241 m -42 Y s[ 4 8] 0 sd 2154 1491 m -1292 Y s[  ] 0 sd 245 1491 m 1909 X s 245 1449 m
 42 Y s 283 1470 m 21 Y s 321 1470 m 21 Y s 359 1470 m 21 Y s 398 1470 m 21 Y s 436 1449 m 42 Y s 474 1470 m 21 Y s 512 1470 m 21 Y s 550 1470 m 21 Y s 589 1470 m 21 Y s 627 1449 m 42 Y s 665 1470 m 21 Y s 703 1470 m 21 Y s 741 1470 m 21 Y s 780 1470
 m 21 Y s 818 1449 m 42 Y s 856 1470 m 21 Y s 894 1470 m 21 Y s 932 1470 m 21 Y s 970 1470 m 21 Y s 1009 1449 m 42 Y s 1047 1470 m 21 Y s 1085 1470 m 21 Y s 1123 1470 m 21 Y s 1161 1470 m 21 Y s 1200 1449 m 42 Y s 1238 1470 m 21 Y s 1276 1470 m 21 Y
 s 1314 1470 m 21 Y s 1352 1470 m 21 Y s 1391 1449 m 42 Y s 1429 1470 m 21 Y s 1467 1470 m 21 Y s 1505 1470 m 21 Y s 1543 1470 m 21 Y s 1582 1449 m 42 Y s 1620 1470 m 21 Y s 1658 1470 m 21 Y s 1696 1470 m 21 Y s 1734 1470 m 21 Y s 1772 1449 m 42 Y s
 1811 1470 m 21 Y s 1849 1470 m 21 Y s 1887 1470 m 21 Y s 1925 1470 m 21 Y s 1963 1449 m 42 Y s 2002 1470 m 21 Y s 2040 1470 m 21 Y s 2078 1470 m 21 Y s 2116 1470 m 21 Y s 2154 1449 m 42 Y s 245 199 m 1292 Y s 298 199 m -53 X s[ 4 8] 0 sd 2154 199 m
 -1909 X s[  ] 0 sd 271 231 m -26 X s 271 263 m -26 X s 271 296 m -26 X s 271 328 m -26 X s 298 360 m -53 X s[ 4 8] 0 sd 2154 360 m -1909 X s[  ] 0 sd 271 393 m -26 X s 271 425 m -26 X s 271 457 m -26 X s 271 490 m -26 X s 298 522 m -53 X s[ 4 8] 0
 sd 2154 522 m -1909 X s[  ] 0 sd 271 554 m -26 X s 271 587 m -26 X s 271 619 m -26 X s 271 651 m -26 X s 298 683 m -53 X s[ 4 8] 0 sd 2154 683 m -1909 X s[  ] 0 sd 271 716 m -26 X s 271 748 m -26 X s 271 780 m -26 X s 271 813 m -26 X s 298 845 m -53
 X s[ 4 8] 0 sd 2154 845 m -1909 X s[  ] 0 sd 271 877 m -26 X s 271 910 m -26 X s 271 942 m -26 X s 271 974 m -26 X s 298 1007 m -53 X s[ 4 8] 0 sd 2154 1007 m -1909 X s[  ] 0 sd 271 1039 m -26 X s 271 1071 m -26 X s 271 1104 m -26 X s 271 1136 m -26
 X s 298 1168 m -53 X s[ 4 8] 0 sd 2154 1168 m -1909 X s[  ] 0 sd 271 1200 m -26 X s 271 1233 m -26 X s 271 1265 m -26 X s 271 1297 m -26 X s 298 1330 m -53 X s[ 4 8] 0 sd 2154 1330 m -1909 X s[  ] 0 sd 271 1362 m -26 X s 271 1394 m -26 X s 271 1427
 m -26 X s 271 1459 m -26 X s 298 1491 m -53 X s[ 4 8] 0 sd 2154 1491 m -1909 X s[  ] 0 sd 298 199 m -53 X s[ 4 8] 0 sd 2154 199 m -1909 X s[  ] 0 sd 2154 199 m 1292 Y s 2101 199 m 53 X s 2128 231 m 26 X s 2128 263 m 26 X s 2128 296 m 26 X s 2128 328
 m 26 X s 2101 360 m 53 X s 2128 393 m 26 X s 2128 425 m 26 X s 2128 457 m 26 X s 2128 490 m 26 X s 2101 522 m 53 X s 2128 554 m 26 X s 2128 587 m 26 X s 2128 619 m 26 X s 2128 651 m 26 X s 2101 683 m 53 X s 2128 716 m 26 X s 2128 748 m 26 X s 2128
 780 m 26 X s 2128 813 m 26 X s 2101 845 m 53 X s 2128 877 m 26 X s 2128 910 m 26 X s 2128 942 m 26 X s 2128 974 m 26 X s 2101 1007 m 53 X s 2128 1039 m 26 X s 2128 1071 m 26 X s 2128 1104 m 26 X s 2128 1136 m 26 X s 2101 1168 m 53 X s 2128 1200 m 26
 X s 2128 1233 m 26 X s 2128 1265 m 26 X s 2128 1297 m 26 X s 2101 1330 m 53 X s 2128 1362 m 26 X s 2128 1394 m 26 X s 2128 1427 m 26 X s 2128 1459 m 26 X s 2101 1491 m 53 X s 2101 199 m 53 X s
 gsave  2268 1657 0 0 C 371.906 490.652 t 0 r /Times-Italic findfont 56.1664 sf 0 0 m (MVA Method:) show NC gr 
 gsave  2268 1657 0 0 C 657.638 399.522 t 0 r /Times-Italic findfont 56.1664 sf 0 0 m (BDT) show NC gr  1 0 0 c 9 lw 388 420 m 222 X s black
 gsave  2268 1657 0 0 C 657.638 308.392 t 0 r /Times-Italic findfont 56.1664 sf 0 0 m (BDTG) show NC gr  388 329 m 222 X s 0.490196 0.545098 0.615686 c 3 lw 0.364706 0.419608 0.490196 c 1587 101 23 1548 bf 0.490196 0.545098 0.615686 c 23 1548 m 1587
 X s 1610 1548 m 101 Y s 1610 1649 m -1587 X s 23 1649 m -101 Y s 1 1 1 c black 1 1 1 c
 gsave  2268 1657 0 0 C 80.7391 1579.68 t 0 r /Helvetica-Bold findfont 66.6975 sf 0 0 m (Background rejection versus Signal efficiency) show NC gr  0.490196 0.545098 0.615686 c 1 1 1 c 364 91 1790 1508 bf 364 91 1790 1508 bf 364 91 1790 1508 bl
/WT 3.53902 def /HT 3.6452 def /XS 1790 def /YY 1599 def /NX 103 def /NY 129 def /DrawCell {WT HT XX YY bf /NBBD NBBD 1 add def NBBD NBB eq {exit} if /XX WT XX add def IX NX eq {/YY YY HT sub def /XX XS def /IX 0 def} if /IX IX 1 add def} def /DrawCT
 {/NBB NX NY mul def /XX XS def /IX 1 def /NBBD 0 def /RC 0 def /GC 1 def /BC 2 def 1 1 NBB {/NB CT RC get def NB 301 ge {/NBL NB 300 sub def 1 1 NBL {DrawCell} for /RC RC 1 add def /GC RC 1 add def /BC RC 2 add def}{CT RC get 255 div CT GC get 255
 div CT BC get 255 div setrgbcolor DrawCell /RC RC 3 add def /GC GC 3 add def /BC BC 3 add def} ifelse NBBD NBB eq {exit} if} for /YY YY HT sub def clear} def /CT [ 255 255 255 317 255 228 188 255 190 95 255 165 33 301 255 174 55 255 197 112 255 237
 210 255 255 255 393 255 250 243 255 187 88 255 165 33 306 255 221 171 255 255 255 392 255 205 132 255 165 33 308 255 228 188 255 255 255 390 255 241 221 255 168 41 255 165 33 308 255 179 68 255 255 255 390 255 204 130 255 165 33 310 255 238 213 255
 255 255 389 255 187 88 255 165 33 310 255 215 157 255 255 255 312 255 239 239 255 191 191 310 242 210 216 204 204 229 302 214 214 234 255 255 255 304 242 242 248 204 204 229 302 214 214 234 255 255 255 234 234 244 204 204 229 302 242 242 248 255 255
 255 304 234 234 244 204 204 229 302 255 255 255 304 214 214 234 204 204 229 302 242 242 248 255 255 255 324 255 187 88 255 165 33 310 255 210 144 255 255 255 312 255 191 191 255 0 0 310 204 124 149 51 51 153 302 61 61 158 242 242 248 255 255 255 303
 153 153 204 51 51 153 302 91 91 173 255 255 255 224 224 239 51 51 153 302 153 153 204 255 255 255 304 142 142 198 51 51 153 301 114 114 184 255 255 255 304 61 61 158 51 51 153 302 165 165 210 255 255 255 324 255 201 121 255 165 33 310 255 232 199
 255 255 255 312 255 114 114 255 0 0 310 204 178 204 51 51 153 303 163 163 209 255 255 255 302 238 238 246 61 61 158 51 51 153 302 91 91 173 255 255 255 301 81 81 168 51 51 153 301 71 71 163 255 255 255 304 75 75 165 51 51 153 301 183 183 219 255 255
 255 303 183 183 219 51 51 153 303 81 81 168 255 255 255 324 255 232 199 255 165 33 309 255 169 44 255 255 255 313 255 207 207 255 191 191 302 255 114 114 255 0 0 302 255 175 175 255 191 191 302 204 204 229 51 51 153 303 63 63 159 244 244 249 255 255
 255 301 173 173 214 51 51 153 303 91 91 173 255 255 255 301 178 178 216 51 51 153 302 203 203 229 255 255 255 302 191 191 223 51 51 153 301 71 71 163 255 255 255 304 102 102 178 51 51 153 304 214 214 234 255 255 255 324 255 183 77 255 165 33 308 255
 210 143 255 255 255 317 255 102 102 255 0 0 301 255 31 31 255 255 255 303 204 204 229 51 51 153 304 173 173 214 255 255 255 301 91 91 173 51 51 153 303 91 91 173 255 255 255 301 242 242 248 51 51 153 302 152 152 203 255 255 255 302 127 127 191 51 51
 153 301 122 122 188 255 255 255 303 234 234 244 51 51 153 302 76 76 165 51 51 153 301 152 152 203 255 255 255 324 255 244 228 255 174 55 255 165 33 306 255 187 88 255 251 246 255 255 255 317 255 61 61 255 0 0 301 255 102 102 255 255 255 303 204 204
 229 51 51 153 302 83 83 169 51 51 153 91 91 173 255 255 255 193 193 224 51 51 153 301 83 83 169 51 51 153 301 91 91 173 255 255 255 302 108 108 181 51 51 153 301 91 91 173 255 255 255 301 244 244 249 61 61 158 51 51 153 301 189 189 222 255 255 255
 303 165 165 210 51 51 153 301 122 122 188 173 173 214 51 51 153 301 83 83 169 255 255 255 324 255 228 188 255 198 116 255 204 130 255 165 33 303 255 174 55 255 221 171 255 204 130 255 241 221 255 255 255 317 255 0 0 302 255 175 175 255 255 255 303
 204 204 229 51 51 153 302 152 152 203 51 51 153 301 204 204 229 76 76 165 51 51 153 76 76 165 132 132 193 51 51 153 301 91 91 173 255 255 255 302 183 183 219 51 51 153 302 229 229 242 255 255 255 178 178 216 51 51 153 301 63 63 159 255 255 255 304
 101 101 178 51 51 153 301 191 191 223 242 242 248 51 51 153 302 216 216 235 255 255 255 315 255 243 227 255 232 199 303 255 238 213 255 255 255 255 249 241 255 196 110 255 255 255 301 255 246 232 255 232 199 255 214 155 255 232 199 255 255 255 301
 255 249 241 255 192 99 255 249 241 255 255 255 255 232 199 304 255 255 255 309 255 191 191 255 0 0 302 255 223 223 255 255 255 303 204 204 229 51 51 153 302 234 234 244 51 51 153 301 76 76 165 51 51 153 301 178 178 216 132 132 193 51 51 153 301 91
 91 173 255 255 255 302 234 234 244 51 51 153 302 165 165 210 255 255 255 114 114 184 51 51 153 301 127 127 191 255 255 255 303 242 242 248 51 51 153 301 61 61 158 255 255 255 301 101 101 178 51 51 153 301 140 140 197 255 255 255 314 255 237 210 255
 243 227 255 255 255 303 255 249 241 255 232 199 255 198 116 255 250 243 255 255 255 308 255 241 221 255 187 88 255 232 199 255 255 255 304 255 232 199 255 246 232 255 255 255 307 255 127 127 255 0 0 301 255 25 25 255 255 255 304 204 204 229 51 51
 153 302 255 255 255 114 114 184 51 51 153 302 61 61 158 255 255 255 132 132 193 51 51 153 301 91 91 173 255 255 255 303 102 102 178 51 51 153 301 89 89 172 244 244 249 51 51 153 302 204 204 229 255 255 255 303 165 165 210 51 51 153 301 112 112 183
 255 255 255 301 152 152 203 51 51 153 301 63 63 159 255 255 255 313 255 237 210 255 251 246 255 255 255 306 255 232 199 255 251 246 255 255 255 308 255 247 237 255 237 210 255 255 255 306 255 240 219 255 246 232 255 255 255 306 255 51 51 255 0 0 301
 255 81 81 255 255 255 304 204 204 229 51 51 153 302 255 255 255 214 214 234 51 51 153 302 140 140 197 255 255 255 132 132 193 51 51 153 301 91 91 173 255 255 255 303 183 183 219 51 51 153 302 148 148 201 51 51 153 301 75 75 165 255 255 255 304 81 81
 168 51 51 153 301 67 67 161 91 91 173 301 75 75 165 51 51 153 302 197 197 226 255 255 255 306 255 237 210 255 232 199 303 255 226 185 255 249 241 255 255 255 308 255 228 188 255 232 199 309 255 255 255 308 255 232 199 306 255 224 197 255 0 0 302 255
 126 106 255 232 199 304 204 187 187 51 51 153 302 255 232 199 301 101 92 156 51 51 153 301 224 201 184 255 232 199 132 123 171 51 51 153 301 91 87 162 255 232 199 304 63 58 145 51 51 153 304 142 129 165 255 232 199 303 191 180 195 51 51 153 309 122
 117 177 255 232 199 305 255 238 213 255 183 77 255 165 33 303 255 204 130 255 255 255 309 255 214 155 255 165 33 308 255 246 232 255 255 255 309 255 176 60 255 165 33 304 255 132 26 255 0 0 302 255 123 24 255 165 33 304 204 136 63 51 51 153 302 255
 165 33 306 132 96 105 51 51 153 301 91 73 129 255 165 33 304 140 100 100 51 51 153 304 203 136 63 255 165 33 303 127 93 108 51 51 153 301 63 58 145 102 79 123 303 76 65 138 51 51 153 301 71 62 141 255 165 33 305 255 187 88 255 183 77 255 165 33 303
 255 232 199 255 255 255 309 255 237 210 255 165 33 307 255 178 66 255 255 255 310 255 201 121 255 165 33 304 255 92 18 255 0 0 302 255 158 31 255 165 33 304 204 136 63 51 51 153 302 255 165 33 306 132 96 105 51 51 153 301 91 73 129 255 165 33 304
 224 147 51 51 51 153 303 71 62 141 255 165 33 303 238 155 42 61 56 147 51 51 153 301 173 119 81 255 165 33 303 224 147 51 51 51 153 302 193 130 69 255 165 33 304 255 187 88 255 183 77 255 165 33 303 255 232 199 255 255 255 309 255 237 210 255 165 33
 307 255 187 88 255 255 255 310 255 210 144 255 165 33 304 255 57 11 255 0 0 301 255 41 8 255 165 33 305 204 136 63 51 51 153 302 255 165 33 306 132 96 105 51 51 153 301 91 73 129 255 165 33 305 91 73 129 51 51 153 302 153 108 93 255 165 33 303 183
 125 75 51 51 153 301 61 56 147 255 165 33 305 81 68 135 51 51 153 301 114 86 115 255 165 33 304 255 187 88 255 183 77 255 165 33 303 255 232 199 255 255 255 309 255 237 210 255 165 33 307 255 176 60 255 255 255 310 255 198 116 255 165 33 304 255 132
 26 255 123 24 301 255 134 26 255 165 33 305 242 157 40 204 136 63 302 255 165 33 306 224 147 51 204 136 63 301 214 142 57 255 165 33 305 224 147 51 204 136 63 302 242 157 40 255 165 33 303 224 147 51 204 136 63 301 214 142 57 255 165 33 305 224 147
 51 204 136 63 302 255 165 33 304 255 187 88 255 183 77 255 165 33 303 255 215 157 255 255 255 309 255 223 177 255 165 33 308 255 246 232 255 255 255 309 255 176 60 255 165 33 363 255 187 88 255 183 77 255 165 33 303 255 174 55 255 250 243 255 255
 255 308 255 186 86 255 165 33 308 255 215 157 255 255 255 308 255 228 188 255 165 33 364 255 187 88 255 183 77 255 165 33 304 255 187 88 255 255 255 307 255 210 144 255 165 33 309 255 169 44 255 238 213 255 255 255 306 255 241 221 255 170 46 255 165
 33 364 255 187 88 255 183 77 255 165 33 305 255 192 99 255 249 241 255 255 255 304 255 205 132 255 165 33 311 255 170 46 255 228 188 255 255 255 304 255 232 199 255 178 66 255 165 33 365 255 187 88 242 188 109 255 187 88 306 255 193 102 255 223 177
 255 232 199 301 255 226 185 255 198 116 255 187 88 314 255 210 144 255 232 199 302 255 214 155 255 187 88 367 255 204 130] def /NY 25 def DrawCT 
 gr  gr showpage
end
%%EOF
