%!PS-Adobe-2.0 EPSF-2.0
%%BoundingBox:  0 0 567 293
%%Title: plots/variables_id_c2.eps: Input variables (training sample)
%%Creator: ROOT Version 5.34/18
%%CreationDate: Mon May  7 10:42:10 2018
%%EndComments
%%BeginProlog
80 dict begin
/s {stroke} def /l {lineto} def /m {moveto} def /t {translate} def
/r {rotate} def /rl {roll}  def /R {repeat} def
/d {rlineto} def /rm {rmoveto} def /gr {grestore} def /f {eofill} def
/c {setrgbcolor} def /black {0 setgray} def /sd {setdash} def
/cl {closepath} def /sf {scalefont setfont} def /lw {setlinewidth} def
/box {m dup 0 exch d exch 0 d 0 exch neg d cl} def
/NC{systemdict begin initclip end}def/C{NC box clip newpath}def
/bl {box s} def /bf {box f} def /Y { 0 exch d} def /X { 0 d} def 
/K {{pop pop 0 moveto} exch kshow} bind def
/ita {/ang 15 def gsave [1 0 ang dup sin exch cos div 1 0 0] concat} def 
/mp {newpath /y exch def /x exch def} def
/side {[w .77 mul w .23 mul] .385 w mul sd w 0 l currentpoint t -144 r} def
/mr {mp x y w2 0 360 arc} def /m24 {mr s} def /m20 {mr f} def
/mb {mp x y w2 add m w2 neg 0 d 0 w neg d w 0 d 0 w d cl} def
/mt {mp x y w2 add m w2 neg w neg d w 0 d cl} def
/m21 {mb f} def /m25 {mb s} def /m22 {mt f} def /m26{mt s} def
/m23 {mp x y w2 sub m w2 w d w neg 0 d cl f} def
/m27 {mp x y w2 add m w3 neg w2 neg d w3 w2 neg d w3 w2 d cl s} def
/m28 {mp x w2 sub y w2 sub w3 add m w3 0 d  0 w3 neg d w3 0 d 0 w3 d w3 0 d  0 w3 d w3 neg 0 d 0 w3 d w3 neg 0 d 0 w3 neg d w3 neg 0 d cl s } def
/m29 {mp gsave x w2 sub y w2 add w3 sub m currentpoint t 4 {side} repeat cl fill gr} def
/m30 {mp gsave x w2 sub y w2 add w3 sub m currentpoint t 4 {side} repeat cl s gr} def
/m31 {mp x y w2 sub m 0 w d x w2 sub y m w 0 d x w2 sub y w2 add m w w neg d x w2 sub y w2 sub m w w d s} def
/m32 {mp x y w2 sub m w2 w d w neg 0 d cl s} def
/m33 {mp x y w2 add m w3 neg w2 neg d w3 w2 neg d w3 w2 d cl f} def
/m34 {mp x w2 sub y w2 sub w3 add m w3 0 d  0 w3 neg d w3 0 d 0 w3 d w3 0 d  0 w3 d w3 neg 0 d 0 w3 d w3 neg 0 d 0 w3 neg d w3 neg 0 d cl f } def
/m2 {mp x y w2 sub m 0 w d x w2 sub y m w 0 d s} def
/m5 {mp x w2 sub y w2 sub m w w d x w2 sub y w2 add m w w neg d s} def
/reEncode {exch findfont dup length dict begin {1 index /FID eq  {pop pop} {def} ifelse } forall /Encoding exch def currentdict end dup /FontName get exch definefont pop } def [/Times-Bold /Times-Italic /Times-BoldItalic /Helvetica /Helvetica-Oblique
 /Helvetica-Bold /Helvetica-BoldOblique /Courier /Courier-Oblique /Courier-Bold /Courier-BoldOblique /Times-Roman /AvantGarde-Book /AvantGarde-BookOblique /AvantGarde-Demi /AvantGarde-DemiOblique /Bookman-Demi /Bookman-DemiItalic /Bookman-Light
 /Bookman-LightItalic /Helvetica-Narrow /Helvetica-Narrow-Bold /Helvetica-Narrow-BoldOblique /Helvetica-Narrow-Oblique /NewCenturySchlbk-Roman /NewCenturySchlbk-Bold /NewCenturySchlbk-BoldItalic /NewCenturySchlbk-Italic /Palatino-Bold
 /Palatino-BoldItalic /Palatino-Italic /Palatino-Roman ] {ISOLatin1Encoding reEncode } forall
%%EndProlog
%%BeginSetup
%%EndSetup
newpath  gsave  .25 .25 scale  gsave  0 0 t 0.490196 0.545098 0.615686 c[  ] 0 sd 3 lw 0.941176 0.941176 0.941176 c 2268 1174 0 0 bf 0.490196 0.545098 0.615686 c 0.941176 0.941176 0.941176 c 710 563 23 599 bf black 1 1 0.992157 c 548 426 143 680 bf
 black 548 426 143 680 bl 1 1 0.992157 c 548 426 143 680 bf black 548 426 143 680 bl 0 0 0.933333 c 6 lw 0.49 0.6 0.82 c black 3 lw 0.49 0.6 0.82 c 143 680 m 258 Y 14 X 129 Y 14 X -189 Y 14 X -121 Y 13 X -41 Y 14 X -21 Y 14 X -6 Y 27 X -6 Y 14 X -1 Y
 13 X -2 Y 28 X 1 Y 13 X -1 Y 55 X 1 Y 27 X -1 Y 288 X f 6 lw 0 0 0.933333 c 0.49 0.6 0.82 c 0 0 0.933333 c 143 938 m 14 X 129 Y 14 X -189 Y 14 X -121 Y 13 X -41 Y 14 X -21 Y 14 X -6 Y 27 X -6 Y 14 X -1 Y 13 X -2 Y 28 X 1 Y 13 X -1 Y 55 X 1 Y 27 X -1
 Y 288 X s black 3 lw 143 680 m 548 X s
 gsave  710 563 23 599 C 498.556 609.662 t 0 r /Helvetica findfont 28.5988 sf 0 0 m (Lc_MAXDOCA) show NC gr  259 693 m -13 Y s 288 686 m -6 Y s 316 686 m -6 Y s 345 686 m -6 Y s 374 693 m -13 Y s 403 686 m -6 Y s 432 686 m -6 Y s 461 686 m -6 Y s 490
 693 m -13 Y s 519 686 m -6 Y s 547 686 m -6 Y s 576 686 m -6 Y s 605 693 m -13 Y s 259 693 m -13 Y s 230 686 m -6 Y s 201 686 m -6 Y s 172 686 m -6 Y s 605 693 m -13 Y s 634 686 m -6 Y s 663 686 m -6 Y s
 gsave  710 563 23 599 C 236.458 652.396 t 0 r /Helvetica findfont 25.7389 sf 0 0 m (0.2) show NC gr 
 gsave  710 563 23 599 C 353.262 652.396 t 0 r /Helvetica findfont 25.7389 sf 0 0 m (0.4) show NC gr 
 gsave  710 563 23 599 C 467.218 652.396 t 0 r /Helvetica findfont 25.7389 sf 0 0 m (0.6) show NC gr 
 gsave  710 563 23 599 C 584.022 652.396 t 0 r /Helvetica findfont 25.7389 sf 0 0 m (0.8) show NC gr  143 1106 m 548 X s 259 1093 m 13 Y s 288 1099 m 7 Y s 316 1099 m 7 Y s 345 1099 m 7 Y s 374 1093 m 13 Y s 403 1099 m 7 Y s 432 1099 m 7 Y s 461 1099
 m 7 Y s 490 1093 m 13 Y s 519 1099 m 7 Y s 547 1099 m 7 Y s 576 1099 m 7 Y s 605 1093 m 13 Y s 259 1093 m 13 Y s 230 1099 m 7 Y s 201 1099 m 7 Y s 172 1099 m 7 Y s 605 1093 m 13 Y s 634 1099 m 7 Y s 663 1099 m 7 Y s 143 680 m 426 Y s
 gsave  710 563 23 599 C 45.5822 1011.36 t 90 r /Helvetica findfont 28.5988 sf 0 0 m (0.0237 ) show NC gr 
 gsave  710 563 23 599 C 31.3378 1005.66 t 90 r /Helvetica findfont 20.0192 sf 0 0 m ( ) show NC gr 
 gsave  710 563 23 599 C 45.5822 994.263 t 90 r /Helvetica findfont 28.5988 sf 0 0 m (/) show NC gr 
 gsave  710 563 23 599 C 54.1289 988.565 t 90 r /Helvetica findfont 20.0192 sf 0 0 m ( ) show NC gr 
 gsave  710 563 23 599 C 45.5822 880.307 t 90 r /Helvetica findfont 28.5988 sf 0 0 m (\(1/N\) dN) show NC gr  160 680 m -17 X s 152 703 m -9 X s 152 727 m -9 X s 152 751 m -9 X s 152 775 m -9 X s 160 798 m -17 X s 152 822 m -9 X s 152 846 m -9 X s
 152 869 m -9 X s 152 893 m -9 X s 160 917 m -17 X s 152 940 m -9 X s 152 964 m -9 X s 152 988 m -9 X s 152 1012 m -9 X s 160 1035 m -17 X s 160 1035 m -17 X s 152 1059 m -9 X s 152 1083 m -9 X s
 gsave  710 563 23 599 C 119.653 669.489 t 0 r /Helvetica findfont 25.7389 sf 0 0 m (0) show NC gr 
 gsave  710 563 23 599 C 119.653 789.143 t 0 r /Helvetica findfont 25.7389 sf 0 0 m (5) show NC gr 
 gsave  710 563 23 599 C 105.409 905.947 t 0 r /Helvetica findfont 25.7389 sf 0 0 m (10) show NC gr 
 gsave  710 563 23 599 C 105.409 1025.6 t 0 r /Helvetica findfont 25.7389 sf 0 0 m (15) show NC gr  691 680 m 426 Y s 674 680 m 17 X s 683 703 m 8 X s 683 727 m 8 X s 683 751 m 8 X s 683 775 m 8 X s 674 798 m 17 X s 683 822 m 8 X s 683 846 m 8 X s
 683 869 m 8 X s 683 893 m 8 X s 674 917 m 17 X s 683 940 m 8 X s 683 964 m 8 X s 683 988 m 8 X s 683 1012 m 8 X s 674 1035 m 17 X s 674 1035 m 17 X s 683 1059 m 8 X s 683 1083 m 8 X s 1 0 0 c 6 lw black 3 lw 1 0 0 c 676 680 m s 661 680 m s 646 680 m
 s 631 680 m s 617 681 m -1 -1 d s 601 680 m s 586 680 m s 571 680 m s 557 681 m -2 -1 d s 541 681 m -1 -1 d s 526 681 m -1 -1 d s 512 681 m -2 -1 d s 497 682 m -2 -2 d s 482 682 m -2 -2 d s 467 682 m -2 -2 d s 452 682 m -2 -2 d s 438 682 m -3 -2 d s
 422 682 m -2 -2 d s 408 683 m -3 -3 d s 394 684 m -4 -4 d s 379 684 m -4 -4 d s 365 685 m -5 -5 d s 351 686 m -7 -6 d s 337 688 m -8 -8 d s 323 688 m -9 -8 d s 309 689 m -10 -9 d s 296 691 m -12 -11 d s 284 694 m -15 -14 d s 273 698 m -19 -18 d s
 263 704 m -24 -24 d s 253 709 m -29 -29 d s 240 711 m -31 -31 d s 235 721 m -41 -41 d s 226 727 m -47 -47 d s 222 738 m -58 -58 d s 212 743 m -63 -63 d s 212 759 m -69 -69 d s 203 765 m -60 -60 d s 198 775 m -55 -55 d s 198 790 m -55 -55 d s 198 806
 m -55 -56 d s 186 809 m -43 -43 d s 185 822 m -28 -27 d s 144 782 m -1 -1 d s 185 837 m -28 -27 d s 185 852 m -28 -27 d s 185 868 m -28 -28 d s 172 871 m -15 -16 d s 171 884 m -14 -14 d s 171 899 m -14 -13 d s 157 901 m s 6 lw 143 782 m 14 X 119 Y
 14 X -30 Y 14 X -62 Y 13 X -44 Y 14 X -27 Y 14 X -17 Y 13 X -10 Y 14 X -7 Y 14 X -6 Y 13 X -4 Y 14 X -3 Y 14 X -2 Y 13 X -1 Y 28 X -2 Y 13 X -1 Y 14 X -1 Y 27 X -1 Y 14 X -1 Y 82 X -1 Y 27 X -1 Y 14 X 1 Y 27 X -1 Y 42 X 1 Y 13 X -1 Y 69 X s black 3
 lw 143 680 m 548 X s 259 693 m -13 Y s 288 686 m -6 Y s 316 686 m -6 Y s 345 686 m -6 Y s 374 693 m -13 Y s 403 686 m -6 Y s 432 686 m -6 Y s 461 686 m -6 Y s 490 693 m -13 Y s 519 686 m -6 Y s 547 686 m -6 Y s 576 686 m -6 Y s 605 693 m -13 Y s 259
 693 m -13 Y s 230 686 m -6 Y s 201 686 m -6 Y s 172 686 m -6 Y s 605 693 m -13 Y s 634 686 m -6 Y s 663 686 m -6 Y s 143 1106 m 548 X s 259 1093 m 13 Y s 288 1099 m 7 Y s 316 1099 m 7 Y s 345 1099 m 7 Y s 374 1093 m 13 Y s 403 1099 m 7 Y s 432 1099
 m 7 Y s 461 1099 m 7 Y s 490 1093 m 13 Y s 519 1099 m 7 Y s 547 1099 m 7 Y s 576 1099 m 7 Y s 605 1093 m 13 Y s 259 1093 m 13 Y s 230 1099 m 7 Y s 201 1099 m 7 Y s 172 1099 m 7 Y s 605 1093 m 13 Y s 634 1099 m 7 Y s 663 1099 m 7 Y s 143 680 m 426 Y
 s 160 680 m -17 X s 152 703 m -9 X s 152 727 m -9 X s 152 751 m -9 X s 152 775 m -9 X s 160 798 m -17 X s 152 822 m -9 X s 152 846 m -9 X s 152 869 m -9 X s 152 893 m -9 X s 160 917 m -17 X s 152 940 m -9 X s 152 964 m -9 X s 152 988 m -9 X s 152
 1012 m -9 X s 160 1035 m -17 X s 160 1035 m -17 X s 152 1059 m -9 X s 152 1083 m -9 X s 691 680 m 426 Y s 674 680 m 17 X s 683 703 m 8 X s 683 727 m 8 X s 683 751 m 8 X s 683 775 m 8 X s 674 798 m 17 X s 683 822 m 8 X s 683 846 m 8 X s 683 869 m 8 X
 s 683 893 m 8 X s 674 917 m 17 X s 683 940 m 8 X s 683 964 m 8 X s 683 988 m 8 X s 683 1012 m 8 X s 674 1035 m 17 X s 674 1035 m 17 X s 683 1059 m 8 X s 683 1083 m 8 X s
 gsave  710 563 23 599 C 719.017 677.484 t 90 r /Helvetica-Bold findfont 20.0192 sf 0 0 m (U/O\255flow \(S,B\): \(0.0, 0.0\)% / \(0.0, 0.4\)%) show NC gr  0.490196 0.545098 0.615686 c 0.364706 0.419608 0.490196 c 413 37 30 1122 bf 0.490196 0.545098
 0.615686 c 30 1122 m 413 X s 443 1122 m 37 Y s 443 1159 m -413 X s 30 1159 m -37 Y s 1 1 1 c black 1 1 1 c
 gsave  710 563 23 599 C 34.1867 1133.86 t 0 r /Helvetica-Bold findfont 28.5988 sf 0 0 m (Input variable: Lc_MAXDOCA) show NC gr  0.490196 0.545098 0.615686 c 0.941176 0.941176 0.941176 c 710 563 779 599 bf black 1 1 0.992157 c 548 426 899 680 bf
 black 548 426 899 680 bl 1 1 0.992157 c 548 426 899 680 bf black 548 426 899 680 bl 0 0 0.933333 c 6 lw 0.49 0.6 0.82 c black 3 lw 0.49 0.6 0.82 c 899 680 m 266 Y 14 X 121 Y 14 X -80 Y 13 X -87 Y 28 X -75 Y 13 X -48 Y 28 X -15 Y 13 X -12 Y 14 X -15
 Y 14 X -17 Y 14 X -12 Y 13 X -4 Y 14 X 7 Y 14 X -24 Y 13 X 2 Y 14 X 7 Y 14 X -2 Y 13 X -7 Y 14 X 9 Y 14 X -2 Y 13 X -10 Y 14 X -2 Y 14 X 14 Y 13 X -9 Y 28 X -3 Y 95 X 3 Y 14 X -5 Y 69 X f 6 lw 0 0 0.933333 c 0.49 0.6 0.82 c 0 0 0.933333 c 899 946 m
 14 X 121 Y 14 X -80 Y 13 X -87 Y 28 X -75 Y 13 X -48 Y 28 X -15 Y 13 X -12 Y 14 X -15 Y 14 X -17 Y 14 X -12 Y 13 X -4 Y 14 X 7 Y 14 X -24 Y 13 X 2 Y 14 X 7 Y 14 X -2 Y 13 X -7 Y 14 X 9 Y 14 X -2 Y 13 X -10 Y 14 X -2 Y 14 X 14 Y 13 X -9 Y 28 X -3 Y
 95 X 3 Y 14 X -5 Y 69 X s black 3 lw 899 680 m 548 X s
 gsave  710 563 779 599 C 1045.54 609.662 t 0 r /Helvetica findfont 28.5988 sf 0 0 m (Lc_ENDVERTEX_CHI2_NDOF) show NC gr  1166 693 m -13 Y s 1220 686 m -6 Y s 1273 686 m -6 Y s 1326 686 m -6 Y s 1380 686 m -6 Y s 1433 693 m -13 Y s 1166 693 m -13 Y s
 1113 686 m -6 Y s 1060 686 m -6 Y s 1006 686 m -6 Y s 953 686 m -6 Y s 1433 693 m -13 Y s
 gsave  710 563 779 599 C 1156.65 652.396 t 0 r /Helvetica findfont 25.7389 sf 0 0 m (5) show NC gr 
 gsave  710 563 779 599 C 1418.75 652.396 t 0 r /Helvetica findfont 25.7389 sf 0 0 m (10) show NC gr  899 1106 m 548 X s 1166 1093 m 13 Y s 1220 1099 m 7 Y s 1273 1099 m 7 Y s 1326 1099 m 7 Y s 1380 1099 m 7 Y s 1433 1093 m 13 Y s 1166 1093 m 13 Y s
 1113 1099 m 7 Y s 1060 1099 m 7 Y s 1006 1099 m 7 Y s 953 1099 m 7 Y s 1433 1093 m 13 Y s 899 680 m 426 Y s
 gsave  710 563 779 599 C 803.387 1028.45 t 90 r /Helvetica findfont 28.5988 sf 0 0 m (0.256 ) show NC gr 
 gsave  710 563 779 599 C 789.143 1022.75 t 90 r /Helvetica findfont 20.0192 sf 0 0 m ( ) show NC gr 
 gsave  710 563 779 599 C 803.387 1011.36 t 90 r /Helvetica findfont 28.5988 sf 0 0 m (/) show NC gr 
 gsave  710 563 779 599 C 811.934 1005.66 t 90 r /Helvetica findfont 20.0192 sf 0 0 m ( ) show NC gr 
 gsave  710 563 779 599 C 803.387 897.4 t 90 r /Helvetica findfont 28.5988 sf 0 0 m (\(1/N\) dN) show NC gr  915 680 m -16 X s 907 708 m -8 X s 907 736 m -8 X s 907 764 m -8 X s 915 792 m -16 X s 907 820 m -8 X s 907 848 m -8 X s 907 875 m -8 X s 915
 903 m -16 X s 907 931 m -8 X s 907 959 m -8 X s 907 987 m -8 X s 915 1015 m -16 X s 915 1015 m -16 X s 907 1043 m -8 X s 907 1071 m -8 X s 907 1099 m -8 X s
 gsave  710 563 779 599 C 874.609 669.489 t 0 r /Helvetica findfont 25.7389 sf 0 0 m (0) show NC gr 
 gsave  710 563 779 599 C 851.818 780.596 t 0 r /Helvetica findfont 25.7389 sf 0 0 m (0.2) show NC gr 
 gsave  710 563 779 599 C 851.818 894.552 t 0 r /Helvetica findfont 25.7389 sf 0 0 m (0.4) show NC gr 
 gsave  710 563 779 599 C 851.818 1005.66 t 0 r /Helvetica findfont 25.7389 sf 0 0 m (0.6) show NC gr  1447 680 m 426 Y s 1430 680 m 17 X s 1438 708 m 9 X s 1438 736 m 9 X s 1438 764 m 9 X s 1430 792 m 17 X s 1438 820 m 9 X s 1438 848 m 9 X s 1438
 875 m 9 X s 1430 903 m 17 X s 1438 931 m 9 X s 1438 959 m 9 X s 1438 987 m 9 X s 1430 1015 m 17 X s 1430 1015 m 17 X s 1438 1043 m 9 X s 1438 1071 m 9 X s 1438 1099 m 9 X s 1 0 0 c 6 lw black 3 lw 1 0 0 c 1433 680 m -1 X s 1431 694 m -14 -14 d s
 1415 693 m -13 -13 d s 1403 696 m -16 -16 d s 1388 696 m -16 -16 d s 1374 696 m -17 -16 d s 1358 696 m -16 -16 d s 1343 696 m -16 -16 d s 1330 698 m -18 -18 d s 1314 698 m -17 -18 d s 1303 701 m -21 -21 d s 1288 701 m -21 -21 d s 1273 701 m -22 -21
 d s 1260 703 m -24 -23 d s 1246 705 m -25 -25 d s 1230 703 m -24 -23 d s 1218 707 m -27 -27 d s 1202 706 m -26 -26 d s 1188 706 m -27 -26 d s 1175 709 m -29 -29 d s 1165 714 m -34 -34 d s 1148 712 m -32 -32 d s 1138 717 m -37 -37 d s 1126 720 m -40
 -40 d s 1111 720 m -40 -40 d s 1094 719 m -39 -39 d s 1087 726 m -47 -46 d s 1074 729 m -49 -49 d s 1064 733 m -54 -53 d s 1051 736 m -56 -56 d s 1043 743 m -63 -63 d s 1036 751 m -71 -71 d s 1023 753 m -73 -73 d s 1014 759 m -79 -79 d s 1007 767 m
 -87 -87 d s 995 770 m -90 -90 d s 993 783 m -94 -94 d s 981 787 m -82 -82 d s 980 800 m -81 -80 d s 968 803 m -69 -68 d s 968 818 m -69 -68 d s 956 822 m -57 -57 d s 954 835 m -55 -55 d s 952 848 m -53 -53 d s 940 851 m -41 -41 d s 940 867 m -41 -42
 d s 929 870 m -30 -29 d s 927 883 m -14 -14 d s 909 865 m -10 -9 d s 914 885 m -1 -1 d s 6 lw 899 865 m 14 X 20 Y 14 X -15 Y 13 X -22 Y 14 X -26 Y 14 X -22 Y 13 X -17 Y 14 X -16 Y 14 X -8 Y 13 X -6 Y 14 X -10 Y 14 X -7 Y 14 X -7 Y 13 X -3 Y 14 X -7
 Y 14 X 1 Y 27 X -3 Y 14 X -5 Y 13 X 2 Y 14 X -5 Y 14 X -3 Y 27 X 1 Y 14 X -4 Y 13 X 2 Y 14 X -2 Y 14 X -2 Y 41 X -3 Y 27 X -2 Y 68 X -3 Y 14 X 1 Y 14 X -14 Y 14 X s black 3 lw 899 680 m 548 X s 1166 693 m -13 Y s 1220 686 m -6 Y s 1273 686 m -6 Y s
 1326 686 m -6 Y s 1380 686 m -6 Y s 1433 693 m -13 Y s 1166 693 m -13 Y s 1113 686 m -6 Y s 1060 686 m -6 Y s 1006 686 m -6 Y s 953 686 m -6 Y s 1433 693 m -13 Y s 899 1106 m 548 X s 1166 1093 m 13 Y s 1220 1099 m 7 Y s 1273 1099 m 7 Y s 1326 1099 m
 7 Y s 1380 1099 m 7 Y s 1433 1093 m 13 Y s 1166 1093 m 13 Y s 1113 1099 m 7 Y s 1060 1099 m 7 Y s 1006 1099 m 7 Y s 953 1099 m 7 Y s 1433 1093 m 13 Y s 899 680 m 426 Y s 915 680 m -16 X s 907 708 m -8 X s 907 736 m -8 X s 907 764 m -8 X s 915 792 m
 -16 X s 907 820 m -8 X s 907 848 m -8 X s 907 875 m -8 X s 915 903 m -16 X s 907 931 m -8 X s 907 959 m -8 X s 907 987 m -8 X s 915 1015 m -16 X s 915 1015 m -16 X s 907 1043 m -8 X s 907 1071 m -8 X s 907 1099 m -8 X s 1447 680 m 426 Y s 1430 680 m
 17 X s 1438 708 m 9 X s 1438 736 m 9 X s 1438 764 m 9 X s 1430 792 m 17 X s 1438 820 m 9 X s 1438 848 m 9 X s 1438 875 m 9 X s 1430 903 m 17 X s 1438 931 m 9 X s 1438 959 m 9 X s 1438 987 m 9 X s 1430 1015 m 17 X s 1430 1015 m 17 X s 1438 1043 m 9 X
 s 1438 1071 m 9 X s 1438 1099 m 9 X s
 gsave  710 563 779 599 C 1474.92 677.484 t 90 r /Helvetica-Bold findfont 20.0192 sf 0 0 m (U/O\255flow \(S,B\): \(0.0, 0.0\)% / \(0.0, 0.0\)%) show NC gr  0.490196 0.545098 0.615686 c 0.364706 0.419608 0.490196 c 497 37 786 1122 bf 0.490196 0.545098
 0.615686 c 786 1122 m 497 X s 1283 1122 m 37 Y s 1283 1159 m -497 X s 786 1159 m -37 Y s 1 1 1 c black 1 1 1 c
 gsave  710 563 779 599 C 791.991 1133.86 t 0 r /Helvetica-Bold findfont 22.879 sf 0 0 m (Input variable: Lc_ENDVERTEX_CHI2_NDOF) show NC gr  0.490196 0.545098 0.615686 c 0.941176 0.941176 0.941176 c 711 563 1534 599 bf black 1 1 0.992157 c 547 426
 1655 680 bf black 547 426 1655 680 bl 1 1 0.992157 c 547 426 1655 680 bf black 547 426 1655 680 bl 0 0 0.933333 c 6 lw 0.49 0.6 0.82 c black 3 lw 0.49 0.6 0.82 c 1655 680 m 18 Y 14 X -12 Y 14 X 29 Y 13 X 30 Y 14 X -35 Y 14 X 71 Y 13 X 12 Y 14 X 18 Y
 14 X 6 Y 13 X -30 Y 14 X 42 Y 14 X 53 Y 13 X 60 Y 14 X 48 Y 14 X -6 Y 13 X 83 Y 14 X -155 Y 14 X 54 Y 13 X 47 Y 14 X -18 Y 14 X -59 Y 14 X -6 Y 13 X -48 Y 14 X 54 Y 14 X -12 Y 13 X -83 Y 14 X -42 Y 14 X -12 Y 13 X -36 Y 14 X -18 Y 14 X -18 Y 13 X
 -11 Y 14 X 17 Y 14 X -35 Y 54 X -6 Y 41 X f 6 lw 0 0 0.933333 c 0.49 0.6 0.82 c 0 0 0.933333 c 1655 698 m 14 X -12 Y 14 X 29 Y 13 X 30 Y 14 X -35 Y 14 X 71 Y 13 X 12 Y 14 X 18 Y 14 X 6 Y 13 X -30 Y 14 X 42 Y 14 X 53 Y 13 X 60 Y 14 X 48 Y 14 X -6 Y
 13 X 83 Y 14 X -155 Y 14 X 54 Y 13 X 47 Y 14 X -18 Y 14 X -59 Y 14 X -6 Y 13 X -48 Y 14 X 54 Y 14 X -12 Y 13 X -83 Y 14 X -42 Y 14 X -12 Y 13 X -36 Y 14 X -18 Y 14 X -18 Y 13 X -11 Y 14 X 17 Y 14 X -35 Y 54 X -6 Y 41 X s black 3 lw 1655 680 m 547 X
 s
 gsave  711 563 1534 599 C 2036.96 612.511 t 0 r /Helvetica findfont 28.5988 sf 0 0 m (log\(LcPi_PT\)) show NC gr  1748 693 m -13 Y s 1775 686 m -6 Y s 1801 686 m -6 Y s 1828 686 m -6 Y s 1854 686 m -6 Y s 1881 693 m -13 Y s 1907 686 m -6 Y s 1934
 686 m -6 Y s 1960 686 m -6 Y s 1987 686 m -6 Y s 2013 693 m -13 Y s 2040 686 m -6 Y s 2066 686 m -6 Y s 2093 686 m -6 Y s 2119 686 m -6 Y s 2146 693 m -13 Y s 1748 693 m -13 Y s 1722 686 m -6 Y s 1695 686 m -6 Y s 1669 686 m -6 Y s 2146 693 m -13 Y
 s 2172 686 m -6 Y s 2199 686 m -6 Y s
 gsave  711 563 1534 599 C 1737.82 652.396 t 0 r /Helvetica findfont 25.7389 sf 0 0 m (6) show NC gr 
 gsave  711 563 1534 599 C 1871.72 652.396 t 0 r /Helvetica findfont 25.7389 sf 0 0 m (7) show NC gr 
 gsave  711 563 1534 599 C 2002.77 652.396 t 0 r /Helvetica findfont 25.7389 sf 0 0 m (8) show NC gr 
 gsave  711 563 1534 599 C 2136.67 652.396 t 0 r /Helvetica findfont 25.7389 sf 0 0 m (9) show NC gr  1655 1106 m 547 X s 1748 1093 m 13 Y s 1775 1099 m 7 Y s 1801 1099 m 7 Y s 1828 1099 m 7 Y s 1854 1099 m 7 Y s 1881 1093 m 13 Y s 1907 1099 m 7 Y s
 1934 1099 m 7 Y s 1960 1099 m 7 Y s 1987 1099 m 7 Y s 2013 1093 m 13 Y s 2040 1099 m 7 Y s 2066 1099 m 7 Y s 2093 1099 m 7 Y s 2119 1099 m 7 Y s 2146 1093 m 13 Y s 1748 1093 m 13 Y s 1722 1099 m 7 Y s 1695 1099 m 7 Y s 1669 1099 m 7 Y s 2146 1093 m
 13 Y s 2172 1099 m 7 Y s 2199 1099 m 7 Y s 1655 680 m 426 Y s
 gsave  711 563 1534 599 C 1558.34 1028.45 t 90 r /Helvetica findfont 28.5988 sf 0 0 m (0.103 ) show NC gr 
 gsave  711 563 1534 599 C 1544.1 1022.75 t 90 r /Helvetica findfont 20.0192 sf 0 0 m ( ) show NC gr 
 gsave  711 563 1534 599 C 1558.34 1011.36 t 90 r /Helvetica findfont 28.5988 sf 0 0 m (/) show NC gr 
 gsave  711 563 1534 599 C 1566.89 1005.66 t 90 r /Helvetica findfont 20.0192 sf 0 0 m ( ) show NC gr 
 gsave  711 563 1534 599 C 1558.34 897.4 t 90 r /Helvetica findfont 28.5988 sf 0 0 m (\(1/N\) dN) show NC gr  1671 680 m -16 X s 1663 707 m -8 X s 1663 735 m -8 X s 1663 763 m -8 X s 1671 791 m -16 X s 1663 818 m -8 X s 1663 846 m -8 X s 1663 874 m
 -8 X s 1671 902 m -16 X s 1663 929 m -8 X s 1663 957 m -8 X s 1663 985 m -8 X s 1671 1013 m -16 X s 1671 1013 m -16 X s 1663 1040 m -8 X s 1663 1068 m -8 X s 1663 1096 m -8 X s
 gsave  711 563 1534 599 C 1632.41 669.489 t 0 r /Helvetica findfont 25.7389 sf 0 0 m (0) show NC gr 
 gsave  711 563 1534 599 C 1609.62 780.596 t 0 r /Helvetica findfont 25.7389 sf 0 0 m (0.2) show NC gr 
 gsave  711 563 1534 599 C 1609.62 891.703 t 0 r /Helvetica findfont 25.7389 sf 0 0 m (0.4) show NC gr 
 gsave  711 563 1534 599 C 1609.62 1002.81 t 0 r /Helvetica findfont 25.7389 sf 0 0 m (0.6) show NC gr  2202 680 m 426 Y s 2186 680 m 16 X s 2194 707 m 8 X s 2194 735 m 8 X s 2194 763 m 8 X s 2186 791 m 16 X s 2194 818 m 8 X s 2194 846 m 8 X s 2194
 874 m 8 X s 2186 902 m 16 X s 2194 929 m 8 X s 2194 957 m 8 X s 2194 985 m 8 X s 2186 1013 m 16 X s 2186 1013 m 16 X s 2194 1040 m 8 X s 2194 1068 m 8 X s 2194 1096 m 8 X s 1 0 0 c 6 lw black 3 lw 1 0 0 c 2188 680 m s 2173 680 m s 2158 680 m s 2144
 681 m -1 -1 d s 2131 683 m -3 -3 d s 2118 685 m -5 -5 d s 2106 689 m -9 -9 d s 2093 690 m -11 -10 d s 2079 692 m -12 -12 d s 2068 696 m -16 -16 d s 2066 708 m -29 -28 d s 2052 710 m -30 -30 d s 2047 720 m -40 -40 d s 2038 726 m -46 -46 d s 2038 741
 m -61 -61 d s 2025 743 m -63 -63 d s 2025 758 m -78 -78 d s 2018 767 m -86 -87 d s 2011 775 m -94 -95 d s 2011 790 m -109 -110 d s 1998 792 m -112 -112 d s 1997 806 m -126 -126 d s 1994 819 m -138 -139 d s 1984 823 m -143 -143 d s 1984 838 m -158
 -158 d s 1984 853 m -173 -173 d s 1984 868 m -188 -188 d s 1978 878 m -197 -198 d s 1970 885 m -204 -205 d s 1970 900 m -219 -220 d s 1970 915 m -234 -235 d s 1959 920 m -238 -240 d s 1956 932 m -250 -252 d s 1956 947 m -266 -267 d s 1945 951 m -270
 -271 d s 1943 964 m -283 -284 d s 1943 979 m -288 -289 d s 1930 982 m -1 -2 d s 1926 977 m -120 -121 d s 1805 855 m -13 -12 d s 1779 829 m -1 X s 1768 819 m -3 -4 d s 1740 791 m -85 -86 d s 1915 982 m -96 -97 d s 1814 879 m -8 -7 d s 1734 800 m -79
 -80 d s 1915 997 m -68 -69 d s 1836 917 m -3 -3 d s 1830 911 m -11 -11 d s 1717 797 m -62 -62 d s 1912 1009 m -11 -11 d s 1881 978 m -7 -7 d s 1865 962 m -5 -5 d s 1848 945 m -1 -2 d s 1701 796 m -46 -46 d s 1686 797 m -31 -31 d s 1673 799 m -4 -4 d
 s 1669 794 m -14 -13 d s 6 lw 1655 794 m 14 X 5 Y 14 X -2 Y 13 X -1 Y 14 X 1 Y 14 X 3 Y 13 X -9 Y 14 X 10 Y 14 X 18 Y 13 X 10 Y 14 X 26 Y 14 X 24 Y 13 X 32 Y 14 X 6 Y 14 X 28 Y 13 X 17 Y 14 X 16 Y 14 X 6 Y 13 X 25 Y 14 X -32 Y 14 X 5 Y 14 X -31 Y 13
 X -31 Y 14 X -42 Y 14 X -59 Y 13 X -27 Y 14 X -25 Y 14 X -26 Y 13 X -21 Y 14 X -11 Y 14 X -13 Y 13 X -5 Y 14 X -2 Y 14 X -4 Y 13 X -2 Y 14 X -2 Y 14 X -1 Y 54 X s black 3 lw 1655 680 m 547 X s 1748 693 m -13 Y s 1775 686 m -6 Y s 1801 686 m -6 Y s
 1828 686 m -6 Y s 1854 686 m -6 Y s 1881 693 m -13 Y s 1907 686 m -6 Y s 1934 686 m -6 Y s 1960 686 m -6 Y s 1987 686 m -6 Y s 2013 693 m -13 Y s 2040 686 m -6 Y s 2066 686 m -6 Y s 2093 686 m -6 Y s 2119 686 m -6 Y s 2146 693 m -13 Y s 1748 693 m
 -13 Y s 1722 686 m -6 Y s 1695 686 m -6 Y s 1669 686 m -6 Y s 2146 693 m -13 Y s 2172 686 m -6 Y s 2199 686 m -6 Y s 1655 1106 m 547 X s 1748 1093 m 13 Y s 1775 1099 m 7 Y s 1801 1099 m 7 Y s 1828 1099 m 7 Y s 1854 1099 m 7 Y s 1881 1093 m 13 Y s
 1907 1099 m 7 Y s 1934 1099 m 7 Y s 1960 1099 m 7 Y s 1987 1099 m 7 Y s 2013 1093 m 13 Y s 2040 1099 m 7 Y s 2066 1099 m 7 Y s 2093 1099 m 7 Y s 2119 1099 m 7 Y s 2146 1093 m 13 Y s 1748 1093 m 13 Y s 1722 1099 m 7 Y s 1695 1099 m 7 Y s 1669 1099 m
 7 Y s 2146 1093 m 13 Y s 2172 1099 m 7 Y s 2199 1099 m 7 Y s 1655 680 m 426 Y s 1671 680 m -16 X s 1663 707 m -8 X s 1663 735 m -8 X s 1663 763 m -8 X s 1671 791 m -16 X s 1663 818 m -8 X s 1663 846 m -8 X s 1663 874 m -8 X s 1671 902 m -16 X s 1663
 929 m -8 X s 1663 957 m -8 X s 1663 985 m -8 X s 1671 1013 m -16 X s 1671 1013 m -16 X s 1663 1040 m -8 X s 1663 1068 m -8 X s 1663 1096 m -8 X s 2202 680 m 426 Y s 2186 680 m 16 X s 2194 707 m 8 X s 2194 735 m 8 X s 2194 763 m 8 X s 2186 791 m 16 X
 s 2194 818 m 8 X s 2194 846 m 8 X s 2194 874 m 8 X s 2186 902 m 16 X s 2194 929 m 8 X s 2194 957 m 8 X s 2194 985 m 8 X s 2186 1013 m 16 X s 2186 1013 m 16 X s 2194 1040 m 8 X s 2194 1068 m 8 X s 2194 1096 m 8 X s
 gsave  711 563 1534 599 C 2230.83 677.484 t 90 r /Helvetica-Bold findfont 20.0192 sf 0 0 m (U/O\255flow \(S,B\): \(0.0, 0.0\)% / \(0.0, 0.0\)%) show NC gr  0.490196 0.545098 0.615686 c 0.364706 0.419608 0.490196 c 390 37 1542 1122 bf 0.490196
 0.545098 0.615686 c 1542 1122 m 390 X s 1932 1122 m 37 Y s 1932 1159 m -390 X s 1542 1159 m -37 Y s 1 1 1 c black 1 1 1 c
 gsave  711 563 1534 599 C 1546.95 1133.86 t 0 r /Helvetica-Bold findfont 28.5988 sf 0 0 m (Input variable: log\(LcPi_PT\)) show NC gr  0.490196 0.545098 0.615686 c 0.941176 0.941176 0.941176 c 710 563 23 12 bf black 1 1 0.992157 c 548 426 143 93 bf
 black 548 426 143 93 bl 1 1 0.992157 c 548 426 143 93 bf black 548 426 143 93 bl 0 0 0.933333 c 6 lw 0.49 0.6 0.82 c black 3 lw 0.49 0.6 0.82 c 143 93 m 55 X 5 Y 28 X 11 Y 13 X -11 Y 14 X 27 Y 14 X -22 Y 13 X 32 Y 14 X 53 Y 14 X 16 Y 13 X -16 Y 14 X
 117 Y 14 X -53 Y 13 X 16 Y 14 X 117 Y 14 X 16 Y 13 X 79 Y 14 X -21 Y 14 X -5 Y 13 X 5 Y 14 X -85 Y 14 X 5 Y 13 X 16 Y 14 X -79 Y 14 X -11 Y 13 X -42 Y 14 X -85 Y 27 X -59 Y 28 X -10 Y 27 X -11 Y 14 X -5 Y 27 X 5 Y 14 X -5 Y 14 X f 6 lw 0 0 0.933333
 c 0.49 0.6 0.82 c 0 0 0.933333 c 143 93 m 55 X 5 Y 28 X 11 Y 13 X -11 Y 14 X 27 Y 14 X -22 Y 13 X 32 Y 14 X 53 Y 14 X 16 Y 13 X -16 Y 14 X 117 Y 14 X -53 Y 13 X 16 Y 14 X 117 Y 14 X 16 Y 13 X 79 Y 14 X -21 Y 14 X -5 Y 13 X 5 Y 14 X -85 Y 14 X 5 Y 13
 X 16 Y 14 X -79 Y 14 X -11 Y 13 X -42 Y 14 X -85 Y 27 X -59 Y 28 X -10 Y 27 X -11 Y 14 X -5 Y 27 X 5 Y 14 X -5 Y 14 X s black 3 lw 143 93 m 548 X s
 gsave  710 563 23 12 C 532.742 25.64 t 0 r /Helvetica findfont 28.5988 sf 0 0 m (log\(LcK_PT\)) show NC gr  232 106 m -13 Y s 257 99 m -6 Y s 283 99 m -6 Y s 308 99 m -6 Y s 333 99 m -6 Y s 359 106 m -13 Y s 384 99 m -6 Y s 409 99 m -6 Y s 435 99 m
 -6 Y s 460 99 m -6 Y s 485 106 m -13 Y s 510 99 m -6 Y s 536 99 m -6 Y s 561 99 m -6 Y s 586 99 m -6 Y s 612 106 m -13 Y s 232 106 m -13 Y s 207 99 m -6 Y s 182 99 m -6 Y s 156 99 m -6 Y s 612 106 m -13 Y s 637 99 m -6 Y s 662 99 m -6 Y s 688 99 m
 -6 Y s
 gsave  710 563 23 12 C 222.213 65.5245 t 0 r /Helvetica findfont 25.7389 sf 0 0 m (6) show NC gr 
 gsave  710 563 23 12 C 347.565 65.5245 t 0 r /Helvetica findfont 25.7389 sf 0 0 m (7) show NC gr 
 gsave  710 563 23 12 C 475.765 65.5245 t 0 r /Helvetica findfont 25.7389 sf 0 0 m (8) show NC gr 
 gsave  710 563 23 12 C 601.116 65.5245 t 0 r /Helvetica findfont 25.7389 sf 0 0 m (9) show NC gr  143 519 m 548 X s 232 506 m 13 Y s 257 512 m 7 Y s 283 512 m 7 Y s 308 512 m 7 Y s 333 512 m 7 Y s 359 506 m 13 Y s 384 512 m 7 Y s 409 512 m 7 Y s 435
 512 m 7 Y s 460 512 m 7 Y s 485 506 m 13 Y s 510 512 m 7 Y s 536 512 m 7 Y s 561 512 m 7 Y s 586 512 m 7 Y s 612 506 m 13 Y s 232 506 m 13 Y s 207 512 m 7 Y s 182 512 m 7 Y s 156 512 m 7 Y s 612 506 m 13 Y s 637 512 m 7 Y s 662 512 m 7 Y s 688 512 m
 7 Y s 143 93 m 426 Y s
 gsave  710 563 23 12 C 45.5822 441.578 t 90 r /Helvetica findfont 28.5988 sf 0 0 m (0.108 ) show NC gr 
 gsave  710 563 23 12 C 31.3378 435.88 t 90 r /Helvetica findfont 20.0192 sf 0 0 m ( ) show NC gr 
 gsave  710 563 23 12 C 45.5822 424.485 t 90 r /Helvetica findfont 28.5988 sf 0 0 m (/) show NC gr 
 gsave  710 563 23 12 C 54.1289 418.787 t 90 r /Helvetica findfont 20.0192 sf 0 0 m ( ) show NC gr 
 gsave  710 563 23 12 C 45.5822 310.529 t 90 r /Helvetica findfont 28.5988 sf 0 0 m (\(1/N\) dN) show NC gr  160 93 m -17 X s 152 119 m -9 X s 152 145 m -9 X s 152 170 m -9 X s 160 196 m -17 X s 152 222 m -9 X s 152 248 m -9 X s 152 274 m -9 X s 160
 300 m -17 X s 152 326 m -9 X s 152 352 m -9 X s 152 377 m -9 X s 160 403 m -17 X s 152 429 m -9 X s 152 455 m -9 X s 152 481 m -9 X s 160 507 m -17 X s 160 507 m -17 X s
 gsave  710 563 23 12 C 119.653 82.6178 t 0 r /Helvetica findfont 25.7389 sf 0 0 m (0) show NC gr 
 gsave  710 563 23 12 C 96.8623 185.178 t 0 r /Helvetica findfont 25.7389 sf 0 0 m (0.2) show NC gr 
 gsave  710 563 23 12 C 96.8623 290.587 t 0 r /Helvetica findfont 25.7389 sf 0 0 m (0.4) show NC gr 
 gsave  710 563 23 12 C 96.8623 393.147 t 0 r /Helvetica findfont 25.7389 sf 0 0 m (0.6) show NC gr 
 gsave  710 563 23 12 C 96.8623 495.707 t 0 r /Helvetica findfont 25.7389 sf 0 0 m (0.8) show NC gr  691 93 m 426 Y s 674 93 m 17 X s 683 119 m 8 X s 683 145 m 8 X s 683 170 m 8 X s 674 196 m 17 X s 683 222 m 8 X s 683 248 m 8 X s 683 274 m 8 X s 674
 300 m 17 X s 683 326 m 8 X s 683 352 m 8 X s 683 377 m 8 X s 674 403 m 17 X s 683 429 m 8 X s 683 455 m 8 X s 683 481 m 8 X s 674 507 m 17 X s 674 507 m 17 X s 1 0 0 c 6 lw black 3 lw 1 0 0 c 676 93 m s 661 93 m s 647 94 m -1 -1 d s 633 95 m -2 -2 d
 s 618 95 m -2 -2 d s 607 99 m -6 -6 d s 595 102 m -9 -9 d s 581 104 m -10 -11 d s 568 106 m -13 -13 d s 567 119 m -27 -26 d s 554 122 m -29 -29 d s 549 132 m -39 -39 d s 540 138 m -45 -45 d s 536 149 m -56 -56 d s 526 155 m -61 -62 d s 520 163 m -70
 -70 d s 513 171 m -78 -78 d s 513 186 m -93 -93 d s 513 202 m -108 -109 d s 502 206 m -112 -113 d s 499 218 m -124 -125 d s 499 233 m -139 -140 d s 494 243 m -150 -150 d s 485 250 m -156 -157 d s 485 265 m -171 -172 d s 485 280 m -186 -187 d s 472
 282 m -188 -189 d s 472 297 m -203 -204 d s 472 312 m -218 -219 d s 472 327 m -233 -234 d s 458 329 m -234 -236 d s 458 344 m -249 -251 d s 458 359 m -264 -266 d s 451 367 m -184 -186 d s 266 180 m -13 -12 d s 243 157 m -17 -17 d s 223 137 m -44 -44
 d s 444 375 m -177 -179 d s 201 130 m -3 -2 d s 192 121 m -28 -28 d s 444 391 m -150 -152 d s 292 237 m -12 -12 d s 172 116 m -1 -1 d s 165 109 m -16 -16 d s 431 392 m -110 -110 d s 309 270 m -1 -2 d s 146 106 m -3 -3 d s 431 407 m -96 -96 d s 329
 305 m -8 -8 d s 422 414 m -73 -74 d s 346 337 m -11 -11 d s 417 424 m -55 -55 d s 352 359 m -3 -4 d s 408 430 m -5 -5 d s 401 423 m -11 -12 d s 384 406 m -8 -8 d s 368 389 m -6 -5 d s 6 lw 143 106 m 14 X 3 Y 14 X 7 Y 14 X 5 Y 13 X 9 Y 14 X 7 Y 14 X
 17 Y 13 X 3 Y 14 X 23 Y 14 X 31 Y 13 X 26 Y 14 X 17 Y 14 X 16 Y 13 X 35 Y 14 X 32 Y 14 X 22 Y 13 X 30 Y 14 X 17 Y 14 X 17 Y 13 X 7 Y 14 X -16 Y 14 X -23 Y 13 X -24 Y 14 X -39 Y 14 X -46 Y 13 X -39 Y 14 X -37 Y 14 X -43 Y 13 X -14 Y 14 X -17 Y 14 X
 -13 Y 13 X -13 Y 14 X -2 Y 14 X -5 Y 14 X -4 Y 27 X -1 Y 14 X -1 Y 41 X s black 3 lw 143 93 m 548 X s 232 106 m -13 Y s 257 99 m -6 Y s 283 99 m -6 Y s 308 99 m -6 Y s 333 99 m -6 Y s 359 106 m -13 Y s 384 99 m -6 Y s 409 99 m -6 Y s 435 99 m -6 Y s
 460 99 m -6 Y s 485 106 m -13 Y s 510 99 m -6 Y s 536 99 m -6 Y s 561 99 m -6 Y s 586 99 m -6 Y s 612 106 m -13 Y s 232 106 m -13 Y s 207 99 m -6 Y s 182 99 m -6 Y s 156 99 m -6 Y s 612 106 m -13 Y s 637 99 m -6 Y s 662 99 m -6 Y s 688 99 m -6 Y s
 143 519 m 548 X s 232 506 m 13 Y s 257 512 m 7 Y s 283 512 m 7 Y s 308 512 m 7 Y s 333 512 m 7 Y s 359 506 m 13 Y s 384 512 m 7 Y s 409 512 m 7 Y s 435 512 m 7 Y s 460 512 m 7 Y s 485 506 m 13 Y s 510 512 m 7 Y s 536 512 m 7 Y s 561 512 m 7 Y s 586
 512 m 7 Y s 612 506 m 13 Y s 232 506 m 13 Y s 207 512 m 7 Y s 182 512 m 7 Y s 156 512 m 7 Y s 612 506 m 13 Y s 637 512 m 7 Y s 662 512 m 7 Y s 688 512 m 7 Y s 143 93 m 426 Y s 160 93 m -17 X s 152 119 m -9 X s 152 145 m -9 X s 152 170 m -9 X s 160
 196 m -17 X s 152 222 m -9 X s 152 248 m -9 X s 152 274 m -9 X s 160 300 m -17 X s 152 326 m -9 X s 152 352 m -9 X s 152 377 m -9 X s 160 403 m -17 X s 152 429 m -9 X s 152 455 m -9 X s 152 481 m -9 X s 160 507 m -17 X s 160 507 m -17 X s 691 93 m
 426 Y s 674 93 m 17 X s 683 119 m 8 X s 683 145 m 8 X s 683 170 m 8 X s 674 196 m 17 X s 683 222 m 8 X s 683 248 m 8 X s 683 274 m 8 X s 674 300 m 17 X s 683 326 m 8 X s 683 352 m 8 X s 683 377 m 8 X s 674 403 m 17 X s 683 429 m 8 X s 683 455 m 8 X
 s 683 481 m 8 X s 674 507 m 17 X s 674 507 m 17 X s
 gsave  710 563 23 12 C 719.017 90.6129 t 90 r /Helvetica-Bold findfont 20.0192 sf 0 0 m (U/O\255flow \(S,B\): \(0.0, 0.0\)% / \(0.0, 0.0\)%) show NC gr  0.490196 0.545098 0.615686 c 0.364706 0.419608 0.490196 c 384 37 30 535 bf 0.490196 0.545098
 0.615686 c 30 535 m 384 X s 414 535 m 37 Y s 414 572 m -384 X s 30 572 m -37 Y s 1 1 1 c black 1 1 1 c
 gsave  710 563 23 12 C 34.1867 546.987 t 0 r /Helvetica-Bold findfont 28.5988 sf 0 0 m (Input variable: log\(LcK_PT\)) show NC gr  0.490196 0.545098 0.615686 c 0.941176 0.941176 0.941176 c 710 563 779 12 bf black 1 1 0.992157 c 548 426 899 93 bf
 black 548 426 899 93 bl 1 1 0.992157 c 548 426 899 93 bf black 548 426 899 93 bl 0 0 0.933333 c 6 lw 0.49 0.6 0.82 c black 3 lw 0.49 0.6 0.82 c 899 93 m 82 X 5 Y 14 X -5 Y 14 X 5 Y 13 X 10 Y 14 X 42 Y 14 X -6 Y 27 X 68 Y 14 X -11 Y 14 X 57 Y 13 X
 108 Y 14 X -15 Y 14 X 46 Y 13 X 68 Y 14 X -62 Y 14 X 41 Y 13 X 36 Y 14 X -72 Y 14 X 26 Y 13 X -114 Y 14 X -15 Y 14 X -26 Y 13 X -21 Y 14 X -26 Y 14 X -46 Y 13 X -31 Y 14 X -26 Y 14 X -26 Y 27 X 11 Y 14 X -16 Y 13 X -5 Y 42 X f 6 lw 0 0 0.933333 c
 0.49 0.6 0.82 c 0 0 0.933333 c 899 93 m 82 X 5 Y 14 X -5 Y 14 X 5 Y 13 X 10 Y 14 X 42 Y 14 X -6 Y 27 X 68 Y 14 X -11 Y 14 X 57 Y 13 X 108 Y 14 X -15 Y 14 X 46 Y 13 X 68 Y 14 X -62 Y 14 X 41 Y 13 X 36 Y 14 X -72 Y 14 X 26 Y 13 X -114 Y 14 X -15 Y 14
 X -26 Y 13 X -21 Y 14 X -26 Y 14 X -46 Y 13 X -31 Y 14 X -26 Y 14 X -26 Y 27 X 11 Y 14 X -16 Y 13 X -5 Y 42 X s black 3 lw 899 93 m 548 X s
 gsave  710 563 779 12 C 1287.7 25.64 t 0 r /Helvetica findfont 28.5988 sf 0 0 m (log\(LcP_PT\)) show NC gr  1043 106 m -13 Y s 1071 99 m -6 Y s 1100 99 m -6 Y s 1129 99 m -6 Y s 1158 99 m -6 Y s 1186 106 m -13 Y s 1215 99 m -6 Y s 1244 99 m -6 Y s
 1273 99 m -6 Y s 1301 99 m -6 Y s 1330 106 m -13 Y s 1043 106 m -13 Y s 1014 99 m -6 Y s 985 99 m -6 Y s 956 99 m -6 Y s 928 99 m -6 Y s 1330 106 m -13 Y s 1359 99 m -6 Y s 1387 99 m -6 Y s 1416 99 m -6 Y s 1445 99 m -6 Y s
 gsave  710 563 779 12 C 1031.3 65.5245 t 0 r /Helvetica findfont 25.7389 sf 0 0 m (7) show NC gr 
 gsave  710 563 779 12 C 1176.59 65.5245 t 0 r /Helvetica findfont 25.7389 sf 0 0 m (8) show NC gr 
 gsave  710 563 779 12 C 1319.04 65.5245 t 0 r /Helvetica findfont 25.7389 sf 0 0 m (9) show NC gr  899 519 m 548 X s 1043 506 m 13 Y s 1071 512 m 7 Y s 1100 512 m 7 Y s 1129 512 m 7 Y s 1158 512 m 7 Y s 1186 506 m 13 Y s 1215 512 m 7 Y s 1244 512 m
 7 Y s 1273 512 m 7 Y s 1301 512 m 7 Y s 1330 506 m 13 Y s 1043 506 m 13 Y s 1014 512 m 7 Y s 985 512 m 7 Y s 956 512 m 7 Y s 928 512 m 7 Y s 1330 506 m 13 Y s 1359 512 m 7 Y s 1387 512 m 7 Y s 1416 512 m 7 Y s 1445 512 m 7 Y s 899 93 m 426 Y s
 gsave  710 563 779 12 C 803.387 424.485 t 90 r /Helvetica findfont 28.5988 sf 0 0 m (0.0952 ) show NC gr 
 gsave  710 563 779 12 C 789.143 418.787 t 90 r /Helvetica findfont 20.0192 sf 0 0 m ( ) show NC gr 
 gsave  710 563 779 12 C 803.387 407.391 t 90 r /Helvetica findfont 28.5988 sf 0 0 m (/) show NC gr 
 gsave  710 563 779 12 C 811.934 401.694 t 90 r /Helvetica findfont 20.0192 sf 0 0 m ( ) show NC gr 
 gsave  710 563 779 12 C 803.387 293.436 t 90 r /Helvetica findfont 28.5988 sf 0 0 m (\(1/N\) dN) show NC gr  915 93 m -16 X s 907 115 m -8 X s 907 137 m -8 X s 907 159 m -8 X s 915 182 m -16 X s 907 204 m -8 X s 907 226 m -8 X s 907 248 m -8 X s 915
 270 m -16 X s 907 292 m -8 X s 907 315 m -8 X s 907 337 m -8 X s 915 359 m -16 X s 907 381 m -8 X s 907 403 m -8 X s 907 425 m -8 X s 915 448 m -16 X s 915 448 m -16 X s 907 470 m -8 X s 907 492 m -8 X s 907 514 m -8 X s
 gsave  710 563 779 12 C 874.609 82.6178 t 0 r /Helvetica findfont 25.7389 sf 0 0 m (0) show NC gr 
 gsave  710 563 779 12 C 851.818 170.933 t 0 r /Helvetica findfont 25.7389 sf 0 0 m (0.2) show NC gr 
 gsave  710 563 779 12 C 851.818 259.249 t 0 r /Helvetica findfont 25.7389 sf 0 0 m (0.4) show NC gr 
 gsave  710 563 779 12 C 851.818 347.565 t 0 r /Helvetica findfont 25.7389 sf 0 0 m (0.6) show NC gr 
 gsave  710 563 779 12 C 851.818 438.729 t 0 r /Helvetica findfont 25.7389 sf 0 0 m (0.8) show NC gr  1447 93 m 426 Y s 1430 93 m 17 X s 1438 115 m 9 X s 1438 137 m 9 X s 1438 159 m 9 X s 1430 182 m 17 X s 1438 204 m 9 X s 1438 226 m 9 X s 1438 248 m
 9 X s 1430 270 m 17 X s 1438 292 m 9 X s 1438 315 m 9 X s 1438 337 m 9 X s 1430 359 m 17 X s 1438 381 m 9 X s 1438 403 m 9 X s 1438 425 m 9 X s 1430 448 m 17 X s 1430 448 m 17 X s 1438 470 m 9 X s 1438 492 m 9 X s 1438 514 m 9 X s 1 0 0 c 6 lw black
 3 lw 1 0 0 c 1432 93 m s 1418 93 m -1 X s 1403 94 m -1 -1 d s 1388 94 m -1 -1 d s 1374 95 m -2 -2 d s 1361 97 m -4 -4 d s 1348 99 m -6 -6 d s 1335 101 m -8 -8 d s 1323 105 m -11 -12 d s 1311 108 m -14 -15 d s 1300 111 m -18 -18 d s 1292 118 m -25
 -25 d s 1282 124 m -31 -31 d s 1270 126 m -34 -33 d s 1269 140 m -48 -47 d s 1258 145 m -52 -52 d s 1255 157 m -64 -64 d s 1242 159 m -66 -66 d s 1241 173 m -80 -80 d s 1238 185 m -92 -92 d s 1228 190 m -97 -97 d s 1228 205 m -112 -112 d s 1223 216
 m -122 -123 d s 1214 221 m -128 -128 d s 1214 237 m -143 -144 d s 1202 239 m -147 -146 d s 1200 253 m -160 -160 d s 1200 268 m -175 -175 d s 1200 283 m -190 -190 d s 1187 285 m -192 -192 d s 1187 300 m -207 -207 d s 1187 315 m -222 -222 d s 1184 328
 m -234 -235 d s 1173 331 m -205 -205 d s 963 121 m -9 -9 d s 946 104 m -11 -11 d s 1173 347 m -192 -192 d s 971 145 m -3 -4 d s 922 95 m -2 -2 d s 1173 362 m -178 -179 d s 989 177 m -8 -7 d s 905 93 m s 1168 372 m -159 -160 d s 1006 209 m -11 -10 d
 s 1159 378 m -150 -151 d s 1159 393 m -137 -137 d s 1021 255 m -12 -13 d s 1149 398 m -127 -127 d s 1146 410 m -96 -96 d s 1049 313 m -13 -13 d s 1027 291 m -5 -5 d s 1146 425 m -82 -82 d s 1063 342 m -13 -13 d s 1137 431 m -60 -60 d s 1074 368 m
 -10 -10 d s 1132 441 m -14 -13 d s 1118 427 m -27 -27 d s 1085 394 m -8 -7 d s 1094 419 m -3 -4 d s 6 lw 899 93 m 14 X 2 Y 14 X 3 Y 13 X 6 Y 14 X 17 Y 14 X 24 Y 13 X 32 Y 14 X 32 Y 14 X 46 Y 13 X 36 Y 14 X 22 Y 14 X 29 Y 14 X 26 Y 13 X 26 Y 14 X 25
 Y 14 X 8 Y 13 X 16 Y 14 X -12 Y 14 X -33 Y 13 X -26 Y 14 X -44 Y 14 X -45 Y 13 X -44 Y 14 X -23 Y 14 X -31 Y 13 X -26 Y 14 X -14 Y 14 X -19 Y 13 X -8 Y 14 X -7 Y 14 X -3 Y 13 X -7 Y 14 X -2 Y 14 X -2 Y 13 X -2 Y 14 X -1 Y 27 X -1 Y 42 X s black 3 lw
 899 93 m 548 X s 1043 106 m -13 Y s 1071 99 m -6 Y s 1100 99 m -6 Y s 1129 99 m -6 Y s 1158 99 m -6 Y s 1186 106 m -13 Y s 1215 99 m -6 Y s 1244 99 m -6 Y s 1273 99 m -6 Y s 1301 99 m -6 Y s 1330 106 m -13 Y s 1043 106 m -13 Y s 1014 99 m -6 Y s 985
 99 m -6 Y s 956 99 m -6 Y s 928 99 m -6 Y s 1330 106 m -13 Y s 1359 99 m -6 Y s 1387 99 m -6 Y s 1416 99 m -6 Y s 1445 99 m -6 Y s 899 519 m 548 X s 1043 506 m 13 Y s 1071 512 m 7 Y s 1100 512 m 7 Y s 1129 512 m 7 Y s 1158 512 m 7 Y s 1186 506 m 13
 Y s 1215 512 m 7 Y s 1244 512 m 7 Y s 1273 512 m 7 Y s 1301 512 m 7 Y s 1330 506 m 13 Y s 1043 506 m 13 Y s 1014 512 m 7 Y s 985 512 m 7 Y s 956 512 m 7 Y s 928 512 m 7 Y s 1330 506 m 13 Y s 1359 512 m 7 Y s 1387 512 m 7 Y s 1416 512 m 7 Y s 1445
 512 m 7 Y s 899 93 m 426 Y s 915 93 m -16 X s 907 115 m -8 X s 907 137 m -8 X s 907 159 m -8 X s 915 182 m -16 X s 907 204 m -8 X s 907 226 m -8 X s 907 248 m -8 X s 915 270 m -16 X s 907 292 m -8 X s 907 315 m -8 X s 907 337 m -8 X s 915 359 m -16
 X s 907 381 m -8 X s 907 403 m -8 X s 907 425 m -8 X s 915 448 m -16 X s 915 448 m -16 X s 907 470 m -8 X s 907 492 m -8 X s 907 514 m -8 X s 1447 93 m 426 Y s 1430 93 m 17 X s 1438 115 m 9 X s 1438 137 m 9 X s 1438 159 m 9 X s 1430 182 m 17 X s
 1438 204 m 9 X s 1438 226 m 9 X s 1438 248 m 9 X s 1430 270 m 17 X s 1438 292 m 9 X s 1438 315 m 9 X s 1438 337 m 9 X s 1430 359 m 17 X s 1438 381 m 9 X s 1438 403 m 9 X s 1438 425 m 9 X s 1430 448 m 17 X s 1430 448 m 17 X s 1438 470 m 9 X s 1438
 492 m 9 X s 1438 514 m 9 X s
 gsave  710 563 779 12 C 1474.92 90.6129 t 90 r /Helvetica-Bold findfont 20.0192 sf 0 0 m (U/O\255flow \(S,B\): \(0.0, 0.0\)% / \(0.0, 0.0\)%) show NC gr  0.490196 0.545098 0.615686 c 0.364706 0.419608 0.490196 c 384 37 786 535 bf 0.490196 0.545098
 0.615686 c 786 535 m 384 X s 1170 535 m 37 Y s 1170 572 m -384 X s 786 572 m -37 Y s 1 1 1 c black 1 1 1 c
 gsave  710 563 779 12 C 791.991 546.987 t 0 r /Helvetica-Bold findfont 28.5988 sf 0 0 m (Input variable: log\(LcP_PT\)) show NC gr  0.490196 0.545098 0.615686 c 0.941176 0.941176 0.941176 c 711 563 1534 12 bf black 1 1 0.992157 c 547 426 1655 93 bf
 black 547 426 1655 93 bl 1 1 0.992157 c 547 426 1655 93 bf black 547 426 1655 93 bl 0 0 0.933333 c 6 lw 0.49 0.6 0.82 c black 3 lw 0.49 0.6 0.82 c 1655 93 m 296 Y 14 X 91 Y 14 X -106 Y 13 X -145 Y 14 X -76 Y 14 X -18 Y 13 X -22 Y 14 X -6 Y 14 X -3 Y
 13 X -6 Y 14 X 3 Y 14 X -1 Y 13 X -7 Y 383 X f 6 lw 0 0 0.933333 c 0.49 0.6 0.82 c 0 0 0.933333 c 1655 389 m 14 X 91 Y 14 X -106 Y 13 X -145 Y 14 X -76 Y 14 X -18 Y 13 X -22 Y 14 X -6 Y 14 X -3 Y 13 X -6 Y 14 X 3 Y 14 X -1 Y 13 X -7 Y 383 X s black
 3 lw 1655 93 m 547 X s
 gsave  711 563 1534 12 C 1851.78 25.64 t 0 r /Helvetica findfont 28.5988 sf 0 0 m (sqrt\(Lc_Daughters_IPCHI2\)) show NC gr  1744 106 m -13 Y s 1775 99 m -6 Y s 1806 99 m -6 Y s 1837 99 m -6 Y s 1868 106 m -13 Y s 1899 99 m -6 Y s 1929 99 m -6 Y s
 1960 99 m -6 Y s 1991 106 m -13 Y s 2022 99 m -6 Y s 2053 99 m -6 Y s 2084 99 m -6 Y s 2115 106 m -13 Y s 1744 106 m -13 Y s 1713 99 m -6 Y s 1682 99 m -6 Y s 2115 106 m -13 Y s 2146 99 m -6 Y s 2177 99 m -6 Y s
 gsave  711 563 1534 12 C 1729.28 65.5245 t 0 r /Helvetica findfont 25.7389 sf 0 0 m (20) show NC gr 
 gsave  711 563 1534 12 C 1851.78 65.5245 t 0 r /Helvetica findfont 25.7389 sf 0 0 m (40) show NC gr 
 gsave  711 563 1534 12 C 1974.28 65.5245 t 0 r /Helvetica findfont 25.7389 sf 0 0 m (60) show NC gr 
 gsave  711 563 1534 12 C 2099.63 65.5245 t 0 r /Helvetica findfont 25.7389 sf 0 0 m (80) show NC gr  1655 519 m 547 X s 1744 506 m 13 Y s 1775 512 m 7 Y s 1806 512 m 7 Y s 1837 512 m 7 Y s 1868 506 m 13 Y s 1899 512 m 7 Y s 1929 512 m 7 Y s 1960 512
 m 7 Y s 1991 506 m 13 Y s 2022 512 m 7 Y s 2053 512 m 7 Y s 2084 512 m 7 Y s 2115 506 m 13 Y s 1744 506 m 13 Y s 1713 512 m 7 Y s 1682 512 m 7 Y s 2115 506 m 13 Y s 2146 512 m 7 Y s 2177 512 m 7 Y s 1655 93 m 426 Y s
 gsave  711 563 1534 12 C 1558.34 461.52 t 90 r /Helvetica findfont 28.5988 sf 0 0 m (2.21 ) show NC gr 
 gsave  711 563 1534 12 C 1544.1 455.822 t 90 r /Helvetica findfont 20.0192 sf 0 0 m ( ) show NC gr 
 gsave  711 563 1534 12 C 1558.34 444.427 t 90 r /Helvetica findfont 28.5988 sf 0 0 m (/) show NC gr 
 gsave  711 563 1534 12 C 1566.89 438.729 t 90 r /Helvetica findfont 20.0192 sf 0 0 m ( ) show NC gr 
 gsave  711 563 1534 12 C 1558.34 330.471 t 90 r /Helvetica findfont 28.5988 sf 0 0 m (\(1/N\) dN) show NC gr  1671 93 m -16 X s 1663 121 m -8 X s 1663 149 m -8 X s 1663 177 m -8 X s 1663 205 m -8 X s 1671 233 m -16 X s 1663 261 m -8 X s 1663 289 m
 -8 X s 1663 318 m -8 X s 1663 346 m -8 X s 1671 374 m -16 X s 1663 402 m -8 X s 1663 430 m -8 X s 1663 458 m -8 X s 1663 486 m -8 X s 1671 514 m -16 X s 1671 514 m -16 X s
 gsave  711 563 1534 12 C 1632.41 82.6178 t 0 r /Helvetica findfont 25.7389 sf 0 0 m (0) show NC gr 
 gsave  711 563 1534 12 C 1595.38 222.213 t 0 r /Helvetica findfont 25.7389 sf 0 0 m (0.05) show NC gr 
 gsave  711 563 1534 12 C 1615.32 364.658 t 0 r /Helvetica findfont 25.7389 sf 0 0 m (0.1) show NC gr 
 gsave  711 563 1534 12 C 1595.38 504.254 t 0 r /Helvetica findfont 25.7389 sf 0 0 m (0.15) show NC gr  2202 93 m 426 Y s 2186 93 m 16 X s 2194 121 m 8 X s 2194 149 m 8 X s 2194 177 m 8 X s 2194 205 m 8 X s 2186 233 m 16 X s 2194 261 m 8 X s 2194 289
 m 8 X s 2194 318 m 8 X s 2194 346 m 8 X s 2186 374 m 16 X s 2194 402 m 8 X s 2194 430 m 8 X s 2194 458 m 8 X s 2194 486 m 8 X s 2186 514 m 16 X s 2186 514 m 16 X s 1 0 0 c 6 lw black 3 lw 1 0 0 c 2188 93 m s 2173 93 m s 2158 93 m s 2143 93 m s 2128
 93 m s 2113 94 m -1 Y s 2098 94 m -1 -1 d s 2083 94 m -1 -1 d s 2068 94 m -1 -1 d s 2053 94 m -1 -1 d s 2039 94 m -2 -1 d s 2024 95 m -2 -2 d s 2009 95 m -2 -2 d s 1994 95 m -2 -2 d s 1980 96 m -3 -3 d s 1965 96 m -3 -3 d s 1950 96 m -3 -3 d s 1936
 97 m -4 -4 d s 1922 98 m -5 -5 d s 1907 99 m -5 -6 d s 1894 100 m -8 -7 d s 1880 102 m -9 -9 d s 1865 101 m -9 -8 d s 1854 106 m -13 -13 d s 1840 107 m -14 -14 d s 1828 110 m -17 -17 d s 1817 114 m -21 -21 d s 1806 118 m -25 -25 d s 1793 121 m -27
 -28 d s 1783 125 m -32 -32 d s 1777 135 m -41 -42 d s 1765 137 m -44 -44 d s 1759 146 m -53 -53 d s 1751 154 m -61 -61 d s 1745 163 m -70 -70 d s 1737 170 m -77 -77 d s 1737 186 m -82 -83 d s 1724 187 m -69 -69 d s 1724 202 m -69 -69 d s 1719 213 m
 -64 -65 d s 1710 219 m -55 -55 d s 1710 234 m -55 -55 d s 1706 245 m -51 -51 d s 1696 250 m -41 -41 d s 1696 266 m -27 -28 d s 1662 231 m -7 -7 d s 1696 281 m -27 -28 d s 1686 285 m -17 -17 d s 1683 297 m -14 -13 d s 1683 312 m -14 -13 d s 6 lw 1655
 231 m 14 X 82 Y 14 X -28 Y 13 X -40 Y 14 X -32 Y 14 X -27 Y 13 X -23 Y 14 X -17 Y 14 X -11 Y 13 X -10 Y 14 X -4 Y 14 X -7 Y 13 X -4 Y 14 X -3 Y 14 X -1 Y 13 X -5 Y 14 X 1 Y 14 X -2 Y 13 X -1 Y 14 X -1 Y 14 X -1 Y 14 X -1 Y 41 X -1 Y 54 X -1 Y 82 X
 -1 Y 82 X s black 3 lw 1655 93 m 547 X s 1744 106 m -13 Y s 1775 99 m -6 Y s 1806 99 m -6 Y s 1837 99 m -6 Y s 1868 106 m -13 Y s 1899 99 m -6 Y s 1929 99 m -6 Y s 1960 99 m -6 Y s 1991 106 m -13 Y s 2022 99 m -6 Y s 2053 99 m -6 Y s 2084 99 m -6 Y
 s 2115 106 m -13 Y s 1744 106 m -13 Y s 1713 99 m -6 Y s 1682 99 m -6 Y s 2115 106 m -13 Y s 2146 99 m -6 Y s 2177 99 m -6 Y s 1655 519 m 547 X s 1744 506 m 13 Y s 1775 512 m 7 Y s 1806 512 m 7 Y s 1837 512 m 7 Y s 1868 506 m 13 Y s 1899 512 m 7 Y s
 1929 512 m 7 Y s 1960 512 m 7 Y s 1991 506 m 13 Y s 2022 512 m 7 Y s 2053 512 m 7 Y s 2084 512 m 7 Y s 2115 506 m 13 Y s 1744 506 m 13 Y s 1713 512 m 7 Y s 1682 512 m 7 Y s 2115 506 m 13 Y s 2146 512 m 7 Y s 2177 512 m 7 Y s 1655 93 m 426 Y s 1671
 93 m -16 X s 1663 121 m -8 X s 1663 149 m -8 X s 1663 177 m -8 X s 1663 205 m -8 X s 1671 233 m -16 X s 1663 261 m -8 X s 1663 289 m -8 X s 1663 318 m -8 X s 1663 346 m -8 X s 1671 374 m -16 X s 1663 402 m -8 X s 1663 430 m -8 X s 1663 458 m -8 X s
 1663 486 m -8 X s 1671 514 m -16 X s 1671 514 m -16 X s 2202 93 m 426 Y s 2186 93 m 16 X s 2194 121 m 8 X s 2194 149 m 8 X s 2194 177 m 8 X s 2194 205 m 8 X s 2186 233 m 16 X s 2194 261 m 8 X s 2194 289 m 8 X s 2194 318 m 8 X s 2194 346 m 8 X s 2186
 374 m 16 X s 2194 402 m 8 X s 2194 430 m 8 X s 2194 458 m 8 X s 2194 486 m 8 X s 2186 514 m 16 X s 2186 514 m 16 X s
 gsave  711 563 1534 12 C 2230.83 90.6129 t 90 r /Helvetica-Bold findfont 20.0192 sf 0 0 m (U/O\255flow \(S,B\): \(0.0, 0.0\)% / \(0.0, 0.3\)%) show NC gr  0.490196 0.545098 0.615686 c 0.364706 0.419608 0.490196 c 497 37 1542 535 bf 0.490196 0.545098
 0.615686 c 1542 535 m 497 X s 2039 535 m 37 Y s 2039 572 m -497 X s 1542 572 m -37 Y s 1 1 1 c black 1 1 1 c
 gsave  711 563 1534 12 C 1558.34 546.987 t 0 r /Helvetica-Bold findfont 22.879 sf 0 0 m (Input variable: sqrt\(Lc_Daughters_IPCHI2\)) show NC gr 
 gr  gr showpage
end
%%EOF
