%!PS-Adobe-2.0 EPSF-2.0
%%BoundingBox:  0 0 567 293
%%Title: plots/variables_id_c3.eps: Input variables (training sample)
%%Creator: ROOT Version 5.34/18
%%CreationDate: Mon Nov 27 16:22:20 2017
%%EndComments
%%BeginProlog
80 dict begin
/s {stroke} def /l {lineto} def /m {moveto} def /t {translate} def
/r {rotate} def /rl {roll}  def /R {repeat} def
/d {rlineto} def /rm {rmoveto} def /gr {grestore} def /f {eofill} def
/c {setrgbcolor} def /black {0 setgray} def /sd {setdash} def
/cl {closepath} def /sf {scalefont setfont} def /lw {setlinewidth} def
/box {m dup 0 exch d exch 0 d 0 exch neg d cl} def
/NC{systemdict begin initclip end}def/C{NC box clip newpath}def
/bl {box s} def /bf {box f} def /Y { 0 exch d} def /X { 0 d} def 
/K {{pop pop 0 moveto} exch kshow} bind def
/ita {/ang 15 def gsave [1 0 ang dup sin exch cos div 1 0 0] concat} def 
/mp {newpath /y exch def /x exch def} def
/side {[w .77 mul w .23 mul] .385 w mul sd w 0 l currentpoint t -144 r} def
/mr {mp x y w2 0 360 arc} def /m24 {mr s} def /m20 {mr f} def
/mb {mp x y w2 add m w2 neg 0 d 0 w neg d w 0 d 0 w d cl} def
/mt {mp x y w2 add m w2 neg w neg d w 0 d cl} def
/m21 {mb f} def /m25 {mb s} def /m22 {mt f} def /m26{mt s} def
/m23 {mp x y w2 sub m w2 w d w neg 0 d cl f} def
/m27 {mp x y w2 add m w3 neg w2 neg d w3 w2 neg d w3 w2 d cl s} def
/m28 {mp x w2 sub y w2 sub w3 add m w3 0 d  0 w3 neg d w3 0 d 0 w3 d w3 0 d  0 w3 d w3 neg 0 d 0 w3 d w3 neg 0 d 0 w3 neg d w3 neg 0 d cl s } def
/m29 {mp gsave x w2 sub y w2 add w3 sub m currentpoint t 4 {side} repeat cl fill gr} def
/m30 {mp gsave x w2 sub y w2 add w3 sub m currentpoint t 4 {side} repeat cl s gr} def
/m31 {mp x y w2 sub m 0 w d x w2 sub y m w 0 d x w2 sub y w2 add m w w neg d x w2 sub y w2 sub m w w d s} def
/m32 {mp x y w2 sub m w2 w d w neg 0 d cl s} def
/m33 {mp x y w2 add m w3 neg w2 neg d w3 w2 neg d w3 w2 d cl f} def
/m34 {mp x w2 sub y w2 sub w3 add m w3 0 d  0 w3 neg d w3 0 d 0 w3 d w3 0 d  0 w3 d w3 neg 0 d 0 w3 d w3 neg 0 d 0 w3 neg d w3 neg 0 d cl f } def
/m2 {mp x y w2 sub m 0 w d x w2 sub y m w 0 d s} def
/m5 {mp x w2 sub y w2 sub m w w d x w2 sub y w2 add m w w neg d s} def
/reEncode {exch findfont dup length dict begin {1 index /FID eq  {pop pop} {def} ifelse } forall /Encoding exch def currentdict end dup /FontName get exch definefont pop } def [/Times-Bold /Times-Italic /Times-BoldItalic /Helvetica /Helvetica-Oblique
 /Helvetica-Bold /Helvetica-BoldOblique /Courier /Courier-Oblique /Courier-Bold /Courier-BoldOblique /Times-Roman /AvantGarde-Book /AvantGarde-BookOblique /AvantGarde-Demi /AvantGarde-DemiOblique /Bookman-Demi /Bookman-DemiItalic /Bookman-Light
 /Bookman-LightItalic /Helvetica-Narrow /Helvetica-Narrow-Bold /Helvetica-Narrow-BoldOblique /Helvetica-Narrow-Oblique /NewCenturySchlbk-Roman /NewCenturySchlbk-Bold /NewCenturySchlbk-BoldItalic /NewCenturySchlbk-Italic /Palatino-Bold
 /Palatino-BoldItalic /Palatino-Italic /Palatino-Roman ] {ISOLatin1Encoding reEncode } forall
%%EndProlog
%%BeginSetup
%%EndSetup
newpath  gsave  .25 .25 scale  gsave  0 0 t 0.490196 0.545098 0.615686 c[  ] 0 sd 3 lw 0.941176 0.941176 0.941176 c 2268 1174 0 0 bf 0.490196 0.545098 0.615686 c 0.941176 0.941176 0.941176 c 710 563 23 599 bf black 1 1 0.992157 c 548 426 143 680 bf
 black 548 426 143 680 bl 1 1 0.992157 c 548 426 143 680 bf black 548 426 143 680 bl 0 0 0.933333 c 6 lw 0.49 0.6 0.82 c black 3 lw 0.49 0.6 0.82 c 143 680 m 209 Y 14 X 178 Y 14 X -52 Y 14 X -61 Y 13 X -70 Y 14 X -66 Y 14 X -46 Y 13 X -27 Y 14 X -25
 Y 14 X -14 Y 13 X -6 Y 14 X -6 Y 14 X -6 Y 13 X -3 Y 14 X -1 Y 14 X -1 Y 13 X -1 Y 14 X -1 Y 27 X -1 Y 288 X f 6 lw 0 0 0.933333 c 0.49 0.6 0.82 c 0 0 0.933333 c 143 889 m 14 X 178 Y 14 X -52 Y 14 X -61 Y 13 X -70 Y 14 X -66 Y 14 X -46 Y 13 X -27 Y
 14 X -25 Y 14 X -14 Y 13 X -6 Y 14 X -6 Y 14 X -6 Y 13 X -3 Y 14 X -1 Y 14 X -1 Y 13 X -1 Y 14 X -1 Y 27 X -1 Y 288 X s black 3 lw 143 680 m 548 X s
 gsave  710 563 23 599 C 339.018 612.511 t 0 r /Helvetica findfont 28.5988 sf 0 0 m (sqrt\(Lc_Daughters_IPCHI2\)) show NC gr  227 693 m -13 Y s 256 686 m -6 Y s 286 686 m -6 Y s 315 686 m -6 Y s 344 693 m -13 Y s 373 686 m -6 Y s 403 686 m -6 Y s 432
 686 m -6 Y s 461 693 m -13 Y s 490 686 m -6 Y s 520 686 m -6 Y s 549 686 m -6 Y s 578 693 m -13 Y s 227 693 m -13 Y s 198 686 m -6 Y s 169 686 m -6 Y s 578 693 m -13 Y s 607 686 m -6 Y s 636 686 m -6 Y s 666 686 m -6 Y s
 gsave  710 563 23 599 C 210.818 652.396 t 0 r /Helvetica findfont 25.7389 sf 0 0 m (20) show NC gr 
 gsave  710 563 23 599 C 327.622 652.396 t 0 r /Helvetica findfont 25.7389 sf 0 0 m (40) show NC gr 
 gsave  710 563 23 599 C 444.427 652.396 t 0 r /Helvetica findfont 25.7389 sf 0 0 m (60) show NC gr 
 gsave  710 563 23 599 C 561.231 652.396 t 0 r /Helvetica findfont 25.7389 sf 0 0 m (80) show NC gr  143 1106 m 548 X s 227 1093 m 13 Y s 256 1099 m 7 Y s 286 1099 m 7 Y s 315 1099 m 7 Y s 344 1093 m 13 Y s 373 1099 m 7 Y s 403 1099 m 7 Y s 432 1099
 m 7 Y s 461 1093 m 13 Y s 490 1099 m 7 Y s 520 1099 m 7 Y s 549 1099 m 7 Y s 578 1093 m 13 Y s 227 1093 m 13 Y s 198 1099 m 7 Y s 169 1099 m 7 Y s 578 1093 m 13 Y s 607 1099 m 7 Y s 636 1099 m 7 Y s 666 1099 m 7 Y s 143 680 m 426 Y s
 gsave  710 563 23 599 C 45.5822 1042.69 t 90 r /Helvetica findfont 28.5988 sf 0 0 m (2.34 ) show NC gr 
 gsave  710 563 23 599 C 31.3378 1037 t 90 r /Helvetica findfont 20.0192 sf 0 0 m ( ) show NC gr 
 gsave  710 563 23 599 C 45.5822 1025.6 t 90 r /Helvetica findfont 28.5988 sf 0 0 m (/) show NC gr 
 gsave  710 563 23 599 C 54.1289 1019.9 t 90 r /Helvetica findfont 20.0192 sf 0 0 m ( ) show NC gr 
 gsave  710 563 23 599 C 45.5822 911.645 t 90 r /Helvetica findfont 28.5988 sf 0 0 m (\(1/N\) dN) show NC gr  160 680 m -17 X s 152 701 m -9 X s 152 723 m -9 X s 152 744 m -9 X s 160 766 m -17 X s 152 787 m -9 X s 152 808 m -9 X s 152 830 m -9 X s
 160 851 m -17 X s 152 873 m -9 X s 152 894 m -9 X s 152 916 m -9 X s 160 937 m -17 X s 152 959 m -9 X s 152 980 m -9 X s 152 1001 m -9 X s 160 1023 m -17 X s 160 1023 m -17 X s 152 1044 m -9 X s 152 1066 m -9 X s 152 1087 m -9 X s
 gsave  710 563 23 599 C 119.653 669.489 t 0 r /Helvetica findfont 25.7389 sf 0 0 m (0) show NC gr 
 gsave  710 563 23 599 C 82.6178 754.956 t 0 r /Helvetica findfont 25.7389 sf 0 0 m (0.02) show NC gr 
 gsave  710 563 23 599 C 82.6178 840.423 t 0 r /Helvetica findfont 25.7389 sf 0 0 m (0.04) show NC gr 
 gsave  710 563 23 599 C 82.6178 925.889 t 0 r /Helvetica findfont 25.7389 sf 0 0 m (0.06) show NC gr 
 gsave  710 563 23 599 C 82.6178 1014.2 t 0 r /Helvetica findfont 25.7389 sf 0 0 m (0.08) show NC gr  691 680 m 426 Y s 674 680 m 17 X s 683 701 m 8 X s 683 723 m 8 X s 683 744 m 8 X s 674 766 m 17 X s 683 787 m 8 X s 683 808 m 8 X s 683 830 m 8 X s
 674 851 m 17 X s 683 873 m 8 X s 683 894 m 8 X s 683 916 m 8 X s 674 937 m 17 X s 683 959 m 8 X s 683 980 m 8 X s 683 1001 m 8 X s 674 1023 m 17 X s 674 1023 m 17 X s 683 1044 m 8 X s 683 1066 m 8 X s 683 1087 m 8 X s 1 0 0 c 6 lw black 3 lw 1 0 0 c
 677 680 m -1 X s 661 680 m s 646 680 m s 631 680 m s 616 680 m s 602 681 m -1 -1 d s 587 681 m -1 -1 d s 572 681 m -1 -1 d s 557 681 m -2 -1 d s 542 681 m -2 -1 d s 527 681 m -2 -1 d s 513 682 m -3 -2 d s 498 683 m -3 -3 d s 483 683 m -3 -3 d s 469
 684 m -4 -4 d s 454 684 m -4 -4 d s 440 685 m -5 -5 d s 425 685 m -5 -5 d s 412 687 m -7 -7 d s 397 687 m -7 -7 d s 383 688 m -8 -8 d s 370 691 m -10 -11 d s 358 693 m -14 -13 d s 344 694 m -15 -14 d s 334 699 m -20 -19 d s 321 702 m -22 -22 d s 308
 704 m -24 -24 d s 299 710 m -30 -30 d s 289 715 m -35 -35 d s 280 721 m -41 -41 d s 270 727 m -46 -47 d s 265 736 m -56 -56 d s 253 739 m -59 -59 d s 253 754 m -74 -74 d s 239 756 m -75 -76 d s 239 771 m -90 -91 d s 229 776 m -86 -86 d s 226 788 m
 -83 -83 d s 226 803 m -83 -83 d s 215 808 m -72 -73 d s 212 819 m -69 -69 d s 212 834 m -69 -68 d s 209 847 m -66 -66 d s 198 851 m -55 -55 d s 198 866 m -55 -55 d s 198 881 m -55 -55 d s 198 897 m -55 -56 d s 188 901 m -45 -44 d s 185 913 m -42 -41
 d s 185 928 m -28 -27 d s 154 898 m -11 -11 d s 185 943 m -28 -27 d s 185 959 m -28 -28 d s 177 967 m -20 -21 d s 171 975 m -14 -14 d s 171 990 m -14 -13 d s 171 1006 m -14 -14 d s 158 1008 m -1 -1 d s 6 lw 143 898 m 14 X 110 Y 14 X -41 Y 14 X -66 Y
 13 X -54 Y 14 X -39 Y 14 X -32 Y 13 X -21 Y 14 X -19 Y 14 X -9 Y 13 X -12 Y 14 X -5 Y 14 X -6 Y 13 X -5 Y 14 X -5 Y 14 X -1 Y 13 X -2 Y 14 X -3 Y 14 X -1 Y 27 X -2 Y 27 X -1 Y 28 X -1 Y 27 X -1 Y 27 X -1 Y 83 X -1 Y 82 X s black 3 lw 143 680 m 548 X
 s 227 693 m -13 Y s 256 686 m -6 Y s 286 686 m -6 Y s 315 686 m -6 Y s 344 693 m -13 Y s 373 686 m -6 Y s 403 686 m -6 Y s 432 686 m -6 Y s 461 693 m -13 Y s 490 686 m -6 Y s 520 686 m -6 Y s 549 686 m -6 Y s 578 693 m -13 Y s 227 693 m -13 Y s 198
 686 m -6 Y s 169 686 m -6 Y s 578 693 m -13 Y s 607 686 m -6 Y s 636 686 m -6 Y s 666 686 m -6 Y s 143 1106 m 548 X s 227 1093 m 13 Y s 256 1099 m 7 Y s 286 1099 m 7 Y s 315 1099 m 7 Y s 344 1093 m 13 Y s 373 1099 m 7 Y s 403 1099 m 7 Y s 432 1099 m
 7 Y s 461 1093 m 13 Y s 490 1099 m 7 Y s 520 1099 m 7 Y s 549 1099 m 7 Y s 578 1093 m 13 Y s 227 1093 m 13 Y s 198 1099 m 7 Y s 169 1099 m 7 Y s 578 1093 m 13 Y s 607 1099 m 7 Y s 636 1099 m 7 Y s 666 1099 m 7 Y s 143 680 m 426 Y s 160 680 m -17 X s
 152 701 m -9 X s 152 723 m -9 X s 152 744 m -9 X s 160 766 m -17 X s 152 787 m -9 X s 152 808 m -9 X s 152 830 m -9 X s 160 851 m -17 X s 152 873 m -9 X s 152 894 m -9 X s 152 916 m -9 X s 160 937 m -17 X s 152 959 m -9 X s 152 980 m -9 X s 152 1001
 m -9 X s 160 1023 m -17 X s 160 1023 m -17 X s 152 1044 m -9 X s 152 1066 m -9 X s 152 1087 m -9 X s 691 680 m 426 Y s 674 680 m 17 X s 683 701 m 8 X s 683 723 m 8 X s 683 744 m 8 X s 674 766 m 17 X s 683 787 m 8 X s 683 808 m 8 X s 683 830 m 8 X s
 674 851 m 17 X s 683 873 m 8 X s 683 894 m 8 X s 683 916 m 8 X s 674 937 m 17 X s 683 959 m 8 X s 683 980 m 8 X s 683 1001 m 8 X s 674 1023 m 17 X s 674 1023 m 17 X s 683 1044 m 8 X s 683 1066 m 8 X s 683 1087 m 8 X s
 gsave  710 563 23 599 C 719.017 677.484 t 90 r /Helvetica-Bold findfont 20.0192 sf 0 0 m (U/O\255flow \(S,B\): \(0.0, 0.0\)% / \(0.0, 0.2\)%) show NC gr  0.490196 0.545098 0.615686 c 0.364706 0.419608 0.490196 c 497 37 30 1122 bf 0.490196 0.545098
 0.615686 c 30 1122 m 497 X s 527 1122 m 37 Y s 527 1159 m -497 X s 30 1159 m -37 Y s 1 1 1 c black 1 1 1 c
 gsave  710 563 23 599 C 45.5822 1133.86 t 0 r /Helvetica-Bold findfont 22.879 sf 0 0 m (Input variable: sqrt\(Lc_Daughters_IPCHI2\)) show NC gr  0.490196 0.545098 0.615686 c 0.941176 0.941176 0.941176 c 710 563 779 599 bf 0.490196 0.545098 0.615686
 c 0.941176 0.941176 0.941176 c 711 563 1534 599 bf 0.490196 0.545098 0.615686 c 0.941176 0.941176 0.941176 c 710 563 23 12 bf 0.490196 0.545098 0.615686 c 0.941176 0.941176 0.941176 c 710 563 779 12 bf 0.490196 0.545098 0.615686 c 0.941176 0.941176
 0.941176 c 711 563 1534 12 bf
 gr  gr showpage
end
%%EOF
