%!PS-Adobe-2.0 EPSF-2.0
%%BoundingBox:  0 0 567 293
%%Title: plots/variables_id_c1.eps: Input variables (training sample)
%%Creator: ROOT Version 5.34/18
%%CreationDate: Mon May  7 10:41:59 2018
%%EndComments
%%BeginProlog
80 dict begin
/s {stroke} def /l {lineto} def /m {moveto} def /t {translate} def
/r {rotate} def /rl {roll}  def /R {repeat} def
/d {rlineto} def /rm {rmoveto} def /gr {grestore} def /f {eofill} def
/c {setrgbcolor} def /black {0 setgray} def /sd {setdash} def
/cl {closepath} def /sf {scalefont setfont} def /lw {setlinewidth} def
/box {m dup 0 exch d exch 0 d 0 exch neg d cl} def
/NC{systemdict begin initclip end}def/C{NC box clip newpath}def
/bl {box s} def /bf {box f} def /Y { 0 exch d} def /X { 0 d} def 
/K {{pop pop 0 moveto} exch kshow} bind def
/ita {/ang 15 def gsave [1 0 ang dup sin exch cos div 1 0 0] concat} def 
/mp {newpath /y exch def /x exch def} def
/side {[w .77 mul w .23 mul] .385 w mul sd w 0 l currentpoint t -144 r} def
/mr {mp x y w2 0 360 arc} def /m24 {mr s} def /m20 {mr f} def
/mb {mp x y w2 add m w2 neg 0 d 0 w neg d w 0 d 0 w d cl} def
/mt {mp x y w2 add m w2 neg w neg d w 0 d cl} def
/m21 {mb f} def /m25 {mb s} def /m22 {mt f} def /m26{mt s} def
/m23 {mp x y w2 sub m w2 w d w neg 0 d cl f} def
/m27 {mp x y w2 add m w3 neg w2 neg d w3 w2 neg d w3 w2 d cl s} def
/m28 {mp x w2 sub y w2 sub w3 add m w3 0 d  0 w3 neg d w3 0 d 0 w3 d w3 0 d  0 w3 d w3 neg 0 d 0 w3 d w3 neg 0 d 0 w3 neg d w3 neg 0 d cl s } def
/m29 {mp gsave x w2 sub y w2 add w3 sub m currentpoint t 4 {side} repeat cl fill gr} def
/m30 {mp gsave x w2 sub y w2 add w3 sub m currentpoint t 4 {side} repeat cl s gr} def
/m31 {mp x y w2 sub m 0 w d x w2 sub y m w 0 d x w2 sub y w2 add m w w neg d x w2 sub y w2 sub m w w d s} def
/m32 {mp x y w2 sub m w2 w d w neg 0 d cl s} def
/m33 {mp x y w2 add m w3 neg w2 neg d w3 w2 neg d w3 w2 d cl f} def
/m34 {mp x w2 sub y w2 sub w3 add m w3 0 d  0 w3 neg d w3 0 d 0 w3 d w3 0 d  0 w3 d w3 neg 0 d 0 w3 d w3 neg 0 d 0 w3 neg d w3 neg 0 d cl f } def
/m2 {mp x y w2 sub m 0 w d x w2 sub y m w 0 d s} def
/m5 {mp x w2 sub y w2 sub m w w d x w2 sub y w2 add m w w neg d s} def
/reEncode {exch findfont dup length dict begin {1 index /FID eq  {pop pop} {def} ifelse } forall /Encoding exch def currentdict end dup /FontName get exch definefont pop } def [/Times-Bold /Times-Italic /Times-BoldItalic /Helvetica /Helvetica-Oblique
 /Helvetica-Bold /Helvetica-BoldOblique /Courier /Courier-Oblique /Courier-Bold /Courier-BoldOblique /Times-Roman /AvantGarde-Book /AvantGarde-BookOblique /AvantGarde-Demi /AvantGarde-DemiOblique /Bookman-Demi /Bookman-DemiItalic /Bookman-Light
 /Bookman-LightItalic /Helvetica-Narrow /Helvetica-Narrow-Bold /Helvetica-Narrow-BoldOblique /Helvetica-Narrow-Oblique /NewCenturySchlbk-Roman /NewCenturySchlbk-Bold /NewCenturySchlbk-BoldItalic /NewCenturySchlbk-Italic /Palatino-Bold
 /Palatino-BoldItalic /Palatino-Italic /Palatino-Roman ] {ISOLatin1Encoding reEncode } forall
%%EndProlog
%%BeginSetup
%%EndSetup
newpath  gsave  .25 .25 scale  gsave  0 0 t 0.490196 0.545098 0.615686 c[  ] 0 sd 3 lw 0.941176 0.941176 0.941176 c 2268 1174 0 0 bf 0.490196 0.545098 0.615686 c 0.941176 0.941176 0.941176 c 710 563 23 599 bf black 1 1 0.992157 c 548 426 143 680 bf
 black 548 426 143 680 bl 1 1 0.992157 c 548 426 143 680 bf black 548 426 143 680 bl 0 0 0.933333 c 6 lw 0.49 0.6 0.82 c black 3 lw 0.49 0.6 0.82 c 143 680 m 42 X 4 Y 13 X 26 Y 14 X 147 Y 14 X 113 Y 13 X -8 Y 14 X 45 Y 14 X -26 Y 13 X -120 Y 14 X -46
 Y 14 X -44 Y 13 X -39 Y 14 X -17 Y 14 X -11 Y 13 X -18 Y 14 X 20 Y 14 X -22 Y 13 X -4 Y 288 X f 6 lw 0 0 0.933333 c 0.49 0.6 0.82 c 0 0 0.933333 c 143 680 m 42 X 4 Y 13 X 26 Y 14 X 147 Y 14 X 113 Y 13 X -8 Y 14 X 45 Y 14 X -26 Y 13 X -120 Y 14 X -46
 Y 14 X -44 Y 13 X -39 Y 14 X -17 Y 14 X -11 Y 13 X -18 Y 14 X 20 Y 14 X -22 Y 13 X -4 Y 288 X s black 3 lw 143 680 m 548 X s
 gsave  710 563 23 599 C 361.809 612.511 t 0 r /Helvetica findfont 28.5988 sf 0 0 m (log\(Lc_FDCHI2_OWNPV\)) show NC gr  265 693 m -13 Y s 311 686 m -6 Y s 358 686 m -6 Y s 404 686 m -6 Y s 450 686 m -6 Y s 497 693 m -13 Y s 265 693 m -13 Y s 219 686
 m -6 Y s 172 686 m -6 Y s 497 693 m -13 Y s 543 686 m -6 Y s 590 686 m -6 Y s 636 686 m -6 Y s 682 686 m -6 Y s
 gsave  710 563 23 599 C 253.551 652.396 t 0 r /Helvetica findfont 25.7389 sf 0 0 m (5) show NC gr 
 gsave  710 563 23 599 C 481.462 652.396 t 0 r /Helvetica findfont 25.7389 sf 0 0 m (10) show NC gr  143 1106 m 548 X s 265 1093 m 13 Y s 311 1099 m 7 Y s 358 1099 m 7 Y s 404 1099 m 7 Y s 450 1099 m 7 Y s 497 1093 m 13 Y s 265 1093 m 13 Y s 219 1099
 m 7 Y s 172 1099 m 7 Y s 497 1093 m 13 Y s 543 1099 m 7 Y s 590 1099 m 7 Y s 636 1099 m 7 Y s 682 1099 m 7 Y s 143 680 m 426 Y s
 gsave  710 563 23 599 C 45.5822 1028.45 t 90 r /Helvetica findfont 28.5988 sf 0 0 m (0.295 ) show NC gr 
 gsave  710 563 23 599 C 31.3378 1022.75 t 90 r /Helvetica findfont 20.0192 sf 0 0 m ( ) show NC gr 
 gsave  710 563 23 599 C 45.5822 1011.36 t 90 r /Helvetica findfont 28.5988 sf 0 0 m (/) show NC gr 
 gsave  710 563 23 599 C 54.1289 1005.66 t 90 r /Helvetica findfont 20.0192 sf 0 0 m ( ) show NC gr 
 gsave  710 563 23 599 C 45.5822 897.4 t 90 r /Helvetica findfont 28.5988 sf 0 0 m (\(1/N\) dN) show NC gr  160 680 m -17 X s 152 709 m -9 X s 152 738 m -9 X s 152 767 m -9 X s 160 796 m -17 X s 152 825 m -9 X s 152 854 m -9 X s 152 883 m -9 X s 160
 912 m -17 X s 152 941 m -9 X s 152 970 m -9 X s 152 999 m -9 X s 160 1028 m -17 X s 160 1028 m -17 X s 152 1057 m -9 X s 152 1087 m -9 X s
 gsave  710 563 23 599 C 119.653 669.489 t 0 r /Helvetica findfont 25.7389 sf 0 0 m (0) show NC gr 
 gsave  710 563 23 599 C 96.8623 786.294 t 0 r /Helvetica findfont 25.7389 sf 0 0 m (0.2) show NC gr 
 gsave  710 563 23 599 C 96.8623 903.098 t 0 r /Helvetica findfont 25.7389 sf 0 0 m (0.4) show NC gr 
 gsave  710 563 23 599 C 96.8623 1017.05 t 0 r /Helvetica findfont 25.7389 sf 0 0 m (0.6) show NC gr  691 680 m 426 Y s 674 680 m 17 X s 683 709 m 8 X s 683 738 m 8 X s 683 767 m 8 X s 674 796 m 17 X s 683 825 m 8 X s 683 854 m 8 X s 683 883 m 8 X s
 674 912 m 17 X s 683 941 m 8 X s 683 970 m 8 X s 683 999 m 8 X s 674 1028 m 17 X s 674 1028 m 17 X s 683 1057 m 8 X s 683 1087 m 8 X s 1 0 0 c 6 lw black 3 lw 1 0 0 c 676 680 m s 661 680 m s 646 680 m s 631 680 m s 616 680 m s 601 680 m s 586 680 m
 s 571 680 m s 556 680 m -1 X s 542 681 m -2 -1 d s 526 681 m -1 -1 d s 512 682 m -2 -2 d s 499 683 m -4 -3 d s 485 685 m -5 -5 d s 472 686 m -7 -6 d s 458 688 m -8 -8 d s 445 690 m -10 -10 d s 436 696 m -16 -16 d s 425 701 m -20 -21 d s 417 707 m
 -27 -27 d s 405 710 m -30 -30 d s 397 718 m -37 -38 d s 390 725 m -46 -45 d s 379 730 m -50 -50 d s 376 742 m -62 -62 d s 362 743 m -63 -63 d s 362 758 m -78 -78 d s 351 762 m -82 -82 d s 349 775 m -95 -95 d s 337 778 m -98 -98 d s 335 792 m -111
 -112 d s 332 804 m -123 -124 d s 321 808 m -127 -128 d s 321 823 m -123 -124 d s 197 698 m -12 -12 d s 183 684 m -4 -4 d s 312 829 m -114 -114 d s 165 681 m -1 -1 d s 308 840 m -96 -97 d s 209 741 m -11 -11 d s 149 680 m s 299 847 m -87 -88 d s 294
 856 m -82 -82 d s 283 861 m -57 -58 d s 220 797 m -8 -8 d s 280 873 m -54 -55 d s 262 870 m -9 -9 d s 248 855 m -9 -8 d s 6 lw 143 680 m 14 X 1 Y 14 X 3 Y 14 X 14 Y 13 X 43 Y 14 X 56 Y 14 X 35 Y 13 X 23 Y 14 X 15 Y 14 X 3 Y 13 X -12 Y 14 X -14 Y 14
 X -18 Y 13 X -25 Y 14 X -26 Y 14 X -16 Y 13 X -19 Y 14 X -13 Y 14 X -12 Y 13 X -8 Y 14 X -9 Y 14 X -5 Y 13 X -6 Y 14 X -2 Y 14 X -3 Y 13 X -2 Y 14 X -1 Y 14 X -1 Y 41 X -1 Y 137 X s 0.490196 0.545098 0.615686 c 3 lw 0.95 0.95 0.95 c 0.490196
 0.545098 0.615686 c 285 85 143 1021 bl 143 1021 m 285 X s 428 1021 m 85 Y s 428 1106 m -285 X s 143 1106 m -85 Y s black
 gsave  710 563 23 599 C 228.737 1075.03 t 0 r /Times-Italic findfont 31.4587 sf 0 0 m (Signal) show NC gr  0.49 0.6 0.82 c 156 1070 m 60 X 29 Y -60 X f 0 0 0.933333 c 6 lw 156 1099 m 60 X s 156 1070 m 60 X s 216 1070 m 29 Y s 156 1070 m 29 Y s black
 gsave  710 563 23 599 C 228.737 1032.78 t 0 r /Times-Italic findfont 31.4587 sf 0 0 m (Background) show NC gr  1 0 0 c 3 lw 216 1036 m -8 -9 d s 216 1051 m -23 -24 d s 207 1057 m -29 -30 d s 192 1057 m -29 -30 d s 177 1057 m -21 -21 d s 162 1057 m
 -6 -5 d s 6 lw 0 0 0.933333 c 1 0 0 c 156 1057 m 60 X s 156 1027 m 60 X s 216 1027 m 30 Y s 156 1027 m 30 Y s black 3 lw 143 680 m 548 X s 265 693 m -13 Y s 311 686 m -6 Y s 358 686 m -6 Y s 404 686 m -6 Y s 450 686 m -6 Y s 497 693 m -13 Y s 265
 693 m -13 Y s 219 686 m -6 Y s 172 686 m -6 Y s 497 693 m -13 Y s 543 686 m -6 Y s 590 686 m -6 Y s 636 686 m -6 Y s 682 686 m -6 Y s 143 1106 m 548 X s 265 1093 m 13 Y s 311 1099 m 7 Y s 358 1099 m 7 Y s 404 1099 m 7 Y s 450 1099 m 7 Y s 497 1093 m
 13 Y s 265 1093 m 13 Y s 219 1099 m 7 Y s 172 1099 m 7 Y s 497 1093 m 13 Y s 543 1099 m 7 Y s 590 1099 m 7 Y s 636 1099 m 7 Y s 682 1099 m 7 Y s 143 680 m 426 Y s 160 680 m -17 X s 152 709 m -9 X s 152 738 m -9 X s 152 767 m -9 X s 160 796 m -17 X s
 152 825 m -9 X s 152 854 m -9 X s 152 883 m -9 X s 160 912 m -17 X s 152 941 m -9 X s 152 970 m -9 X s 152 999 m -9 X s 160 1028 m -17 X s 160 1028 m -17 X s 152 1057 m -9 X s 152 1087 m -9 X s 691 680 m 426 Y s 674 680 m 17 X s 683 709 m 8 X s 683
 738 m 8 X s 683 767 m 8 X s 674 796 m 17 X s 683 825 m 8 X s 683 854 m 8 X s 683 883 m 8 X s 674 912 m 17 X s 683 941 m 8 X s 683 970 m 8 X s 683 999 m 8 X s 674 1028 m 17 X s 674 1028 m 17 X s 683 1057 m 8 X s 683 1087 m 8 X s
 gsave  710 563 23 599 C 719.017 677.484 t 90 r /Helvetica-Bold findfont 20.0192 sf 0 0 m (U/O\255flow \(S,B\): \(0.0, 0.0\)% / \(0.0, 0.0\)%) show NC gr  0.490196 0.545098 0.615686 c 0.364706 0.419608 0.490196 c 497 37 30 1122 bf 0.490196 0.545098
 0.615686 c 30 1122 m 497 X s 527 1122 m 37 Y s 527 1159 m -497 X s 30 1159 m -37 Y s 1 1 1 c black 1 1 1 c
 gsave  710 563 23 599 C 31.3378 1133.86 t 0 r /Helvetica-Bold findfont 25.7389 sf 0 0 m (Input variable: log\(Lc_FDCHI2_OWNPV\)) show NC gr  0.490196 0.545098 0.615686 c 0.941176 0.941176 0.941176 c 710 563 779 599 bf black 1 1 0.992157 c 548 426
 899 680 bf black 548 426 899 680 bl 1 1 0.992157 c 548 426 899 680 bf black 548 426 899 680 bl 0 0 0.933333 c 6 lw 0.49 0.6 0.82 c black 3 lw 0.49 0.6 0.82 c 899 680 m 150 Y 14 X 33 Y 14 X 75 Y 13 X 25 Y 14 X 54 Y 14 X 50 Y 13 X -21 Y 14 X -58 Y 14
 X 33 Y 13 X -75 Y 14 X 21 Y 14 X -129 Y 14 X -29 Y 13 X -50 Y 14 X -8 Y 14 X -13 Y 13 X -21 Y 14 X -8 Y 14 X -21 Y 13 X -8 Y 14 X 16 Y 14 X -16 Y 260 X f 6 lw 0 0 0.933333 c 0.49 0.6 0.82 c 0 0 0.933333 c 899 830 m 14 X 33 Y 14 X 75 Y 13 X 25 Y 14 X
 54 Y 14 X 50 Y 13 X -21 Y 14 X -58 Y 14 X 33 Y 13 X -75 Y 14 X 21 Y 14 X -129 Y 14 X -29 Y 13 X -50 Y 14 X -8 Y 14 X -13 Y 13 X -21 Y 14 X -8 Y 14 X -21 Y 13 X -8 Y 14 X 16 Y 14 X -16 Y 260 X s black 3 lw 899 680 m 548 X s
 gsave  710 563 779 599 C 1108.22 612.511 t 0 r /Helvetica findfont 28.5988 sf 0 0 m (log\(LcP_IPCHI2_OWNPV\)) show NC gr  916 693 m -13 Y s 949 686 m -6 Y s 982 686 m -6 Y s 1015 686 m -6 Y s 1049 693 m -13 Y s 1082 686 m -6 Y s 1115 686 m -6 Y s
 1148 686 m -6 Y s 1181 693 m -13 Y s 1214 686 m -6 Y s 1247 686 m -6 Y s 1280 686 m -6 Y s 1313 693 m -13 Y s 1346 686 m -6 Y s 1379 686 m -6 Y s 1412 686 m -6 Y s 1445 693 m -13 Y s 916 693 m -13 Y s 1445 693 m -13 Y s
 gsave  710 563 779 599 C 905.947 652.396 t 0 r /Helvetica findfont 25.7389 sf 0 0 m (2) show NC gr 
 gsave  710 563 779 599 C 1039.84 652.396 t 0 r /Helvetica findfont 25.7389 sf 0 0 m (4) show NC gr 
 gsave  710 563 779 599 C 1170.89 652.396 t 0 r /Helvetica findfont 25.7389 sf 0 0 m (6) show NC gr 
 gsave  710 563 779 599 C 1301.94 652.396 t 0 r /Helvetica findfont 25.7389 sf 0 0 m (8) show NC gr 
 gsave  710 563 779 599 C 1430.14 652.396 t 0 r /Helvetica findfont 25.7389 sf 0 0 m (10) show NC gr  899 1106 m 548 X s 916 1093 m 13 Y s 949 1099 m 7 Y s 982 1099 m 7 Y s 1015 1099 m 7 Y s 1049 1093 m 13 Y s 1082 1099 m 7 Y s 1115 1099 m 7 Y s 1148
 1099 m 7 Y s 1181 1093 m 13 Y s 1214 1099 m 7 Y s 1247 1099 m 7 Y s 1280 1099 m 7 Y s 1313 1093 m 13 Y s 1346 1099 m 7 Y s 1379 1099 m 7 Y s 1412 1099 m 7 Y s 1445 1093 m 13 Y s 916 1093 m 13 Y s 1445 1093 m 13 Y s 899 680 m 426 Y s
 gsave  710 563 779 599 C 803.387 1028.45 t 90 r /Helvetica findfont 28.5988 sf 0 0 m (0.207 ) show NC gr 
 gsave  710 563 779 599 C 789.143 1022.75 t 90 r /Helvetica findfont 20.0192 sf 0 0 m ( ) show NC gr 
 gsave  710 563 779 599 C 803.387 1011.36 t 90 r /Helvetica findfont 28.5988 sf 0 0 m (/) show NC gr 
 gsave  710 563 779 599 C 811.934 1005.66 t 90 r /Helvetica findfont 20.0192 sf 0 0 m ( ) show NC gr 
 gsave  710 563 779 599 C 803.387 897.4 t 90 r /Helvetica findfont 28.5988 sf 0 0 m (\(1/N\) dN) show NC gr  915 680 m -16 X s 907 719 m -8 X s 907 757 m -8 X s 907 796 m -8 X s 915 835 m -16 X s 907 874 m -8 X s 907 913 m -8 X s 907 952 m -8 X s 915
 990 m -16 X s 915 990 m -16 X s 907 1029 m -8 X s 907 1068 m -8 X s
 gsave  710 563 779 599 C 874.609 669.489 t 0 r /Helvetica findfont 25.7389 sf 0 0 m (0) show NC gr 
 gsave  710 563 779 599 C 851.818 826.178 t 0 r /Helvetica findfont 25.7389 sf 0 0 m (0.2) show NC gr 
 gsave  710 563 779 599 C 851.818 980.018 t 0 r /Helvetica findfont 25.7389 sf 0 0 m (0.4) show NC gr  1447 680 m 426 Y s 1430 680 m 17 X s 1438 719 m 9 X s 1438 757 m 9 X s 1438 796 m 9 X s 1430 835 m 17 X s 1438 874 m 9 X s 1438 913 m 9 X s 1438
 952 m 9 X s 1430 990 m 17 X s 1430 990 m 17 X s 1438 1029 m 9 X s 1438 1068 m 9 X s 1 0 0 c 6 lw black 3 lw 1 0 0 c 1433 680 m -1 X s 1417 680 m s 1403 680 m -1 X s 1388 680 m -1 X s 1373 681 m -1 -1 d s 1358 680 m -1 X s 1343 681 m -1 -1 d s 1328
 681 m -1 -1 d s 1315 683 m -3 -3 d s 1301 684 m -4 -4 d s 1287 685 m -5 -5 d s 1275 689 m -8 -9 d s 1266 694 m -15 -14 d s 1254 697 m -18 -17 d s 1241 700 m -20 -20 d s 1228 702 m -22 -22 d s 1220 708 m -29 -28 d s 1211 715 m -35 -35 d s 1200 719 m
 -39 -39 d s 1191 725 m -45 -45 d s 1187 736 m -56 -56 d s 1175 739 m -59 -59 d s 1173 752 m -72 -72 d s 1160 754 m -74 -74 d s 1159 769 m -88 -89 d s 1146 770 m -91 -90 d s 1146 785 m -106 -105 d s 1133 788 m -108 -108 d s 1132 802 m -122 -122 d s
 1121 806 m -126 -126 d s 1118 818 m -138 -138 d s 1106 821 m -141 -141 d s 1105 835 m -155 -155 d s 1096 841 m -161 -161 d s 1091 851 m -171 -171 d s 1085 860 m -180 -180 d s 1077 868 m -178 -179 d s 1066 871 m -167 -166 d s 1064 884 m -165 -164 d s
 1052 888 m -153 -153 d s 1049 900 m -150 -150 d s 1036 902 m -137 -137 d s 1036 917 m -123 -123 d s 911 792 m -12 -12 d s 1024 920 m -56 -56 d s 953 849 m -26 -26 d s 914 810 m -1 -1 d s 1022 934 m -54 -55 d s 932 843 m -5 -5 d s 1009 935 m -41 -41
 d s 1007 948 m -12 -12 d s 991 932 m -23 -23 d s 969 926 m -1 -2 d s 6 lw 899 792 m 14 X 18 Y 14 X 33 Y 13 X 6 Y 14 X 1 Y 14 X 76 Y 13 X 6 Y 14 X 16 Y 14 X -14 Y 13 X -14 Y 14 X -20 Y 14 X -12 Y 14 X -17 Y 13 X -11 Y 14 X -19 Y 14 X -20 Y 13 X -15 Y
 14 X -18 Y 14 X -19 Y 13 X -15 Y 14 X -15 Y 14 X -14 Y 13 X -10 Y 14 X -7 Y 14 X -6 Y 13 X -5 Y 14 X -3 Y 14 X -5 Y 13 X -4 Y 14 X -1 Y 14 X -1 Y 13 X -2 Y 28 X -1 Y 13 X 1 Y 14 X -1 Y 69 X s black 3 lw 899 680 m 548 X s 916 693 m -13 Y s 949 686 m
 -6 Y s 982 686 m -6 Y s 1015 686 m -6 Y s 1049 693 m -13 Y s 1082 686 m -6 Y s 1115 686 m -6 Y s 1148 686 m -6 Y s 1181 693 m -13 Y s 1214 686 m -6 Y s 1247 686 m -6 Y s 1280 686 m -6 Y s 1313 693 m -13 Y s 1346 686 m -6 Y s 1379 686 m -6 Y s 1412
 686 m -6 Y s 1445 693 m -13 Y s 916 693 m -13 Y s 1445 693 m -13 Y s 899 1106 m 548 X s 916 1093 m 13 Y s 949 1099 m 7 Y s 982 1099 m 7 Y s 1015 1099 m 7 Y s 1049 1093 m 13 Y s 1082 1099 m 7 Y s 1115 1099 m 7 Y s 1148 1099 m 7 Y s 1181 1093 m 13 Y s
 1214 1099 m 7 Y s 1247 1099 m 7 Y s 1280 1099 m 7 Y s 1313 1093 m 13 Y s 1346 1099 m 7 Y s 1379 1099 m 7 Y s 1412 1099 m 7 Y s 1445 1093 m 13 Y s 916 1093 m 13 Y s 1445 1093 m 13 Y s 899 680 m 426 Y s 915 680 m -16 X s 907 719 m -8 X s 907 757 m -8
 X s 907 796 m -8 X s 915 835 m -16 X s 907 874 m -8 X s 907 913 m -8 X s 907 952 m -8 X s 915 990 m -16 X s 915 990 m -16 X s 907 1029 m -8 X s 907 1068 m -8 X s 1447 680 m 426 Y s 1430 680 m 17 X s 1438 719 m 9 X s 1438 757 m 9 X s 1438 796 m 9 X s
 1430 835 m 17 X s 1438 874 m 9 X s 1438 913 m 9 X s 1438 952 m 9 X s 1430 990 m 17 X s 1430 990 m 17 X s 1438 1029 m 9 X s 1438 1068 m 9 X s
 gsave  710 563 779 599 C 1474.92 677.484 t 90 r /Helvetica-Bold findfont 20.0192 sf 0 0 m (U/O\255flow \(S,B\): \(0.0, 0.0\)% / \(0.0, 0.0\)%) show NC gr  0.490196 0.545098 0.615686 c 0.364706 0.419608 0.490196 c 497 37 786 1122 bf 0.490196 0.545098
 0.615686 c 786 1122 m 497 X s 1283 1122 m 37 Y s 1283 1159 m -497 X s 786 1159 m -37 Y s 1 1 1 c black 1 1 1 c
 gsave  710 563 779 599 C 786.294 1133.86 t 0 r /Helvetica-Bold findfont 25.7389 sf 0 0 m (Input variable: log\(LcP_IPCHI2_OWNPV\)) show NC gr  0.490196 0.545098 0.615686 c 0.941176 0.941176 0.941176 c 711 563 1534 599 bf black 1 1 0.992157 c 547 426
 1655 680 bf black 547 426 1655 680 bl 1 1 0.992157 c 547 426 1655 680 bf black 547 426 1655 680 bl 0 0 0.933333 c 6 lw 0.49 0.6 0.82 c black 3 lw 0.49 0.6 0.82 c 1655 680 m 14 X 7 Y 14 X 164 Y 13 X 7 Y 14 X 27 Y 14 X 26 Y 13 X 88 Y 14 X 15 Y 14 X 53
 Y 13 X -53 Y 14 X -76 Y 14 X 4 Y 13 X -65 Y 14 X -49 Y 14 X -15 Y 13 X -61 Y 14 X -19 Y 14 X -8 Y 27 X -30 Y 14 X 4 Y 14 X -12 Y 13 X -7 Y 246 X f 6 lw 0 0 0.933333 c 0.49 0.6 0.82 c 0 0 0.933333 c 1655 680 m 14 X 7 Y 14 X 164 Y 13 X 7 Y 14 X 27 Y
 14 X 26 Y 13 X 88 Y 14 X 15 Y 14 X 53 Y 13 X -53 Y 14 X -76 Y 14 X 4 Y 13 X -65 Y 14 X -49 Y 14 X -15 Y 13 X -61 Y 14 X -19 Y 14 X -8 Y 27 X -30 Y 14 X 4 Y 14 X -12 Y 13 X -7 Y 246 X s black 3 lw 1655 680 m 547 X s
 gsave  711 563 1534 599 C 1866.02 612.511 t 0 r /Helvetica findfont 28.5988 sf 0 0 m (log\(LcK_IPCHI2_OWNPV\)) show NC gr  1695 693 m -13 Y s 1725 686 m -6 Y s 1754 686 m -6 Y s 1784 686 m -6 Y s 1813 693 m -13 Y s 1843 686 m -6 Y s 1872 686 m -6 Y
 s 1902 686 m -6 Y s 1932 693 m -13 Y s 1961 686 m -6 Y s 1991 686 m -6 Y s 2020 686 m -6 Y s 2050 693 m -13 Y s 2079 686 m -6 Y s 2109 686 m -6 Y s 2138 686 m -6 Y s 2168 693 m -13 Y s 1695 693 m -13 Y s 1666 686 m -6 Y s 2168 693 m -13 Y s 2197 686
 m -6 Y s
 gsave  711 563 1534 599 C 1686.54 652.396 t 0 r /Helvetica findfont 25.7389 sf 0 0 m (2) show NC gr 
 gsave  711 563 1534 599 C 1803.35 652.396 t 0 r /Helvetica findfont 25.7389 sf 0 0 m (4) show NC gr 
 gsave  711 563 1534 599 C 1920.15 652.396 t 0 r /Helvetica findfont 25.7389 sf 0 0 m (6) show NC gr 
 gsave  711 563 1534 599 C 2039.81 652.396 t 0 r /Helvetica findfont 25.7389 sf 0 0 m (8) show NC gr 
 gsave  711 563 1534 599 C 2150.91 652.396 t 0 r /Helvetica findfont 25.7389 sf 0 0 m (10) show NC gr  1655 1106 m 547 X s 1695 1093 m 13 Y s 1725 1099 m 7 Y s 1754 1099 m 7 Y s 1784 1099 m 7 Y s 1813 1093 m 13 Y s 1843 1099 m 7 Y s 1872 1099 m 7 Y s
 1902 1099 m 7 Y s 1932 1093 m 13 Y s 1961 1099 m 7 Y s 1991 1099 m 7 Y s 2020 1099 m 7 Y s 2050 1093 m 13 Y s 2079 1099 m 7 Y s 2109 1099 m 7 Y s 2138 1099 m 7 Y s 2168 1093 m 13 Y s 1695 1093 m 13 Y s 1666 1099 m 7 Y s 2168 1093 m 13 Y s 2197 1099
 m 7 Y s 1655 680 m 426 Y s
 gsave  711 563 1534 599 C 1558.34 1034.15 t 90 r /Helvetica findfont 28.5988 sf 0 0 m (0.231 ) show NC gr 
 gsave  711 563 1534 599 C 1544.1 1028.45 t 90 r /Helvetica findfont 20.0192 sf 0 0 m ( ) show NC gr 
 gsave  711 563 1534 599 C 1558.34 1017.05 t 90 r /Helvetica findfont 28.5988 sf 0 0 m (/) show NC gr 
 gsave  711 563 1534 599 C 1566.89 1011.36 t 90 r /Helvetica findfont 20.0192 sf 0 0 m ( ) show NC gr 
 gsave  711 563 1534 599 C 1558.34 903.098 t 90 r /Helvetica findfont 28.5988 sf 0 0 m (\(1/N\) dN) show NC gr  1671 680 m -16 X s 1663 719 m -8 X s 1663 759 m -8 X s 1663 799 m -8 X s 1671 838 m -16 X s 1663 878 m -8 X s 1663 918 m -8 X s 1663 957 m
 -8 X s 1671 997 m -16 X s 1671 997 m -16 X s 1663 1036 m -8 X s 1663 1076 m -8 X s
 gsave  711 563 1534 599 C 1632.41 669.489 t 0 r /Helvetica findfont 25.7389 sf 0 0 m (0) show NC gr 
 gsave  711 563 1534 599 C 1609.62 829.027 t 0 r /Helvetica findfont 25.7389 sf 0 0 m (0.2) show NC gr 
 gsave  711 563 1534 599 C 1609.62 985.716 t 0 r /Helvetica findfont 25.7389 sf 0 0 m (0.4) show NC gr  2202 680 m 426 Y s 2186 680 m 16 X s 2194 719 m 8 X s 2194 759 m 8 X s 2194 799 m 8 X s 2186 838 m 16 X s 2194 878 m 8 X s 2194 918 m 8 X s 2194
 957 m 8 X s 2186 997 m 16 X s 2186 997 m 16 X s 2194 1036 m 8 X s 2194 1076 m 8 X s 1 0 0 c 6 lw black 3 lw 1 0 0 c 2188 680 m s 2173 680 m s 2158 680 m s 2143 680 m s 2128 680 m s 2113 681 m -1 Y s 2099 681 m -2 -1 d s 2085 682 m -3 -2 d s 2070 683
 m -3 -3 d s 2057 685 m -5 -5 d s 2043 686 m -6 -6 d s 2029 687 m -7 -7 d s 2018 691 m -11 -11 d s 2007 695 m -15 -15 d s 1997 700 m -20 -20 d s 1984 702 m -22 -22 d s 1975 708 m -28 -28 d s 1967 715 m -35 -35 d s 1956 720 m -39 -40 d s 1947 726 m
 -45 -46 d s 1943 736 m -57 -56 d s 1935 744 m -64 -64 d s 1929 753 m -73 -73 d s 1917 756 m -76 -76 d s 1915 769 m -89 -89 d s 1905 774 m -94 -94 d s 1901 786 m -105 -106 d s 1890 790 m -109 -110 d s 1888 802 m -122 -122 d s 1884 813 m -133 -133 d s
 1874 819 m -138 -139 d s 1867 827 m -146 -147 d s 1860 836 m -154 -156 d s 1860 851 m -170 -171 d s 1847 853 m -164 -166 d s 1680 685 m -5 -5 d s 1846 866 m -163 -164 d s 1660 680 m s 1833 869 m -150 -152 d s 1833 884 m -150 -151 d s 1826 892 m -143
 -144 d s 1816 897 m -133 -134 d s 1806 902 m -123 -124 d s 1806 917 m -69 -69 d s 1733 844 m -23 -23 d s 1708 819 m -25 -26 d s 1794 920 m -57 -57 d s 1723 849 m -13 -13 d s 1689 814 m -6 -6 d s 1790 931 m -53 -52 d s 1776 933 m -25 -26 d s 1745 901
 m -8 -7 d s 1755 927 m -4 -4 d s 6 lw 1655 680 m 14 X 5 Y 14 X 129 Y 13 X 5 Y 14 X 30 Y 14 X -5 Y 13 X 57 Y 14 X 26 Y 14 X 6 Y 13 X -2 Y 14 X -11 Y 14 X -23 Y 13 X -5 Y 14 X -26 Y 14 X -13 Y 13 X -26 Y 14 X -14 Y 14 X -23 Y 13 X -16 Y 14 X -18 Y 14
 X -12 Y 14 X -18 Y 13 X -11 Y 14 X -7 Y 14 X -6 Y 13 X -7 Y 14 X -4 Y 14 X -4 Y 13 X -1 Y 14 X -1 Y 14 X -2 Y 13 X -1 Y 14 X -1 Y 27 X -1 Y 82 X s black 3 lw 1655 680 m 547 X s 1695 693 m -13 Y s 1725 686 m -6 Y s 1754 686 m -6 Y s 1784 686 m -6 Y s
 1813 693 m -13 Y s 1843 686 m -6 Y s 1872 686 m -6 Y s 1902 686 m -6 Y s 1932 693 m -13 Y s 1961 686 m -6 Y s 1991 686 m -6 Y s 2020 686 m -6 Y s 2050 693 m -13 Y s 2079 686 m -6 Y s 2109 686 m -6 Y s 2138 686 m -6 Y s 2168 693 m -13 Y s 1695 693 m
 -13 Y s 1666 686 m -6 Y s 2168 693 m -13 Y s 2197 686 m -6 Y s 1655 1106 m 547 X s 1695 1093 m 13 Y s 1725 1099 m 7 Y s 1754 1099 m 7 Y s 1784 1099 m 7 Y s 1813 1093 m 13 Y s 1843 1099 m 7 Y s 1872 1099 m 7 Y s 1902 1099 m 7 Y s 1932 1093 m 13 Y s
 1961 1099 m 7 Y s 1991 1099 m 7 Y s 2020 1099 m 7 Y s 2050 1093 m 13 Y s 2079 1099 m 7 Y s 2109 1099 m 7 Y s 2138 1099 m 7 Y s 2168 1093 m 13 Y s 1695 1093 m 13 Y s 1666 1099 m 7 Y s 2168 1093 m 13 Y s 2197 1099 m 7 Y s 1655 680 m 426 Y s 1671 680 m
 -16 X s 1663 719 m -8 X s 1663 759 m -8 X s 1663 799 m -8 X s 1671 838 m -16 X s 1663 878 m -8 X s 1663 918 m -8 X s 1663 957 m -8 X s 1671 997 m -16 X s 1671 997 m -16 X s 1663 1036 m -8 X s 1663 1076 m -8 X s 2202 680 m 426 Y s 2186 680 m 16 X s
 2194 719 m 8 X s 2194 759 m 8 X s 2194 799 m 8 X s 2186 838 m 16 X s 2194 878 m 8 X s 2194 918 m 8 X s 2194 957 m 8 X s 2186 997 m 16 X s 2186 997 m 16 X s 2194 1036 m 8 X s 2194 1076 m 8 X s
 gsave  711 563 1534 599 C 2230.83 677.484 t 90 r /Helvetica-Bold findfont 20.0192 sf 0 0 m (U/O\255flow \(S,B\): \(0.0, 0.0\)% / \(0.0, 0.0\)%) show NC gr  0.490196 0.545098 0.615686 c 0.364706 0.419608 0.490196 c 497 37 1542 1122 bf 0.490196
 0.545098 0.615686 c 1542 1122 m 497 X s 2039 1122 m 37 Y s 2039 1159 m -497 X s 1542 1159 m -37 Y s 1 1 1 c black 1 1 1 c
 gsave  711 563 1534 599 C 1541.25 1133.86 t 0 r /Helvetica-Bold findfont 25.7389 sf 0 0 m (Input variable: log\(LcK_IPCHI2_OWNPV\)) show NC gr  0.490196 0.545098 0.615686 c 0.941176 0.941176 0.941176 c 710 563 23 12 bf black 1 1 0.992157 c 548 426
 143 93 bf black 548 426 143 93 bl 1 1 0.992157 c 548 426 143 93 bf black 548 426 143 93 bl 0 0 0.933333 c 6 lw 0.49 0.6 0.82 c black 3 lw 0.49 0.6 0.82 c 143 93 m 69 X 142 Y 14 X 55 Y 13 X 117 Y 14 X -47 Y 14 X 62 Y 13 X -22 Y 14 X 80 Y 14 X -131 Y
 13 X -52 Y 14 X 55 Y 14 X -73 Y 13 X -40 Y 14 X -55 Y 14 X -29 Y 13 X -18 Y 14 X -22 Y 27 X 11 Y 14 X -11 Y 14 X -18 Y 13 X -4 Y 206 X f 6 lw 0 0 0.933333 c 0.49 0.6 0.82 c 0 0 0.933333 c 143 93 m 69 X 142 Y 14 X 55 Y 13 X 117 Y 14 X -47 Y 14 X 62 Y
 13 X -22 Y 14 X 80 Y 14 X -131 Y 13 X -52 Y 14 X 55 Y 14 X -73 Y 13 X -40 Y 14 X -55 Y 14 X -29 Y 13 X -18 Y 14 X -22 Y 27 X 11 Y 14 X -11 Y 14 X -18 Y 13 X -4 Y 206 X s black 3 lw 143 93 m 548 X s
 gsave  710 563 23 12 C 347.565 25.64 t 0 r /Helvetica findfont 28.5988 sf 0 0 m (log\(LcPi_IPCHI2_OWNPV\)) show NC gr  225 106 m -13 Y s 253 99 m -6 Y s 281 99 m -6 Y s 309 99 m -6 Y s 338 106 m -13 Y s 366 99 m -6 Y s 394 99 m -6 Y s 422 99 m -6 Y
 s 450 106 m -13 Y s 478 99 m -6 Y s 506 99 m -6 Y s 534 99 m -6 Y s 562 106 m -13 Y s 590 99 m -6 Y s 618 99 m -6 Y s 646 99 m -6 Y s 674 106 m -13 Y s 225 106 m -13 Y s 197 99 m -6 Y s 169 99 m -6 Y s 674 106 m -13 Y s
 gsave  710 563 23 12 C 216.516 65.5245 t 0 r /Helvetica findfont 25.7389 sf 0 0 m (2) show NC gr 
 gsave  710 563 23 12 C 327.622 65.5245 t 0 r /Helvetica findfont 25.7389 sf 0 0 m (4) show NC gr 
 gsave  710 563 23 12 C 438.729 65.5245 t 0 r /Helvetica findfont 25.7389 sf 0 0 m (6) show NC gr 
 gsave  710 563 23 12 C 552.685 65.5245 t 0 r /Helvetica findfont 25.7389 sf 0 0 m (8) show NC gr 
 gsave  710 563 23 12 C 658.094 65.5245 t 0 r /Helvetica findfont 25.7389 sf 0 0 m (10) show NC gr  143 519 m 548 X s 225 506 m 13 Y s 253 512 m 7 Y s 281 512 m 7 Y s 309 512 m 7 Y s 338 506 m 13 Y s 366 512 m 7 Y s 394 512 m 7 Y s 422 512 m 7 Y s
 450 506 m 13 Y s 478 512 m 7 Y s 506 512 m 7 Y s 534 512 m 7 Y s 562 506 m 13 Y s 590 512 m 7 Y s 618 512 m 7 Y s 646 512 m 7 Y s 674 506 m 13 Y s 225 506 m 13 Y s 197 512 m 7 Y s 169 512 m 7 Y s 674 506 m 13 Y s 143 93 m 426 Y s
 gsave  710 563 23 12 C 45.5822 441.578 t 90 r /Helvetica findfont 28.5988 sf 0 0 m (0.244 ) show NC gr 
 gsave  710 563 23 12 C 31.3378 435.88 t 90 r /Helvetica findfont 20.0192 sf 0 0 m ( ) show NC gr 
 gsave  710 563 23 12 C 45.5822 424.485 t 90 r /Helvetica findfont 28.5988 sf 0 0 m (/) show NC gr 
 gsave  710 563 23 12 C 54.1289 418.787 t 90 r /Helvetica findfont 20.0192 sf 0 0 m ( ) show NC gr 
 gsave  710 563 23 12 C 45.5822 310.529 t 90 r /Helvetica findfont 28.5988 sf 0 0 m (\(1/N\) dN) show NC gr  160 93 m -17 X s 152 133 m -9 X s 152 173 m -9 X s 152 213 m -9 X s 160 254 m -17 X s 152 294 m -9 X s 152 334 m -9 X s 152 374 m -9 X s 160
 414 m -17 X s 160 414 m -17 X s 152 454 m -9 X s 152 495 m -9 X s
 gsave  710 563 23 12 C 119.653 82.6178 t 0 r /Helvetica findfont 25.7389 sf 0 0 m (0) show NC gr 
 gsave  710 563 23 12 C 96.8623 242.156 t 0 r /Helvetica findfont 25.7389 sf 0 0 m (0.2) show NC gr 
 gsave  710 563 23 12 C 96.8623 404.542 t 0 r /Helvetica findfont 25.7389 sf 0 0 m (0.4) show NC gr  691 93 m 426 Y s 674 93 m 17 X s 683 133 m 8 X s 683 173 m 8 X s 683 213 m 8 X s 674 254 m 17 X s 683 294 m 8 X s 683 334 m 8 X s 683 374 m 8 X s 674
 414 m 17 X s 674 414 m 17 X s 683 454 m 8 X s 683 495 m 8 X s 1 0 0 c 6 lw black 3 lw 1 0 0 c 676 93 m s 661 93 m s 646 93 m s 632 94 m -1 -1 d s 617 94 m -1 -1 d s 603 96 m -2 -3 d s 590 97 m -4 -4 d s 577 99 m -6 -6 d s 565 103 m -10 -10 d s 553
 106 m -13 -13 d s 540 108 m -15 -15 d s 528 111 m -18 -18 d s 524 122 m -29 -29 d s 513 126 m -33 -33 d s 499 127 m -34 -34 d s 489 132 m -39 -39 d s 485 144 m -50 -51 d s 472 145 m -52 -52 d s 466 154 m -61 -61 d s 458 162 m -68 -69 d s 451 170 m
 -76 -77 d s 444 178 m -84 -85 d s 434 183 m -90 -90 d s 431 195 m -102 -102 d s 418 197 m -104 -104 d s 417 211 m -118 -118 d s 405 215 m -121 -122 d s 403 228 m -134 -135 d s 393 233 m -139 -140 d s 390 245 m -151 -152 d s 390 260 m -166 -167 d s
 376 261 m -164 -165 d s 210 94 m -1 -1 d s 362 262 m -150 -151 d s 194 93 m s 362 278 m -150 -152 d s 179 93 m cl s 349 279 m -137 -138 d s 164 93 m s 337 283 m -125 -126 d s 149 93 m s 335 296 m -123 -124 d s 328 303 m -116 -116 d s 317 308 m -105
 -106 d s 300 306 m -33 -34 d s 262 268 m -50 -51 d s 293 314 m -26 -27 d s 253 274 m -14 -14 d s 238 258 m -26 -26 d s 274 310 m -7 -7 d s 244 280 m -5 -5 d s 226 261 m -14 -13 d s 214 265 m -2 -2 d s 6 lw 143 93 m 55 X 1 Y 14 X 171 Y 14 X -7 Y 13 X
 22 Y 14 X -12 Y 14 X 42 Y 13 X 4 Y 14 X -8 Y 14 X 2 Y 13 X -5 Y 14 X -20 Y 14 X -5 Y 13 X -17 Y 14 X -1 Y 14 X -27 Y 13 X -18 Y 14 X -18 Y 14 X -14 Y 13 X -13 Y 14 X -16 Y 14 X -9 Y 13 X -13 Y 14 X -5 Y 14 X -5 Y 13 X -11 Y 14 X -5 Y 14 X -3 Y 13 X
 -4 Y 14 X -2 Y 14 X -1 Y 14 X -2 Y 27 X -1 Y 55 X s black 3 lw 143 93 m 548 X s 225 106 m -13 Y s 253 99 m -6 Y s 281 99 m -6 Y s 309 99 m -6 Y s 338 106 m -13 Y s 366 99 m -6 Y s 394 99 m -6 Y s 422 99 m -6 Y s 450 106 m -13 Y s 478 99 m -6 Y s 506
 99 m -6 Y s 534 99 m -6 Y s 562 106 m -13 Y s 590 99 m -6 Y s 618 99 m -6 Y s 646 99 m -6 Y s 674 106 m -13 Y s 225 106 m -13 Y s 197 99 m -6 Y s 169 99 m -6 Y s 674 106 m -13 Y s 143 519 m 548 X s 225 506 m 13 Y s 253 512 m 7 Y s 281 512 m 7 Y s
 309 512 m 7 Y s 338 506 m 13 Y s 366 512 m 7 Y s 394 512 m 7 Y s 422 512 m 7 Y s 450 506 m 13 Y s 478 512 m 7 Y s 506 512 m 7 Y s 534 512 m 7 Y s 562 506 m 13 Y s 590 512 m 7 Y s 618 512 m 7 Y s 646 512 m 7 Y s 674 506 m 13 Y s 225 506 m 13 Y s 197
 512 m 7 Y s 169 512 m 7 Y s 674 506 m 13 Y s 143 93 m 426 Y s 160 93 m -17 X s 152 133 m -9 X s 152 173 m -9 X s 152 213 m -9 X s 160 254 m -17 X s 152 294 m -9 X s 152 334 m -9 X s 152 374 m -9 X s 160 414 m -17 X s 160 414 m -17 X s 152 454 m -9 X
 s 152 495 m -9 X s 691 93 m 426 Y s 674 93 m 17 X s 683 133 m 8 X s 683 173 m 8 X s 683 213 m 8 X s 674 254 m 17 X s 683 294 m 8 X s 683 334 m 8 X s 683 374 m 8 X s 674 414 m 17 X s 674 414 m 17 X s 683 454 m 8 X s 683 495 m 8 X s
 gsave  710 563 23 12 C 719.017 90.6129 t 90 r /Helvetica-Bold findfont 20.0192 sf 0 0 m (U/O\255flow \(S,B\): \(0.0, 0.0\)% / \(0.0, 0.0\)%) show NC gr  0.490196 0.545098 0.615686 c 0.364706 0.419608 0.490196 c 497 37 30 535 bf 0.490196 0.545098
 0.615686 c 30 535 m 497 X s 527 535 m 37 Y s 527 572 m -497 X s 30 572 m -37 Y s 1 1 1 c black 1 1 1 c
 gsave  710 563 23 12 C 25.64 546.987 t 0 r /Helvetica-Bold findfont 25.7389 sf 0 0 m (Input variable: log\(LcPi_IPCHI2_OWNPV\)) show NC gr  0.490196 0.545098 0.615686 c 0.941176 0.941176 0.941176 c 710 563 779 12 bf black 1 1 0.992157 c 548 426 899
 93 bf black 548 426 899 93 bl 1 1 0.992157 c 548 426 899 93 bf black 548 426 899 93 bl 0 0 0.933333 c 6 lw 0.49 0.6 0.82 c black 3 lw 0.49 0.6 0.82 c 899 93 m 106 Y 14 X 281 Y 14 X -164 Y 13 X -122 Y 14 X -41 Y 14 X -43 Y 13 X -10 Y 14 X 7 Y 14 X
 -12 Y 13 X -1 Y 14 X 4 Y 14 X -4 Y 14 X -1 Y 27 X 1 Y 14 X -1 Y 342 X f 6 lw 0 0 0.933333 c 0.49 0.6 0.82 c 0 0 0.933333 c 899 199 m 14 X 281 Y 14 X -164 Y 13 X -122 Y 14 X -41 Y 14 X -43 Y 13 X -10 Y 14 X 7 Y 14 X -12 Y 13 X -1 Y 14 X 4 Y 14 X -4 Y
 14 X -1 Y 27 X 1 Y 14 X -1 Y 342 X s black 3 lw 899 93 m 548 X s
 gsave  710 563 779 12 C 1256.36 22.7911 t 0 r /Helvetica findfont 28.5988 sf 0 0 m (Lc_FD_ORIVX) show NC gr  1157 106 m -13 Y s 1208 99 m -6 Y s 1260 99 m -6 Y s 1311 99 m -6 Y s 1363 99 m -6 Y s 1414 106 m -13 Y s 1157 106 m -13 Y s 1105 99 m -6 Y
 s 1054 99 m -6 Y s 1002 99 m -6 Y s 951 99 m -6 Y s 1414 106 m -13 Y s
 gsave  710 563 779 12 C 1142.4 65.5245 t 0 r /Helvetica findfont 25.7389 sf 0 0 m (50) show NC gr 
 gsave  710 563 779 12 C 1390.26 65.5245 t 0 r /Helvetica findfont 25.7389 sf 0 0 m (100) show NC gr  899 519 m 548 X s 1157 506 m 13 Y s 1208 512 m 7 Y s 1260 512 m 7 Y s 1311 512 m 7 Y s 1363 512 m 7 Y s 1414 506 m 13 Y s 1157 506 m 13 Y s 1105 512
 m 7 Y s 1054 512 m 7 Y s 1002 512 m 7 Y s 951 512 m 7 Y s 1414 506 m 13 Y s 899 93 m 426 Y s
 gsave  710 563 779 12 C 803.387 455.822 t 90 r /Helvetica findfont 28.5988 sf 0 0 m (2.66 ) show NC gr 
 gsave  710 563 779 12 C 789.143 450.125 t 90 r /Helvetica findfont 20.0192 sf 0 0 m ( ) show NC gr 
 gsave  710 563 779 12 C 803.387 438.729 t 90 r /Helvetica findfont 28.5988 sf 0 0 m (/) show NC gr 
 gsave  710 563 779 12 C 811.934 433.031 t 90 r /Helvetica findfont 20.0192 sf 0 0 m ( ) show NC gr 
 gsave  710 563 779 12 C 803.387 324.773 t 90 r /Helvetica findfont 28.5988 sf 0 0 m (\(1/N\) dN) show NC gr  915 93 m -16 X s 907 117 m -8 X s 907 142 m -8 X s 907 167 m -8 X s 907 191 m -8 X s 915 216 m -16 X s 907 241 m -8 X s 907 265 m -8 X s 907
 290 m -8 X s 907 314 m -8 X s 915 339 m -16 X s 907 364 m -8 X s 907 388 m -8 X s 907 413 m -8 X s 907 437 m -8 X s 915 462 m -16 X s 915 462 m -16 X s 907 487 m -8 X s 907 511 m -8 X s
 gsave  710 563 779 12 C 874.609 82.6178 t 0 r /Helvetica findfont 25.7389 sf 0 0 m (0) show NC gr 
 gsave  710 563 779 12 C 837.574 205.12 t 0 r /Helvetica findfont 25.7389 sf 0 0 m (0.05) show NC gr 
 gsave  710 563 779 12 C 857.516 327.622 t 0 r /Helvetica findfont 25.7389 sf 0 0 m (0.1) show NC gr 
 gsave  710 563 779 12 C 837.574 452.974 t 0 r /Helvetica findfont 25.7389 sf 0 0 m (0.15) show NC gr  1447 93 m 426 Y s 1430 93 m 17 X s 1438 117 m 9 X s 1438 142 m 9 X s 1438 167 m 9 X s 1438 191 m 9 X s 1430 216 m 17 X s 1438 241 m 9 X s 1438 265
 m 9 X s 1438 290 m 9 X s 1438 314 m 9 X s 1430 339 m 17 X s 1438 364 m 9 X s 1438 388 m 9 X s 1438 413 m 9 X s 1438 437 m 9 X s 1430 462 m 17 X s 1430 462 m 17 X s 1438 487 m 9 X s 1438 511 m 9 X s 1 0 0 c 6 lw black 3 lw 1 0 0 c 1432 93 m s 1417 93
 m s 1402 93 m s 1387 93 m s 1372 93 m s 1357 93 m s 1342 93 m s 1327 93 m s 1312 93 m s 1297 93 m s 1282 93 m s 1267 93 m s 1252 94 m -1 -1 d s 1237 94 m -1 -1 d s 1223 94 m -2 -1 d s 1207 94 m -1 -1 d s 1192 94 m -1 -1 d s 1177 94 m -1 -1 d s 1163
 95 m -2 -2 d s 1148 95 m -2 -2 d s 1134 96 m -3 -3 d s 1119 96 m -3 -3 d s 1105 98 m -4 -5 d s 1091 98 m -5 -5 d s 1077 100 m -6 -7 d s 1064 101 m -9 -8 d s 1051 103 m -11 -10 d s 1038 106 m -13 -13 d s 1027 109 m -17 -16 d s 1018 116 m -23 -23 d s
 1009 122 m -29 -29 d s 995 123 m -30 -30 d s 992 135 m -42 -42 d s 981 140 m -46 -47 d s 979 153 m -59 -60 d s 968 156 m -63 -63 d s 968 171 m -69 -68 d s 961 180 m -62 -62 d s 954 188 m -55 -55 d s 954 203 m -55 -55 d s 950 213 m -51 -50 d s 940
 219 m -41 -41 d s 940 234 m -41 -41 d s 940 249 m -41 -41 d s 933 257 m -20 -20 d s 903 227 m -4 -4 d s 927 266 m -14 -14 d s 919 274 m -6 -7 d s 6 lw 899 227 m 14 X 47 Y 14 X -17 Y 13 X -44 Y 14 X -33 Y 14 X -27 Y 13 X -18 Y 14 X -12 Y 14 X -7 Y 13
 X -7 Y 14 X -3 Y 14 X -3 Y 14 X -2 Y 13 X -2 Y 14 X -2 Y 14 X 1 Y 13 X -2 Y 28 X -1 Y 27 X -1 Y 82 X -1 Y 192 X s black 3 lw 899 93 m 548 X s 1157 106 m -13 Y s 1208 99 m -6 Y s 1260 99 m -6 Y s 1311 99 m -6 Y s 1363 99 m -6 Y s 1414 106 m -13 Y s
 1157 106 m -13 Y s 1105 99 m -6 Y s 1054 99 m -6 Y s 1002 99 m -6 Y s 951 99 m -6 Y s 1414 106 m -13 Y s 899 519 m 548 X s 1157 506 m 13 Y s 1208 512 m 7 Y s 1260 512 m 7 Y s 1311 512 m 7 Y s 1363 512 m 7 Y s 1414 506 m 13 Y s 1157 506 m 13 Y s 1105
 512 m 7 Y s 1054 512 m 7 Y s 1002 512 m 7 Y s 951 512 m 7 Y s 1414 506 m 13 Y s 899 93 m 426 Y s 915 93 m -16 X s 907 117 m -8 X s 907 142 m -8 X s 907 167 m -8 X s 907 191 m -8 X s 915 216 m -16 X s 907 241 m -8 X s 907 265 m -8 X s 907 290 m -8 X
 s 907 314 m -8 X s 915 339 m -16 X s 907 364 m -8 X s 907 388 m -8 X s 907 413 m -8 X s 907 437 m -8 X s 915 462 m -16 X s 915 462 m -16 X s 907 487 m -8 X s 907 511 m -8 X s 1447 93 m 426 Y s 1430 93 m 17 X s 1438 117 m 9 X s 1438 142 m 9 X s 1438
 167 m 9 X s 1438 191 m 9 X s 1430 216 m 17 X s 1438 241 m 9 X s 1438 265 m 9 X s 1438 290 m 9 X s 1438 314 m 9 X s 1430 339 m 17 X s 1438 364 m 9 X s 1438 388 m 9 X s 1438 413 m 9 X s 1438 437 m 9 X s 1430 462 m 17 X s 1430 462 m 17 X s 1438 487 m 9
 X s 1438 511 m 9 X s
 gsave  710 563 779 12 C 1474.92 90.6129 t 90 r /Helvetica-Bold findfont 20.0192 sf 0 0 m (U/O\255flow \(S,B\): \(0.0, 0.0\)% / \(0.0, 0.4\)%) show NC gr  0.490196 0.545098 0.615686 c 0.364706 0.419608 0.490196 c 410 37 786 535 bf 0.490196 0.545098
 0.615686 c 786 535 m 410 X s 1196 535 m 37 Y s 1196 572 m -410 X s 786 572 m -37 Y s 1 1 1 c black 1 1 1 c
 gsave  710 563 779 12 C 789.143 546.987 t 0 r /Helvetica-Bold findfont 28.5988 sf 0 0 m (Input variable: Lc_FD_ORIVX) show NC gr  0.490196 0.545098 0.615686 c 0.941176 0.941176 0.941176 c 711 563 1534 12 bf black 1 1 0.992157 c 547 426 1655 93 bf
 black 547 426 1655 93 bl 1 1 0.992157 c 547 426 1655 93 bf black 547 426 1655 93 bl 0 0 0.933333 c 6 lw 0.49 0.6 0.82 c black 3 lw 0.49 0.6 0.82 c 1655 93 m 151 X 3 Y 13 X -3 Y 82 X 7 Y 14 X 7 Y 14 X -3 Y 14 X 50 Y 13 X 7 Y 14 X 14 Y 14 X 4 Y 13 X
 86 Y 14 X 75 Y 14 X -21 Y 13 X 75 Y 14 X -47 Y 14 X 133 Y 13 X -50 Y 14 X -32 Y 14 X -54 Y 13 X -75 Y 14 X -87 Y 14 X -3 Y 13 X -40 Y 14 X -25 Y 14 X -21 Y 13 X f 6 lw 0 0 0.933333 c 0.49 0.6 0.82 c 0 0 0.933333 c 1655 93 m 151 X 3 Y 13 X -3 Y 82 X
 7 Y 14 X 7 Y 14 X -3 Y 14 X 50 Y 13 X 7 Y 14 X 14 Y 14 X 4 Y 13 X 86 Y 14 X 75 Y 14 X -21 Y 13 X 75 Y 14 X -47 Y 14 X 133 Y 13 X -50 Y 14 X -32 Y 14 X -54 Y 13 X -75 Y 14 X -87 Y 14 X -3 Y 13 X -40 Y 14 X -25 Y 14 X -21 Y 13 X s black 3 lw 1655 93 m
 547 X s
 gsave  711 563 1534 12 C 1911.61 25.64 t 0 r /Helvetica findfont 28.5988 sf 0 0 m (log\(LcP_ORIVX_CHI2\)) show NC gr  1762 106 m -13 Y s 1813 99 m -6 Y s 1864 99 m -6 Y s 1915 99 m -6 Y s 1965 99 m -6 Y s 2016 106 m -13 Y s 1762 106 m -13 Y s 1711
 99 m -6 Y s 1660 99 m -6 Y s 2016 106 m -13 Y s 2067 99 m -6 Y s 2118 99 m -6 Y s 2169 99 m -6 Y s
 gsave  711 563 1534 12 C 1749.22 65.5245 t 0 r /Helvetica findfont 25.7389 sf 0 0 m (\2555) show NC gr 
 gsave  711 563 1534 12 C 2005.62 65.5245 t 0 r /Helvetica findfont 25.7389 sf 0 0 m (0) show NC gr  1655 519 m 547 X s 1762 506 m 13 Y s 1813 512 m 7 Y s 1864 512 m 7 Y s 1915 512 m 7 Y s 1965 512 m 7 Y s 2016 506 m 13 Y s 1762 506 m 13 Y s 1711 512
 m 7 Y s 1660 512 m 7 Y s 2016 506 m 13 Y s 2067 512 m 7 Y s 2118 512 m 7 Y s 2169 512 m 7 Y s 1655 93 m 426 Y s
 gsave  711 563 1534 12 C 1558.34 441.578 t 90 r /Helvetica findfont 28.5988 sf 0 0 m (0.269 ) show NC gr 
 gsave  711 563 1534 12 C 1544.1 435.88 t 90 r /Helvetica findfont 20.0192 sf 0 0 m ( ) show NC gr 
 gsave  711 563 1534 12 C 1558.34 424.485 t 90 r /Helvetica findfont 28.5988 sf 0 0 m (/) show NC gr 
 gsave  711 563 1534 12 C 1566.89 418.787 t 90 r /Helvetica findfont 20.0192 sf 0 0 m ( ) show NC gr 
 gsave  711 563 1534 12 C 1558.34 310.529 t 90 r /Helvetica findfont 28.5988 sf 0 0 m (\(1/N\) dN) show NC gr  1671 93 m -16 X s 1663 110 m -8 X s 1663 128 m -8 X s 1663 145 m -8 X s 1663 162 m -8 X s 1671 180 m -16 X s 1663 197 m -8 X s 1663 215 m
 -8 X s 1663 232 m -8 X s 1663 250 m -8 X s 1671 267 m -16 X s 1663 284 m -8 X s 1663 302 m -8 X s 1663 319 m -8 X s 1663 337 m -8 X s 1671 354 m -16 X s 1663 371 m -8 X s 1663 389 m -8 X s 1663 406 m -8 X s 1663 424 m -8 X s 1671 441 m -16 X s 1671
 441 m -16 X s 1663 458 m -8 X s 1663 476 m -8 X s 1663 493 m -8 X s 1663 511 m -8 X s
 gsave  711 563 1534 12 C 1632.41 82.6178 t 0 r /Helvetica findfont 25.7389 sf 0 0 m (0) show NC gr 
 gsave  711 563 1534 12 C 1615.32 170.933 t 0 r /Helvetica findfont 25.7389 sf 0 0 m (0.1) show NC gr 
 gsave  711 563 1534 12 C 1609.62 256.4 t 0 r /Helvetica findfont 25.7389 sf 0 0 m (0.2) show NC gr 
 gsave  711 563 1534 12 C 1609.62 344.716 t 0 r /Helvetica findfont 25.7389 sf 0 0 m (0.3) show NC gr 
 gsave  711 563 1534 12 C 1609.62 430.182 t 0 r /Helvetica findfont 25.7389 sf 0 0 m (0.4) show NC gr  2202 93 m 426 Y s 2186 93 m 16 X s 2194 110 m 8 X s 2194 128 m 8 X s 2194 145 m 8 X s 2194 162 m 8 X s 2186 180 m 16 X s 2194 197 m 8 X s 2194 215
 m 8 X s 2194 232 m 8 X s 2194 250 m 8 X s 2186 267 m 16 X s 2194 284 m 8 X s 2194 302 m 8 X s 2194 319 m 8 X s 2194 337 m 8 X s 2186 354 m 16 X s 2194 371 m 8 X s 2194 389 m 8 X s 2194 406 m 8 X s 2194 424 m 8 X s 2186 441 m 16 X s 2186 441 m 16 X s
 2194 458 m 8 X s 2194 476 m 8 X s 2194 493 m 8 X s 2194 511 m 8 X s 1 0 0 c 6 lw black 3 lw 1 0 0 c 2193 98 m -5 -5 d s 2189 109 m -16 -16 d s 2189 124 m -31 -31 d s 2189 139 m -46 -46 d s 2189 154 m -61 -61 d s 2189 170 m -76 -77 d s 2189 185 m -92
 -92 d s 2189 200 m -107 -107 d s 2189 215 m -122 -122 d s 2189 230 m -137 -137 d s 2189 245 m -152 -152 d s 2189 261 m -167 -168 d s 2189 276 m -182 -183 d s 2189 291 m -197 -198 d s 2189 306 m -212 -213 d s 2184 316 m -222 -223 d s 2175 323 m -228
 -230 d s 2174 336 m -190 -191 d s 1982 143 m -12 -12 d s 1965 126 m -9 -8 d s 1956 117 m -24 -24 d s 2158 336 m -147 -148 d s 2005 182 m -8 -8 d s 1984 160 m s 1934 110 m -17 -17 d s 2147 340 m -122 -123 d s 2011 203 m s 1910 101 m -8 -8 d s 2134
 342 m -96 -96 d s 2027 234 m -2 -2 d s 1895 101 m -9 -8 d s 2126 349 m -74 -74 d s 2051 273 m -13 -12 d s 1876 98 m -2 -2 d s 1874 96 m -3 -3 d s 2120 359 m -68 -69 d s 1859 95 m -3 -2 d s 2112 365 m -5 -5 d s 2103 357 m -37 -38 d s 1843 95 m -2 -2
 d s 2085 353 m -6 -5 d s 2071 340 m -5 -6 d s 1828 94 m -2 -1 d s 1812 94 m -1 -1 d s 1797 94 m -1 -1 d s 1781 93 m s 1766 93 m s 1751 93 m s 1736 93 m cl s 1721 93 m cl s 1706 93 m s 1691 93 m -1 X s 1675 93 m s 1660 93 m s 6 lw 1655 93 m 137 X 1 Y
 41 X 1 Y 27 X 1 Y 14 X 2 Y 14 X 3 Y 27 X 5 Y 14 X 4 Y 14 X 7 Y 13 X 9 Y 14 X 17 Y 14 X 17 Y 13 X 22 Y 14 X 21 Y 14 X 31 Y 13 X 39 Y 14 X 32 Y 14 X 35 Y 13 X 13 Y 14 X 4 Y 14 X 8 Y 13 X -16 Y 14 X -9 Y 14 X -4 Y 27 X -20 Y 14 X -218 Y 13 X s black 3
 lw 1655 93 m 547 X s 1762 106 m -13 Y s 1813 99 m -6 Y s 1864 99 m -6 Y s 1915 99 m -6 Y s 1965 99 m -6 Y s 2016 106 m -13 Y s 1762 106 m -13 Y s 1711 99 m -6 Y s 1660 99 m -6 Y s 2016 106 m -13 Y s 2067 99 m -6 Y s 2118 99 m -6 Y s 2169 99 m -6 Y s
 1655 519 m 547 X s 1762 506 m 13 Y s 1813 512 m 7 Y s 1864 512 m 7 Y s 1915 512 m 7 Y s 1965 512 m 7 Y s 2016 506 m 13 Y s 1762 506 m 13 Y s 1711 512 m 7 Y s 1660 512 m 7 Y s 2016 506 m 13 Y s 2067 512 m 7 Y s 2118 512 m 7 Y s 2169 512 m 7 Y s 1655
 93 m 426 Y s 1671 93 m -16 X s 1663 110 m -8 X s 1663 128 m -8 X s 1663 145 m -8 X s 1663 162 m -8 X s 1671 180 m -16 X s 1663 197 m -8 X s 1663 215 m -8 X s 1663 232 m -8 X s 1663 250 m -8 X s 1671 267 m -16 X s 1663 284 m -8 X s 1663 302 m -8 X s
 1663 319 m -8 X s 1663 337 m -8 X s 1671 354 m -16 X s 1663 371 m -8 X s 1663 389 m -8 X s 1663 406 m -8 X s 1663 424 m -8 X s 1671 441 m -16 X s 1671 441 m -16 X s 1663 458 m -8 X s 1663 476 m -8 X s 1663 493 m -8 X s 1663 511 m -8 X s 2202 93 m
 426 Y s 2186 93 m 16 X s 2194 110 m 8 X s 2194 128 m 8 X s 2194 145 m 8 X s 2194 162 m 8 X s 2186 180 m 16 X s 2194 197 m 8 X s 2194 215 m 8 X s 2194 232 m 8 X s 2194 250 m 8 X s 2186 267 m 16 X s 2194 284 m 8 X s 2194 302 m 8 X s 2194 319 m 8 X s
 2194 337 m 8 X s 2186 354 m 16 X s 2194 371 m 8 X s 2194 389 m 8 X s 2194 406 m 8 X s 2194 424 m 8 X s 2186 441 m 16 X s 2186 441 m 16 X s 2194 458 m 8 X s 2194 476 m 8 X s 2194 493 m 8 X s 2194 511 m 8 X s
 gsave  711 563 1534 12 C 2230.83 90.6129 t 90 r /Helvetica-Bold findfont 20.0192 sf 0 0 m (U/O\255flow \(S,B\): \(0.0, 0.0\)% / \(0.0, 0.0\)%) show NC gr  0.490196 0.545098 0.615686 c 0.364706 0.419608 0.490196 c 497 37 1542 535 bf 0.490196 0.545098
 0.615686 c 1542 535 m 497 X s 2039 535 m 37 Y s 2039 572 m -497 X s 1542 572 m -37 Y s 1 1 1 c black 1 1 1 c
 gsave  711 563 1534 12 C 1538.4 546.987 t 0 r /Helvetica-Bold findfont 28.5988 sf 0 0 m (Input variable: log\(LcP_ORIVX_CHI2\)) show NC gr 
 gr  gr showpage
end
%%EOF
